^C:\USERS\MATTHEW MCCOMB\DOCUMENTS\GITHUB\POVRAY\SOURCE\FRONTEND\PRECOMP.CPP
/c /I..\..\INTERNAL\WINDOWS /I..\..\PLATFORM\X86 /I..\..\PLATFORM\WINDOWS /I..\..\WINDOWS\POVCONFIG /I..\..\LIBRARIES\BOOST /I..\..\VFE\WIN\ /I..\..\VFE\ /I..\..\SOURCE /I..\..\LIBRARIES\JPEG /I..\..\LIBRARIES\ZLIB /I..\..\LIBRARIES\PNG /I..\..\LIBRARIES\TIFF\LIBTIFF /Zi /nologo /W3 /WX- /diagnostics:classic /Od /Oi /Oy- /D BOOST_ALL_NO_LIB /D _DEBUG /D WIN32 /D WIN32_LEAN_AND_MEAN /D _WINDOWS /D WINVER=0x0500 /D _WIN32_WINNT=0x0500 /D COMMONCTRL_VERSION=0x500 /D CLASSLIB_DEFS_H /D NOMINMAX /D ISOLATION_AWARE_ENABLED /D _CRT_SECURE_NO_DEPRECATE /D _HAS_ITERATOR_DEBUGGING=0 /GF /Gm- /EHsc /MTd /GS- /arch:SSE2 /fp:precise /Zc:wchar_t /Zc:forScope /Zc:inline /GR /Yc"precomp.h" /Fp"BUILD\POVFRONTEND\WIN32\DEBUG\PRECOMP.PCH" /Fo"BUILD\POVFRONTEND\WIN32\DEBUG\\" /Fd"BUILD\POVFRONTEND\WIN32\DEBUG\POVFRONTEND.PDB" /FR"build\povfrontend\Win32\Debug\\" /Gd /TP /wd4800 /wd4355 /FIPRECOMP.H /analyze- /FC C:\USERS\MATTHEW MCCOMB\DOCUMENTS\GITHUB\POVRAY\SOURCE\FRONTEND\PRECOMP.CPP
^C:\USERS\MATTHEW MCCOMB\DOCUMENTS\GITHUB\POVRAY\SOURCE\FRONTEND\ANIMATIONPROCESSING.CPP
/c /I..\..\INTERNAL\WINDOWS /I..\..\PLATFORM\X86 /I..\..\PLATFORM\WINDOWS /I..\..\WINDOWS\POVCONFIG /I..\..\LIBRARIES\BOOST /I..\..\VFE\WIN\ /I..\..\VFE\ /I..\..\SOURCE /I..\..\LIBRARIES\JPEG /I..\..\LIBRARIES\ZLIB /I..\..\LIBRARIES\PNG /I..\..\LIBRARIES\TIFF\LIBTIFF /Zi /nologo /W3 /WX- /diagnostics:classic /Od /Oi /Oy- /D BOOST_ALL_NO_LIB /D _DEBUG /D WIN32 /D WIN32_LEAN_AND_MEAN /D _WINDOWS /D WINVER=0x0500 /D _WIN32_WINNT=0x0500 /D COMMONCTRL_VERSION=0x500 /D CLASSLIB_DEFS_H /D NOMINMAX /D ISOLATION_AWARE_ENABLED /D _CRT_SECURE_NO_DEPRECATE /D _HAS_ITERATOR_DEBUGGING=0 /GF /Gm- /EHsc /MTd /GS- /arch:SSE2 /fp:precise /Zc:wchar_t /Zc:forScope /Zc:inline /GR /Yu"precomp.h" /Fp"BUILD\POVFRONTEND\WIN32\DEBUG\PRECOMP.PCH" /Fo"BUILD\POVFRONTEND\WIN32\DEBUG\\" /Fd"BUILD\POVFRONTEND\WIN32\DEBUG\POVFRONTEND.PDB" /FR"build\povfrontend\Win32\Debug\\" /Gd /TP /wd4800 /wd4355 /FIPRECOMP.H /analyze- /FC C:\USERS\MATTHEW MCCOMB\DOCUMENTS\GITHUB\POVRAY\SOURCE\FRONTEND\ANIMATIONPROCESSING.CPP
^C:\USERS\MATTHEW MCCOMB\DOCUMENTS\GITHUB\POVRAY\SOURCE\FRONTEND\CONSOLE.CPP
/c /I..\..\INTERNAL\WINDOWS /I..\..\PLATFORM\X86 /I..\..\PLATFORM\WINDOWS /I..\..\WINDOWS\POVCONFIG /I..\..\LIBRARIES\BOOST /I..\..\VFE\WIN\ /I..\..\VFE\ /I..\..\SOURCE /I..\..\LIBRARIES\JPEG /I..\..\LIBRARIES\ZLIB /I..\..\LIBRARIES\PNG /I..\..\LIBRARIES\TIFF\LIBTIFF /Zi /nologo /W3 /WX- /diagnostics:classic /Od /Oi /Oy- /D BOOST_ALL_NO_LIB /D _DEBUG /D WIN32 /D WIN32_LEAN_AND_MEAN /D _WINDOWS /D WINVER=0x0500 /D _WIN32_WINNT=0x0500 /D COMMONCTRL_VERSION=0x500 /D CLASSLIB_DEFS_H /D NOMINMAX /D ISOLATION_AWARE_ENABLED /D _CRT_SECURE_NO_DEPRECATE /D _HAS_ITERATOR_DEBUGGING=0 /GF /Gm- /EHsc /MTd /GS- /arch:SSE2 /fp:precise /Zc:wchar_t /Zc:forScope /Zc:inline /GR /Yu"precomp.h" /Fp"BUILD\POVFRONTEND\WIN32\DEBUG\PRECOMP.PCH" /Fo"BUILD\POVFRONTEND\WIN32\DEBUG\\" /Fd"BUILD\POVFRONTEND\WIN32\DEBUG\POVFRONTEND.PDB" /FR"build\povfrontend\Win32\Debug\\" /Gd /TP /wd4800 /wd4355 /FIPRECOMP.H /analyze- /FC C:\USERS\MATTHEW MCCOMB\DOCUMENTS\GITHUB\POVRAY\SOURCE\FRONTEND\CONSOLE.CPP
^C:\USERS\MATTHEW MCCOMB\DOCUMENTS\GITHUB\POVRAY\SOURCE\FRONTEND\DISPLAY.CPP
/c /I..\..\INTERNAL\WINDOWS /I..\..\PLATFORM\X86 /I..\..\PLATFORM\WINDOWS /I..\..\WINDOWS\POVCONFIG /I..\..\LIBRARIES\BOOST /I..\..\VFE\WIN\ /I..\..\VFE\ /I..\..\SOURCE /I..\..\LIBRARIES\JPEG /I..\..\LIBRARIES\ZLIB /I..\..\LIBRARIES\PNG /I..\..\LIBRARIES\TIFF\LIBTIFF /Zi /nologo /W3 /WX- /diagnostics:classic /Od /Oi /Oy- /D BOOST_ALL_NO_LIB /D _DEBUG /D WIN32 /D WIN32_LEAN_AND_MEAN /D _WINDOWS /D WINVER=0x0500 /D _WIN32_WINNT=0x0500 /D COMMONCTRL_VERSION=0x500 /D CLASSLIB_DEFS_H /D NOMINMAX /D ISOLATION_AWARE_ENABLED /D _CRT_SECURE_NO_DEPRECATE /D _HAS_ITERATOR_DEBUGGING=0 /GF /Gm- /EHsc /MTd /GS- /arch:SSE2 /fp:precise /Zc:wchar_t /Zc:forScope /Zc:inline /GR /Yu"precomp.h" /Fp"BUILD\POVFRONTEND\WIN32\DEBUG\PRECOMP.PCH" /Fo"BUILD\POVFRONTEND\WIN32\DEBUG\\" /Fd"BUILD\POVFRONTEND\WIN32\DEBUG\POVFRONTEND.PDB" /FR"build\povfrontend\Win32\Debug\\" /Gd /TP /wd4800 /wd4355 /FIPRECOMP.H /analyze- /FC C:\USERS\MATTHEW MCCOMB\DOCUMENTS\GITHUB\POVRAY\SOURCE\FRONTEND\DISPLAY.CPP
^C:\USERS\MATTHEW MCCOMB\DOCUMENTS\GITHUB\POVRAY\SOURCE\FRONTEND\FILEMESSAGEHANDLER.CPP
/c /I..\..\INTERNAL\WINDOWS /I..\..\PLATFORM\X86 /I..\..\PLATFORM\WINDOWS /I..\..\WINDOWS\POVCONFIG /I..\..\LIBRARIES\BOOST /I..\..\VFE\WIN\ /I..\..\VFE\ /I..\..\SOURCE /I..\..\LIBRARIES\JPEG /I..\..\LIBRARIES\ZLIB /I..\..\LIBRARIES\PNG /I..\..\LIBRARIES\TIFF\LIBTIFF /Zi /nologo /W3 /WX- /diagnostics:classic /Od /Oi /Oy- /D BOOST_ALL_NO_LIB /D _DEBUG /D WIN32 /D WIN32_LEAN_AND_MEAN /D _WINDOWS /D WINVER=0x0500 /D _WIN32_WINNT=0x0500 /D COMMONCTRL_VERSION=0x500 /D CLASSLIB_DEFS_H /D NOMINMAX /D ISOLATION_AWARE_ENABLED /D _CRT_SECURE_NO_DEPRECATE /D _HAS_ITERATOR_DEBUGGING=0 /GF /Gm- /EHsc /MTd /GS- /arch:SSE2 /fp:precise /Zc:wchar_t /Zc:forScope /Zc:inline /GR /Yu"precomp.h" /Fp"BUILD\POVFRONTEND\WIN32\DEBUG\PRECOMP.PCH" /Fo"BUILD\POVFRONTEND\WIN32\DEBUG\\" /Fd"BUILD\POVFRONTEND\WIN32\DEBUG\POVFRONTEND.PDB" /FR"build\povfrontend\Win32\Debug\\" /Gd /TP /wd4800 /wd4355 /FIPRECOMP.H /analyze- /FC C:\USERS\MATTHEW MCCOMB\DOCUMENTS\GITHUB\POVRAY\SOURCE\FRONTEND\FILEMESSAGEHANDLER.CPP
^C:\USERS\MATTHEW MCCOMB\DOCUMENTS\GITHUB\POVRAY\SOURCE\FRONTEND\IMAGEMESSAGEHANDLER.CPP
/c /I..\..\INTERNAL\WINDOWS /I..\..\PLATFORM\X86 /I..\..\PLATFORM\WINDOWS /I..\..\WINDOWS\POVCONFIG /I..\..\LIBRARIES\BOOST /I..\..\VFE\WIN\ /I..\..\VFE\ /I..\..\SOURCE /I..\..\LIBRARIES\JPEG /I..\..\LIBRARIES\ZLIB /I..\..\LIBRARIES\PNG /I..\..\LIBRARIES\TIFF\LIBTIFF /Zi /nologo /W3 /WX- /diagnostics:classic /Od /Oi /Oy- /D BOOST_ALL_NO_LIB /D _DEBUG /D WIN32 /D WIN32_LEAN_AND_MEAN /D _WINDOWS /D WINVER=0x0500 /D _WIN32_WINNT=0x0500 /D COMMONCTRL_VERSION=0x500 /D CLASSLIB_DEFS_H /D NOMINMAX /D ISOLATION_AWARE_ENABLED /D _CRT_SECURE_NO_DEPRECATE /D _HAS_ITERATOR_DEBUGGING=0 /GF /Gm- /EHsc /MTd /GS- /arch:SSE2 /fp:precise /Zc:wchar_t /Zc:forScope /Zc:inline /GR /Yu"precomp.h" /Fp"BUILD\POVFRONTEND\WIN32\DEBUG\PRECOMP.PCH" /Fo"BUILD\POVFRONTEND\WIN32\DEBUG\\" /Fd"BUILD\POVFRONTEND\WIN32\DEBUG\POVFRONTEND.PDB" /FR"build\povfrontend\Win32\Debug\\" /Gd /TP /wd4800 /wd4355 /FIPRECOMP.H /analyze- /FC C:\USERS\MATTHEW MCCOMB\DOCUMENTS\GITHUB\POVRAY\SOURCE\FRONTEND\IMAGEMESSAGEHANDLER.CPP
^C:\USERS\MATTHEW MCCOMB\DOCUMENTS\GITHUB\POVRAY\SOURCE\FRONTEND\IMAGEPROCESSING.CPP
/c /I..\..\INTERNAL\WINDOWS /I..\..\PLATFORM\X86 /I..\..\PLATFORM\WINDOWS /I..\..\WINDOWS\POVCONFIG /I..\..\LIBRARIES\BOOST /I..\..\VFE\WIN\ /I..\..\VFE\ /I..\..\SOURCE /I..\..\LIBRARIES\JPEG /I..\..\LIBRARIES\ZLIB /I..\..\LIBRARIES\PNG /I..\..\LIBRARIES\TIFF\LIBTIFF /Zi /nologo /W3 /WX- /diagnostics:classic /Od /Oi /Oy- /D BOOST_ALL_NO_LIB /D _DEBUG /D WIN32 /D WIN32_LEAN_AND_MEAN /D _WINDOWS /D WINVER=0x0500 /D _WIN32_WINNT=0x0500 /D COMMONCTRL_VERSION=0x500 /D CLASSLIB_DEFS_H /D NOMINMAX /D ISOLATION_AWARE_ENABLED /D _CRT_SECURE_NO_DEPRECATE /D _HAS_ITERATOR_DEBUGGING=0 /GF /Gm- /EHsc /MTd /GS- /arch:SSE2 /fp:precise /Zc:wchar_t /Zc:forScope /Zc:inline /GR /Yu"precomp.h" /Fp"BUILD\POVFRONTEND\WIN32\DEBUG\PRECOMP.PCH" /Fo"BUILD\POVFRONTEND\WIN32\DEBUG\\" /Fd"BUILD\POVFRONTEND\WIN32\DEBUG\POVFRONTEND.PDB" /FR"build\povfrontend\Win32\Debug\\" /Gd /TP /wd4800 /wd4355 /FIPRECOMP.H /analyze- /FC C:\USERS\MATTHEW MCCOMB\DOCUMENTS\GITHUB\POVRAY\SOURCE\FRONTEND\IMAGEPROCESSING.CPP
^C:\USERS\MATTHEW MCCOMB\DOCUMENTS\GITHUB\POVRAY\SOURCE\FRONTEND\PARSERMESSAGEHANDLER.CPP
/c /I..\..\INTERNAL\WINDOWS /I..\..\PLATFORM\X86 /I..\..\PLATFORM\WINDOWS /I..\..\WINDOWS\POVCONFIG /I..\..\LIBRARIES\BOOST /I..\..\VFE\WIN\ /I..\..\VFE\ /I..\..\SOURCE /I..\..\LIBRARIES\JPEG /I..\..\LIBRARIES\ZLIB /I..\..\LIBRARIES\PNG /I..\..\LIBRARIES\TIFF\LIBTIFF /Zi /nologo /W3 /WX- /diagnostics:classic /Od /Oi /Oy- /D BOOST_ALL_NO_LIB /D _DEBUG /D WIN32 /D WIN32_LEAN_AND_MEAN /D _WINDOWS /D WINVER=0x0500 /D _WIN32_WINNT=0x0500 /D COMMONCTRL_VERSION=0x500 /D CLASSLIB_DEFS_H /D NOMINMAX /D ISOLATION_AWARE_ENABLED /D _CRT_SECURE_NO_DEPRECATE /D _HAS_ITERATOR_DEBUGGING=0 /GF /Gm- /EHsc /MTd /GS- /arch:SSE2 /fp:precise /Zc:wchar_t /Zc:forScope /Zc:inline /GR /Yu"precomp.h" /Fp"BUILD\POVFRONTEND\WIN32\DEBUG\PRECOMP.PCH" /Fo"BUILD\POVFRONTEND\WIN32\DEBUG\\" /Fd"BUILD\POVFRONTEND\WIN32\DEBUG\POVFRONTEND.PDB" /FR"build\povfrontend\Win32\Debug\\" /Gd /TP /wd4800 /wd4355 /FIPRECOMP.H /analyze- /FC C:\USERS\MATTHEW MCCOMB\DOCUMENTS\GITHUB\POVRAY\SOURCE\FRONTEND\PARSERMESSAGEHANDLER.CPP
^C:\USERS\MATTHEW MCCOMB\DOCUMENTS\GITHUB\POVRAY\SOURCE\FRONTEND\PROCESSOPTIONS.CPP
/c /I..\..\INTERNAL\WINDOWS /I..\..\PLATFORM\X86 /I..\..\PLATFORM\WINDOWS /I..\..\WINDOWS\POVCONFIG /I..\..\LIBRARIES\BOOST /I..\..\VFE\WIN\ /I..\..\VFE\ /I..\..\SOURCE /I..\..\LIBRARIES\JPEG /I..\..\LIBRARIES\ZLIB /I..\..\LIBRARIES\PNG /I..\..\LIBRARIES\TIFF\LIBTIFF /Zi /nologo /W3 /WX- /diagnostics:classic /Od /Oi /Oy- /D BOOST_ALL_NO_LIB /D _DEBUG /D WIN32 /D WIN32_LEAN_AND_MEAN /D _WINDOWS /D WINVER=0x0500 /D _WIN32_WINNT=0x0500 /D COMMONCTRL_VERSION=0x500 /D CLASSLIB_DEFS_H /D NOMINMAX /D ISOLATION_AWARE_ENABLED /D _CRT_SECURE_NO_DEPRECATE /D _HAS_ITERATOR_DEBUGGING=0 /GF /Gm- /EHsc /MTd /GS- /arch:SSE2 /fp:precise /Zc:wchar_t /Zc:forScope /Zc:inline /GR /Yu"precomp.h" /Fp"BUILD\POVFRONTEND\WIN32\DEBUG\PRECOMP.PCH" /Fo"BUILD\POVFRONTEND\WIN32\DEBUG\\" /Fd"BUILD\POVFRONTEND\WIN32\DEBUG\POVFRONTEND.PDB" /FR"build\povfrontend\Win32\Debug\\" /Gd /TP /wd4800 /wd4355 /FIPRECOMP.H /analyze- /FC C:\USERS\MATTHEW MCCOMB\DOCUMENTS\GITHUB\POVRAY\SOURCE\FRONTEND\PROCESSOPTIONS.CPP
^C:\USERS\MATTHEW MCCOMB\DOCUMENTS\GITHUB\POVRAY\SOURCE\FRONTEND\PROCESSRENDEROPTIONS.CPP
/c /I..\..\INTERNAL\WINDOWS /I..\..\PLATFORM\X86 /I..\..\PLATFORM\WINDOWS /I..\..\WINDOWS\POVCONFIG /I..\..\LIBRARIES\BOOST /I..\..\VFE\WIN\ /I..\..\VFE\ /I..\..\SOURCE /I..\..\LIBRARIES\JPEG /I..\..\LIBRARIES\ZLIB /I..\..\LIBRARIES\PNG /I..\..\LIBRARIES\TIFF\LIBTIFF /Zi /nologo /W3 /WX- /diagnostics:classic /Od /Oi /Oy- /D BOOST_ALL_NO_LIB /D _DEBUG /D WIN32 /D WIN32_LEAN_AND_MEAN /D _WINDOWS /D WINVER=0x0500 /D _WIN32_WINNT=0x0500 /D COMMONCTRL_VERSION=0x500 /D CLASSLIB_DEFS_H /D NOMINMAX /D ISOLATION_AWARE_ENABLED /D _CRT_SECURE_NO_DEPRECATE /D _HAS_ITERATOR_DEBUGGING=0 /GF /Gm- /EHsc /MTd /GS- /arch:SSE2 /fp:precise /Zc:wchar_t /Zc:forScope /Zc:inline /GR /Yu"precomp.h" /Fp"BUILD\POVFRONTEND\WIN32\DEBUG\PRECOMP.PCH" /Fo"BUILD\POVFRONTEND\WIN32\DEBUG\\" /Fd"BUILD\POVFRONTEND\WIN32\DEBUG\POVFRONTEND.PDB" /FR"build\povfrontend\Win32\Debug\\" /Gd /TP /wd4800 /wd4355 /FIPRECOMP.H /analyze- /FC C:\USERS\MATTHEW MCCOMB\DOCUMENTS\GITHUB\POVRAY\SOURCE\FRONTEND\PROCESSRENDEROPTIONS.CPP
^C:\USERS\MATTHEW MCCOMB\DOCUMENTS\GITHUB\POVRAY\SOURCE\FRONTEND\RENDERFRONTEND.CPP
/c /I..\..\INTERNAL\WINDOWS /I..\..\PLATFORM\X86 /I..\..\PLATFORM\WINDOWS /I..\..\WINDOWS\POVCONFIG /I..\..\LIBRARIES\BOOST /I..\..\VFE\WIN\ /I..\..\VFE\ /I..\..\SOURCE /I..\..\LIBRARIES\JPEG /I..\..\LIBRARIES\ZLIB /I..\..\LIBRARIES\PNG /I..\..\LIBRARIES\TIFF\LIBTIFF /Zi /nologo /W3 /WX- /diagnostics:classic /Od /Oi /Oy- /D BOOST_ALL_NO_LIB /D _DEBUG /D WIN32 /D WIN32_LEAN_AND_MEAN /D _WINDOWS /D WINVER=0x0500 /D _WIN32_WINNT=0x0500 /D COMMONCTRL_VERSION=0x500 /D CLASSLIB_DEFS_H /D NOMINMAX /D ISOLATION_AWARE_ENABLED /D _CRT_SECURE_NO_DEPRECATE /D _HAS_ITERATOR_DEBUGGING=0 /GF /Gm- /EHsc /MTd /GS- /arch:SSE2 /fp:precise /Zc:wchar_t /Zc:forScope /Zc:inline /GR /Yu"precomp.h" /Fp"BUILD\POVFRONTEND\WIN32\DEBUG\PRECOMP.PCH" /Fo"BUILD\POVFRONTEND\WIN32\DEBUG\\" /Fd"BUILD\POVFRONTEND\WIN32\DEBUG\POVFRONTEND.PDB" /FR"build\povfrontend\Win32\Debug\\" /Gd /TP /wd4800 /wd4355 /FIPRECOMP.H /analyze- /FC C:\USERS\MATTHEW MCCOMB\DOCUMENTS\GITHUB\POVRAY\SOURCE\FRONTEND\RENDERFRONTEND.CPP
^C:\USERS\MATTHEW MCCOMB\DOCUMENTS\GITHUB\POVRAY\SOURCE\FRONTEND\RENDERMESSAGEHANDLER.CPP
/c /I..\..\INTERNAL\WINDOWS /I..\..\PLATFORM\X86 /I..\..\PLATFORM\WINDOWS /I..\..\WINDOWS\POVCONFIG /I..\..\LIBRARIES\BOOST /I..\..\VFE\WIN\ /I..\..\VFE\ /I..\..\SOURCE /I..\..\LIBRARIES\JPEG /I..\..\LIBRARIES\ZLIB /I..\..\LIBRARIES\PNG /I..\..\LIBRARIES\TIFF\LIBTIFF /Zi /nologo /W3 /WX- /diagnostics:classic /Od /Oi /Oy- /D BOOST_ALL_NO_LIB /D _DEBUG /D WIN32 /D WIN32_LEAN_AND_MEAN /D _WINDOWS /D WINVER=0x0500 /D _WIN32_WINNT=0x0500 /D COMMONCTRL_VERSION=0x500 /D CLASSLIB_DEFS_H /D NOMINMAX /D ISOLATION_AWARE_ENABLED /D _CRT_SECURE_NO_DEPRECATE /D _HAS_ITERATOR_DEBUGGING=0 /GF /Gm- /EHsc /MTd /GS- /arch:SSE2 /fp:precise /Zc:wchar_t /Zc:forScope /Zc:inline /GR /Yu"precomp.h" /Fp"BUILD\POVFRONTEND\WIN32\DEBUG\PRECOMP.PCH" /Fo"BUILD\POVFRONTEND\WIN32\DEBUG\\" /Fd"BUILD\POVFRONTEND\WIN32\DEBUG\POVFRONTEND.PDB" /FR"build\povfrontend\Win32\Debug\\" /Gd /TP /wd4800 /wd4355 /FIPRECOMP.H /analyze- /FC C:\USERS\MATTHEW MCCOMB\DOCUMENTS\GITHUB\POVRAY\SOURCE\FRONTEND\RENDERMESSAGEHANDLER.CPP
^C:\USERS\MATTHEW MCCOMB\DOCUMENTS\GITHUB\POVRAY\SOURCE\FRONTEND\SHELLOUTPROCESSING.CPP
/c /I..\..\INTERNAL\WINDOWS /I..\..\PLATFORM\X86 /I..\..\PLATFORM\WINDOWS /I..\..\WINDOWS\POVCONFIG /I..\..\LIBRARIES\BOOST /I..\..\VFE\WIN\ /I..\..\VFE\ /I..\..\SOURCE /I..\..\LIBRARIES\JPEG /I..\..\LIBRARIES\ZLIB /I..\..\LIBRARIES\PNG /I..\..\LIBRARIES\TIFF\LIBTIFF /Zi /nologo /W3 /WX- /diagnostics:classic /Od /Oi /Oy- /D BOOST_ALL_NO_LIB /D _DEBUG /D WIN32 /D WIN32_LEAN_AND_MEAN /D _WINDOWS /D WINVER=0x0500 /D _WIN32_WINNT=0x0500 /D COMMONCTRL_VERSION=0x500 /D CLASSLIB_DEFS_H /D NOMINMAX /D ISOLATION_AWARE_ENABLED /D _CRT_SECURE_NO_DEPRECATE /D _HAS_ITERATOR_DEBUGGING=0 /GF /Gm- /EHsc /MTd /GS- /arch:SSE2 /fp:precise /Zc:wchar_t /Zc:forScope /Zc:inline /GR /Yu"precomp.h" /Fp"BUILD\POVFRONTEND\WIN32\DEBUG\PRECOMP.PCH" /Fo"BUILD\POVFRONTEND\WIN32\DEBUG\\" /Fd"BUILD\POVFRONTEND\WIN32\DEBUG\POVFRONTEND.PDB" /FR"build\povfrontend\Win32\Debug\\" /Gd /TP /wd4800 /wd4355 /FIPRECOMP.H /analyze- /FC C:\USERS\MATTHEW MCCOMB\DOCUMENTS\GITHUB\POVRAY\SOURCE\FRONTEND\SHELLOUTPROCESSING.CPP
^C:\USERS\MATTHEW MCCOMB\DOCUMENTS\GITHUB\POVRAY\SOURCE\POVMAIN.CPP
/c /I..\..\INTERNAL\WINDOWS /I..\..\PLATFORM\X86 /I..\..\PLATFORM\WINDOWS /I..\..\WINDOWS\POVCONFIG /I..\..\LIBRARIES\BOOST /I..\..\VFE\WIN\ /I..\..\VFE\ /I..\..\SOURCE /I..\..\LIBRARIES\JPEG /I..\..\LIBRARIES\ZLIB /I..\..\LIBRARIES\PNG /I..\..\LIBRARIES\TIFF\LIBTIFF /Zi /nologo /W3 /WX- /diagnostics:classic /Od /Oi /Oy- /D BOOST_ALL_NO_LIB /D _DEBUG /D WIN32 /D WIN32_LEAN_AND_MEAN /D _WINDOWS /D WINVER=0x0500 /D _WIN32_WINNT=0x0500 /D COMMONCTRL_VERSION=0x500 /D CLASSLIB_DEFS_H /D NOMINMAX /D ISOLATION_AWARE_ENABLED /D _CRT_SECURE_NO_DEPRECATE /D _HAS_ITERATOR_DEBUGGING=0 /GF /Gm- /EHsc /MTd /GS- /arch:SSE2 /fp:precise /Zc:wchar_t /Zc:forScope /Zc:inline /GR /Yu"precomp.h" /Fp"BUILD\POVFRONTEND\WIN32\DEBUG\PRECOMP.PCH" /Fo"BUILD\POVFRONTEND\WIN32\DEBUG\\" /Fd"BUILD\POVFRONTEND\WIN32\DEBUG\POVFRONTEND.PDB" /FR"build\povfrontend\Win32\Debug\\" /Gd /TP /wd4800 /wd4355 /FIPRECOMP.H /analyze- /FC C:\USERS\MATTHEW MCCOMB\DOCUMENTS\GITHUB\POVRAY\SOURCE\POVMAIN.CPP
