^C:\USERS\MATTHEW MCCOMB\DOCUMENTS\GITHUB\POVRAY\PLATFORM\WINDOWS\OSVERSIONINFO.CPP
C:\USERS\MATTHEW MCCOMB\DOCUMENTS\GITHUB\POVRAY\WINDOWS\VS2015\BUILD\POVPLATFORM\WIN32\RELEASE\POVPLATFORM.PDB
^C:\USERS\MATTHEW MCCOMB\DOCUMENTS\GITHUB\POVRAY\PLATFORM\WINDOWS\SYSPOVPATH.CPP
C:\USERS\MATTHEW MCCOMB\DOCUMENTS\GITHUB\POVRAY\WINDOWS\VS2015\BUILD\POVPLATFORM\WIN32\RELEASE\POVPLATFORM.PDB
^C:\USERS\MATTHEW MCCOMB\DOCUMENTS\GITHUB\POVRAY\PLATFORM\WINDOWS\SYSPOVTASK.CPP
C:\USERS\MATTHEW MCCOMB\DOCUMENTS\GITHUB\POVRAY\WINDOWS\VS2015\BUILD\POVPLATFORM\WIN32\RELEASE\POVPLATFORM.PDB
^C:\USERS\MATTHEW MCCOMB\DOCUMENTS\GITHUB\POVRAY\PLATFORM\WINDOWS\SYSPOVTIMER.CPP
C:\USERS\MATTHEW MCCOMB\DOCUMENTS\GITHUB\POVRAY\WINDOWS\VS2015\BUILD\POVPLATFORM\WIN32\RELEASE\POVPLATFORM.PDB
^C:\USERS\MATTHEW MCCOMB\DOCUMENTS\GITHUB\POVRAY\PLATFORM\X86\CPUID.CPP
C:\USERS\MATTHEW MCCOMB\DOCUMENTS\GITHUB\POVRAY\WINDOWS\VS2015\BUILD\POVPLATFORM\WIN32\RELEASE\POVPLATFORM.PDB
^C:\USERS\MATTHEW MCCOMB\DOCUMENTS\GITHUB\POVRAY\PLATFORM\X86\OPTIMIZEDNOISE.CPP
C:\USERS\MATTHEW MCCOMB\DOCUMENTS\GITHUB\POVRAY\WINDOWS\VS2015\BUILD\POVPLATFORM\WIN32\RELEASE\POVPLATFORM.PDB
^C:\USERS\MATTHEW MCCOMB\DOCUMENTS\GITHUB\POVRAY\PLATFORM\WINDOWS\OSVERSIONINFO.CPP|C:\USERS\MATTHEW MCCOMB\DOCUMENTS\GITHUB\POVRAY\PLATFORM\WINDOWS\SYSPOVPATH.CPP|C:\USERS\MATTHEW MCCOMB\DOCUMENTS\GITHUB\POVRAY\PLATFORM\WINDOWS\SYSPOVTASK.CPP|C:\USERS\MATTHEW MCCOMB\DOCUMENTS\GITHUB\POVRAY\PLATFORM\WINDOWS\SYSPOVTIMER.CPP|C:\USERS\MATTHEW MCCOMB\DOCUMENTS\GITHUB\POVRAY\PLATFORM\X86\CPUID.CPP|C:\USERS\MATTHEW MCCOMB\DOCUMENTS\GITHUB\POVRAY\PLATFORM\X86\OPTIMIZEDNOISE.CPP
C:\USERS\MATTHEW MCCOMB\DOCUMENTS\GITHUB\POVRAY\WINDOWS\VS2015\BUILD\POVPLATFORM\WIN32\RELEASE\POVPLATFORM.PDB
C:\USERS\MATTHEW MCCOMB\DOCUMENTS\GITHUB\POVRAY\WINDOWS\VS2015\BUILD\POVPLATFORM\WIN32\RELEASE\OSVERSIONINFO.SBR
C:\USERS\MATTHEW MCCOMB\DOCUMENTS\GITHUB\POVRAY\WINDOWS\VS2015\BUILD\POVPLATFORM\WIN32\RELEASE\SYSPOVPATH.SBR
C:\USERS\MATTHEW MCCOMB\DOCUMENTS\GITHUB\POVRAY\WINDOWS\VS2015\BUILD\POVPLATFORM\WIN32\RELEASE\SYSPOVTASK.SBR
C:\USERS\MATTHEW MCCOMB\DOCUMENTS\GITHUB\POVRAY\WINDOWS\VS2015\BUILD\POVPLATFORM\WIN32\RELEASE\SYSPOVTIMER.SBR
C:\USERS\MATTHEW MCCOMB\DOCUMENTS\GITHUB\POVRAY\WINDOWS\VS2015\BUILD\POVPLATFORM\WIN32\RELEASE\CPUID.SBR
C:\USERS\MATTHEW MCCOMB\DOCUMENTS\GITHUB\POVRAY\WINDOWS\VS2015\BUILD\POVPLATFORM\WIN32\RELEASE\OPTIMIZEDNOISE.SBR
C:\USERS\MATTHEW MCCOMB\DOCUMENTS\GITHUB\POVRAY\WINDOWS\VS2015\BUILD\POVPLATFORM\WIN32\RELEASE\OPTIMIZEDNOISE.OBJ
C:\USERS\MATTHEW MCCOMB\DOCUMENTS\GITHUB\POVRAY\WINDOWS\VS2015\BUILD\POVPLATFORM\WIN32\RELEASE\CPUID.OBJ
C:\USERS\MATTHEW MCCOMB\DOCUMENTS\GITHUB\POVRAY\WINDOWS\VS2015\BUILD\POVPLATFORM\WIN32\RELEASE\SYSPOVTIMER.OBJ
C:\USERS\MATTHEW MCCOMB\DOCUMENTS\GITHUB\POVRAY\WINDOWS\VS2015\BUILD\POVPLATFORM\WIN32\RELEASE\SYSPOVTASK.OBJ
C:\USERS\MATTHEW MCCOMB\DOCUMENTS\GITHUB\POVRAY\WINDOWS\VS2015\BUILD\POVPLATFORM\WIN32\RELEASE\SYSPOVPATH.OBJ
C:\USERS\MATTHEW MCCOMB\DOCUMENTS\GITHUB\POVRAY\WINDOWS\VS2015\BUILD\POVPLATFORM\WIN32\RELEASE\OSVERSIONINFO.OBJ
^C:\USERS\MATTHEW MCCOMB\DOCUMENTS\GITHUB\POVRAY\PLATFORM\X86\AVX2FMA3\AVX2FMA3NOISE.CPP
C:\USERS\MATTHEW MCCOMB\DOCUMENTS\GITHUB\POVRAY\WINDOWS\VS2015\BUILD\POVPLATFORM\WIN32\RELEASE\POVPLATFORM.PDB
C:\USERS\MATTHEW MCCOMB\DOCUMENTS\GITHUB\POVRAY\WINDOWS\VS2015\BUILD\POVPLATFORM\WIN32\RELEASE\AVX2FMA3NOISE.SBR
C:\USERS\MATTHEW MCCOMB\DOCUMENTS\GITHUB\POVRAY\WINDOWS\VS2015\BUILD\POVPLATFORM\WIN32\RELEASE\AVX2FMA3NOISE.OBJ
^C:\USERS\MATTHEW MCCOMB\DOCUMENTS\GITHUB\POVRAY\PLATFORM\X86\AVXFMA4\AVXFMA4NOISE.CPP|C:\USERS\MATTHEW MCCOMB\DOCUMENTS\GITHUB\POVRAY\PLATFORM\X86\AVX\AVXNOISE.CPP|C:\USERS\MATTHEW MCCOMB\DOCUMENTS\GITHUB\POVRAY\PLATFORM\X86\AVX\AVXPORTABLENOISE.CPP
C:\USERS\MATTHEW MCCOMB\DOCUMENTS\GITHUB\POVRAY\WINDOWS\VS2015\BUILD\POVPLATFORM\WIN32\RELEASE\POVPLATFORM.PDB
C:\USERS\MATTHEW MCCOMB\DOCUMENTS\GITHUB\POVRAY\WINDOWS\VS2015\BUILD\POVPLATFORM\WIN32\RELEASE\AVXNOISE.SBR
C:\USERS\MATTHEW MCCOMB\DOCUMENTS\GITHUB\POVRAY\WINDOWS\VS2015\BUILD\POVPLATFORM\WIN32\RELEASE\AVXPORTABLENOISE.SBR
C:\USERS\MATTHEW MCCOMB\DOCUMENTS\GITHUB\POVRAY\WINDOWS\VS2015\BUILD\POVPLATFORM\WIN32\RELEASE\AVXFMA4NOISE.SBR
C:\USERS\MATTHEW MCCOMB\DOCUMENTS\GITHUB\POVRAY\WINDOWS\VS2015\BUILD\POVPLATFORM\WIN32\RELEASE\AVXFMA4NOISE.OBJ
C:\USERS\MATTHEW MCCOMB\DOCUMENTS\GITHUB\POVRAY\WINDOWS\VS2015\BUILD\POVPLATFORM\WIN32\RELEASE\AVXPORTABLENOISE.OBJ
C:\USERS\MATTHEW MCCOMB\DOCUMENTS\GITHUB\POVRAY\WINDOWS\VS2015\BUILD\POVPLATFORM\WIN32\RELEASE\AVXNOISE.OBJ
^C:\USERS\MATTHEW MCCOMB\DOCUMENTS\GITHUB\POVRAY\PLATFORM\X86\AVX\AVXNOISE.CPP
C:\USERS\MATTHEW MCCOMB\DOCUMENTS\GITHUB\POVRAY\WINDOWS\VS2015\BUILD\POVPLATFORM\WIN32\RELEASE\POVPLATFORM.PDB
^C:\USERS\MATTHEW MCCOMB\DOCUMENTS\GITHUB\POVRAY\PLATFORM\X86\AVX\AVXPORTABLENOISE.CPP
C:\USERS\MATTHEW MCCOMB\DOCUMENTS\GITHUB\POVRAY\WINDOWS\VS2015\BUILD\POVPLATFORM\WIN32\RELEASE\POVPLATFORM.PDB
^C:\USERS\MATTHEW MCCOMB\DOCUMENTS\GITHUB\POVRAY\PLATFORM\X86\AVXFMA4\AVXFMA4NOISE.CPP
C:\USERS\MATTHEW MCCOMB\DOCUMENTS\GITHUB\POVRAY\WINDOWS\VS2015\BUILD\POVPLATFORM\WIN32\RELEASE\POVPLATFORM.PDB
^D:\POV-RAY\POV-RAY SOURCES\MIDDLE\POVRAY\PLATFORM\WINDOWS\OSVERSIONINFO.CPP|D:\POV-RAY\POV-RAY SOURCES\MIDDLE\POVRAY\PLATFORM\WINDOWS\SYSPOVPATH.CPP|D:\POV-RAY\POV-RAY SOURCES\MIDDLE\POVRAY\PLATFORM\WINDOWS\SYSPOVTASK.CPP|D:\POV-RAY\POV-RAY SOURCES\MIDDLE\POVRAY\PLATFORM\WINDOWS\SYSPOVTIMER.CPP|D:\POV-RAY\POV-RAY SOURCES\MIDDLE\POVRAY\PLATFORM\X86\CPUID.CPP|D:\POV-RAY\POV-RAY SOURCES\MIDDLE\POVRAY\PLATFORM\X86\OPTIMIZEDNOISE.CPP
D:\POV-RAY\POV-RAY SOURCES\MIDDLE\POVRAY\WINDOWS\VS2015\BUILD\POVPLATFORM\WIN32\RELEASE\POVPLATFORM.PDB
D:\POV-RAY\POV-RAY SOURCES\MIDDLE\POVRAY\WINDOWS\VS2015\BUILD\POVPLATFORM\WIN32\RELEASE\OSVERSIONINFO.SBR
D:\POV-RAY\POV-RAY SOURCES\MIDDLE\POVRAY\WINDOWS\VS2015\BUILD\POVPLATFORM\WIN32\RELEASE\SYSPOVPATH.SBR
D:\POV-RAY\POV-RAY SOURCES\MIDDLE\POVRAY\WINDOWS\VS2015\BUILD\POVPLATFORM\WIN32\RELEASE\SYSPOVTASK.SBR
D:\POV-RAY\POV-RAY SOURCES\MIDDLE\POVRAY\WINDOWS\VS2015\BUILD\POVPLATFORM\WIN32\RELEASE\SYSPOVTIMER.SBR
D:\POV-RAY\POV-RAY SOURCES\MIDDLE\POVRAY\WINDOWS\VS2015\BUILD\POVPLATFORM\WIN32\RELEASE\CPUID.SBR
D:\POV-RAY\POV-RAY SOURCES\MIDDLE\POVRAY\WINDOWS\VS2015\BUILD\POVPLATFORM\WIN32\RELEASE\OPTIMIZEDNOISE.SBR
D:\POV-RAY\POV-RAY SOURCES\MIDDLE\POVRAY\WINDOWS\VS2015\BUILD\POVPLATFORM\WIN32\RELEASE\OPTIMIZEDNOISE.OBJ
D:\POV-RAY\POV-RAY SOURCES\MIDDLE\POVRAY\WINDOWS\VS2015\BUILD\POVPLATFORM\WIN32\RELEASE\CPUID.OBJ
D:\POV-RAY\POV-RAY SOURCES\MIDDLE\POVRAY\WINDOWS\VS2015\BUILD\POVPLATFORM\WIN32\RELEASE\SYSPOVTIMER.OBJ
D:\POV-RAY\POV-RAY SOURCES\MIDDLE\POVRAY\WINDOWS\VS2015\BUILD\POVPLATFORM\WIN32\RELEASE\SYSPOVTASK.OBJ
D:\POV-RAY\POV-RAY SOURCES\MIDDLE\POVRAY\WINDOWS\VS2015\BUILD\POVPLATFORM\WIN32\RELEASE\SYSPOVPATH.OBJ
D:\POV-RAY\POV-RAY SOURCES\MIDDLE\POVRAY\WINDOWS\VS2015\BUILD\POVPLATFORM\WIN32\RELEASE\OSVERSIONINFO.OBJ
^D:\POV-RAY\POV-RAY SOURCES\MIDDLE\POVRAY\PLATFORM\WINDOWS\OSVERSIONINFO.CPP
D:\POV-RAY\POV-RAY SOURCES\MIDDLE\POVRAY\WINDOWS\VS2015\BUILD\POVPLATFORM\WIN32\RELEASE\POVPLATFORM.PDB
^D:\POV-RAY\POV-RAY SOURCES\MIDDLE\POVRAY\PLATFORM\WINDOWS\SYSPOVPATH.CPP
D:\POV-RAY\POV-RAY SOURCES\MIDDLE\POVRAY\WINDOWS\VS2015\BUILD\POVPLATFORM\WIN32\RELEASE\POVPLATFORM.PDB
^D:\POV-RAY\POV-RAY SOURCES\MIDDLE\POVRAY\PLATFORM\WINDOWS\SYSPOVTASK.CPP
D:\POV-RAY\POV-RAY SOURCES\MIDDLE\POVRAY\WINDOWS\VS2015\BUILD\POVPLATFORM\WIN32\RELEASE\POVPLATFORM.PDB
^D:\POV-RAY\POV-RAY SOURCES\MIDDLE\POVRAY\PLATFORM\WINDOWS\SYSPOVTIMER.CPP
D:\POV-RAY\POV-RAY SOURCES\MIDDLE\POVRAY\WINDOWS\VS2015\BUILD\POVPLATFORM\WIN32\RELEASE\POVPLATFORM.PDB
^D:\POV-RAY\POV-RAY SOURCES\MIDDLE\POVRAY\PLATFORM\X86\CPUID.CPP
D:\POV-RAY\POV-RAY SOURCES\MIDDLE\POVRAY\WINDOWS\VS2015\BUILD\POVPLATFORM\WIN32\RELEASE\POVPLATFORM.PDB
^D:\POV-RAY\POV-RAY SOURCES\MIDDLE\POVRAY\PLATFORM\X86\OPTIMIZEDNOISE.CPP
D:\POV-RAY\POV-RAY SOURCES\MIDDLE\POVRAY\WINDOWS\VS2015\BUILD\POVPLATFORM\WIN32\RELEASE\POVPLATFORM.PDB
^D:\POV-RAY\POV-RAY SOURCES\MIDDLE\POVRAY\PLATFORM\X86\AVX2FMA3\AVX2FMA3NOISE.CPP
D:\POV-RAY\POV-RAY SOURCES\MIDDLE\POVRAY\WINDOWS\VS2015\BUILD\POVPLATFORM\WIN32\RELEASE\POVPLATFORM.PDB
D:\POV-RAY\POV-RAY SOURCES\MIDDLE\POVRAY\WINDOWS\VS2015\BUILD\POVPLATFORM\WIN32\RELEASE\AVX2FMA3NOISE.SBR
D:\POV-RAY\POV-RAY SOURCES\MIDDLE\POVRAY\WINDOWS\VS2015\BUILD\POVPLATFORM\WIN32\RELEASE\AVX2FMA3NOISE.OBJ
^D:\POV-RAY\POV-RAY SOURCES\MIDDLE\POVRAY\PLATFORM\X86\AVXFMA4\AVXFMA4NOISE.CPP|D:\POV-RAY\POV-RAY SOURCES\MIDDLE\POVRAY\PLATFORM\X86\AVX\AVXNOISE.CPP|D:\POV-RAY\POV-RAY SOURCES\MIDDLE\POVRAY\PLATFORM\X86\AVX\AVXPORTABLENOISE.CPP
D:\POV-RAY\POV-RAY SOURCES\MIDDLE\POVRAY\WINDOWS\VS2015\BUILD\POVPLATFORM\WIN32\RELEASE\POVPLATFORM.PDB
D:\POV-RAY\POV-RAY SOURCES\MIDDLE\POVRAY\WINDOWS\VS2015\BUILD\POVPLATFORM\WIN32\RELEASE\AVXFMA4NOISE.SBR
D:\POV-RAY\POV-RAY SOURCES\MIDDLE\POVRAY\WINDOWS\VS2015\BUILD\POVPLATFORM\WIN32\RELEASE\AVXNOISE.SBR
D:\POV-RAY\POV-RAY SOURCES\MIDDLE\POVRAY\WINDOWS\VS2015\BUILD\POVPLATFORM\WIN32\RELEASE\AVXPORTABLENOISE.SBR
D:\POV-RAY\POV-RAY SOURCES\MIDDLE\POVRAY\WINDOWS\VS2015\BUILD\POVPLATFORM\WIN32\RELEASE\AVXPORTABLENOISE.OBJ
D:\POV-RAY\POV-RAY SOURCES\MIDDLE\POVRAY\WINDOWS\VS2015\BUILD\POVPLATFORM\WIN32\RELEASE\AVXNOISE.OBJ
D:\POV-RAY\POV-RAY SOURCES\MIDDLE\POVRAY\WINDOWS\VS2015\BUILD\POVPLATFORM\WIN32\RELEASE\AVXFMA4NOISE.OBJ
^D:\POV-RAY\POV-RAY SOURCES\MIDDLE\POVRAY\PLATFORM\X86\AVXFMA4\AVXFMA4NOISE.CPP
D:\POV-RAY\POV-RAY SOURCES\MIDDLE\POVRAY\WINDOWS\VS2015\BUILD\POVPLATFORM\WIN32\RELEASE\POVPLATFORM.PDB
^D:\POV-RAY\POV-RAY SOURCES\MIDDLE\POVRAY\PLATFORM\X86\AVX\AVXNOISE.CPP
D:\POV-RAY\POV-RAY SOURCES\MIDDLE\POVRAY\WINDOWS\VS2015\BUILD\POVPLATFORM\WIN32\RELEASE\POVPLATFORM.PDB
^D:\POV-RAY\POV-RAY SOURCES\MIDDLE\POVRAY\PLATFORM\X86\AVX\AVXPORTABLENOISE.CPP
D:\POV-RAY\POV-RAY SOURCES\MIDDLE\POVRAY\WINDOWS\VS2015\BUILD\POVPLATFORM\WIN32\RELEASE\POVPLATFORM.PDB
