^C:\USERS\MATTHEW MCCOMB\DOCUMENTS\GITHUB\POVRAY\WINDOWS\VS2015\BUILD\OPENEXR ILMBASE IEX\WIN32\RELEASE\IEXBASEEXC.SBR|C:\USERS\MATTHEW MCCOMB\DOCUMENTS\GITHUB\POVRAY\WINDOWS\VS2015\BUILD\OPENEXR ILMBASE IEX\WIN32\RELEASE\IEXTHROWERRNOEXC.SBR
C:\USERS\MATTHEW MCCOMB\DOCUMENTS\GITHUB\POVRAY\WINDOWS\VS2015\BIN32\LIB\IEX32.BSC
^D:\POV-RAY\POV-RAY SOURCES\NORMAL\POVRAY\WINDOWS\VS2015\BUILD\OPENEXR ILMBASE IEX\WIN32\RELEASE\IEXBASEEXC.SBR|D:\POV-RAY\POV-RAY SOURCES\NORMAL\POVRAY\WINDOWS\VS2015\BUILD\OPENEXR ILMBASE IEX\WIN32\RELEASE\IEXTHROWERRNOEXC.SBR
D:\POV-RAY\POV-RAY SOURCES\NORMAL\POVRAY\WINDOWS\VS2015\BIN32\LIB\IEX32.BSC
