^D:\POV-RAY\POV-RAY SOURCES\FLOAT\POVRAYFLOAT\WINDOWS\VS2015\BIN32\LIB\HALF32.LIB|D:\POV-RAY\POV-RAY SOURCES\FLOAT\POVRAYFLOAT\WINDOWS\VS2015\BIN32\LIB\IEX32.LIB|D:\POV-RAY\POV-RAY SOURCES\FLOAT\POVRAYFLOAT\WINDOWS\VS2015\BIN32\LIB\ILMIMF32.LIB|D:\POV-RAY\POV-RAY SOURCES\FLOAT\POVRAYFLOAT\WINDOWS\VS2015\BIN32\LIB\ILMTHREAD32.LIB|D:\POV-RAY\POV-RAY SOURCES\FLOAT\POVRAYFLOAT\WINDOWS\VS2015\BIN32\LIB\JPEG32.LIB|D:\POV-RAY\POV-RAY SOURCES\FLOAT\POVRAYFLOAT\WINDOWS\VS2015\BIN32\LIB\LIBBOOST_DATE_TIME32.LIB|D:\POV-RAY\POV-RAY SOURCES\FLOAT\POVRAYFLOAT\WINDOWS\VS2015\BIN32\LIB\LIBBOOST_SYSTEM32.LIB|D:\POV-RAY\POV-RAY SOURCES\FLOAT\POVRAYFLOAT\WINDOWS\VS2015\BIN32\LIB\LIBBOOST_THREAD32.LIB|D:\POV-RAY\POV-RAY SOURCES\FLOAT\POVRAYFLOAT\WINDOWS\VS2015\BIN32\LIB\LIBPNG32.LIB|D:\POV-RAY\POV-RAY SOURCES\FLOAT\POVRAYFLOAT\WINDOWS\VS2015\BIN32\LIB\POVBACKEND32.LIB|D:\POV-RAY\POV-RAY SOURCES\FLOAT\POVRAYFLOAT\WINDOWS\VS2015\BIN32\LIB\POVBASE32.LIB|D:\POV-RAY\POV-RAY SOURCES\FLOAT\POVRAYFLOAT\WINDOWS\VS2015\BIN32\LIB\POVCORE32.LIB|D:\POV-RAY\POV-RAY SOURCES\FLOAT\POVRAYFLOAT\WINDOWS\VS2015\BIN32\LIB\POVFRONTEND32.LIB|D:\POV-RAY\POV-RAY SOURCES\FLOAT\POVRAYFLOAT\WINDOWS\VS2015\BIN32\LIB\POVMS32.LIB|D:\POV-RAY\POV-RAY SOURCES\FLOAT\POVRAYFLOAT\WINDOWS\VS2015\BIN32\LIB\POVPARSER32.LIB|D:\POV-RAY\POV-RAY SOURCES\FLOAT\POVRAYFLOAT\WINDOWS\VS2015\BIN32\LIB\POVPLATFORM32.LIB|D:\POV-RAY\POV-RAY SOURCES\FLOAT\POVRAYFLOAT\WINDOWS\VS2015\BIN32\LIB\POVVM32.LIB|D:\POV-RAY\POV-RAY SOURCES\FLOAT\POVRAYFLOAT\WINDOWS\VS2015\BIN32\LIB\RTRSUPPORT32.LIB|D:\POV-RAY\POV-RAY SOURCES\FLOAT\POVRAYFLOAT\WINDOWS\VS2015\BIN32\LIB\TIFF32.LIB|D:\POV-RAY\POV-RAY SOURCES\FLOAT\POVRAYFLOAT\WINDOWS\VS2015\BIN32\LIB\VFE32.LIB|D:\POV-RAY\POV-RAY SOURCES\FLOAT\POVRAYFLOAT\WINDOWS\VS2015\BIN32\LIB\ZLIB32.LIB|D:\POV-RAY\POV-RAY SOURCES\FLOAT\POVRAYFLOAT\WINDOWS\VS2015\BUILD\GUI\WIN32\RELEASE\PVBITMAP.OBJ|D:\POV-RAY\POV-RAY SOURCES\FLOAT\POVRAYFLOAT\WINDOWS\VS2015\BUILD\GUI\WIN32\RELEASE\PVDIALOG.OBJ|D:\POV-RAY\POV-RAY SOURCES\FLOAT\POVRAYFLOAT\WINDOWS\VS2015\BUILD\GUI\WIN32\RELEASE\PVDISPLAY.OBJ|D:\POV-RAY\POV-RAY SOURCES\FLOAT\POVRAYFLOAT\WINDOWS\VS2015\BUILD\GUI\WIN32\RELEASE\PVEDIT.OBJ|D:\POV-RAY\POV-RAY SOURCES\FLOAT\POVRAYFLOAT\WINDOWS\VS2015\BUILD\GUI\WIN32\RELEASE\PVENGINE.OBJ|D:\POV-RAY\POV-RAY SOURCES\FLOAT\POVRAYFLOAT\WINDOWS\VS2015\BUILD\GUI\WIN32\RELEASE\PVENGINE.RES|D:\POV-RAY\POV-RAY SOURCES\FLOAT\POVRAYFLOAT\WINDOWS\VS2015\BUILD\GUI\WIN32\RELEASE\PVFILES.OBJ|D:\POV-RAY\POV-RAY SOURCES\FLOAT\POVRAYFLOAT\WINDOWS\VS2015\BUILD\GUI\WIN32\RELEASE\PVFRONTEND.OBJ|D:\POV-RAY\POV-RAY SOURCES\FLOAT\POVRAYFLOAT\WINDOWS\VS2015\BUILD\GUI\WIN32\RELEASE\PVGUIEXT.OBJ|D:\POV-RAY\POV-RAY SOURCES\FLOAT\POVRAYFLOAT\WINDOWS\VS2015\BUILD\GUI\WIN32\RELEASE\PVMEM.OBJ|D:\POV-RAY\POV-RAY SOURCES\FLOAT\POVRAYFLOAT\WINDOWS\VS2015\BUILD\GUI\WIN32\RELEASE\PVMENU.OBJ|D:\POV-RAY\POV-RAY SOURCES\FLOAT\POVRAYFLOAT\WINDOWS\VS2015\BUILD\GUI\WIN32\RELEASE\PVMISC.OBJ|D:\POV-RAY\POV-RAY SOURCES\FLOAT\POVRAYFLOAT\WINDOWS\VS2015\BUILD\GUI\WIN32\RELEASE\PVTEXT.OBJ|D:\POV-RAY\POV-RAY SOURCES\FLOAT\POVRAYFLOAT\WINDOWS\VS2015\BUILD\GUI\WIN32\RELEASE\PVUPDATE.OBJ|D:\POV-RAY\POV-RAY SOURCES\FLOAT\POVRAYFLOAT\WINDOWS\VS2015\BUILD\GUI\WIN32\RELEASE\WINPRECOMP.OBJ
D:\POV-RAY\POV-RAY SOURCES\FLOAT\POVRAYFLOAT\WINDOWS\VS2015\BIN32\PVENGINE32.EXE
D:\POV-RAY\POV-RAY SOURCES\FLOAT\POVRAYFLOAT\WINDOWS\VS2015\BIN32\PVENGINE32.PDB
