^C:\USERS\MATTHEW MCCOMB\DOCUMENTS\GITHUB\POVRAY\LIBRARIES\ILMBASE\HALF\HALF.CPP
/c /I..\..\LIBRARIES\ILMBASE\HALF /I..\..\LIBRARIES\ILMBASE\CONFIG.WINDOWS /Zi /nologo /W3 /WX- /Ox /Ob2 /Oi /Ot /Oy- /GL /D WIN32 /D WIN32_LEAN_AND_MEAN /D NDEBUG /D _WINDOWS /D HALF_EXPORTS /D _MBCS /Gm- /EHsc /MT /GS /fp:precise /Zc:wchar_t /Zc:forScope /Zc:inline /GR /Fo"BUILD\OPENEXR ILMBASE HALF\WIN32\RELEASE\\" /Fd"BUILD\OPENEXR ILMBASE HALF\WIN32\RELEASE\OPENEXR ILMBASE HALF.PDB" /FR"build\OpenEXR IlmBase Half\Win32\Release\\" /Gd /TP /analyze- C:\USERS\MATTHEW MCCOMB\DOCUMENTS\GITHUB\POVRAY\LIBRARIES\ILMBASE\HALF\HALF.CPP
^D:\POV-RAY\POV-RAY SOURCES\NORMAL MINUS\POVRAY\LIBRARIES\ILMBASE\HALF\HALF.CPP
/c /I..\..\LIBRARIES\ILMBASE\HALF /I..\..\LIBRARIES\ILMBASE\CONFIG.WINDOWS /Zi /nologo /W3 /WX- /Ox /Ob2 /Oi /Ot /Oy- /GL /D WIN32 /D WIN32_LEAN_AND_MEAN /D NDEBUG /D _WINDOWS /D HALF_EXPORTS /D _MBCS /Gm- /EHsc /MT /GS /fp:precise /Zc:wchar_t /Zc:forScope /Zc:inline /GR /Fo"BUILD\OPENEXR ILMBASE HALF\WIN32\RELEASE\\" /Fd"BUILD\OPENEXR ILMBASE HALF\WIN32\RELEASE\OPENEXR ILMBASE HALF.PDB" /FR"build\OpenEXR IlmBase Half\Win32\Release\\" /Gd /TP /analyze- D:\POV-RAY\POV-RAY SOURCES\NORMAL MINUS\POVRAY\LIBRARIES\ILMBASE\HALF\HALF.CPP
