^C:\USERS\MATTHEW MCCOMB\DOCUMENTS\GITHUB\POVRAY\WINDOWS\VS2015\BUILD\BOOST_DATE_TIME\WIN32\RELEASE\DATE_GENERATORS.SBR|C:\USERS\MATTHEW MCCOMB\DOCUMENTS\GITHUB\POVRAY\WINDOWS\VS2015\BUILD\BOOST_DATE_TIME\WIN32\RELEASE\GREG_MONTH.SBR|C:\USERS\MATTHEW MCCOMB\DOCUMENTS\GITHUB\POVRAY\WINDOWS\VS2015\BUILD\BOOST_DATE_TIME\WIN32\RELEASE\GREG_WEEKDAY.SBR
C:\WINDOWS\SYSTEM32\TZRES.DLL
C:\USERS\MATTHEW MCCOMB\DOCUMENTS\GITHUB\POVRAY\WINDOWS\VS2015\BUILD\BOOST_DATE_TIME\WIN32\RELEASE\DATE_GENERATORS.SBR
C:\USERS\MATTHEW MCCOMB\DOCUMENTS\GITHUB\POVRAY\WINDOWS\VS2015\BUILD\BOOST_DATE_TIME\WIN32\RELEASE\GREG_MONTH.SBR
C:\USERS\MATTHEW MCCOMB\DOCUMENTS\GITHUB\POVRAY\WINDOWS\VS2015\BUILD\BOOST_DATE_TIME\WIN32\RELEASE\GREG_WEEKDAY.SBR
^D:\POV-RAY\POV-RAY SOURCES\NORMAL PLUS\POVRAY\WINDOWS\VS2015\BUILD\BOOST_DATE_TIME\WIN32\RELEASE\DATE_GENERATORS.SBR|D:\POV-RAY\POV-RAY SOURCES\NORMAL PLUS\POVRAY\WINDOWS\VS2015\BUILD\BOOST_DATE_TIME\WIN32\RELEASE\GREG_MONTH.SBR|D:\POV-RAY\POV-RAY SOURCES\NORMAL PLUS\POVRAY\WINDOWS\VS2015\BUILD\BOOST_DATE_TIME\WIN32\RELEASE\GREG_WEEKDAY.SBR
C:\WINDOWS\SYSTEM32\TZRES.DLL
D:\POV-RAY\POV-RAY SOURCES\NORMAL PLUS\POVRAY\WINDOWS\VS2015\BIN32\LIB\LIBBOOST_DATE_TIME32.BSC
D:\POV-RAY\POV-RAY SOURCES\NORMAL PLUS\POVRAY\WINDOWS\VS2015\BUILD\BOOST_DATE_TIME\WIN32\RELEASE\DATE_GENERATORS.SBR
D:\POV-RAY\POV-RAY SOURCES\NORMAL PLUS\POVRAY\WINDOWS\VS2015\BUILD\BOOST_DATE_TIME\WIN32\RELEASE\GREG_MONTH.SBR
D:\POV-RAY\POV-RAY SOURCES\NORMAL PLUS\POVRAY\WINDOWS\VS2015\BUILD\BOOST_DATE_TIME\WIN32\RELEASE\GREG_WEEKDAY.SBR
