^C:\USERS\MATTHEW MCCOMB\DOCUMENTS\GITHUB\POVRAY\WINDOWS\VS2015\BUILD\BOOST_DATE_TIME\WIN32\RELEASE\DATE_GENERATORS.OBJ|C:\USERS\MATTHEW MCCOMB\DOCUMENTS\GITHUB\POVRAY\WINDOWS\VS2015\BUILD\BOOST_DATE_TIME\WIN32\RELEASE\GREG_MONTH.OBJ|C:\USERS\MATTHEW MCCOMB\DOCUMENTS\GITHUB\POVRAY\WINDOWS\VS2015\BUILD\BOOST_DATE_TIME\WIN32\RELEASE\GREG_WEEKDAY.OBJ
C:\PROGRAM FILES (X86)\MICROSOFT VISUAL STUDIO 14.0\VC\BIN\VCTIP.EXE
C:\WINDOWS\SYSTEM32\TZRES.DLL
C:\WINDOWS\GLOBALIZATION\SORTING\SORTDEFAULT.NLS
C:\USERS\MATTHEW MCCOMB\DOCUMENTS\GITHUB\POVRAY\WINDOWS\VS2015\BUILD\BOOST_DATE_TIME\WIN32\RELEASE\DATE_GENERATORS.OBJ
C:\USERS\MATTHEW MCCOMB\DOCUMENTS\GITHUB\POVRAY\WINDOWS\VS2015\BUILD\BOOST_DATE_TIME\WIN32\RELEASE\GREG_MONTH.OBJ
C:\USERS\MATTHEW MCCOMB\DOCUMENTS\GITHUB\POVRAY\WINDOWS\VS2015\BUILD\BOOST_DATE_TIME\WIN32\RELEASE\GREG_WEEKDAY.OBJ
^D:\POV-RAY\POV-RAY SOURCES\NORMAL PLUS\POVRAY\WINDOWS\VS2015\BUILD\BOOST_DATE_TIME\WIN32\RELEASE\DATE_GENERATORS.OBJ|D:\POV-RAY\POV-RAY SOURCES\NORMAL PLUS\POVRAY\WINDOWS\VS2015\BUILD\BOOST_DATE_TIME\WIN32\RELEASE\GREG_MONTH.OBJ|D:\POV-RAY\POV-RAY SOURCES\NORMAL PLUS\POVRAY\WINDOWS\VS2015\BUILD\BOOST_DATE_TIME\WIN32\RELEASE\GREG_WEEKDAY.OBJ
C:\PROGRAM FILES (X86)\MICROSOFT VISUAL STUDIO 14.0\VC\BIN\VCTIP.EXE
C:\WINDOWS\SYSTEM32\TZRES.DLL
C:\WINDOWS\GLOBALIZATION\SORTING\SORTDEFAULT.NLS
D:\POV-RAY\POV-RAY SOURCES\NORMAL PLUS\POVRAY\WINDOWS\VS2015\BUILD\BOOST_DATE_TIME\WIN32\RELEASE\DATE_GENERATORS.OBJ
D:\POV-RAY\POV-RAY SOURCES\NORMAL PLUS\POVRAY\WINDOWS\VS2015\BUILD\BOOST_DATE_TIME\WIN32\RELEASE\GREG_MONTH.OBJ
D:\POV-RAY\POV-RAY SOURCES\NORMAL PLUS\POVRAY\WINDOWS\VS2015\BUILD\BOOST_DATE_TIME\WIN32\RELEASE\GREG_WEEKDAY.OBJ
