^C:\USERS\MATTHEW MCCOMB\DOCUMENTS\GITHUB\POVRAY\WINDOWS\WINPRECOMP.CPP
/c /I..\..\INTERNAL\WINDOWS /I..\..\PLATFORM\X86 /I..\..\PLATFORM\WINDOWS /I..\..\WINDOWS\POVCONFIG /I..\..\LIBRARIES\BOOST /I..\RTRSUPPORT /I..\..\VFE\WIN /I..\..\VFE /I..\ /I..\..\SOURCE /I..\..\LIBRARIES\JPEG /I..\..\LIBRARIES\ZLIB /I..\..\LIBRARIES\PNG /I..\..\LIBRARIES\TIFF\LIBTIFF /Zi /nologo /W3 /WX- /Ox /Ob2 /Oi /Ot /Oy- /GL /D BOOST_ALL_NO_LIB /D NDEBUG /D WIN32 /D WIN32_LEAN_AND_MEAN /D _WINDOWS /D COMMONCTRL_VERSION=0x500 /D CLASSLIB_DEFS_H /D WINVER=0x0501 /D _WIN32_WINNT=0x0501 /D NOMINMAX /D ISOLATION_AWARE_ENABLED /D _CRT_SECURE_NO_DEPRECATE /D _SECURE_SCL=0 /GF /Gm- /EHsc /MT /GS- /Gy- /fp:precise /Zc:wchar_t /Zc:forScope /Zc:inline /GR /Yc"winprecomp.h" /Fp"BUILD\GUI\WIN32\RELEASE\WINPRECOMP.PCH" /Fo"BUILD\GUI\WIN32\RELEASE\\" /Fd"BUILD\GUI\WIN32\RELEASE\VC140.PDB" /FR"build\GUI\Win32\Release\\" /Gd /TP /wd4800 /FIWINPRECOMP.H /analyze- C:\USERS\MATTHEW MCCOMB\DOCUMENTS\GITHUB\POVRAY\WINDOWS\WINPRECOMP.CPP
^C:\USERS\MATTHEW MCCOMB\DOCUMENTS\GITHUB\POVRAY\WINDOWS\PVBITMAP.CPP
/c /I..\..\INTERNAL\WINDOWS /I..\..\PLATFORM\X86 /I..\..\PLATFORM\WINDOWS /I..\..\WINDOWS\POVCONFIG /I..\..\LIBRARIES\BOOST /I..\RTRSUPPORT /I..\..\VFE\WIN /I..\..\VFE /I..\ /I..\..\SOURCE /I..\..\LIBRARIES\JPEG /I..\..\LIBRARIES\ZLIB /I..\..\LIBRARIES\PNG /I..\..\LIBRARIES\TIFF\LIBTIFF /Zi /nologo /W3 /WX- /Ox /Ob2 /Oi /Ot /Oy- /GL /D BOOST_ALL_NO_LIB /D NDEBUG /D WIN32 /D WIN32_LEAN_AND_MEAN /D _WINDOWS /D COMMONCTRL_VERSION=0x500 /D CLASSLIB_DEFS_H /D WINVER=0x0501 /D _WIN32_WINNT=0x0501 /D NOMINMAX /D ISOLATION_AWARE_ENABLED /D _CRT_SECURE_NO_DEPRECATE /D _SECURE_SCL=0 /GF /Gm- /EHsc /MT /GS- /Gy- /fp:precise /Zc:wchar_t /Zc:forScope /Zc:inline /GR /Yu"winprecomp.h" /Fp"BUILD\GUI\WIN32\RELEASE\WINPRECOMP.PCH" /Fo"BUILD\GUI\WIN32\RELEASE\\" /Fd"BUILD\GUI\WIN32\RELEASE\VC140.PDB" /FR"build\GUI\Win32\Release\\" /Gd /TP /wd4800 /FIWINPRECOMP.H /analyze- C:\USERS\MATTHEW MCCOMB\DOCUMENTS\GITHUB\POVRAY\WINDOWS\PVBITMAP.CPP
^C:\USERS\MATTHEW MCCOMB\DOCUMENTS\GITHUB\POVRAY\WINDOWS\PVDIALOG.CPP
/c /I..\..\INTERNAL\WINDOWS /I..\..\PLATFORM\X86 /I..\..\PLATFORM\WINDOWS /I..\..\WINDOWS\POVCONFIG /I..\..\LIBRARIES\BOOST /I..\RTRSUPPORT /I..\..\VFE\WIN /I..\..\VFE /I..\ /I..\..\SOURCE /I..\..\LIBRARIES\JPEG /I..\..\LIBRARIES\ZLIB /I..\..\LIBRARIES\PNG /I..\..\LIBRARIES\TIFF\LIBTIFF /Zi /nologo /W3 /WX- /Ox /Ob2 /Oi /Ot /Oy- /GL /D BOOST_ALL_NO_LIB /D NDEBUG /D WIN32 /D WIN32_LEAN_AND_MEAN /D _WINDOWS /D COMMONCTRL_VERSION=0x500 /D CLASSLIB_DEFS_H /D WINVER=0x0501 /D _WIN32_WINNT=0x0501 /D NOMINMAX /D ISOLATION_AWARE_ENABLED /D _CRT_SECURE_NO_DEPRECATE /D _SECURE_SCL=0 /GF /Gm- /EHsc /MT /GS- /Gy- /fp:precise /Zc:wchar_t /Zc:forScope /Zc:inline /GR /Yu"winprecomp.h" /Fp"BUILD\GUI\WIN32\RELEASE\WINPRECOMP.PCH" /Fo"BUILD\GUI\WIN32\RELEASE\\" /Fd"BUILD\GUI\WIN32\RELEASE\VC140.PDB" /FR"build\GUI\Win32\Release\\" /Gd /TP /wd4800 /FIWINPRECOMP.H /analyze- C:\USERS\MATTHEW MCCOMB\DOCUMENTS\GITHUB\POVRAY\WINDOWS\PVDIALOG.CPP
^C:\USERS\MATTHEW MCCOMB\DOCUMENTS\GITHUB\POVRAY\WINDOWS\PVDISPLAY.CPP
/c /I..\..\INTERNAL\WINDOWS /I..\..\PLATFORM\X86 /I..\..\PLATFORM\WINDOWS /I..\..\WINDOWS\POVCONFIG /I..\..\LIBRARIES\BOOST /I..\RTRSUPPORT /I..\..\VFE\WIN /I..\..\VFE /I..\ /I..\..\SOURCE /I..\..\LIBRARIES\JPEG /I..\..\LIBRARIES\ZLIB /I..\..\LIBRARIES\PNG /I..\..\LIBRARIES\TIFF\LIBTIFF /Zi /nologo /W3 /WX- /Ox /Ob2 /Oi /Ot /Oy- /GL /D BOOST_ALL_NO_LIB /D NDEBUG /D WIN32 /D WIN32_LEAN_AND_MEAN /D _WINDOWS /D COMMONCTRL_VERSION=0x500 /D CLASSLIB_DEFS_H /D WINVER=0x0501 /D _WIN32_WINNT=0x0501 /D NOMINMAX /D ISOLATION_AWARE_ENABLED /D _CRT_SECURE_NO_DEPRECATE /D _SECURE_SCL=0 /GF /Gm- /EHsc /MT /GS- /Gy- /fp:precise /Zc:wchar_t /Zc:forScope /Zc:inline /GR /Yu"winprecomp.h" /Fp"BUILD\GUI\WIN32\RELEASE\WINPRECOMP.PCH" /Fo"BUILD\GUI\WIN32\RELEASE\\" /Fd"BUILD\GUI\WIN32\RELEASE\VC140.PDB" /FR"build\GUI\Win32\Release\\" /Gd /TP /wd4800 /FIWINPRECOMP.H /analyze- C:\USERS\MATTHEW MCCOMB\DOCUMENTS\GITHUB\POVRAY\WINDOWS\PVDISPLAY.CPP
^C:\USERS\MATTHEW MCCOMB\DOCUMENTS\GITHUB\POVRAY\WINDOWS\PVEDIT.CPP
/c /I..\..\INTERNAL\WINDOWS /I..\..\PLATFORM\X86 /I..\..\PLATFORM\WINDOWS /I..\..\WINDOWS\POVCONFIG /I..\..\LIBRARIES\BOOST /I..\RTRSUPPORT /I..\..\VFE\WIN /I..\..\VFE /I..\ /I..\..\SOURCE /I..\..\LIBRARIES\JPEG /I..\..\LIBRARIES\ZLIB /I..\..\LIBRARIES\PNG /I..\..\LIBRARIES\TIFF\LIBTIFF /Zi /nologo /W3 /WX- /Ox /Ob2 /Oi /Ot /Oy- /GL /D BOOST_ALL_NO_LIB /D NDEBUG /D WIN32 /D WIN32_LEAN_AND_MEAN /D _WINDOWS /D COMMONCTRL_VERSION=0x500 /D CLASSLIB_DEFS_H /D WINVER=0x0501 /D _WIN32_WINNT=0x0501 /D NOMINMAX /D ISOLATION_AWARE_ENABLED /D _CRT_SECURE_NO_DEPRECATE /D _SECURE_SCL=0 /GF /Gm- /EHsc /MT /GS- /Gy- /fp:precise /Zc:wchar_t /Zc:forScope /Zc:inline /GR /Yu"winprecomp.h" /Fp"BUILD\GUI\WIN32\RELEASE\WINPRECOMP.PCH" /Fo"BUILD\GUI\WIN32\RELEASE\\" /Fd"BUILD\GUI\WIN32\RELEASE\VC140.PDB" /FR"build\GUI\Win32\Release\\" /Gd /TP /wd4800 /FIWINPRECOMP.H /analyze- C:\USERS\MATTHEW MCCOMB\DOCUMENTS\GITHUB\POVRAY\WINDOWS\PVEDIT.CPP
^C:\USERS\MATTHEW MCCOMB\DOCUMENTS\GITHUB\POVRAY\WINDOWS\PVENGINE.CPP
/c /I..\..\INTERNAL\WINDOWS /I..\..\PLATFORM\X86 /I..\..\PLATFORM\WINDOWS /I..\..\WINDOWS\POVCONFIG /I..\..\LIBRARIES\BOOST /I..\RTRSUPPORT /I..\..\VFE\WIN /I..\..\VFE /I..\ /I..\..\SOURCE /I..\..\LIBRARIES\JPEG /I..\..\LIBRARIES\ZLIB /I..\..\LIBRARIES\PNG /I..\..\LIBRARIES\TIFF\LIBTIFF /Zi /nologo /W3 /WX- /Ox /Ob2 /Oi /Ot /Oy- /GL /D BOOST_ALL_NO_LIB /D NDEBUG /D WIN32 /D WIN32_LEAN_AND_MEAN /D _WINDOWS /D COMMONCTRL_VERSION=0x500 /D CLASSLIB_DEFS_H /D WINVER=0x0501 /D _WIN32_WINNT=0x0501 /D NOMINMAX /D ISOLATION_AWARE_ENABLED /D _CRT_SECURE_NO_DEPRECATE /D _SECURE_SCL=0 /GF /Gm- /EHsc /MT /GS- /Gy- /fp:precise /Zc:wchar_t /Zc:forScope /Zc:inline /GR /Yu"winprecomp.h" /Fp"BUILD\GUI\WIN32\RELEASE\WINPRECOMP.PCH" /Fo"BUILD\GUI\WIN32\RELEASE\\" /Fd"BUILD\GUI\WIN32\RELEASE\VC140.PDB" /FR"build\GUI\Win32\Release\\" /Gd /TP /wd4800 /FIWINPRECOMP.H /analyze- C:\USERS\MATTHEW MCCOMB\DOCUMENTS\GITHUB\POVRAY\WINDOWS\PVENGINE.CPP
^C:\USERS\MATTHEW MCCOMB\DOCUMENTS\GITHUB\POVRAY\WINDOWS\PVFILES.CPP
/c /I..\..\INTERNAL\WINDOWS /I..\..\PLATFORM\X86 /I..\..\PLATFORM\WINDOWS /I..\..\WINDOWS\POVCONFIG /I..\..\LIBRARIES\BOOST /I..\RTRSUPPORT /I..\..\VFE\WIN /I..\..\VFE /I..\ /I..\..\SOURCE /I..\..\LIBRARIES\JPEG /I..\..\LIBRARIES\ZLIB /I..\..\LIBRARIES\PNG /I..\..\LIBRARIES\TIFF\LIBTIFF /Zi /nologo /W3 /WX- /Ox /Ob2 /Oi /Ot /Oy- /GL /D BOOST_ALL_NO_LIB /D NDEBUG /D WIN32 /D WIN32_LEAN_AND_MEAN /D _WINDOWS /D COMMONCTRL_VERSION=0x500 /D CLASSLIB_DEFS_H /D WINVER=0x0501 /D _WIN32_WINNT=0x0501 /D NOMINMAX /D ISOLATION_AWARE_ENABLED /D _CRT_SECURE_NO_DEPRECATE /D _SECURE_SCL=0 /GF /Gm- /EHsc /MT /GS- /Gy- /fp:precise /Zc:wchar_t /Zc:forScope /Zc:inline /GR /Yu"winprecomp.h" /Fp"BUILD\GUI\WIN32\RELEASE\WINPRECOMP.PCH" /Fo"BUILD\GUI\WIN32\RELEASE\\" /Fd"BUILD\GUI\WIN32\RELEASE\VC140.PDB" /FR"build\GUI\Win32\Release\\" /Gd /TP /wd4800 /FIWINPRECOMP.H /analyze- C:\USERS\MATTHEW MCCOMB\DOCUMENTS\GITHUB\POVRAY\WINDOWS\PVFILES.CPP
^C:\USERS\MATTHEW MCCOMB\DOCUMENTS\GITHUB\POVRAY\WINDOWS\PVFRONTEND.CPP
/c /I..\..\INTERNAL\WINDOWS /I..\..\PLATFORM\X86 /I..\..\PLATFORM\WINDOWS /I..\..\WINDOWS\POVCONFIG /I..\..\LIBRARIES\BOOST /I..\RTRSUPPORT /I..\..\VFE\WIN /I..\..\VFE /I..\ /I..\..\SOURCE /I..\..\LIBRARIES\JPEG /I..\..\LIBRARIES\ZLIB /I..\..\LIBRARIES\PNG /I..\..\LIBRARIES\TIFF\LIBTIFF /Zi /nologo /W3 /WX- /Ox /Ob2 /Oi /Ot /Oy- /GL /D BOOST_ALL_NO_LIB /D NDEBUG /D WIN32 /D WIN32_LEAN_AND_MEAN /D _WINDOWS /D COMMONCTRL_VERSION=0x500 /D CLASSLIB_DEFS_H /D WINVER=0x0501 /D _WIN32_WINNT=0x0501 /D NOMINMAX /D ISOLATION_AWARE_ENABLED /D _CRT_SECURE_NO_DEPRECATE /D _SECURE_SCL=0 /GF /Gm- /EHsc /MT /GS- /Gy- /fp:precise /Zc:wchar_t /Zc:forScope /Zc:inline /GR /Yu"winprecomp.h" /Fp"BUILD\GUI\WIN32\RELEASE\WINPRECOMP.PCH" /Fo"BUILD\GUI\WIN32\RELEASE\\" /Fd"BUILD\GUI\WIN32\RELEASE\VC140.PDB" /FR"build\GUI\Win32\Release\\" /Gd /TP /wd4800 /FIWINPRECOMP.H /analyze- C:\USERS\MATTHEW MCCOMB\DOCUMENTS\GITHUB\POVRAY\WINDOWS\PVFRONTEND.CPP
^C:\USERS\MATTHEW MCCOMB\DOCUMENTS\GITHUB\POVRAY\WINDOWS\PVGUIEXT.CPP
/c /I..\..\INTERNAL\WINDOWS /I..\..\PLATFORM\X86 /I..\..\PLATFORM\WINDOWS /I..\..\WINDOWS\POVCONFIG /I..\..\LIBRARIES\BOOST /I..\RTRSUPPORT /I..\..\VFE\WIN /I..\..\VFE /I..\ /I..\..\SOURCE /I..\..\LIBRARIES\JPEG /I..\..\LIBRARIES\ZLIB /I..\..\LIBRARIES\PNG /I..\..\LIBRARIES\TIFF\LIBTIFF /Zi /nologo /W3 /WX- /Ox /Ob2 /Oi /Ot /Oy- /GL /D BOOST_ALL_NO_LIB /D NDEBUG /D WIN32 /D WIN32_LEAN_AND_MEAN /D _WINDOWS /D COMMONCTRL_VERSION=0x500 /D CLASSLIB_DEFS_H /D WINVER=0x0501 /D _WIN32_WINNT=0x0501 /D NOMINMAX /D ISOLATION_AWARE_ENABLED /D _CRT_SECURE_NO_DEPRECATE /D _SECURE_SCL=0 /GF /Gm- /EHsc /MT /GS- /Gy- /fp:precise /Zc:wchar_t /Zc:forScope /Zc:inline /GR /Yu"winprecomp.h" /Fp"BUILD\GUI\WIN32\RELEASE\WINPRECOMP.PCH" /Fo"BUILD\GUI\WIN32\RELEASE\\" /Fd"BUILD\GUI\WIN32\RELEASE\VC140.PDB" /FR"build\GUI\Win32\Release\\" /Gd /TP /wd4800 /FIWINPRECOMP.H /analyze- C:\USERS\MATTHEW MCCOMB\DOCUMENTS\GITHUB\POVRAY\WINDOWS\PVGUIEXT.CPP
^C:\USERS\MATTHEW MCCOMB\DOCUMENTS\GITHUB\POVRAY\WINDOWS\PVMEM.CPP
/c /I..\..\INTERNAL\WINDOWS /I..\..\PLATFORM\X86 /I..\..\PLATFORM\WINDOWS /I..\..\WINDOWS\POVCONFIG /I..\..\LIBRARIES\BOOST /I..\RTRSUPPORT /I..\..\VFE\WIN /I..\..\VFE /I..\ /I..\..\SOURCE /I..\..\LIBRARIES\JPEG /I..\..\LIBRARIES\ZLIB /I..\..\LIBRARIES\PNG /I..\..\LIBRARIES\TIFF\LIBTIFF /Zi /nologo /W3 /WX- /Ox /Ob2 /Oi /Ot /Oy- /GL /D BOOST_ALL_NO_LIB /D NDEBUG /D WIN32 /D WIN32_LEAN_AND_MEAN /D _WINDOWS /D COMMONCTRL_VERSION=0x500 /D CLASSLIB_DEFS_H /D WINVER=0x0501 /D _WIN32_WINNT=0x0501 /D NOMINMAX /D ISOLATION_AWARE_ENABLED /D _CRT_SECURE_NO_DEPRECATE /D _SECURE_SCL=0 /GF /Gm- /EHsc /MT /GS- /Gy- /fp:precise /Zc:wchar_t /Zc:forScope /Zc:inline /GR /Yu"winprecomp.h" /Fp"BUILD\GUI\WIN32\RELEASE\WINPRECOMP.PCH" /Fo"BUILD\GUI\WIN32\RELEASE\\" /Fd"BUILD\GUI\WIN32\RELEASE\VC140.PDB" /FR"build\GUI\Win32\Release\\" /Gd /TP /wd4800 /FIWINPRECOMP.H /analyze- C:\USERS\MATTHEW MCCOMB\DOCUMENTS\GITHUB\POVRAY\WINDOWS\PVMEM.CPP
^C:\USERS\MATTHEW MCCOMB\DOCUMENTS\GITHUB\POVRAY\WINDOWS\PVMENU.CPP
/c /I..\..\INTERNAL\WINDOWS /I..\..\PLATFORM\X86 /I..\..\PLATFORM\WINDOWS /I..\..\WINDOWS\POVCONFIG /I..\..\LIBRARIES\BOOST /I..\RTRSUPPORT /I..\..\VFE\WIN /I..\..\VFE /I..\ /I..\..\SOURCE /I..\..\LIBRARIES\JPEG /I..\..\LIBRARIES\ZLIB /I..\..\LIBRARIES\PNG /I..\..\LIBRARIES\TIFF\LIBTIFF /Zi /nologo /W3 /WX- /Ox /Ob2 /Oi /Ot /Oy- /GL /D BOOST_ALL_NO_LIB /D NDEBUG /D WIN32 /D WIN32_LEAN_AND_MEAN /D _WINDOWS /D COMMONCTRL_VERSION=0x500 /D CLASSLIB_DEFS_H /D WINVER=0x0501 /D _WIN32_WINNT=0x0501 /D NOMINMAX /D ISOLATION_AWARE_ENABLED /D _CRT_SECURE_NO_DEPRECATE /D _SECURE_SCL=0 /GF /Gm- /EHsc /MT /GS- /Gy- /fp:precise /Zc:wchar_t /Zc:forScope /Zc:inline /GR /Yu"winprecomp.h" /Fp"BUILD\GUI\WIN32\RELEASE\WINPRECOMP.PCH" /Fo"BUILD\GUI\WIN32\RELEASE\\" /Fd"BUILD\GUI\WIN32\RELEASE\VC140.PDB" /FR"build\GUI\Win32\Release\\" /Gd /TP /wd4800 /FIWINPRECOMP.H /analyze- C:\USERS\MATTHEW MCCOMB\DOCUMENTS\GITHUB\POVRAY\WINDOWS\PVMENU.CPP
^C:\USERS\MATTHEW MCCOMB\DOCUMENTS\GITHUB\POVRAY\WINDOWS\PVMISC.CPP
/c /I..\..\INTERNAL\WINDOWS /I..\..\PLATFORM\X86 /I..\..\PLATFORM\WINDOWS /I..\..\WINDOWS\POVCONFIG /I..\..\LIBRARIES\BOOST /I..\RTRSUPPORT /I..\..\VFE\WIN /I..\..\VFE /I..\ /I..\..\SOURCE /I..\..\LIBRARIES\JPEG /I..\..\LIBRARIES\ZLIB /I..\..\LIBRARIES\PNG /I..\..\LIBRARIES\TIFF\LIBTIFF /Zi /nologo /W3 /WX- /Ox /Ob2 /Oi /Ot /Oy- /GL /D BOOST_ALL_NO_LIB /D NDEBUG /D WIN32 /D WIN32_LEAN_AND_MEAN /D _WINDOWS /D COMMONCTRL_VERSION=0x500 /D CLASSLIB_DEFS_H /D WINVER=0x0501 /D _WIN32_WINNT=0x0501 /D NOMINMAX /D ISOLATION_AWARE_ENABLED /D _CRT_SECURE_NO_DEPRECATE /D _SECURE_SCL=0 /GF /Gm- /EHsc /MT /GS- /Gy- /fp:precise /Zc:wchar_t /Zc:forScope /Zc:inline /GR /Yu"winprecomp.h" /Fp"BUILD\GUI\WIN32\RELEASE\WINPRECOMP.PCH" /Fo"BUILD\GUI\WIN32\RELEASE\\" /Fd"BUILD\GUI\WIN32\RELEASE\VC140.PDB" /FR"build\GUI\Win32\Release\\" /Gd /TP /wd4800 /FIWINPRECOMP.H /analyze- C:\USERS\MATTHEW MCCOMB\DOCUMENTS\GITHUB\POVRAY\WINDOWS\PVMISC.CPP
^C:\USERS\MATTHEW MCCOMB\DOCUMENTS\GITHUB\POVRAY\WINDOWS\PVTEXT.CPP
/c /I..\..\INTERNAL\WINDOWS /I..\..\PLATFORM\X86 /I..\..\PLATFORM\WINDOWS /I..\..\WINDOWS\POVCONFIG /I..\..\LIBRARIES\BOOST /I..\RTRSUPPORT /I..\..\VFE\WIN /I..\..\VFE /I..\ /I..\..\SOURCE /I..\..\LIBRARIES\JPEG /I..\..\LIBRARIES\ZLIB /I..\..\LIBRARIES\PNG /I..\..\LIBRARIES\TIFF\LIBTIFF /Zi /nologo /W3 /WX- /Ox /Ob2 /Oi /Ot /Oy- /GL /D BOOST_ALL_NO_LIB /D NDEBUG /D WIN32 /D WIN32_LEAN_AND_MEAN /D _WINDOWS /D COMMONCTRL_VERSION=0x500 /D CLASSLIB_DEFS_H /D WINVER=0x0501 /D _WIN32_WINNT=0x0501 /D NOMINMAX /D ISOLATION_AWARE_ENABLED /D _CRT_SECURE_NO_DEPRECATE /D _SECURE_SCL=0 /GF /Gm- /EHsc /MT /GS- /Gy- /fp:precise /Zc:wchar_t /Zc:forScope /Zc:inline /GR /Yu"winprecomp.h" /Fp"BUILD\GUI\WIN32\RELEASE\WINPRECOMP.PCH" /Fo"BUILD\GUI\WIN32\RELEASE\\" /Fd"BUILD\GUI\WIN32\RELEASE\VC140.PDB" /FR"build\GUI\Win32\Release\\" /Gd /TP /wd4800 /FIWINPRECOMP.H /analyze- C:\USERS\MATTHEW MCCOMB\DOCUMENTS\GITHUB\POVRAY\WINDOWS\PVTEXT.CPP
^C:\USERS\MATTHEW MCCOMB\DOCUMENTS\GITHUB\POVRAY\WINDOWS\PVUPDATE.CPP
/c /I..\..\INTERNAL\WINDOWS /I..\..\PLATFORM\X86 /I..\..\PLATFORM\WINDOWS /I..\..\WINDOWS\POVCONFIG /I..\..\LIBRARIES\BOOST /I..\RTRSUPPORT /I..\..\VFE\WIN /I..\..\VFE /I..\ /I..\..\SOURCE /I..\..\LIBRARIES\JPEG /I..\..\LIBRARIES\ZLIB /I..\..\LIBRARIES\PNG /I..\..\LIBRARIES\TIFF\LIBTIFF /Zi /nologo /W3 /WX- /Ox /Ob2 /Oi /Ot /Oy- /GL /D BOOST_ALL_NO_LIB /D NDEBUG /D WIN32 /D WIN32_LEAN_AND_MEAN /D _WINDOWS /D COMMONCTRL_VERSION=0x500 /D CLASSLIB_DEFS_H /D WINVER=0x0501 /D _WIN32_WINNT=0x0501 /D NOMINMAX /D ISOLATION_AWARE_ENABLED /D _CRT_SECURE_NO_DEPRECATE /D _SECURE_SCL=0 /GF /Gm- /EHsc /MT /GS- /Gy- /fp:precise /Zc:wchar_t /Zc:forScope /Zc:inline /GR /Yu"winprecomp.h" /Fp"BUILD\GUI\WIN32\RELEASE\WINPRECOMP.PCH" /Fo"BUILD\GUI\WIN32\RELEASE\\" /Fd"BUILD\GUI\WIN32\RELEASE\VC140.PDB" /FR"build\GUI\Win32\Release\\" /Gd /TP /wd4800 /FIWINPRECOMP.H /analyze- C:\USERS\MATTHEW MCCOMB\DOCUMENTS\GITHUB\POVRAY\WINDOWS\PVUPDATE.CPP
^D:\POV-RAY\POV-RAY SOURCES\NORMAL MINUS\POVRAY\WINDOWS\WINPRECOMP.CPP
/c /I..\..\INTERNAL\WINDOWS /I..\..\PLATFORM\X86 /I..\..\PLATFORM\WINDOWS /I..\..\WINDOWS\POVCONFIG /I..\..\LIBRARIES\BOOST /I..\RTRSUPPORT /I..\..\VFE\WIN /I..\..\VFE /I..\ /I..\..\SOURCE /I..\..\LIBRARIES\JPEG /I..\..\LIBRARIES\ZLIB /I..\..\LIBRARIES\PNG /I..\..\LIBRARIES\TIFF\LIBTIFF /Zi /nologo /W3 /WX- /Ox /Ob2 /Oi /Ot /Oy- /GL /D BOOST_ALL_NO_LIB /D NDEBUG /D WIN32 /D WIN32_LEAN_AND_MEAN /D _WINDOWS /D COMMONCTRL_VERSION=0x500 /D CLASSLIB_DEFS_H /D WINVER=0x0501 /D _WIN32_WINNT=0x0501 /D NOMINMAX /D ISOLATION_AWARE_ENABLED /D _CRT_SECURE_NO_DEPRECATE /D _SECURE_SCL=0 /GF /Gm- /EHsc /MT /GS- /Gy- /fp:precise /Zc:wchar_t /Zc:forScope /Zc:inline /GR /Yc"winprecomp.h" /Fp"BUILD\GUI\WIN32\RELEASE\WINPRECOMP.PCH" /Fo"BUILD\GUI\WIN32\RELEASE\\" /Fd"BUILD\GUI\WIN32\RELEASE\VC140.PDB" /FR"build\GUI\Win32\Release\\" /Gd /TP /wd4800 /FIWINPRECOMP.H /analyze- D:\POV-RAY\POV-RAY SOURCES\NORMAL MINUS\POVRAY\WINDOWS\WINPRECOMP.CPP
^D:\POV-RAY\POV-RAY SOURCES\NORMAL MINUS\POVRAY\WINDOWS\PVBITMAP.CPP
/c /I..\..\INTERNAL\WINDOWS /I..\..\PLATFORM\X86 /I..\..\PLATFORM\WINDOWS /I..\..\WINDOWS\POVCONFIG /I..\..\LIBRARIES\BOOST /I..\RTRSUPPORT /I..\..\VFE\WIN /I..\..\VFE /I..\ /I..\..\SOURCE /I..\..\LIBRARIES\JPEG /I..\..\LIBRARIES\ZLIB /I..\..\LIBRARIES\PNG /I..\..\LIBRARIES\TIFF\LIBTIFF /Zi /nologo /W3 /WX- /Ox /Ob2 /Oi /Ot /Oy- /GL /D BOOST_ALL_NO_LIB /D NDEBUG /D WIN32 /D WIN32_LEAN_AND_MEAN /D _WINDOWS /D COMMONCTRL_VERSION=0x500 /D CLASSLIB_DEFS_H /D WINVER=0x0501 /D _WIN32_WINNT=0x0501 /D NOMINMAX /D ISOLATION_AWARE_ENABLED /D _CRT_SECURE_NO_DEPRECATE /D _SECURE_SCL=0 /GF /Gm- /EHsc /MT /GS- /Gy- /fp:precise /Zc:wchar_t /Zc:forScope /Zc:inline /GR /Yu"winprecomp.h" /Fp"BUILD\GUI\WIN32\RELEASE\WINPRECOMP.PCH" /Fo"BUILD\GUI\WIN32\RELEASE\\" /Fd"BUILD\GUI\WIN32\RELEASE\VC140.PDB" /FR"build\GUI\Win32\Release\\" /Gd /TP /wd4800 /FIWINPRECOMP.H /analyze- D:\POV-RAY\POV-RAY SOURCES\NORMAL MINUS\POVRAY\WINDOWS\PVBITMAP.CPP
^D:\POV-RAY\POV-RAY SOURCES\NORMAL MINUS\POVRAY\WINDOWS\PVDIALOG.CPP
/c /I..\..\INTERNAL\WINDOWS /I..\..\PLATFORM\X86 /I..\..\PLATFORM\WINDOWS /I..\..\WINDOWS\POVCONFIG /I..\..\LIBRARIES\BOOST /I..\RTRSUPPORT /I..\..\VFE\WIN /I..\..\VFE /I..\ /I..\..\SOURCE /I..\..\LIBRARIES\JPEG /I..\..\LIBRARIES\ZLIB /I..\..\LIBRARIES\PNG /I..\..\LIBRARIES\TIFF\LIBTIFF /Zi /nologo /W3 /WX- /Ox /Ob2 /Oi /Ot /Oy- /GL /D BOOST_ALL_NO_LIB /D NDEBUG /D WIN32 /D WIN32_LEAN_AND_MEAN /D _WINDOWS /D COMMONCTRL_VERSION=0x500 /D CLASSLIB_DEFS_H /D WINVER=0x0501 /D _WIN32_WINNT=0x0501 /D NOMINMAX /D ISOLATION_AWARE_ENABLED /D _CRT_SECURE_NO_DEPRECATE /D _SECURE_SCL=0 /GF /Gm- /EHsc /MT /GS- /Gy- /fp:precise /Zc:wchar_t /Zc:forScope /Zc:inline /GR /Yu"winprecomp.h" /Fp"BUILD\GUI\WIN32\RELEASE\WINPRECOMP.PCH" /Fo"BUILD\GUI\WIN32\RELEASE\\" /Fd"BUILD\GUI\WIN32\RELEASE\VC140.PDB" /FR"build\GUI\Win32\Release\\" /Gd /TP /wd4800 /FIWINPRECOMP.H /analyze- D:\POV-RAY\POV-RAY SOURCES\NORMAL MINUS\POVRAY\WINDOWS\PVDIALOG.CPP
^D:\POV-RAY\POV-RAY SOURCES\NORMAL MINUS\POVRAY\WINDOWS\PVDISPLAY.CPP
/c /I..\..\INTERNAL\WINDOWS /I..\..\PLATFORM\X86 /I..\..\PLATFORM\WINDOWS /I..\..\WINDOWS\POVCONFIG /I..\..\LIBRARIES\BOOST /I..\RTRSUPPORT /I..\..\VFE\WIN /I..\..\VFE /I..\ /I..\..\SOURCE /I..\..\LIBRARIES\JPEG /I..\..\LIBRARIES\ZLIB /I..\..\LIBRARIES\PNG /I..\..\LIBRARIES\TIFF\LIBTIFF /Zi /nologo /W3 /WX- /Ox /Ob2 /Oi /Ot /Oy- /GL /D BOOST_ALL_NO_LIB /D NDEBUG /D WIN32 /D WIN32_LEAN_AND_MEAN /D _WINDOWS /D COMMONCTRL_VERSION=0x500 /D CLASSLIB_DEFS_H /D WINVER=0x0501 /D _WIN32_WINNT=0x0501 /D NOMINMAX /D ISOLATION_AWARE_ENABLED /D _CRT_SECURE_NO_DEPRECATE /D _SECURE_SCL=0 /GF /Gm- /EHsc /MT /GS- /Gy- /fp:precise /Zc:wchar_t /Zc:forScope /Zc:inline /GR /Yu"winprecomp.h" /Fp"BUILD\GUI\WIN32\RELEASE\WINPRECOMP.PCH" /Fo"BUILD\GUI\WIN32\RELEASE\\" /Fd"BUILD\GUI\WIN32\RELEASE\VC140.PDB" /FR"build\GUI\Win32\Release\\" /Gd /TP /wd4800 /FIWINPRECOMP.H /analyze- D:\POV-RAY\POV-RAY SOURCES\NORMAL MINUS\POVRAY\WINDOWS\PVDISPLAY.CPP
^D:\POV-RAY\POV-RAY SOURCES\NORMAL MINUS\POVRAY\WINDOWS\PVEDIT.CPP
/c /I..\..\INTERNAL\WINDOWS /I..\..\PLATFORM\X86 /I..\..\PLATFORM\WINDOWS /I..\..\WINDOWS\POVCONFIG /I..\..\LIBRARIES\BOOST /I..\RTRSUPPORT /I..\..\VFE\WIN /I..\..\VFE /I..\ /I..\..\SOURCE /I..\..\LIBRARIES\JPEG /I..\..\LIBRARIES\ZLIB /I..\..\LIBRARIES\PNG /I..\..\LIBRARIES\TIFF\LIBTIFF /Zi /nologo /W3 /WX- /Ox /Ob2 /Oi /Ot /Oy- /GL /D BOOST_ALL_NO_LIB /D NDEBUG /D WIN32 /D WIN32_LEAN_AND_MEAN /D _WINDOWS /D COMMONCTRL_VERSION=0x500 /D CLASSLIB_DEFS_H /D WINVER=0x0501 /D _WIN32_WINNT=0x0501 /D NOMINMAX /D ISOLATION_AWARE_ENABLED /D _CRT_SECURE_NO_DEPRECATE /D _SECURE_SCL=0 /GF /Gm- /EHsc /MT /GS- /Gy- /fp:precise /Zc:wchar_t /Zc:forScope /Zc:inline /GR /Yu"winprecomp.h" /Fp"BUILD\GUI\WIN32\RELEASE\WINPRECOMP.PCH" /Fo"BUILD\GUI\WIN32\RELEASE\\" /Fd"BUILD\GUI\WIN32\RELEASE\VC140.PDB" /FR"build\GUI\Win32\Release\\" /Gd /TP /wd4800 /FIWINPRECOMP.H /analyze- D:\POV-RAY\POV-RAY SOURCES\NORMAL MINUS\POVRAY\WINDOWS\PVEDIT.CPP
^D:\POV-RAY\POV-RAY SOURCES\NORMAL MINUS\POVRAY\WINDOWS\PVENGINE.CPP
/c /I..\..\INTERNAL\WINDOWS /I..\..\PLATFORM\X86 /I..\..\PLATFORM\WINDOWS /I..\..\WINDOWS\POVCONFIG /I..\..\LIBRARIES\BOOST /I..\RTRSUPPORT /I..\..\VFE\WIN /I..\..\VFE /I..\ /I..\..\SOURCE /I..\..\LIBRARIES\JPEG /I..\..\LIBRARIES\ZLIB /I..\..\LIBRARIES\PNG /I..\..\LIBRARIES\TIFF\LIBTIFF /Zi /nologo /W3 /WX- /Ox /Ob2 /Oi /Ot /Oy- /GL /D BOOST_ALL_NO_LIB /D NDEBUG /D WIN32 /D WIN32_LEAN_AND_MEAN /D _WINDOWS /D COMMONCTRL_VERSION=0x500 /D CLASSLIB_DEFS_H /D WINVER=0x0501 /D _WIN32_WINNT=0x0501 /D NOMINMAX /D ISOLATION_AWARE_ENABLED /D _CRT_SECURE_NO_DEPRECATE /D _SECURE_SCL=0 /GF /Gm- /EHsc /MT /GS- /Gy- /fp:precise /Zc:wchar_t /Zc:forScope /Zc:inline /GR /Yu"winprecomp.h" /Fp"BUILD\GUI\WIN32\RELEASE\WINPRECOMP.PCH" /Fo"BUILD\GUI\WIN32\RELEASE\\" /Fd"BUILD\GUI\WIN32\RELEASE\VC140.PDB" /FR"build\GUI\Win32\Release\\" /Gd /TP /wd4800 /FIWINPRECOMP.H /analyze- D:\POV-RAY\POV-RAY SOURCES\NORMAL MINUS\POVRAY\WINDOWS\PVENGINE.CPP
^D:\POV-RAY\POV-RAY SOURCES\NORMAL MINUS\POVRAY\WINDOWS\PVFILES.CPP
/c /I..\..\INTERNAL\WINDOWS /I..\..\PLATFORM\X86 /I..\..\PLATFORM\WINDOWS /I..\..\WINDOWS\POVCONFIG /I..\..\LIBRARIES\BOOST /I..\RTRSUPPORT /I..\..\VFE\WIN /I..\..\VFE /I..\ /I..\..\SOURCE /I..\..\LIBRARIES\JPEG /I..\..\LIBRARIES\ZLIB /I..\..\LIBRARIES\PNG /I..\..\LIBRARIES\TIFF\LIBTIFF /Zi /nologo /W3 /WX- /Ox /Ob2 /Oi /Ot /Oy- /GL /D BOOST_ALL_NO_LIB /D NDEBUG /D WIN32 /D WIN32_LEAN_AND_MEAN /D _WINDOWS /D COMMONCTRL_VERSION=0x500 /D CLASSLIB_DEFS_H /D WINVER=0x0501 /D _WIN32_WINNT=0x0501 /D NOMINMAX /D ISOLATION_AWARE_ENABLED /D _CRT_SECURE_NO_DEPRECATE /D _SECURE_SCL=0 /GF /Gm- /EHsc /MT /GS- /Gy- /fp:precise /Zc:wchar_t /Zc:forScope /Zc:inline /GR /Yu"winprecomp.h" /Fp"BUILD\GUI\WIN32\RELEASE\WINPRECOMP.PCH" /Fo"BUILD\GUI\WIN32\RELEASE\\" /Fd"BUILD\GUI\WIN32\RELEASE\VC140.PDB" /FR"build\GUI\Win32\Release\\" /Gd /TP /wd4800 /FIWINPRECOMP.H /analyze- D:\POV-RAY\POV-RAY SOURCES\NORMAL MINUS\POVRAY\WINDOWS\PVFILES.CPP
^D:\POV-RAY\POV-RAY SOURCES\NORMAL MINUS\POVRAY\WINDOWS\PVFRONTEND.CPP
/c /I..\..\INTERNAL\WINDOWS /I..\..\PLATFORM\X86 /I..\..\PLATFORM\WINDOWS /I..\..\WINDOWS\POVCONFIG /I..\..\LIBRARIES\BOOST /I..\RTRSUPPORT /I..\..\VFE\WIN /I..\..\VFE /I..\ /I..\..\SOURCE /I..\..\LIBRARIES\JPEG /I..\..\LIBRARIES\ZLIB /I..\..\LIBRARIES\PNG /I..\..\LIBRARIES\TIFF\LIBTIFF /Zi /nologo /W3 /WX- /Ox /Ob2 /Oi /Ot /Oy- /GL /D BOOST_ALL_NO_LIB /D NDEBUG /D WIN32 /D WIN32_LEAN_AND_MEAN /D _WINDOWS /D COMMONCTRL_VERSION=0x500 /D CLASSLIB_DEFS_H /D WINVER=0x0501 /D _WIN32_WINNT=0x0501 /D NOMINMAX /D ISOLATION_AWARE_ENABLED /D _CRT_SECURE_NO_DEPRECATE /D _SECURE_SCL=0 /GF /Gm- /EHsc /MT /GS- /Gy- /fp:precise /Zc:wchar_t /Zc:forScope /Zc:inline /GR /Yu"winprecomp.h" /Fp"BUILD\GUI\WIN32\RELEASE\WINPRECOMP.PCH" /Fo"BUILD\GUI\WIN32\RELEASE\\" /Fd"BUILD\GUI\WIN32\RELEASE\VC140.PDB" /FR"build\GUI\Win32\Release\\" /Gd /TP /wd4800 /FIWINPRECOMP.H /analyze- D:\POV-RAY\POV-RAY SOURCES\NORMAL MINUS\POVRAY\WINDOWS\PVFRONTEND.CPP
^D:\POV-RAY\POV-RAY SOURCES\NORMAL MINUS\POVRAY\WINDOWS\PVGUIEXT.CPP
/c /I..\..\INTERNAL\WINDOWS /I..\..\PLATFORM\X86 /I..\..\PLATFORM\WINDOWS /I..\..\WINDOWS\POVCONFIG /I..\..\LIBRARIES\BOOST /I..\RTRSUPPORT /I..\..\VFE\WIN /I..\..\VFE /I..\ /I..\..\SOURCE /I..\..\LIBRARIES\JPEG /I..\..\LIBRARIES\ZLIB /I..\..\LIBRARIES\PNG /I..\..\LIBRARIES\TIFF\LIBTIFF /Zi /nologo /W3 /WX- /Ox /Ob2 /Oi /Ot /Oy- /GL /D BOOST_ALL_NO_LIB /D NDEBUG /D WIN32 /D WIN32_LEAN_AND_MEAN /D _WINDOWS /D COMMONCTRL_VERSION=0x500 /D CLASSLIB_DEFS_H /D WINVER=0x0501 /D _WIN32_WINNT=0x0501 /D NOMINMAX /D ISOLATION_AWARE_ENABLED /D _CRT_SECURE_NO_DEPRECATE /D _SECURE_SCL=0 /GF /Gm- /EHsc /MT /GS- /Gy- /fp:precise /Zc:wchar_t /Zc:forScope /Zc:inline /GR /Yu"winprecomp.h" /Fp"BUILD\GUI\WIN32\RELEASE\WINPRECOMP.PCH" /Fo"BUILD\GUI\WIN32\RELEASE\\" /Fd"BUILD\GUI\WIN32\RELEASE\VC140.PDB" /FR"build\GUI\Win32\Release\\" /Gd /TP /wd4800 /FIWINPRECOMP.H /analyze- D:\POV-RAY\POV-RAY SOURCES\NORMAL MINUS\POVRAY\WINDOWS\PVGUIEXT.CPP
^D:\POV-RAY\POV-RAY SOURCES\NORMAL MINUS\POVRAY\WINDOWS\PVMEM.CPP
/c /I..\..\INTERNAL\WINDOWS /I..\..\PLATFORM\X86 /I..\..\PLATFORM\WINDOWS /I..\..\WINDOWS\POVCONFIG /I..\..\LIBRARIES\BOOST /I..\RTRSUPPORT /I..\..\VFE\WIN /I..\..\VFE /I..\ /I..\..\SOURCE /I..\..\LIBRARIES\JPEG /I..\..\LIBRARIES\ZLIB /I..\..\LIBRARIES\PNG /I..\..\LIBRARIES\TIFF\LIBTIFF /Zi /nologo /W3 /WX- /Ox /Ob2 /Oi /Ot /Oy- /GL /D BOOST_ALL_NO_LIB /D NDEBUG /D WIN32 /D WIN32_LEAN_AND_MEAN /D _WINDOWS /D COMMONCTRL_VERSION=0x500 /D CLASSLIB_DEFS_H /D WINVER=0x0501 /D _WIN32_WINNT=0x0501 /D NOMINMAX /D ISOLATION_AWARE_ENABLED /D _CRT_SECURE_NO_DEPRECATE /D _SECURE_SCL=0 /GF /Gm- /EHsc /MT /GS- /Gy- /fp:precise /Zc:wchar_t /Zc:forScope /Zc:inline /GR /Yu"winprecomp.h" /Fp"BUILD\GUI\WIN32\RELEASE\WINPRECOMP.PCH" /Fo"BUILD\GUI\WIN32\RELEASE\\" /Fd"BUILD\GUI\WIN32\RELEASE\VC140.PDB" /FR"build\GUI\Win32\Release\\" /Gd /TP /wd4800 /FIWINPRECOMP.H /analyze- D:\POV-RAY\POV-RAY SOURCES\NORMAL MINUS\POVRAY\WINDOWS\PVMEM.CPP
^D:\POV-RAY\POV-RAY SOURCES\NORMAL MINUS\POVRAY\WINDOWS\PVMENU.CPP
/c /I..\..\INTERNAL\WINDOWS /I..\..\PLATFORM\X86 /I..\..\PLATFORM\WINDOWS /I..\..\WINDOWS\POVCONFIG /I..\..\LIBRARIES\BOOST /I..\RTRSUPPORT /I..\..\VFE\WIN /I..\..\VFE /I..\ /I..\..\SOURCE /I..\..\LIBRARIES\JPEG /I..\..\LIBRARIES\ZLIB /I..\..\LIBRARIES\PNG /I..\..\LIBRARIES\TIFF\LIBTIFF /Zi /nologo /W3 /WX- /Ox /Ob2 /Oi /Ot /Oy- /GL /D BOOST_ALL_NO_LIB /D NDEBUG /D WIN32 /D WIN32_LEAN_AND_MEAN /D _WINDOWS /D COMMONCTRL_VERSION=0x500 /D CLASSLIB_DEFS_H /D WINVER=0x0501 /D _WIN32_WINNT=0x0501 /D NOMINMAX /D ISOLATION_AWARE_ENABLED /D _CRT_SECURE_NO_DEPRECATE /D _SECURE_SCL=0 /GF /Gm- /EHsc /MT /GS- /Gy- /fp:precise /Zc:wchar_t /Zc:forScope /Zc:inline /GR /Yu"winprecomp.h" /Fp"BUILD\GUI\WIN32\RELEASE\WINPRECOMP.PCH" /Fo"BUILD\GUI\WIN32\RELEASE\\" /Fd"BUILD\GUI\WIN32\RELEASE\VC140.PDB" /FR"build\GUI\Win32\Release\\" /Gd /TP /wd4800 /FIWINPRECOMP.H /analyze- D:\POV-RAY\POV-RAY SOURCES\NORMAL MINUS\POVRAY\WINDOWS\PVMENU.CPP
^D:\POV-RAY\POV-RAY SOURCES\NORMAL MINUS\POVRAY\WINDOWS\PVMISC.CPP
/c /I..\..\INTERNAL\WINDOWS /I..\..\PLATFORM\X86 /I..\..\PLATFORM\WINDOWS /I..\..\WINDOWS\POVCONFIG /I..\..\LIBRARIES\BOOST /I..\RTRSUPPORT /I..\..\VFE\WIN /I..\..\VFE /I..\ /I..\..\SOURCE /I..\..\LIBRARIES\JPEG /I..\..\LIBRARIES\ZLIB /I..\..\LIBRARIES\PNG /I..\..\LIBRARIES\TIFF\LIBTIFF /Zi /nologo /W3 /WX- /Ox /Ob2 /Oi /Ot /Oy- /GL /D BOOST_ALL_NO_LIB /D NDEBUG /D WIN32 /D WIN32_LEAN_AND_MEAN /D _WINDOWS /D COMMONCTRL_VERSION=0x500 /D CLASSLIB_DEFS_H /D WINVER=0x0501 /D _WIN32_WINNT=0x0501 /D NOMINMAX /D ISOLATION_AWARE_ENABLED /D _CRT_SECURE_NO_DEPRECATE /D _SECURE_SCL=0 /GF /Gm- /EHsc /MT /GS- /Gy- /fp:precise /Zc:wchar_t /Zc:forScope /Zc:inline /GR /Yu"winprecomp.h" /Fp"BUILD\GUI\WIN32\RELEASE\WINPRECOMP.PCH" /Fo"BUILD\GUI\WIN32\RELEASE\\" /Fd"BUILD\GUI\WIN32\RELEASE\VC140.PDB" /FR"build\GUI\Win32\Release\\" /Gd /TP /wd4800 /FIWINPRECOMP.H /analyze- D:\POV-RAY\POV-RAY SOURCES\NORMAL MINUS\POVRAY\WINDOWS\PVMISC.CPP
^D:\POV-RAY\POV-RAY SOURCES\NORMAL MINUS\POVRAY\WINDOWS\PVTEXT.CPP
/c /I..\..\INTERNAL\WINDOWS /I..\..\PLATFORM\X86 /I..\..\PLATFORM\WINDOWS /I..\..\WINDOWS\POVCONFIG /I..\..\LIBRARIES\BOOST /I..\RTRSUPPORT /I..\..\VFE\WIN /I..\..\VFE /I..\ /I..\..\SOURCE /I..\..\LIBRARIES\JPEG /I..\..\LIBRARIES\ZLIB /I..\..\LIBRARIES\PNG /I..\..\LIBRARIES\TIFF\LIBTIFF /Zi /nologo /W3 /WX- /Ox /Ob2 /Oi /Ot /Oy- /GL /D BOOST_ALL_NO_LIB /D NDEBUG /D WIN32 /D WIN32_LEAN_AND_MEAN /D _WINDOWS /D COMMONCTRL_VERSION=0x500 /D CLASSLIB_DEFS_H /D WINVER=0x0501 /D _WIN32_WINNT=0x0501 /D NOMINMAX /D ISOLATION_AWARE_ENABLED /D _CRT_SECURE_NO_DEPRECATE /D _SECURE_SCL=0 /GF /Gm- /EHsc /MT /GS- /Gy- /fp:precise /Zc:wchar_t /Zc:forScope /Zc:inline /GR /Yu"winprecomp.h" /Fp"BUILD\GUI\WIN32\RELEASE\WINPRECOMP.PCH" /Fo"BUILD\GUI\WIN32\RELEASE\\" /Fd"BUILD\GUI\WIN32\RELEASE\VC140.PDB" /FR"build\GUI\Win32\Release\\" /Gd /TP /wd4800 /FIWINPRECOMP.H /analyze- D:\POV-RAY\POV-RAY SOURCES\NORMAL MINUS\POVRAY\WINDOWS\PVTEXT.CPP
^D:\POV-RAY\POV-RAY SOURCES\NORMAL MINUS\POVRAY\WINDOWS\PVUPDATE.CPP
/c /I..\..\INTERNAL\WINDOWS /I..\..\PLATFORM\X86 /I..\..\PLATFORM\WINDOWS /I..\..\WINDOWS\POVCONFIG /I..\..\LIBRARIES\BOOST /I..\RTRSUPPORT /I..\..\VFE\WIN /I..\..\VFE /I..\ /I..\..\SOURCE /I..\..\LIBRARIES\JPEG /I..\..\LIBRARIES\ZLIB /I..\..\LIBRARIES\PNG /I..\..\LIBRARIES\TIFF\LIBTIFF /Zi /nologo /W3 /WX- /Ox /Ob2 /Oi /Ot /Oy- /GL /D BOOST_ALL_NO_LIB /D NDEBUG /D WIN32 /D WIN32_LEAN_AND_MEAN /D _WINDOWS /D COMMONCTRL_VERSION=0x500 /D CLASSLIB_DEFS_H /D WINVER=0x0501 /D _WIN32_WINNT=0x0501 /D NOMINMAX /D ISOLATION_AWARE_ENABLED /D _CRT_SECURE_NO_DEPRECATE /D _SECURE_SCL=0 /GF /Gm- /EHsc /MT /GS- /Gy- /fp:precise /Zc:wchar_t /Zc:forScope /Zc:inline /GR /Yu"winprecomp.h" /Fp"BUILD\GUI\WIN32\RELEASE\WINPRECOMP.PCH" /Fo"BUILD\GUI\WIN32\RELEASE\\" /Fd"BUILD\GUI\WIN32\RELEASE\VC140.PDB" /FR"build\GUI\Win32\Release\\" /Gd /TP /wd4800 /FIWINPRECOMP.H /analyze- D:\POV-RAY\POV-RAY SOURCES\NORMAL MINUS\POVRAY\WINDOWS\PVUPDATE.CPP
