^C:\USERS\MATTHEW MCCOMB\DOCUMENTS\GITHUB\POVRAY\SOURCE\BASE\PRECOMP.CPP
C:\USERS\MATTHEW MCCOMB\DOCUMENTS\GITHUB\POVRAY\WINDOWS\VS2015\BUILD\POVBASE\WIN32\RELEASE\PRECOMP.PCH
C:\USERS\MATTHEW MCCOMB\DOCUMENTS\GITHUB\POVRAY\WINDOWS\VS2015\BUILD\POVBASE\WIN32\RELEASE\POVBASE.PDB
C:\USERS\MATTHEW MCCOMB\DOCUMENTS\GITHUB\POVRAY\WINDOWS\VS2015\BUILD\POVBASE\WIN32\RELEASE\PRECOMP.SBR
C:\USERS\MATTHEW MCCOMB\DOCUMENTS\GITHUB\POVRAY\WINDOWS\VS2015\BUILD\POVBASE\WIN32\RELEASE\PRECOMP.OBJ
^C:\USERS\MATTHEW MCCOMB\DOCUMENTS\GITHUB\POVRAY\SOURCE\BASE\ANIMATION\ANIMATION.CPP|C:\USERS\MATTHEW MCCOMB\DOCUMENTS\GITHUB\POVRAY\SOURCE\BASE\ANIMATION\MOOV.CPP|C:\USERS\MATTHEW MCCOMB\DOCUMENTS\GITHUB\POVRAY\SOURCE\BASE\COLOUR.CPP|C:\USERS\MATTHEW MCCOMB\DOCUMENTS\GITHUB\POVRAY\SOURCE\BASE\FILEINPUTOUTPUT.CPP|C:\USERS\MATTHEW MCCOMB\DOCUMENTS\GITHUB\POVRAY\SOURCE\BASE\FILEUTIL.CPP|C:\USERS\MATTHEW MCCOMB\DOCUMENTS\GITHUB\POVRAY\SOURCE\BASE\FONT\CRYSTAL.CPP|C:\USERS\MATTHEW MCCOMB\DOCUMENTS\GITHUB\POVRAY\SOURCE\BASE\FONT\CYRVETIC.CPP|C:\USERS\MATTHEW MCCOMB\DOCUMENTS\GITHUB\POVRAY\SOURCE\BASE\FONT\POVLOGO.CPP|C:\USERS\MATTHEW MCCOMB\DOCUMENTS\GITHUB\POVRAY\SOURCE\BASE\FONT\TIMROM.CPP|C:\USERS\MATTHEW MCCOMB\DOCUMENTS\GITHUB\POVRAY\SOURCE\BASE\IMAGE\BMP.CPP|C:\USERS\MATTHEW MCCOMB\DOCUMENTS\GITHUB\POVRAY\SOURCE\BASE\IMAGE\COLOURSPACE.CPP|C:\USERS\MATTHEW MCCOMB\DOCUMENTS\GITHUB\POVRAY\SOURCE\BASE\IMAGE\ENCODING.CPP|C:\USERS\MATTHEW MCCOMB\DOCUMENTS\GITHUB\POVRAY\SOURCE\BASE\IMAGE\GIF.CPP|C:\USERS\MATTHEW MCCOMB\DOCUMENTS\GITHUB\POVRAY\SOURCE\BASE\IMAGE\GIFDECOD.CPP|C:\USERS\MATTHEW MCCOMB\DOCUMENTS\GITHUB\POVRAY\SOURCE\BASE\IMAGE\HDR.CPP|C:\USERS\MATTHEW MCCOMB\DOCUMENTS\GITHUB\POVRAY\SOURCE\BASE\IMAGE\IFF.CPP|C:\USERS\MATTHEW MCCOMB\DOCUMENTS\GITHUB\POVRAY\SOURCE\BASE\IMAGE\IMAGE.CPP|C:\USERS\MATTHEW MCCOMB\DOCUMENTS\GITHUB\POVRAY\SOURCE\BASE\IMAGE\METADATA.CPP|C:\USERS\MATTHEW MCCOMB\DOCUMENTS\GITHUB\POVRAY\SOURCE\BASE\IMAGE\OPENEXR.CPP|C:\USERS\MATTHEW MCCOMB\DOCUMENTS\GITHUB\POVRAY\SOURCE\BASE\IMAGE\PPM.CPP|C:\USERS\MATTHEW MCCOMB\DOCUMENTS\GITHUB\POVRAY\SOURCE\BASE\IMAGE\TARGA.CPP|C:\USERS\MATTHEW MCCOMB\DOCUMENTS\GITHUB\POVRAY\SOURCE\BASE\IMAGE\TIFF.CPP|C:\USERS\MATTHEW MCCOMB\DOCUMENTS\GITHUB\POVRAY\SOURCE\BASE\MATHUTIL.CPP|C:\USERS\MATTHEW MCCOMB\DOCUMENTS\GITHUB\POVRAY\SOURCE\BASE\MESSENGER.CPP|C:\USERS\MATTHEW MCCOMB\DOCUMENTS\GITHUB\POVRAY\SOURCE\BASE\PATH.CPP|C:\USERS\MATTHEW MCCOMB\DOCUMENTS\GITHUB\POVRAY\SOURCE\BASE\PLATFORMBASE.CPP|C:\USERS\MATTHEW MCCOMB\DOCUMENTS\GITHUB\POVRAY\SOURCE\BASE\POV_ERR.CPP|C:\USERS\MATTHEW MCCOMB\DOCUMENTS\GITHUB\POVRAY\SOURCE\BASE\POV_MEM.CPP|C:\USERS\MATTHEW MCCOMB\DOCUMENTS\GITHUB\POVRAY\SOURCE\BASE\STRINGUTILITIES.CPP|C:\USERS\MATTHEW MCCOMB\DOCUMENTS\GITHUB\POVRAY\SOURCE\BASE\TEXTSTREAM.CPP|C:\USERS\MATTHEW MCCOMB\DOCUMENTS\GITHUB\POVRAY\SOURCE\BASE\TEXTSTREAMBUFFER.CPP|C:\USERS\MATTHEW MCCOMB\DOCUMENTS\GITHUB\POVRAY\SOURCE\BASE\TIMER.CPP
C:\USERS\MATTHEW MCCOMB\DOCUMENTS\GITHUB\POVRAY\WINDOWS\VS2015\BUILD\POVBASE\WIN32\RELEASE\POVBASE.PDB
C:\USERS\MATTHEW MCCOMB\DOCUMENTS\GITHUB\POVRAY\WINDOWS\VS2015\BUILD\POVBASE\WIN32\RELEASE\ANIMATION.SBR
C:\USERS\MATTHEW MCCOMB\DOCUMENTS\GITHUB\POVRAY\WINDOWS\VS2015\BUILD\POVBASE\WIN32\RELEASE\MOOV.SBR
C:\USERS\MATTHEW MCCOMB\DOCUMENTS\GITHUB\POVRAY\WINDOWS\VS2015\BUILD\POVBASE\WIN32\RELEASE\COLOUR.SBR
C:\USERS\MATTHEW MCCOMB\DOCUMENTS\GITHUB\POVRAY\WINDOWS\VS2015\BUILD\POVBASE\WIN32\RELEASE\FILEINPUTOUTPUT.SBR
C:\USERS\MATTHEW MCCOMB\DOCUMENTS\GITHUB\POVRAY\WINDOWS\VS2015\BUILD\POVBASE\WIN32\RELEASE\FILEUTIL.SBR
C:\USERS\MATTHEW MCCOMB\DOCUMENTS\GITHUB\POVRAY\WINDOWS\VS2015\BUILD\POVBASE\WIN32\RELEASE\CRYSTAL.SBR
C:\USERS\MATTHEW MCCOMB\DOCUMENTS\GITHUB\POVRAY\WINDOWS\VS2015\BUILD\POVBASE\WIN32\RELEASE\CYRVETIC.SBR
C:\USERS\MATTHEW MCCOMB\DOCUMENTS\GITHUB\POVRAY\WINDOWS\VS2015\BUILD\POVBASE\WIN32\RELEASE\POVLOGO.SBR
C:\USERS\MATTHEW MCCOMB\DOCUMENTS\GITHUB\POVRAY\WINDOWS\VS2015\BUILD\POVBASE\WIN32\RELEASE\TIMROM.SBR
C:\USERS\MATTHEW MCCOMB\DOCUMENTS\GITHUB\POVRAY\WINDOWS\VS2015\BUILD\POVBASE\WIN32\RELEASE\BMP.SBR
C:\USERS\MATTHEW MCCOMB\DOCUMENTS\GITHUB\POVRAY\WINDOWS\VS2015\BUILD\POVBASE\WIN32\RELEASE\COLOURSPACE.SBR
C:\USERS\MATTHEW MCCOMB\DOCUMENTS\GITHUB\POVRAY\WINDOWS\VS2015\BUILD\POVBASE\WIN32\RELEASE\ENCODING.SBR
C:\USERS\MATTHEW MCCOMB\DOCUMENTS\GITHUB\POVRAY\WINDOWS\VS2015\BUILD\POVBASE\WIN32\RELEASE\GIF.SBR
C:\USERS\MATTHEW MCCOMB\DOCUMENTS\GITHUB\POVRAY\WINDOWS\VS2015\BUILD\POVBASE\WIN32\RELEASE\GIFDECOD.SBR
C:\USERS\MATTHEW MCCOMB\DOCUMENTS\GITHUB\POVRAY\WINDOWS\VS2015\BUILD\POVBASE\WIN32\RELEASE\HDR.SBR
C:\USERS\MATTHEW MCCOMB\DOCUMENTS\GITHUB\POVRAY\WINDOWS\VS2015\BUILD\POVBASE\WIN32\RELEASE\IFF.SBR
C:\USERS\MATTHEW MCCOMB\DOCUMENTS\GITHUB\POVRAY\WINDOWS\VS2015\BUILD\POVBASE\WIN32\RELEASE\IMAGE.SBR
C:\USERS\MATTHEW MCCOMB\DOCUMENTS\GITHUB\POVRAY\WINDOWS\VS2015\BUILD\POVBASE\WIN32\RELEASE\METADATA.SBR
C:\USERS\MATTHEW MCCOMB\DOCUMENTS\GITHUB\POVRAY\WINDOWS\VS2015\BUILD\POVBASE\WIN32\RELEASE\OPENEXR.SBR
C:\USERS\MATTHEW MCCOMB\DOCUMENTS\GITHUB\POVRAY\WINDOWS\VS2015\BUILD\POVBASE\WIN32\RELEASE\PPM.SBR
C:\USERS\MATTHEW MCCOMB\DOCUMENTS\GITHUB\POVRAY\WINDOWS\VS2015\BUILD\POVBASE\WIN32\RELEASE\PPM.OBJ
C:\USERS\MATTHEW MCCOMB\DOCUMENTS\GITHUB\POVRAY\WINDOWS\VS2015\BUILD\POVBASE\WIN32\RELEASE\OPENEXR.OBJ
C:\USERS\MATTHEW MCCOMB\DOCUMENTS\GITHUB\POVRAY\WINDOWS\VS2015\BUILD\POVBASE\WIN32\RELEASE\METADATA.OBJ
C:\USERS\MATTHEW MCCOMB\DOCUMENTS\GITHUB\POVRAY\WINDOWS\VS2015\BUILD\POVBASE\WIN32\RELEASE\IMAGE.OBJ
C:\USERS\MATTHEW MCCOMB\DOCUMENTS\GITHUB\POVRAY\WINDOWS\VS2015\BUILD\POVBASE\WIN32\RELEASE\IFF.OBJ
C:\USERS\MATTHEW MCCOMB\DOCUMENTS\GITHUB\POVRAY\WINDOWS\VS2015\BUILD\POVBASE\WIN32\RELEASE\HDR.OBJ
C:\USERS\MATTHEW MCCOMB\DOCUMENTS\GITHUB\POVRAY\WINDOWS\VS2015\BUILD\POVBASE\WIN32\RELEASE\GIFDECOD.OBJ
C:\USERS\MATTHEW MCCOMB\DOCUMENTS\GITHUB\POVRAY\WINDOWS\VS2015\BUILD\POVBASE\WIN32\RELEASE\GIF.OBJ
C:\USERS\MATTHEW MCCOMB\DOCUMENTS\GITHUB\POVRAY\WINDOWS\VS2015\BUILD\POVBASE\WIN32\RELEASE\ENCODING.OBJ
C:\USERS\MATTHEW MCCOMB\DOCUMENTS\GITHUB\POVRAY\WINDOWS\VS2015\BUILD\POVBASE\WIN32\RELEASE\COLOURSPACE.OBJ
C:\USERS\MATTHEW MCCOMB\DOCUMENTS\GITHUB\POVRAY\WINDOWS\VS2015\BUILD\POVBASE\WIN32\RELEASE\BMP.OBJ
C:\USERS\MATTHEW MCCOMB\DOCUMENTS\GITHUB\POVRAY\WINDOWS\VS2015\BUILD\POVBASE\WIN32\RELEASE\TIMROM.OBJ
C:\USERS\MATTHEW MCCOMB\DOCUMENTS\GITHUB\POVRAY\WINDOWS\VS2015\BUILD\POVBASE\WIN32\RELEASE\POVLOGO.OBJ
C:\USERS\MATTHEW MCCOMB\DOCUMENTS\GITHUB\POVRAY\WINDOWS\VS2015\BUILD\POVBASE\WIN32\RELEASE\CYRVETIC.OBJ
C:\USERS\MATTHEW MCCOMB\DOCUMENTS\GITHUB\POVRAY\WINDOWS\VS2015\BUILD\POVBASE\WIN32\RELEASE\CRYSTAL.OBJ
C:\USERS\MATTHEW MCCOMB\DOCUMENTS\GITHUB\POVRAY\WINDOWS\VS2015\BUILD\POVBASE\WIN32\RELEASE\FILEUTIL.OBJ
C:\USERS\MATTHEW MCCOMB\DOCUMENTS\GITHUB\POVRAY\WINDOWS\VS2015\BUILD\POVBASE\WIN32\RELEASE\FILEINPUTOUTPUT.OBJ
C:\USERS\MATTHEW MCCOMB\DOCUMENTS\GITHUB\POVRAY\WINDOWS\VS2015\BUILD\POVBASE\WIN32\RELEASE\COLOUR.OBJ
C:\USERS\MATTHEW MCCOMB\DOCUMENTS\GITHUB\POVRAY\WINDOWS\VS2015\BUILD\POVBASE\WIN32\RELEASE\MOOV.OBJ
C:\USERS\MATTHEW MCCOMB\DOCUMENTS\GITHUB\POVRAY\WINDOWS\VS2015\BUILD\POVBASE\WIN32\RELEASE\ANIMATION.OBJ
C:\USERS\MATTHEW MCCOMB\DOCUMENTS\GITHUB\POVRAY\WINDOWS\VS2015\BUILD\POVBASE\WIN32\RELEASE\TARGA.SBR
C:\USERS\MATTHEW MCCOMB\DOCUMENTS\GITHUB\POVRAY\WINDOWS\VS2015\BUILD\POVBASE\WIN32\RELEASE\TIFF.SBR
C:\USERS\MATTHEW MCCOMB\DOCUMENTS\GITHUB\POVRAY\WINDOWS\VS2015\BUILD\POVBASE\WIN32\RELEASE\MATHUTIL.SBR
C:\USERS\MATTHEW MCCOMB\DOCUMENTS\GITHUB\POVRAY\WINDOWS\VS2015\BUILD\POVBASE\WIN32\RELEASE\MESSENGER.SBR
C:\USERS\MATTHEW MCCOMB\DOCUMENTS\GITHUB\POVRAY\WINDOWS\VS2015\BUILD\POVBASE\WIN32\RELEASE\PATH.SBR
C:\USERS\MATTHEW MCCOMB\DOCUMENTS\GITHUB\POVRAY\WINDOWS\VS2015\BUILD\POVBASE\WIN32\RELEASE\PLATFORMBASE.SBR
C:\USERS\MATTHEW MCCOMB\DOCUMENTS\GITHUB\POVRAY\WINDOWS\VS2015\BUILD\POVBASE\WIN32\RELEASE\POV_ERR.SBR
C:\USERS\MATTHEW MCCOMB\DOCUMENTS\GITHUB\POVRAY\WINDOWS\VS2015\BUILD\POVBASE\WIN32\RELEASE\POV_MEM.SBR
C:\USERS\MATTHEW MCCOMB\DOCUMENTS\GITHUB\POVRAY\WINDOWS\VS2015\BUILD\POVBASE\WIN32\RELEASE\STRINGUTILITIES.SBR
C:\USERS\MATTHEW MCCOMB\DOCUMENTS\GITHUB\POVRAY\WINDOWS\VS2015\BUILD\POVBASE\WIN32\RELEASE\TEXTSTREAM.SBR
C:\USERS\MATTHEW MCCOMB\DOCUMENTS\GITHUB\POVRAY\WINDOWS\VS2015\BUILD\POVBASE\WIN32\RELEASE\TEXTSTREAMBUFFER.SBR
C:\USERS\MATTHEW MCCOMB\DOCUMENTS\GITHUB\POVRAY\WINDOWS\VS2015\BUILD\POVBASE\WIN32\RELEASE\TIMER.SBR
C:\USERS\MATTHEW MCCOMB\DOCUMENTS\GITHUB\POVRAY\WINDOWS\VS2015\BUILD\POVBASE\WIN32\RELEASE\TIMER.OBJ
C:\USERS\MATTHEW MCCOMB\DOCUMENTS\GITHUB\POVRAY\WINDOWS\VS2015\BUILD\POVBASE\WIN32\RELEASE\TEXTSTREAMBUFFER.OBJ
C:\USERS\MATTHEW MCCOMB\DOCUMENTS\GITHUB\POVRAY\WINDOWS\VS2015\BUILD\POVBASE\WIN32\RELEASE\TEXTSTREAM.OBJ
C:\USERS\MATTHEW MCCOMB\DOCUMENTS\GITHUB\POVRAY\WINDOWS\VS2015\BUILD\POVBASE\WIN32\RELEASE\STRINGUTILITIES.OBJ
C:\USERS\MATTHEW MCCOMB\DOCUMENTS\GITHUB\POVRAY\WINDOWS\VS2015\BUILD\POVBASE\WIN32\RELEASE\POV_MEM.OBJ
C:\USERS\MATTHEW MCCOMB\DOCUMENTS\GITHUB\POVRAY\WINDOWS\VS2015\BUILD\POVBASE\WIN32\RELEASE\POV_ERR.OBJ
C:\USERS\MATTHEW MCCOMB\DOCUMENTS\GITHUB\POVRAY\WINDOWS\VS2015\BUILD\POVBASE\WIN32\RELEASE\PLATFORMBASE.OBJ
C:\USERS\MATTHEW MCCOMB\DOCUMENTS\GITHUB\POVRAY\WINDOWS\VS2015\BUILD\POVBASE\WIN32\RELEASE\PATH.OBJ
C:\USERS\MATTHEW MCCOMB\DOCUMENTS\GITHUB\POVRAY\WINDOWS\VS2015\BUILD\POVBASE\WIN32\RELEASE\MESSENGER.OBJ
C:\USERS\MATTHEW MCCOMB\DOCUMENTS\GITHUB\POVRAY\WINDOWS\VS2015\BUILD\POVBASE\WIN32\RELEASE\MATHUTIL.OBJ
C:\USERS\MATTHEW MCCOMB\DOCUMENTS\GITHUB\POVRAY\WINDOWS\VS2015\BUILD\POVBASE\WIN32\RELEASE\TIFF.OBJ
C:\USERS\MATTHEW MCCOMB\DOCUMENTS\GITHUB\POVRAY\WINDOWS\VS2015\BUILD\POVBASE\WIN32\RELEASE\TARGA.OBJ
^C:\USERS\MATTHEW MCCOMB\DOCUMENTS\GITHUB\POVRAY\SOURCE\BASE\ANIMATION\ANIMATION.CPP
C:\USERS\MATTHEW MCCOMB\DOCUMENTS\GITHUB\POVRAY\WINDOWS\VS2015\BUILD\POVBASE\WIN32\RELEASE\POVBASE.PDB
^C:\USERS\MATTHEW MCCOMB\DOCUMENTS\GITHUB\POVRAY\SOURCE\BASE\ANIMATION\MOOV.CPP
C:\USERS\MATTHEW MCCOMB\DOCUMENTS\GITHUB\POVRAY\WINDOWS\VS2015\BUILD\POVBASE\WIN32\RELEASE\POVBASE.PDB
^C:\USERS\MATTHEW MCCOMB\DOCUMENTS\GITHUB\POVRAY\SOURCE\BASE\COLOUR.CPP
C:\USERS\MATTHEW MCCOMB\DOCUMENTS\GITHUB\POVRAY\WINDOWS\VS2015\BUILD\POVBASE\WIN32\RELEASE\POVBASE.PDB
^C:\USERS\MATTHEW MCCOMB\DOCUMENTS\GITHUB\POVRAY\SOURCE\BASE\FILEINPUTOUTPUT.CPP
C:\USERS\MATTHEW MCCOMB\DOCUMENTS\GITHUB\POVRAY\WINDOWS\VS2015\BUILD\POVBASE\WIN32\RELEASE\POVBASE.PDB
^C:\USERS\MATTHEW MCCOMB\DOCUMENTS\GITHUB\POVRAY\SOURCE\BASE\FILEUTIL.CPP
C:\USERS\MATTHEW MCCOMB\DOCUMENTS\GITHUB\POVRAY\WINDOWS\VS2015\BUILD\POVBASE\WIN32\RELEASE\POVBASE.PDB
^C:\USERS\MATTHEW MCCOMB\DOCUMENTS\GITHUB\POVRAY\SOURCE\BASE\FONT\CRYSTAL.CPP
C:\USERS\MATTHEW MCCOMB\DOCUMENTS\GITHUB\POVRAY\WINDOWS\VS2015\BUILD\POVBASE\WIN32\RELEASE\POVBASE.PDB
^C:\USERS\MATTHEW MCCOMB\DOCUMENTS\GITHUB\POVRAY\SOURCE\BASE\FONT\CYRVETIC.CPP
C:\USERS\MATTHEW MCCOMB\DOCUMENTS\GITHUB\POVRAY\WINDOWS\VS2015\BUILD\POVBASE\WIN32\RELEASE\POVBASE.PDB
^C:\USERS\MATTHEW MCCOMB\DOCUMENTS\GITHUB\POVRAY\SOURCE\BASE\FONT\POVLOGO.CPP
C:\USERS\MATTHEW MCCOMB\DOCUMENTS\GITHUB\POVRAY\WINDOWS\VS2015\BUILD\POVBASE\WIN32\RELEASE\POVBASE.PDB
^C:\USERS\MATTHEW MCCOMB\DOCUMENTS\GITHUB\POVRAY\SOURCE\BASE\FONT\TIMROM.CPP
C:\USERS\MATTHEW MCCOMB\DOCUMENTS\GITHUB\POVRAY\WINDOWS\VS2015\BUILD\POVBASE\WIN32\RELEASE\POVBASE.PDB
^C:\USERS\MATTHEW MCCOMB\DOCUMENTS\GITHUB\POVRAY\SOURCE\BASE\IMAGE\BMP.CPP
C:\USERS\MATTHEW MCCOMB\DOCUMENTS\GITHUB\POVRAY\WINDOWS\VS2015\BUILD\POVBASE\WIN32\RELEASE\POVBASE.PDB
^C:\USERS\MATTHEW MCCOMB\DOCUMENTS\GITHUB\POVRAY\SOURCE\BASE\IMAGE\COLOURSPACE.CPP
C:\USERS\MATTHEW MCCOMB\DOCUMENTS\GITHUB\POVRAY\WINDOWS\VS2015\BUILD\POVBASE\WIN32\RELEASE\POVBASE.PDB
^C:\USERS\MATTHEW MCCOMB\DOCUMENTS\GITHUB\POVRAY\SOURCE\BASE\IMAGE\ENCODING.CPP
C:\USERS\MATTHEW MCCOMB\DOCUMENTS\GITHUB\POVRAY\WINDOWS\VS2015\BUILD\POVBASE\WIN32\RELEASE\POVBASE.PDB
^C:\USERS\MATTHEW MCCOMB\DOCUMENTS\GITHUB\POVRAY\SOURCE\BASE\IMAGE\GIF.CPP
C:\USERS\MATTHEW MCCOMB\DOCUMENTS\GITHUB\POVRAY\WINDOWS\VS2015\BUILD\POVBASE\WIN32\RELEASE\POVBASE.PDB
^C:\USERS\MATTHEW MCCOMB\DOCUMENTS\GITHUB\POVRAY\SOURCE\BASE\IMAGE\GIFDECOD.CPP
C:\USERS\MATTHEW MCCOMB\DOCUMENTS\GITHUB\POVRAY\WINDOWS\VS2015\BUILD\POVBASE\WIN32\RELEASE\POVBASE.PDB
^C:\USERS\MATTHEW MCCOMB\DOCUMENTS\GITHUB\POVRAY\SOURCE\BASE\IMAGE\HDR.CPP
C:\USERS\MATTHEW MCCOMB\DOCUMENTS\GITHUB\POVRAY\WINDOWS\VS2015\BUILD\POVBASE\WIN32\RELEASE\POVBASE.PDB
^C:\USERS\MATTHEW MCCOMB\DOCUMENTS\GITHUB\POVRAY\SOURCE\BASE\IMAGE\IFF.CPP
C:\USERS\MATTHEW MCCOMB\DOCUMENTS\GITHUB\POVRAY\WINDOWS\VS2015\BUILD\POVBASE\WIN32\RELEASE\POVBASE.PDB
^C:\USERS\MATTHEW MCCOMB\DOCUMENTS\GITHUB\POVRAY\SOURCE\BASE\IMAGE\IMAGE.CPP
C:\USERS\MATTHEW MCCOMB\DOCUMENTS\GITHUB\POVRAY\WINDOWS\VS2015\BUILD\POVBASE\WIN32\RELEASE\POVBASE.PDB
^C:\USERS\MATTHEW MCCOMB\DOCUMENTS\GITHUB\POVRAY\SOURCE\BASE\IMAGE\METADATA.CPP
C:\USERS\MATTHEW MCCOMB\DOCUMENTS\GITHUB\POVRAY\WINDOWS\VS2015\BUILD\POVBASE\WIN32\RELEASE\POVBASE.PDB
^C:\USERS\MATTHEW MCCOMB\DOCUMENTS\GITHUB\POVRAY\SOURCE\BASE\IMAGE\OPENEXR.CPP
C:\USERS\MATTHEW MCCOMB\DOCUMENTS\GITHUB\POVRAY\WINDOWS\VS2015\BUILD\POVBASE\WIN32\RELEASE\POVBASE.PDB
^C:\USERS\MATTHEW MCCOMB\DOCUMENTS\GITHUB\POVRAY\SOURCE\BASE\IMAGE\PPM.CPP
C:\USERS\MATTHEW MCCOMB\DOCUMENTS\GITHUB\POVRAY\WINDOWS\VS2015\BUILD\POVBASE\WIN32\RELEASE\POVBASE.PDB
^C:\USERS\MATTHEW MCCOMB\DOCUMENTS\GITHUB\POVRAY\SOURCE\BASE\IMAGE\TARGA.CPP
C:\USERS\MATTHEW MCCOMB\DOCUMENTS\GITHUB\POVRAY\WINDOWS\VS2015\BUILD\POVBASE\WIN32\RELEASE\POVBASE.PDB
^C:\USERS\MATTHEW MCCOMB\DOCUMENTS\GITHUB\POVRAY\SOURCE\BASE\IMAGE\TIFF.CPP
C:\USERS\MATTHEW MCCOMB\DOCUMENTS\GITHUB\POVRAY\WINDOWS\VS2015\BUILD\POVBASE\WIN32\RELEASE\POVBASE.PDB
^C:\USERS\MATTHEW MCCOMB\DOCUMENTS\GITHUB\POVRAY\SOURCE\BASE\MATHUTIL.CPP
C:\USERS\MATTHEW MCCOMB\DOCUMENTS\GITHUB\POVRAY\WINDOWS\VS2015\BUILD\POVBASE\WIN32\RELEASE\POVBASE.PDB
^C:\USERS\MATTHEW MCCOMB\DOCUMENTS\GITHUB\POVRAY\SOURCE\BASE\MESSENGER.CPP
C:\USERS\MATTHEW MCCOMB\DOCUMENTS\GITHUB\POVRAY\WINDOWS\VS2015\BUILD\POVBASE\WIN32\RELEASE\POVBASE.PDB
^C:\USERS\MATTHEW MCCOMB\DOCUMENTS\GITHUB\POVRAY\SOURCE\BASE\PATH.CPP
C:\USERS\MATTHEW MCCOMB\DOCUMENTS\GITHUB\POVRAY\WINDOWS\VS2015\BUILD\POVBASE\WIN32\RELEASE\POVBASE.PDB
^C:\USERS\MATTHEW MCCOMB\DOCUMENTS\GITHUB\POVRAY\SOURCE\BASE\PLATFORMBASE.CPP
C:\USERS\MATTHEW MCCOMB\DOCUMENTS\GITHUB\POVRAY\WINDOWS\VS2015\BUILD\POVBASE\WIN32\RELEASE\POVBASE.PDB
^C:\USERS\MATTHEW MCCOMB\DOCUMENTS\GITHUB\POVRAY\SOURCE\BASE\POV_ERR.CPP
C:\USERS\MATTHEW MCCOMB\DOCUMENTS\GITHUB\POVRAY\WINDOWS\VS2015\BUILD\POVBASE\WIN32\RELEASE\POVBASE.PDB
^C:\USERS\MATTHEW MCCOMB\DOCUMENTS\GITHUB\POVRAY\SOURCE\BASE\POV_MEM.CPP
C:\USERS\MATTHEW MCCOMB\DOCUMENTS\GITHUB\POVRAY\WINDOWS\VS2015\BUILD\POVBASE\WIN32\RELEASE\POVBASE.PDB
^C:\USERS\MATTHEW MCCOMB\DOCUMENTS\GITHUB\POVRAY\SOURCE\BASE\STRINGUTILITIES.CPP
C:\USERS\MATTHEW MCCOMB\DOCUMENTS\GITHUB\POVRAY\WINDOWS\VS2015\BUILD\POVBASE\WIN32\RELEASE\POVBASE.PDB
^C:\USERS\MATTHEW MCCOMB\DOCUMENTS\GITHUB\POVRAY\SOURCE\BASE\TEXTSTREAM.CPP
C:\USERS\MATTHEW MCCOMB\DOCUMENTS\GITHUB\POVRAY\WINDOWS\VS2015\BUILD\POVBASE\WIN32\RELEASE\POVBASE.PDB
^C:\USERS\MATTHEW MCCOMB\DOCUMENTS\GITHUB\POVRAY\SOURCE\BASE\TEXTSTREAMBUFFER.CPP
C:\USERS\MATTHEW MCCOMB\DOCUMENTS\GITHUB\POVRAY\WINDOWS\VS2015\BUILD\POVBASE\WIN32\RELEASE\POVBASE.PDB
^C:\USERS\MATTHEW MCCOMB\DOCUMENTS\GITHUB\POVRAY\SOURCE\BASE\TIMER.CPP
C:\USERS\MATTHEW MCCOMB\DOCUMENTS\GITHUB\POVRAY\WINDOWS\VS2015\BUILD\POVBASE\WIN32\RELEASE\POVBASE.PDB
^C:\USERS\MATTHEW MCCOMB\DOCUMENTS\GITHUB\POVRAY\SOURCE\BASE\IMAGE\JPEG.CPP|C:\USERS\MATTHEW MCCOMB\DOCUMENTS\GITHUB\POVRAY\SOURCE\BASE\IMAGE\PNG.CPP
C:\USERS\MATTHEW MCCOMB\DOCUMENTS\GITHUB\POVRAY\WINDOWS\VS2015\BUILD\POVBASE\WIN32\RELEASE\POVBASE.PDB
C:\USERS\MATTHEW MCCOMB\DOCUMENTS\GITHUB\POVRAY\WINDOWS\VS2015\BUILD\POVBASE\WIN32\RELEASE\JPEG.SBR
C:\USERS\MATTHEW MCCOMB\DOCUMENTS\GITHUB\POVRAY\WINDOWS\VS2015\BUILD\POVBASE\WIN32\RELEASE\PNG.SBR
C:\USERS\MATTHEW MCCOMB\DOCUMENTS\GITHUB\POVRAY\WINDOWS\VS2015\BUILD\POVBASE\WIN32\RELEASE\PNG.OBJ
C:\USERS\MATTHEW MCCOMB\DOCUMENTS\GITHUB\POVRAY\WINDOWS\VS2015\BUILD\POVBASE\WIN32\RELEASE\JPEG.OBJ
^C:\USERS\MATTHEW MCCOMB\DOCUMENTS\GITHUB\POVRAY\SOURCE\BASE\IMAGE\JPEG.CPP
C:\USERS\MATTHEW MCCOMB\DOCUMENTS\GITHUB\POVRAY\WINDOWS\VS2015\BUILD\POVBASE\WIN32\RELEASE\POVBASE.PDB
^C:\USERS\MATTHEW MCCOMB\DOCUMENTS\GITHUB\POVRAY\SOURCE\BASE\IMAGE\PNG.CPP
C:\USERS\MATTHEW MCCOMB\DOCUMENTS\GITHUB\POVRAY\WINDOWS\VS2015\BUILD\POVBASE\WIN32\RELEASE\POVBASE.PDB
^D:\POV-RAY\POV-RAY SOURCES\NORMAL PLUS\POVRAY\SOURCE\BASE\PRECOMP.CPP
D:\POV-RAY\POV-RAY SOURCES\NORMAL PLUS\POVRAY\WINDOWS\VS2015\BUILD\POVBASE\WIN32\RELEASE\PRECOMP.PCH
D:\POV-RAY\POV-RAY SOURCES\NORMAL PLUS\POVRAY\WINDOWS\VS2015\BUILD\POVBASE\WIN32\RELEASE\POVBASE.PDB
D:\POV-RAY\POV-RAY SOURCES\NORMAL PLUS\POVRAY\WINDOWS\VS2015\BUILD\POVBASE\WIN32\RELEASE\PRECOMP.SBR
D:\POV-RAY\POV-RAY SOURCES\NORMAL PLUS\POVRAY\WINDOWS\VS2015\BUILD\POVBASE\WIN32\RELEASE\PRECOMP.OBJ
^D:\POV-RAY\POV-RAY SOURCES\NORMAL PLUS\POVRAY\SOURCE\BASE\ANIMATION\ANIMATION.CPP|D:\POV-RAY\POV-RAY SOURCES\NORMAL PLUS\POVRAY\SOURCE\BASE\ANIMATION\MOOV.CPP|D:\POV-RAY\POV-RAY SOURCES\NORMAL PLUS\POVRAY\SOURCE\BASE\COLOUR.CPP|D:\POV-RAY\POV-RAY SOURCES\NORMAL PLUS\POVRAY\SOURCE\BASE\FILEINPUTOUTPUT.CPP|D:\POV-RAY\POV-RAY SOURCES\NORMAL PLUS\POVRAY\SOURCE\BASE\FILEUTIL.CPP|D:\POV-RAY\POV-RAY SOURCES\NORMAL PLUS\POVRAY\SOURCE\BASE\FONT\CRYSTAL.CPP|D:\POV-RAY\POV-RAY SOURCES\NORMAL PLUS\POVRAY\SOURCE\BASE\FONT\CYRVETIC.CPP|D:\POV-RAY\POV-RAY SOURCES\NORMAL PLUS\POVRAY\SOURCE\BASE\FONT\POVLOGO.CPP|D:\POV-RAY\POV-RAY SOURCES\NORMAL PLUS\POVRAY\SOURCE\BASE\FONT\TIMROM.CPP|D:\POV-RAY\POV-RAY SOURCES\NORMAL PLUS\POVRAY\SOURCE\BASE\IMAGE\BMP.CPP|D:\POV-RAY\POV-RAY SOURCES\NORMAL PLUS\POVRAY\SOURCE\BASE\IMAGE\COLOURSPACE.CPP|D:\POV-RAY\POV-RAY SOURCES\NORMAL PLUS\POVRAY\SOURCE\BASE\IMAGE\ENCODING.CPP|D:\POV-RAY\POV-RAY SOURCES\NORMAL PLUS\POVRAY\SOURCE\BASE\IMAGE\GIF.CPP|D:\POV-RAY\POV-RAY SOURCES\NORMAL PLUS\POVRAY\SOURCE\BASE\IMAGE\GIFDECOD.CPP|D:\POV-RAY\POV-RAY SOURCES\NORMAL PLUS\POVRAY\SOURCE\BASE\IMAGE\HDR.CPP|D:\POV-RAY\POV-RAY SOURCES\NORMAL PLUS\POVRAY\SOURCE\BASE\IMAGE\IFF.CPP|D:\POV-RAY\POV-RAY SOURCES\NORMAL PLUS\POVRAY\SOURCE\BASE\IMAGE\IMAGE.CPP|D:\POV-RAY\POV-RAY SOURCES\NORMAL PLUS\POVRAY\SOURCE\BASE\IMAGE\METADATA.CPP|D:\POV-RAY\POV-RAY SOURCES\NORMAL PLUS\POVRAY\SOURCE\BASE\IMAGE\OPENEXR.CPP|D:\POV-RAY\POV-RAY SOURCES\NORMAL PLUS\POVRAY\SOURCE\BASE\IMAGE\PPM.CPP|D:\POV-RAY\POV-RAY SOURCES\NORMAL PLUS\POVRAY\SOURCE\BASE\IMAGE\TARGA.CPP|D:\POV-RAY\POV-RAY SOURCES\NORMAL PLUS\POVRAY\SOURCE\BASE\IMAGE\TIFF.CPP|D:\POV-RAY\POV-RAY SOURCES\NORMAL PLUS\POVRAY\SOURCE\BASE\MATHUTIL.CPP|D:\POV-RAY\POV-RAY SOURCES\NORMAL PLUS\POVRAY\SOURCE\BASE\MESSENGER.CPP|D:\POV-RAY\POV-RAY SOURCES\NORMAL PLUS\POVRAY\SOURCE\BASE\PATH.CPP|D:\POV-RAY\POV-RAY SOURCES\NORMAL PLUS\POVRAY\SOURCE\BASE\PLATFORMBASE.CPP|D:\POV-RAY\POV-RAY SOURCES\NORMAL PLUS\POVRAY\SOURCE\BASE\POV_ERR.CPP|D:\POV-RAY\POV-RAY SOURCES\NORMAL PLUS\POVRAY\SOURCE\BASE\POV_MEM.CPP|D:\POV-RAY\POV-RAY SOURCES\NORMAL PLUS\POVRAY\SOURCE\BASE\STRINGUTILITIES.CPP|D:\POV-RAY\POV-RAY SOURCES\NORMAL PLUS\POVRAY\SOURCE\BASE\TEXTSTREAM.CPP|D:\POV-RAY\POV-RAY SOURCES\NORMAL PLUS\POVRAY\SOURCE\BASE\TEXTSTREAMBUFFER.CPP|D:\POV-RAY\POV-RAY SOURCES\NORMAL PLUS\POVRAY\SOURCE\BASE\TIMER.CPP
D:\POV-RAY\POV-RAY SOURCES\NORMAL PLUS\POVRAY\WINDOWS\VS2015\BUILD\POVBASE\WIN32\RELEASE\POVBASE.PDB
D:\POV-RAY\POV-RAY SOURCES\NORMAL PLUS\POVRAY\WINDOWS\VS2015\BUILD\POVBASE\WIN32\RELEASE\COLOUR.SBR
D:\POV-RAY\POV-RAY SOURCES\NORMAL PLUS\POVRAY\WINDOWS\VS2015\BUILD\POVBASE\WIN32\RELEASE\FILEINPUTOUTPUT.SBR
D:\POV-RAY\POV-RAY SOURCES\NORMAL PLUS\POVRAY\WINDOWS\VS2015\BUILD\POVBASE\WIN32\RELEASE\FILEUTIL.SBR
D:\POV-RAY\POV-RAY SOURCES\NORMAL PLUS\POVRAY\WINDOWS\VS2015\BUILD\POVBASE\WIN32\RELEASE\CRYSTAL.SBR
D:\POV-RAY\POV-RAY SOURCES\NORMAL PLUS\POVRAY\WINDOWS\VS2015\BUILD\POVBASE\WIN32\RELEASE\CYRVETIC.SBR
D:\POV-RAY\POV-RAY SOURCES\NORMAL PLUS\POVRAY\WINDOWS\VS2015\BUILD\POVBASE\WIN32\RELEASE\POVLOGO.SBR
D:\POV-RAY\POV-RAY SOURCES\NORMAL PLUS\POVRAY\WINDOWS\VS2015\BUILD\POVBASE\WIN32\RELEASE\TIMROM.SBR
D:\POV-RAY\POV-RAY SOURCES\NORMAL PLUS\POVRAY\WINDOWS\VS2015\BUILD\POVBASE\WIN32\RELEASE\METADATA.SBR
D:\POV-RAY\POV-RAY SOURCES\NORMAL PLUS\POVRAY\WINDOWS\VS2015\BUILD\POVBASE\WIN32\RELEASE\MATHUTIL.SBR
D:\POV-RAY\POV-RAY SOURCES\NORMAL PLUS\POVRAY\WINDOWS\VS2015\BUILD\POVBASE\WIN32\RELEASE\MESSENGER.SBR
D:\POV-RAY\POV-RAY SOURCES\NORMAL PLUS\POVRAY\WINDOWS\VS2015\BUILD\POVBASE\WIN32\RELEASE\PATH.SBR
D:\POV-RAY\POV-RAY SOURCES\NORMAL PLUS\POVRAY\WINDOWS\VS2015\BUILD\POVBASE\WIN32\RELEASE\PLATFORMBASE.SBR
D:\POV-RAY\POV-RAY SOURCES\NORMAL PLUS\POVRAY\WINDOWS\VS2015\BUILD\POVBASE\WIN32\RELEASE\POV_ERR.SBR
D:\POV-RAY\POV-RAY SOURCES\NORMAL PLUS\POVRAY\WINDOWS\VS2015\BUILD\POVBASE\WIN32\RELEASE\POV_MEM.SBR
D:\POV-RAY\POV-RAY SOURCES\NORMAL PLUS\POVRAY\WINDOWS\VS2015\BUILD\POVBASE\WIN32\RELEASE\STRINGUTILITIES.SBR
D:\POV-RAY\POV-RAY SOURCES\NORMAL PLUS\POVRAY\WINDOWS\VS2015\BUILD\POVBASE\WIN32\RELEASE\TEXTSTREAM.SBR
D:\POV-RAY\POV-RAY SOURCES\NORMAL PLUS\POVRAY\WINDOWS\VS2015\BUILD\POVBASE\WIN32\RELEASE\TEXTSTREAMBUFFER.SBR
D:\POV-RAY\POV-RAY SOURCES\NORMAL PLUS\POVRAY\WINDOWS\VS2015\BUILD\POVBASE\WIN32\RELEASE\TIMER.SBR
D:\POV-RAY\POV-RAY SOURCES\NORMAL PLUS\POVRAY\WINDOWS\VS2015\BUILD\POVBASE\WIN32\RELEASE\BMP.SBR
D:\POV-RAY\POV-RAY SOURCES\NORMAL PLUS\POVRAY\WINDOWS\VS2015\BUILD\POVBASE\WIN32\RELEASE\COLOURSPACE.SBR
D:\POV-RAY\POV-RAY SOURCES\NORMAL PLUS\POVRAY\WINDOWS\VS2015\BUILD\POVBASE\WIN32\RELEASE\COLOURSPACE.OBJ
D:\POV-RAY\POV-RAY SOURCES\NORMAL PLUS\POVRAY\WINDOWS\VS2015\BUILD\POVBASE\WIN32\RELEASE\BMP.OBJ
D:\POV-RAY\POV-RAY SOURCES\NORMAL PLUS\POVRAY\WINDOWS\VS2015\BUILD\POVBASE\WIN32\RELEASE\TIMER.OBJ
D:\POV-RAY\POV-RAY SOURCES\NORMAL PLUS\POVRAY\WINDOWS\VS2015\BUILD\POVBASE\WIN32\RELEASE\TEXTSTREAMBUFFER.OBJ
D:\POV-RAY\POV-RAY SOURCES\NORMAL PLUS\POVRAY\WINDOWS\VS2015\BUILD\POVBASE\WIN32\RELEASE\TEXTSTREAM.OBJ
D:\POV-RAY\POV-RAY SOURCES\NORMAL PLUS\POVRAY\WINDOWS\VS2015\BUILD\POVBASE\WIN32\RELEASE\STRINGUTILITIES.OBJ
D:\POV-RAY\POV-RAY SOURCES\NORMAL PLUS\POVRAY\WINDOWS\VS2015\BUILD\POVBASE\WIN32\RELEASE\POV_MEM.OBJ
D:\POV-RAY\POV-RAY SOURCES\NORMAL PLUS\POVRAY\WINDOWS\VS2015\BUILD\POVBASE\WIN32\RELEASE\POV_ERR.OBJ
D:\POV-RAY\POV-RAY SOURCES\NORMAL PLUS\POVRAY\WINDOWS\VS2015\BUILD\POVBASE\WIN32\RELEASE\PLATFORMBASE.OBJ
D:\POV-RAY\POV-RAY SOURCES\NORMAL PLUS\POVRAY\WINDOWS\VS2015\BUILD\POVBASE\WIN32\RELEASE\PATH.OBJ
D:\POV-RAY\POV-RAY SOURCES\NORMAL PLUS\POVRAY\WINDOWS\VS2015\BUILD\POVBASE\WIN32\RELEASE\MESSENGER.OBJ
D:\POV-RAY\POV-RAY SOURCES\NORMAL PLUS\POVRAY\WINDOWS\VS2015\BUILD\POVBASE\WIN32\RELEASE\MATHUTIL.OBJ
D:\POV-RAY\POV-RAY SOURCES\NORMAL PLUS\POVRAY\WINDOWS\VS2015\BUILD\POVBASE\WIN32\RELEASE\METADATA.OBJ
D:\POV-RAY\POV-RAY SOURCES\NORMAL PLUS\POVRAY\WINDOWS\VS2015\BUILD\POVBASE\WIN32\RELEASE\TIMROM.OBJ
D:\POV-RAY\POV-RAY SOURCES\NORMAL PLUS\POVRAY\WINDOWS\VS2015\BUILD\POVBASE\WIN32\RELEASE\POVLOGO.OBJ
D:\POV-RAY\POV-RAY SOURCES\NORMAL PLUS\POVRAY\WINDOWS\VS2015\BUILD\POVBASE\WIN32\RELEASE\CYRVETIC.OBJ
D:\POV-RAY\POV-RAY SOURCES\NORMAL PLUS\POVRAY\WINDOWS\VS2015\BUILD\POVBASE\WIN32\RELEASE\CRYSTAL.OBJ
D:\POV-RAY\POV-RAY SOURCES\NORMAL PLUS\POVRAY\WINDOWS\VS2015\BUILD\POVBASE\WIN32\RELEASE\FILEUTIL.OBJ
D:\POV-RAY\POV-RAY SOURCES\NORMAL PLUS\POVRAY\WINDOWS\VS2015\BUILD\POVBASE\WIN32\RELEASE\FILEINPUTOUTPUT.OBJ
D:\POV-RAY\POV-RAY SOURCES\NORMAL PLUS\POVRAY\WINDOWS\VS2015\BUILD\POVBASE\WIN32\RELEASE\COLOUR.OBJ
D:\POV-RAY\POV-RAY SOURCES\NORMAL PLUS\POVRAY\WINDOWS\VS2015\BUILD\POVBASE\WIN32\RELEASE\ENCODING.SBR
D:\POV-RAY\POV-RAY SOURCES\NORMAL PLUS\POVRAY\WINDOWS\VS2015\BUILD\POVBASE\WIN32\RELEASE\GIF.SBR
D:\POV-RAY\POV-RAY SOURCES\NORMAL PLUS\POVRAY\WINDOWS\VS2015\BUILD\POVBASE\WIN32\RELEASE\GIFDECOD.SBR
D:\POV-RAY\POV-RAY SOURCES\NORMAL PLUS\POVRAY\WINDOWS\VS2015\BUILD\POVBASE\WIN32\RELEASE\HDR.SBR
D:\POV-RAY\POV-RAY SOURCES\NORMAL PLUS\POVRAY\WINDOWS\VS2015\BUILD\POVBASE\WIN32\RELEASE\IFF.SBR
D:\POV-RAY\POV-RAY SOURCES\NORMAL PLUS\POVRAY\WINDOWS\VS2015\BUILD\POVBASE\WIN32\RELEASE\IMAGE.SBR
D:\POV-RAY\POV-RAY SOURCES\NORMAL PLUS\POVRAY\WINDOWS\VS2015\BUILD\POVBASE\WIN32\RELEASE\OPENEXR.SBR
D:\POV-RAY\POV-RAY SOURCES\NORMAL PLUS\POVRAY\WINDOWS\VS2015\BUILD\POVBASE\WIN32\RELEASE\PPM.SBR
D:\POV-RAY\POV-RAY SOURCES\NORMAL PLUS\POVRAY\WINDOWS\VS2015\BUILD\POVBASE\WIN32\RELEASE\TARGA.SBR
D:\POV-RAY\POV-RAY SOURCES\NORMAL PLUS\POVRAY\WINDOWS\VS2015\BUILD\POVBASE\WIN32\RELEASE\TIFF.SBR
D:\POV-RAY\POV-RAY SOURCES\NORMAL PLUS\POVRAY\WINDOWS\VS2015\BUILD\POVBASE\WIN32\RELEASE\ANIMATION.SBR
D:\POV-RAY\POV-RAY SOURCES\NORMAL PLUS\POVRAY\WINDOWS\VS2015\BUILD\POVBASE\WIN32\RELEASE\MOOV.SBR
D:\POV-RAY\POV-RAY SOURCES\NORMAL PLUS\POVRAY\WINDOWS\VS2015\BUILD\POVBASE\WIN32\RELEASE\MOOV.OBJ
D:\POV-RAY\POV-RAY SOURCES\NORMAL PLUS\POVRAY\WINDOWS\VS2015\BUILD\POVBASE\WIN32\RELEASE\ANIMATION.OBJ
D:\POV-RAY\POV-RAY SOURCES\NORMAL PLUS\POVRAY\WINDOWS\VS2015\BUILD\POVBASE\WIN32\RELEASE\TIFF.OBJ
D:\POV-RAY\POV-RAY SOURCES\NORMAL PLUS\POVRAY\WINDOWS\VS2015\BUILD\POVBASE\WIN32\RELEASE\TARGA.OBJ
D:\POV-RAY\POV-RAY SOURCES\NORMAL PLUS\POVRAY\WINDOWS\VS2015\BUILD\POVBASE\WIN32\RELEASE\PPM.OBJ
D:\POV-RAY\POV-RAY SOURCES\NORMAL PLUS\POVRAY\WINDOWS\VS2015\BUILD\POVBASE\WIN32\RELEASE\OPENEXR.OBJ
D:\POV-RAY\POV-RAY SOURCES\NORMAL PLUS\POVRAY\WINDOWS\VS2015\BUILD\POVBASE\WIN32\RELEASE\IMAGE.OBJ
D:\POV-RAY\POV-RAY SOURCES\NORMAL PLUS\POVRAY\WINDOWS\VS2015\BUILD\POVBASE\WIN32\RELEASE\IFF.OBJ
D:\POV-RAY\POV-RAY SOURCES\NORMAL PLUS\POVRAY\WINDOWS\VS2015\BUILD\POVBASE\WIN32\RELEASE\HDR.OBJ
D:\POV-RAY\POV-RAY SOURCES\NORMAL PLUS\POVRAY\WINDOWS\VS2015\BUILD\POVBASE\WIN32\RELEASE\GIFDECOD.OBJ
D:\POV-RAY\POV-RAY SOURCES\NORMAL PLUS\POVRAY\WINDOWS\VS2015\BUILD\POVBASE\WIN32\RELEASE\GIF.OBJ
D:\POV-RAY\POV-RAY SOURCES\NORMAL PLUS\POVRAY\WINDOWS\VS2015\BUILD\POVBASE\WIN32\RELEASE\ENCODING.OBJ
^D:\POV-RAY\POV-RAY SOURCES\NORMAL PLUS\POVRAY\SOURCE\BASE\COLOUR.CPP
D:\POV-RAY\POV-RAY SOURCES\NORMAL PLUS\POVRAY\WINDOWS\VS2015\BUILD\POVBASE\WIN32\RELEASE\POVBASE.PDB
^D:\POV-RAY\POV-RAY SOURCES\NORMAL PLUS\POVRAY\SOURCE\BASE\FILEINPUTOUTPUT.CPP
D:\POV-RAY\POV-RAY SOURCES\NORMAL PLUS\POVRAY\WINDOWS\VS2015\BUILD\POVBASE\WIN32\RELEASE\POVBASE.PDB
^D:\POV-RAY\POV-RAY SOURCES\NORMAL PLUS\POVRAY\SOURCE\BASE\FILEUTIL.CPP
D:\POV-RAY\POV-RAY SOURCES\NORMAL PLUS\POVRAY\WINDOWS\VS2015\BUILD\POVBASE\WIN32\RELEASE\POVBASE.PDB
^D:\POV-RAY\POV-RAY SOURCES\NORMAL PLUS\POVRAY\SOURCE\BASE\FONT\CRYSTAL.CPP
D:\POV-RAY\POV-RAY SOURCES\NORMAL PLUS\POVRAY\WINDOWS\VS2015\BUILD\POVBASE\WIN32\RELEASE\POVBASE.PDB
^D:\POV-RAY\POV-RAY SOURCES\NORMAL PLUS\POVRAY\SOURCE\BASE\FONT\CYRVETIC.CPP
D:\POV-RAY\POV-RAY SOURCES\NORMAL PLUS\POVRAY\WINDOWS\VS2015\BUILD\POVBASE\WIN32\RELEASE\POVBASE.PDB
^D:\POV-RAY\POV-RAY SOURCES\NORMAL PLUS\POVRAY\SOURCE\BASE\FONT\POVLOGO.CPP
D:\POV-RAY\POV-RAY SOURCES\NORMAL PLUS\POVRAY\WINDOWS\VS2015\BUILD\POVBASE\WIN32\RELEASE\POVBASE.PDB
^D:\POV-RAY\POV-RAY SOURCES\NORMAL PLUS\POVRAY\SOURCE\BASE\FONT\TIMROM.CPP
D:\POV-RAY\POV-RAY SOURCES\NORMAL PLUS\POVRAY\WINDOWS\VS2015\BUILD\POVBASE\WIN32\RELEASE\POVBASE.PDB
^D:\POV-RAY\POV-RAY SOURCES\NORMAL PLUS\POVRAY\SOURCE\BASE\IMAGE\METADATA.CPP
D:\POV-RAY\POV-RAY SOURCES\NORMAL PLUS\POVRAY\WINDOWS\VS2015\BUILD\POVBASE\WIN32\RELEASE\POVBASE.PDB
^D:\POV-RAY\POV-RAY SOURCES\NORMAL PLUS\POVRAY\SOURCE\BASE\MATHUTIL.CPP
D:\POV-RAY\POV-RAY SOURCES\NORMAL PLUS\POVRAY\WINDOWS\VS2015\BUILD\POVBASE\WIN32\RELEASE\POVBASE.PDB
^D:\POV-RAY\POV-RAY SOURCES\NORMAL PLUS\POVRAY\SOURCE\BASE\MESSENGER.CPP
D:\POV-RAY\POV-RAY SOURCES\NORMAL PLUS\POVRAY\WINDOWS\VS2015\BUILD\POVBASE\WIN32\RELEASE\POVBASE.PDB
^D:\POV-RAY\POV-RAY SOURCES\NORMAL PLUS\POVRAY\SOURCE\BASE\PATH.CPP
D:\POV-RAY\POV-RAY SOURCES\NORMAL PLUS\POVRAY\WINDOWS\VS2015\BUILD\POVBASE\WIN32\RELEASE\POVBASE.PDB
^D:\POV-RAY\POV-RAY SOURCES\NORMAL PLUS\POVRAY\SOURCE\BASE\PLATFORMBASE.CPP
D:\POV-RAY\POV-RAY SOURCES\NORMAL PLUS\POVRAY\WINDOWS\VS2015\BUILD\POVBASE\WIN32\RELEASE\POVBASE.PDB
^D:\POV-RAY\POV-RAY SOURCES\NORMAL PLUS\POVRAY\SOURCE\BASE\POV_ERR.CPP
D:\POV-RAY\POV-RAY SOURCES\NORMAL PLUS\POVRAY\WINDOWS\VS2015\BUILD\POVBASE\WIN32\RELEASE\POVBASE.PDB
^D:\POV-RAY\POV-RAY SOURCES\NORMAL PLUS\POVRAY\SOURCE\BASE\POV_MEM.CPP
D:\POV-RAY\POV-RAY SOURCES\NORMAL PLUS\POVRAY\WINDOWS\VS2015\BUILD\POVBASE\WIN32\RELEASE\POVBASE.PDB
^D:\POV-RAY\POV-RAY SOURCES\NORMAL PLUS\POVRAY\SOURCE\BASE\STRINGUTILITIES.CPP
D:\POV-RAY\POV-RAY SOURCES\NORMAL PLUS\POVRAY\WINDOWS\VS2015\BUILD\POVBASE\WIN32\RELEASE\POVBASE.PDB
^D:\POV-RAY\POV-RAY SOURCES\NORMAL PLUS\POVRAY\SOURCE\BASE\TEXTSTREAM.CPP
D:\POV-RAY\POV-RAY SOURCES\NORMAL PLUS\POVRAY\WINDOWS\VS2015\BUILD\POVBASE\WIN32\RELEASE\POVBASE.PDB
^D:\POV-RAY\POV-RAY SOURCES\NORMAL PLUS\POVRAY\SOURCE\BASE\TEXTSTREAMBUFFER.CPP
D:\POV-RAY\POV-RAY SOURCES\NORMAL PLUS\POVRAY\WINDOWS\VS2015\BUILD\POVBASE\WIN32\RELEASE\POVBASE.PDB
^D:\POV-RAY\POV-RAY SOURCES\NORMAL PLUS\POVRAY\SOURCE\BASE\TIMER.CPP
D:\POV-RAY\POV-RAY SOURCES\NORMAL PLUS\POVRAY\WINDOWS\VS2015\BUILD\POVBASE\WIN32\RELEASE\POVBASE.PDB
^D:\POV-RAY\POV-RAY SOURCES\NORMAL PLUS\POVRAY\SOURCE\BASE\IMAGE\BMP.CPP
D:\POV-RAY\POV-RAY SOURCES\NORMAL PLUS\POVRAY\WINDOWS\VS2015\BUILD\POVBASE\WIN32\RELEASE\POVBASE.PDB
^D:\POV-RAY\POV-RAY SOURCES\NORMAL PLUS\POVRAY\SOURCE\BASE\IMAGE\COLOURSPACE.CPP
D:\POV-RAY\POV-RAY SOURCES\NORMAL PLUS\POVRAY\WINDOWS\VS2015\BUILD\POVBASE\WIN32\RELEASE\POVBASE.PDB
^D:\POV-RAY\POV-RAY SOURCES\NORMAL PLUS\POVRAY\SOURCE\BASE\IMAGE\ENCODING.CPP
D:\POV-RAY\POV-RAY SOURCES\NORMAL PLUS\POVRAY\WINDOWS\VS2015\BUILD\POVBASE\WIN32\RELEASE\POVBASE.PDB
^D:\POV-RAY\POV-RAY SOURCES\NORMAL PLUS\POVRAY\SOURCE\BASE\IMAGE\GIF.CPP
D:\POV-RAY\POV-RAY SOURCES\NORMAL PLUS\POVRAY\WINDOWS\VS2015\BUILD\POVBASE\WIN32\RELEASE\POVBASE.PDB
^D:\POV-RAY\POV-RAY SOURCES\NORMAL PLUS\POVRAY\SOURCE\BASE\IMAGE\GIFDECOD.CPP
D:\POV-RAY\POV-RAY SOURCES\NORMAL PLUS\POVRAY\WINDOWS\VS2015\BUILD\POVBASE\WIN32\RELEASE\POVBASE.PDB
^D:\POV-RAY\POV-RAY SOURCES\NORMAL PLUS\POVRAY\SOURCE\BASE\IMAGE\HDR.CPP
D:\POV-RAY\POV-RAY SOURCES\NORMAL PLUS\POVRAY\WINDOWS\VS2015\BUILD\POVBASE\WIN32\RELEASE\POVBASE.PDB
^D:\POV-RAY\POV-RAY SOURCES\NORMAL PLUS\POVRAY\SOURCE\BASE\IMAGE\IFF.CPP
D:\POV-RAY\POV-RAY SOURCES\NORMAL PLUS\POVRAY\WINDOWS\VS2015\BUILD\POVBASE\WIN32\RELEASE\POVBASE.PDB
^D:\POV-RAY\POV-RAY SOURCES\NORMAL PLUS\POVRAY\SOURCE\BASE\IMAGE\IMAGE.CPP
D:\POV-RAY\POV-RAY SOURCES\NORMAL PLUS\POVRAY\WINDOWS\VS2015\BUILD\POVBASE\WIN32\RELEASE\POVBASE.PDB
^D:\POV-RAY\POV-RAY SOURCES\NORMAL PLUS\POVRAY\SOURCE\BASE\IMAGE\OPENEXR.CPP
D:\POV-RAY\POV-RAY SOURCES\NORMAL PLUS\POVRAY\WINDOWS\VS2015\BUILD\POVBASE\WIN32\RELEASE\POVBASE.PDB
^D:\POV-RAY\POV-RAY SOURCES\NORMAL PLUS\POVRAY\SOURCE\BASE\IMAGE\PPM.CPP
D:\POV-RAY\POV-RAY SOURCES\NORMAL PLUS\POVRAY\WINDOWS\VS2015\BUILD\POVBASE\WIN32\RELEASE\POVBASE.PDB
^D:\POV-RAY\POV-RAY SOURCES\NORMAL PLUS\POVRAY\SOURCE\BASE\IMAGE\TARGA.CPP
D:\POV-RAY\POV-RAY SOURCES\NORMAL PLUS\POVRAY\WINDOWS\VS2015\BUILD\POVBASE\WIN32\RELEASE\POVBASE.PDB
^D:\POV-RAY\POV-RAY SOURCES\NORMAL PLUS\POVRAY\SOURCE\BASE\IMAGE\TIFF.CPP
D:\POV-RAY\POV-RAY SOURCES\NORMAL PLUS\POVRAY\WINDOWS\VS2015\BUILD\POVBASE\WIN32\RELEASE\POVBASE.PDB
^D:\POV-RAY\POV-RAY SOURCES\NORMAL PLUS\POVRAY\SOURCE\BASE\ANIMATION\ANIMATION.CPP
D:\POV-RAY\POV-RAY SOURCES\NORMAL PLUS\POVRAY\WINDOWS\VS2015\BUILD\POVBASE\WIN32\RELEASE\POVBASE.PDB
^D:\POV-RAY\POV-RAY SOURCES\NORMAL PLUS\POVRAY\SOURCE\BASE\ANIMATION\MOOV.CPP
D:\POV-RAY\POV-RAY SOURCES\NORMAL PLUS\POVRAY\WINDOWS\VS2015\BUILD\POVBASE\WIN32\RELEASE\POVBASE.PDB
^D:\POV-RAY\POV-RAY SOURCES\NORMAL PLUS\POVRAY\SOURCE\BASE\IMAGE\JPEG.CPP|D:\POV-RAY\POV-RAY SOURCES\NORMAL PLUS\POVRAY\SOURCE\BASE\IMAGE\PNG.CPP
D:\POV-RAY\POV-RAY SOURCES\NORMAL PLUS\POVRAY\WINDOWS\VS2015\BUILD\POVBASE\WIN32\RELEASE\POVBASE.PDB
D:\POV-RAY\POV-RAY SOURCES\NORMAL PLUS\POVRAY\WINDOWS\VS2015\BUILD\POVBASE\WIN32\RELEASE\JPEG.SBR
D:\POV-RAY\POV-RAY SOURCES\NORMAL PLUS\POVRAY\WINDOWS\VS2015\BUILD\POVBASE\WIN32\RELEASE\PNG.SBR
D:\POV-RAY\POV-RAY SOURCES\NORMAL PLUS\POVRAY\WINDOWS\VS2015\BUILD\POVBASE\WIN32\RELEASE\PNG.OBJ
D:\POV-RAY\POV-RAY SOURCES\NORMAL PLUS\POVRAY\WINDOWS\VS2015\BUILD\POVBASE\WIN32\RELEASE\JPEG.OBJ
^D:\POV-RAY\POV-RAY SOURCES\NORMAL PLUS\POVRAY\SOURCE\BASE\IMAGE\JPEG.CPP
D:\POV-RAY\POV-RAY SOURCES\NORMAL PLUS\POVRAY\WINDOWS\VS2015\BUILD\POVBASE\WIN32\RELEASE\POVBASE.PDB
^D:\POV-RAY\POV-RAY SOURCES\NORMAL PLUS\POVRAY\SOURCE\BASE\IMAGE\PNG.CPP
D:\POV-RAY\POV-RAY SOURCES\NORMAL PLUS\POVRAY\WINDOWS\VS2015\BUILD\POVBASE\WIN32\RELEASE\POVBASE.PDB
