^D:\POV-RAY\POV-RAY SOURCES\FLOAT\POVRAYFLOAT\WINDOWS\VS2015\BUILD\POVPARSER\WIN32\RELEASE\FNCODE.OBJ|D:\POV-RAY\POV-RAY SOURCES\FLOAT\POVRAYFLOAT\WINDOWS\VS2015\BUILD\POVPARSER\WIN32\RELEASE\PARSER.OBJ|D:\POV-RAY\POV-RAY SOURCES\FLOAT\POVRAYFLOAT\WINDOWS\VS2015\BUILD\POVPARSER\WIN32\RELEASE\PARSER_EXPRESSIONS.OBJ|D:\POV-RAY\POV-RAY SOURCES\FLOAT\POVRAYFLOAT\WINDOWS\VS2015\BUILD\POVPARSER\WIN32\RELEASE\PARSER_FUNCTIONS.OBJ|D:\POV-RAY\POV-RAY SOURCES\FLOAT\POVRAYFLOAT\WINDOWS\VS2015\BUILD\POVPARSER\WIN32\RELEASE\PARSER_FUNCTIONS_UTILITIES.OBJ|D:\POV-RAY\POV-RAY SOURCES\FLOAT\POVRAYFLOAT\WINDOWS\VS2015\BUILD\POVPARSER\WIN32\RELEASE\PARSER_MATERIALS.OBJ|D:\POV-RAY\POV-RAY SOURCES\FLOAT\POVRAYFLOAT\WINDOWS\VS2015\BUILD\POVPARSER\WIN32\RELEASE\PARSER_OBJ.OBJ|D:\POV-RAY\POV-RAY SOURCES\FLOAT\POVRAYFLOAT\WINDOWS\VS2015\BUILD\POVPARSER\WIN32\RELEASE\PARSER_STRINGS.OBJ|D:\POV-RAY\POV-RAY SOURCES\FLOAT\POVRAYFLOAT\WINDOWS\VS2015\BUILD\POVPARSER\WIN32\RELEASE\PARSER_TOKENIZER.OBJ|D:\POV-RAY\POV-RAY SOURCES\FLOAT\POVRAYFLOAT\WINDOWS\VS2015\BUILD\POVPARSER\WIN32\RELEASE\PRECOMP.OBJ|D:\POV-RAY\POV-RAY SOURCES\FLOAT\POVRAYFLOAT\WINDOWS\VS2015\BUILD\POVPARSER\WIN32\RELEASE\RESERVEDWORDS.OBJ
C:\PROGRAM FILES (X86)\MICROSOFT VISUAL STUDIO 14.0\VC\BIN\VCTIP.EXE
C:\WINDOWS\SYSTEM32\TZRES.DLL
C:\WINDOWS\GLOBALIZATION\SORTING\SORTDEFAULT.NLS
D:\POV-RAY\POV-RAY SOURCES\FLOAT\POVRAYFLOAT\WINDOWS\VS2015\BUILD\POVPARSER\WIN32\RELEASE\FNCODE.OBJ
D:\POV-RAY\POV-RAY SOURCES\FLOAT\POVRAYFLOAT\WINDOWS\VS2015\BUILD\POVPARSER\WIN32\RELEASE\PARSER.OBJ
D:\POV-RAY\POV-RAY SOURCES\FLOAT\POVRAYFLOAT\WINDOWS\VS2015\BUILD\POVPARSER\WIN32\RELEASE\PARSER_EXPRESSIONS.OBJ
D:\POV-RAY\POV-RAY SOURCES\FLOAT\POVRAYFLOAT\WINDOWS\VS2015\BUILD\POVPARSER\WIN32\RELEASE\PARSER_FUNCTIONS.OBJ
D:\POV-RAY\POV-RAY SOURCES\FLOAT\POVRAYFLOAT\WINDOWS\VS2015\BUILD\POVPARSER\WIN32\RELEASE\PARSER_FUNCTIONS_UTILITIES.OBJ
D:\POV-RAY\POV-RAY SOURCES\FLOAT\POVRAYFLOAT\WINDOWS\VS2015\BUILD\POVPARSER\WIN32\RELEASE\PARSER_MATERIALS.OBJ
D:\POV-RAY\POV-RAY SOURCES\FLOAT\POVRAYFLOAT\WINDOWS\VS2015\BUILD\POVPARSER\WIN32\RELEASE\PARSER_OBJ.OBJ
D:\POV-RAY\POV-RAY SOURCES\FLOAT\POVRAYFLOAT\WINDOWS\VS2015\BUILD\POVPARSER\WIN32\RELEASE\PARSER_STRINGS.OBJ
D:\POV-RAY\POV-RAY SOURCES\FLOAT\POVRAYFLOAT\WINDOWS\VS2015\BUILD\POVPARSER\WIN32\RELEASE\PARSER_TOKENIZER.OBJ
D:\POV-RAY\POV-RAY SOURCES\FLOAT\POVRAYFLOAT\WINDOWS\VS2015\BUILD\POVPARSER\WIN32\RELEASE\RESERVEDWORDS.OBJ
D:\POV-RAY\POV-RAY SOURCES\FLOAT\POVRAYFLOAT\WINDOWS\VS2015\BUILD\POVPARSER\WIN32\RELEASE\PRECOMP.OBJ
