^C:\USERS\MATTHEW MCCOMB\DOCUMENTS\GITHUB\POVRAY\LIBRARIES\ILMBASE\HALF\HALF.CPP
C:\USERS\MATTHEW MCCOMB\DOCUMENTS\GITHUB\POVRAY\WINDOWS\VS2015\BUILD\OPENEXR ILMBASE HALF\WIN32\RELEASE\OPENEXR ILMBASE HALF.PDB
C:\USERS\MATTHEW MCCOMB\DOCUMENTS\GITHUB\POVRAY\WINDOWS\VS2015\BUILD\OPENEXR ILMBASE HALF\WIN32\RELEASE\HALF.SBR
C:\USERS\MATTHEW MCCOMB\DOCUMENTS\GITHUB\POVRAY\WINDOWS\VS2015\BUILD\OPENEXR ILMBASE HALF\WIN32\RELEASE\HALF.OBJ
^D:\POV-RAY\POV-RAY SOURCES\NORMAL PLUS\POVRAY\LIBRARIES\ILMBASE\HALF\HALF.CPP
D:\POV-RAY\POV-RAY SOURCES\NORMAL PLUS\POVRAY\WINDOWS\VS2015\BUILD\OPENEXR ILMBASE HALF\WIN32\RELEASE\OPENEXR ILMBASE HALF.PDB
D:\POV-RAY\POV-RAY SOURCES\NORMAL PLUS\POVRAY\WINDOWS\VS2015\BUILD\OPENEXR ILMBASE HALF\WIN32\RELEASE\HALF.SBR
D:\POV-RAY\POV-RAY SOURCES\NORMAL PLUS\POVRAY\WINDOWS\VS2015\BUILD\OPENEXR ILMBASE HALF\WIN32\RELEASE\HALF.OBJ
