^C:\USERS\MATTHEW MCCOMB\DOCUMENTS\GITHUB\POVRAY\WINDOWS\VS2015\BUILD\POVBACKEND\WIN32\DEBUG\BACKENDSCENEDATA.SBR|C:\USERS\MATTHEW MCCOMB\DOCUMENTS\GITHUB\POVRAY\WINDOWS\VS2015\BUILD\POVBACKEND\WIN32\DEBUG\BENCHMARK.SBR|C:\USERS\MATTHEW MCCOMB\DOCUMENTS\GITHUB\POVRAY\WINDOWS\VS2015\BUILD\POVBACKEND\WIN32\DEBUG\BENCHMARK_INI.SBR|C:\USERS\MATTHEW MCCOMB\DOCUMENTS\GITHUB\POVRAY\WINDOWS\VS2015\BUILD\POVBACKEND\WIN32\DEBUG\BENCHMARK_POV.SBR|C:\USERS\MATTHEW MCCOMB\DOCUMENTS\GITHUB\POVRAY\WINDOWS\VS2015\BUILD\POVBACKEND\WIN32\DEBUG\BOUNDINGTASK.SBR|C:\USERS\MATTHEW MCCOMB\DOCUMENTS\GITHUB\POVRAY\WINDOWS\VS2015\BUILD\POVBACKEND\WIN32\DEBUG\MESSAGEFACTORY.SBR|C:\USERS\MATTHEW MCCOMB\DOCUMENTS\GITHUB\POVRAY\WINDOWS\VS2015\BUILD\POVBACKEND\WIN32\DEBUG\PHOTONESTIMATIONTASK.SBR|C:\USERS\MATTHEW MCCOMB\DOCUMENTS\GITHUB\POVRAY\WINDOWS\VS2015\BUILD\POVBACKEND\WIN32\DEBUG\PHOTONSHOOTINGSTRATEGY.SBR|C:\USERS\MATTHEW MCCOMB\DOCUMENTS\GITHUB\POVRAY\WINDOWS\VS2015\BUILD\POVBACKEND\WIN32\DEBUG\PHOTONSHOOTINGTASK.SBR|C:\USERS\MATTHEW MCCOMB\DOCUMENTS\GITHUB\POVRAY\WINDOWS\VS2015\BUILD\POVBACKEND\WIN32\DEBUG\PHOTONSORTINGTASK.SBR|C:\USERS\MATTHEW MCCOMB\DOCUMENTS\GITHUB\POVRAY\WINDOWS\VS2015\BUILD\POVBACKEND\WIN32\DEBUG\PHOTONSTRATEGYTASK.SBR|C:\USERS\MATTHEW MCCOMB\DOCUMENTS\GITHUB\POVRAY\WINDOWS\VS2015\BUILD\POVBACKEND\WIN32\DEBUG\POVRAY.SBR|C:\USERS\MATTHEW MCCOMB\DOCUMENTS\GITHUB\POVRAY\WINDOWS\VS2015\BUILD\POVBACKEND\WIN32\DEBUG\PRECOMP.SBR|C:\USERS\MATTHEW MCCOMB\DOCUMENTS\GITHUB\POVRAY\WINDOWS\VS2015\BUILD\POVBACKEND\WIN32\DEBUG\RADIOSITYTASK.SBR|C:\USERS\MATTHEW MCCOMB\DOCUMENTS\GITHUB\POVRAY\WINDOWS\VS2015\BUILD\POVBACKEND\WIN32\DEBUG\RENDERBACKEND.SBR|C:\USERS\MATTHEW MCCOMB\DOCUMENTS\GITHUB\POVRAY\WINDOWS\VS2015\BUILD\POVBACKEND\WIN32\DEBUG\RENDERTASK.SBR|C:\USERS\MATTHEW MCCOMB\DOCUMENTS\GITHUB\POVRAY\WINDOWS\VS2015\BUILD\POVBACKEND\WIN32\DEBUG\SCENE.SBR|C:\USERS\MATTHEW MCCOMB\DOCUMENTS\GITHUB\POVRAY\WINDOWS\VS2015\BUILD\POVBACKEND\WIN32\DEBUG\TASK.SBR|C:\USERS\MATTHEW MCCOMB\DOCUMENTS\GITHUB\POVRAY\WINDOWS\VS2015\BUILD\POVBACKEND\WIN32\DEBUG\TASKQUEUE.SBR|C:\USERS\MATTHEW MCCOMB\DOCUMENTS\GITHUB\POVRAY\WINDOWS\VS2015\BUILD\POVBACKEND\WIN32\DEBUG\TRACETASK.SBR|C:\USERS\MATTHEW MCCOMB\DOCUMENTS\GITHUB\POVRAY\WINDOWS\VS2015\BUILD\POVBACKEND\WIN32\DEBUG\VIEW.SBR|C:\USERS\MATTHEW MCCOMB\DOCUMENTS\GITHUB\POVRAY\WINDOWS\VS2015\BUILD\POVBACKEND\WIN32\DEBUG\VIEWTHREADDATA.SBR
C:\WINDOWS\SYSTEM32\TZRES.DLL
C:\USERS\MATTHEW MCCOMB\DOCUMENTS\GITHUB\POVRAY\WINDOWS\VS2015\BUILD\POVBACKEND\WIN32\DEBUG\BOUNDINGTASK.SBR
C:\USERS\MATTHEW MCCOMB\DOCUMENTS\GITHUB\POVRAY\WINDOWS\VS2015\BUILD\POVBACKEND\WIN32\DEBUG\BENCHMARK_INI.SBR
C:\USERS\MATTHEW MCCOMB\DOCUMENTS\GITHUB\POVRAY\WINDOWS\VS2015\BUILD\POVBACKEND\WIN32\DEBUG\BENCHMARK_POV.SBR
C:\USERS\MATTHEW MCCOMB\DOCUMENTS\GITHUB\POVRAY\WINDOWS\VS2015\BUILD\POVBACKEND\WIN32\DEBUG\BACKENDSCENEDATA.SBR
C:\USERS\MATTHEW MCCOMB\DOCUMENTS\GITHUB\POVRAY\WINDOWS\VS2015\BUILD\POVBACKEND\WIN32\DEBUG\VIEWTHREADDATA.SBR
C:\USERS\MATTHEW MCCOMB\DOCUMENTS\GITHUB\POVRAY\WINDOWS\VS2015\BUILD\POVBACKEND\WIN32\DEBUG\POVRAY.SBR
C:\USERS\MATTHEW MCCOMB\DOCUMENTS\GITHUB\POVRAY\WINDOWS\VS2015\BUILD\POVBACKEND\WIN32\DEBUG\BENCHMARK.SBR
C:\USERS\MATTHEW MCCOMB\DOCUMENTS\GITHUB\POVRAY\WINDOWS\VS2015\BUILD\POVBACKEND\WIN32\DEBUG\MESSAGEFACTORY.SBR
C:\USERS\MATTHEW MCCOMB\DOCUMENTS\GITHUB\POVRAY\WINDOWS\VS2015\BUILD\POVBACKEND\WIN32\DEBUG\RENDERBACKEND.SBR
C:\USERS\MATTHEW MCCOMB\DOCUMENTS\GITHUB\POVRAY\WINDOWS\VS2015\BUILD\POVBACKEND\WIN32\DEBUG\SCENE.SBR
C:\USERS\MATTHEW MCCOMB\DOCUMENTS\GITHUB\POVRAY\WINDOWS\VS2015\BUILD\POVBACKEND\WIN32\DEBUG\RADIOSITYTASK.SBR
C:\USERS\MATTHEW MCCOMB\DOCUMENTS\GITHUB\POVRAY\WINDOWS\VS2015\BUILD\POVBACKEND\WIN32\DEBUG\RENDERTASK.SBR
C:\USERS\MATTHEW MCCOMB\DOCUMENTS\GITHUB\POVRAY\WINDOWS\VS2015\BUILD\POVBACKEND\WIN32\DEBUG\TRACETASK.SBR
C:\USERS\MATTHEW MCCOMB\DOCUMENTS\GITHUB\POVRAY\WINDOWS\VS2015\BUILD\POVBACKEND\WIN32\DEBUG\VIEW.SBR
C:\USERS\MATTHEW MCCOMB\DOCUMENTS\GITHUB\POVRAY\WINDOWS\VS2015\BUILD\POVBACKEND\WIN32\DEBUG\TASK.SBR
C:\USERS\MATTHEW MCCOMB\DOCUMENTS\GITHUB\POVRAY\WINDOWS\VS2015\BUILD\POVBACKEND\WIN32\DEBUG\TASKQUEUE.SBR
C:\USERS\MATTHEW MCCOMB\DOCUMENTS\GITHUB\POVRAY\WINDOWS\VS2015\BUILD\POVBACKEND\WIN32\DEBUG\PHOTONESTIMATIONTASK.SBR
C:\USERS\MATTHEW MCCOMB\DOCUMENTS\GITHUB\POVRAY\WINDOWS\VS2015\BUILD\POVBACKEND\WIN32\DEBUG\PHOTONSHOOTINGSTRATEGY.SBR
C:\USERS\MATTHEW MCCOMB\DOCUMENTS\GITHUB\POVRAY\WINDOWS\VS2015\BUILD\POVBACKEND\WIN32\DEBUG\PHOTONSHOOTINGTASK.SBR
C:\USERS\MATTHEW MCCOMB\DOCUMENTS\GITHUB\POVRAY\WINDOWS\VS2015\BUILD\POVBACKEND\WIN32\DEBUG\PHOTONSORTINGTASK.SBR
C:\USERS\MATTHEW MCCOMB\DOCUMENTS\GITHUB\POVRAY\WINDOWS\VS2015\BUILD\POVBACKEND\WIN32\DEBUG\PHOTONSTRATEGYTASK.SBR
C:\USERS\MATTHEW MCCOMB\DOCUMENTS\GITHUB\POVRAY\WINDOWS\VS2015\BUILD\POVBACKEND\WIN32\DEBUG\PRECOMP.SBR
