^C:\USERS\MATTHEW MCCOMB\DOCUMENTS\GITHUB\POVRAY\LIBRARIES\ILMBASE\ILMTHREAD\ILMTHREAD.CPP|C:\USERS\MATTHEW MCCOMB\DOCUMENTS\GITHUB\POVRAY\LIBRARIES\ILMBASE\ILMTHREAD\ILMTHREADMUTEX.CPP|C:\USERS\MATTHEW MCCOMB\DOCUMENTS\GITHUB\POVRAY\LIBRARIES\ILMBASE\ILMTHREAD\ILMTHREADMUTEXPOSIX.CPP|C:\USERS\MATTHEW MCCOMB\DOCUMENTS\GITHUB\POVRAY\LIBRARIES\ILMBASE\ILMTHREAD\ILMTHREADMUTEXWIN32.CPP|C:\USERS\MATTHEW MCCOMB\DOCUMENTS\GITHUB\POVRAY\LIBRARIES\ILMBASE\ILMTHREAD\ILMTHREADPOOL.CPP|C:\USERS\MATTHEW MCCOMB\DOCUMENTS\GITHUB\POVRAY\LIBRARIES\ILMBASE\ILMTHREAD\ILMTHREADPOSIX.CPP|C:\USERS\MATTHEW MCCOMB\DOCUMENTS\GITHUB\POVRAY\LIBRARIES\ILMBASE\ILMTHREAD\ILMTHREADSEMAPHORE.CPP|C:\USERS\MATTHEW MCCOMB\DOCUMENTS\GITHUB\POVRAY\LIBRARIES\ILMBASE\ILMTHREAD\ILMTHREADSEMAPHOREPOSIX.CPP|C:\USERS\MATTHEW MCCOMB\DOCUMENTS\GITHUB\POVRAY\LIBRARIES\ILMBASE\ILMTHREAD\ILMTHREADSEMAPHOREPOSIXCOMPAT.CPP|C:\USERS\MATTHEW MCCOMB\DOCUMENTS\GITHUB\POVRAY\LIBRARIES\ILMBASE\ILMTHREAD\ILMTHREADSEMAPHOREWIN32.CPP|C:\USERS\MATTHEW MCCOMB\DOCUMENTS\GITHUB\POVRAY\LIBRARIES\ILMBASE\ILMTHREAD\ILMTHREADWIN32.CPP
C:\USERS\MATTHEW MCCOMB\DOCUMENTS\GITHUB\POVRAY\WINDOWS\VS10\BUILD\ILMTHREAD\WIN32\DEBUG\ILMTHREAD.PDB
C:\USERS\MATTHEW MCCOMB\DOCUMENTS\GITHUB\POVRAY\WINDOWS\VS10\BUILD\ILMTHREAD\WIN32\DEBUG\ILMTHREAD.IDB
C:\USERS\MATTHEW MCCOMB\DOCUMENTS\GITHUB\POVRAY\WINDOWS\VS10\BUILD\ILMTHREAD\WIN32\DEBUG\ILMTHREADWIN32.SBR
C:\USERS\MATTHEW MCCOMB\DOCUMENTS\GITHUB\POVRAY\WINDOWS\VS10\BUILD\ILMTHREAD\WIN32\DEBUG\ILMTHREADSEMAPHOREWIN32.SBR
C:\USERS\MATTHEW MCCOMB\DOCUMENTS\GITHUB\POVRAY\WINDOWS\VS10\BUILD\ILMTHREAD\WIN32\DEBUG\ILMTHREADSEMAPHOREPOSIXCOMPAT.SBR
C:\USERS\MATTHEW MCCOMB\DOCUMENTS\GITHUB\POVRAY\WINDOWS\VS10\BUILD\ILMTHREAD\WIN32\DEBUG\ILMTHREADSEMAPHOREPOSIX.SBR
C:\USERS\MATTHEW MCCOMB\DOCUMENTS\GITHUB\POVRAY\WINDOWS\VS10\BUILD\ILMTHREAD\WIN32\DEBUG\ILMTHREADSEMAPHORE.SBR
C:\USERS\MATTHEW MCCOMB\DOCUMENTS\GITHUB\POVRAY\WINDOWS\VS10\BUILD\ILMTHREAD\WIN32\DEBUG\ILMTHREADPOSIX.SBR
C:\USERS\MATTHEW MCCOMB\DOCUMENTS\GITHUB\POVRAY\WINDOWS\VS10\BUILD\ILMTHREAD\WIN32\DEBUG\ILMTHREADPOOL.SBR
C:\USERS\MATTHEW MCCOMB\DOCUMENTS\GITHUB\POVRAY\WINDOWS\VS10\BUILD\ILMTHREAD\WIN32\DEBUG\ILMTHREADMUTEXWIN32.SBR
C:\USERS\MATTHEW MCCOMB\DOCUMENTS\GITHUB\POVRAY\WINDOWS\VS10\BUILD\ILMTHREAD\WIN32\DEBUG\ILMTHREADMUTEXPOSIX.SBR
C:\USERS\MATTHEW MCCOMB\DOCUMENTS\GITHUB\POVRAY\WINDOWS\VS10\BUILD\ILMTHREAD\WIN32\DEBUG\ILMTHREADMUTEX.SBR
C:\USERS\MATTHEW MCCOMB\DOCUMENTS\GITHUB\POVRAY\WINDOWS\VS10\BUILD\ILMTHREAD\WIN32\DEBUG\ILMTHREAD.SBR
C:\USERS\MATTHEW MCCOMB\DOCUMENTS\GITHUB\POVRAY\WINDOWS\VS10\BUILD\ILMTHREAD\WIN32\DEBUG\ILMTHREAD.OBJ
C:\USERS\MATTHEW MCCOMB\DOCUMENTS\GITHUB\POVRAY\WINDOWS\VS10\BUILD\ILMTHREAD\WIN32\DEBUG\ILMTHREADMUTEX.OBJ
C:\USERS\MATTHEW MCCOMB\DOCUMENTS\GITHUB\POVRAY\WINDOWS\VS10\BUILD\ILMTHREAD\WIN32\DEBUG\ILMTHREADMUTEXPOSIX.OBJ
C:\USERS\MATTHEW MCCOMB\DOCUMENTS\GITHUB\POVRAY\WINDOWS\VS10\BUILD\ILMTHREAD\WIN32\DEBUG\ILMTHREADMUTEXWIN32.OBJ
C:\USERS\MATTHEW MCCOMB\DOCUMENTS\GITHUB\POVRAY\WINDOWS\VS10\BUILD\ILMTHREAD\WIN32\DEBUG\ILMTHREADPOOL.OBJ
C:\USERS\MATTHEW MCCOMB\DOCUMENTS\GITHUB\POVRAY\WINDOWS\VS10\BUILD\ILMTHREAD\WIN32\DEBUG\ILMTHREADPOSIX.OBJ
C:\USERS\MATTHEW MCCOMB\DOCUMENTS\GITHUB\POVRAY\WINDOWS\VS10\BUILD\ILMTHREAD\WIN32\DEBUG\ILMTHREADSEMAPHORE.OBJ
C:\USERS\MATTHEW MCCOMB\DOCUMENTS\GITHUB\POVRAY\WINDOWS\VS10\BUILD\ILMTHREAD\WIN32\DEBUG\ILMTHREADSEMAPHOREPOSIX.OBJ
C:\USERS\MATTHEW MCCOMB\DOCUMENTS\GITHUB\POVRAY\WINDOWS\VS10\BUILD\ILMTHREAD\WIN32\DEBUG\ILMTHREADSEMAPHOREPOSIXCOMPAT.OBJ
C:\USERS\MATTHEW MCCOMB\DOCUMENTS\GITHUB\POVRAY\WINDOWS\VS10\BUILD\ILMTHREAD\WIN32\DEBUG\ILMTHREADSEMAPHOREWIN32.OBJ
C:\USERS\MATTHEW MCCOMB\DOCUMENTS\GITHUB\POVRAY\WINDOWS\VS10\BUILD\ILMTHREAD\WIN32\DEBUG\ILMTHREADWIN32.OBJ
^C:\USERS\MATTHEW MCCOMB\DOCUMENTS\GITHUB\POVRAY\LIBRARIES\ILMBASE\ILMTHREAD\ILMTHREAD.CPP
C:\USERS\MATTHEW MCCOMB\DOCUMENTS\GITHUB\POVRAY\WINDOWS\VS10\BUILD\ILMTHREAD\WIN32\DEBUG\ILMTHREAD.PDB
^C:\USERS\MATTHEW MCCOMB\DOCUMENTS\GITHUB\POVRAY\LIBRARIES\ILMBASE\ILMTHREAD\ILMTHREADMUTEX.CPP
C:\USERS\MATTHEW MCCOMB\DOCUMENTS\GITHUB\POVRAY\WINDOWS\VS10\BUILD\ILMTHREAD\WIN32\DEBUG\ILMTHREAD.PDB
^C:\USERS\MATTHEW MCCOMB\DOCUMENTS\GITHUB\POVRAY\LIBRARIES\ILMBASE\ILMTHREAD\ILMTHREADMUTEXPOSIX.CPP
C:\USERS\MATTHEW MCCOMB\DOCUMENTS\GITHUB\POVRAY\WINDOWS\VS10\BUILD\ILMTHREAD\WIN32\DEBUG\ILMTHREAD.PDB
^C:\USERS\MATTHEW MCCOMB\DOCUMENTS\GITHUB\POVRAY\LIBRARIES\ILMBASE\ILMTHREAD\ILMTHREADMUTEXWIN32.CPP
C:\USERS\MATTHEW MCCOMB\DOCUMENTS\GITHUB\POVRAY\WINDOWS\VS10\BUILD\ILMTHREAD\WIN32\DEBUG\ILMTHREAD.PDB
^C:\USERS\MATTHEW MCCOMB\DOCUMENTS\GITHUB\POVRAY\LIBRARIES\ILMBASE\ILMTHREAD\ILMTHREADPOOL.CPP
C:\USERS\MATTHEW MCCOMB\DOCUMENTS\GITHUB\POVRAY\WINDOWS\VS10\BUILD\ILMTHREAD\WIN32\DEBUG\ILMTHREAD.PDB
^C:\USERS\MATTHEW MCCOMB\DOCUMENTS\GITHUB\POVRAY\LIBRARIES\ILMBASE\ILMTHREAD\ILMTHREADPOSIX.CPP
C:\USERS\MATTHEW MCCOMB\DOCUMENTS\GITHUB\POVRAY\WINDOWS\VS10\BUILD\ILMTHREAD\WIN32\DEBUG\ILMTHREAD.PDB
^C:\USERS\MATTHEW MCCOMB\DOCUMENTS\GITHUB\POVRAY\LIBRARIES\ILMBASE\ILMTHREAD\ILMTHREADSEMAPHORE.CPP
C:\USERS\MATTHEW MCCOMB\DOCUMENTS\GITHUB\POVRAY\WINDOWS\VS10\BUILD\ILMTHREAD\WIN32\DEBUG\ILMTHREAD.PDB
^C:\USERS\MATTHEW MCCOMB\DOCUMENTS\GITHUB\POVRAY\LIBRARIES\ILMBASE\ILMTHREAD\ILMTHREADSEMAPHOREPOSIX.CPP
C:\USERS\MATTHEW MCCOMB\DOCUMENTS\GITHUB\POVRAY\WINDOWS\VS10\BUILD\ILMTHREAD\WIN32\DEBUG\ILMTHREAD.PDB
^C:\USERS\MATTHEW MCCOMB\DOCUMENTS\GITHUB\POVRAY\LIBRARIES\ILMBASE\ILMTHREAD\ILMTHREADSEMAPHOREPOSIXCOMPAT.CPP
C:\USERS\MATTHEW MCCOMB\DOCUMENTS\GITHUB\POVRAY\WINDOWS\VS10\BUILD\ILMTHREAD\WIN32\DEBUG\ILMTHREAD.PDB
^C:\USERS\MATTHEW MCCOMB\DOCUMENTS\GITHUB\POVRAY\LIBRARIES\ILMBASE\ILMTHREAD\ILMTHREADSEMAPHOREWIN32.CPP
C:\USERS\MATTHEW MCCOMB\DOCUMENTS\GITHUB\POVRAY\WINDOWS\VS10\BUILD\ILMTHREAD\WIN32\DEBUG\ILMTHREAD.PDB
^C:\USERS\MATTHEW MCCOMB\DOCUMENTS\GITHUB\POVRAY\LIBRARIES\ILMBASE\ILMTHREAD\ILMTHREADWIN32.CPP
C:\USERS\MATTHEW MCCOMB\DOCUMENTS\GITHUB\POVRAY\WINDOWS\VS10\BUILD\ILMTHREAD\WIN32\DEBUG\ILMTHREAD.PDB
