^C:\USERS\MATTHEW MCCOMB\DOCUMENTS\GITHUB\POVRAY\SOURCE\FRONTEND\PRECOMP.CPP
C:\USERS\MATTHEW MCCOMB\DOCUMENTS\GITHUB\POVRAY\WINDOWS\VS10\BUILD\POVFRONTEND\WIN32\DEBUG\PRECOMP.PCH
C:\USERS\MATTHEW MCCOMB\DOCUMENTS\GITHUB\POVRAY\WINDOWS\VS10\BUILD\POVFRONTEND\WIN32\DEBUG\POVFRONTEND.PDB
C:\USERS\MATTHEW MCCOMB\DOCUMENTS\GITHUB\POVRAY\WINDOWS\VS10\BUILD\POVFRONTEND\WIN32\DEBUG\PRECOMP.SBR
C:\USERS\MATTHEW MCCOMB\DOCUMENTS\GITHUB\POVRAY\WINDOWS\VS10\BUILD\POVFRONTEND\WIN32\DEBUG\PRECOMP.OBJ
^C:\USERS\MATTHEW MCCOMB\DOCUMENTS\GITHUB\POVRAY\SOURCE\FRONTEND\ANIMATIONPROCESSING.CPP|C:\USERS\MATTHEW MCCOMB\DOCUMENTS\GITHUB\POVRAY\SOURCE\FRONTEND\CONSOLE.CPP|C:\USERS\MATTHEW MCCOMB\DOCUMENTS\GITHUB\POVRAY\SOURCE\FRONTEND\DEFAULTPLATFORMBASE.CPP|C:\USERS\MATTHEW MCCOMB\DOCUMENTS\GITHUB\POVRAY\SOURCE\FRONTEND\DISPLAY.CPP|C:\USERS\MATTHEW MCCOMB\DOCUMENTS\GITHUB\POVRAY\SOURCE\FRONTEND\FILEMESSAGEHANDLER.CPP|C:\USERS\MATTHEW MCCOMB\DOCUMENTS\GITHUB\POVRAY\SOURCE\FRONTEND\IMAGEMESSAGEHANDLER.CPP|C:\USERS\MATTHEW MCCOMB\DOCUMENTS\GITHUB\POVRAY\SOURCE\FRONTEND\IMAGEPROCESSING.CPP|C:\USERS\MATTHEW MCCOMB\DOCUMENTS\GITHUB\POVRAY\SOURCE\FRONTEND\PARSERMESSAGEHANDLER.CPP|C:\USERS\MATTHEW MCCOMB\DOCUMENTS\GITHUB\POVRAY\SOURCE\FRONTEND\PROCESSRENDEROPTIONS.CPP|C:\USERS\MATTHEW MCCOMB\DOCUMENTS\GITHUB\POVRAY\SOURCE\FRONTEND\RENDERFRONTEND.CPP|C:\USERS\MATTHEW MCCOMB\DOCUMENTS\GITHUB\POVRAY\SOURCE\FRONTEND\RENDERMESSAGEHANDLER.CPP|C:\USERS\MATTHEW MCCOMB\DOCUMENTS\GITHUB\POVRAY\SOURCE\FRONTEND\SHELLOUTPROCESSING.CPP
C:\USERS\MATTHEW MCCOMB\DOCUMENTS\GITHUB\POVRAY\WINDOWS\VS10\BUILD\POVFRONTEND\WIN32\DEBUG\POVFRONTEND.PDB
C:\USERS\MATTHEW MCCOMB\DOCUMENTS\GITHUB\POVRAY\WINDOWS\VS10\BUILD\POVFRONTEND\WIN32\DEBUG\ANIMATIONPROCESSING.SBR
C:\USERS\MATTHEW MCCOMB\DOCUMENTS\GITHUB\POVRAY\WINDOWS\VS10\BUILD\POVFRONTEND\WIN32\DEBUG\CONSOLE.SBR
C:\USERS\MATTHEW MCCOMB\DOCUMENTS\GITHUB\POVRAY\WINDOWS\VS10\BUILD\POVFRONTEND\WIN32\DEBUG\DEFAULTPLATFORMBASE.SBR
C:\USERS\MATTHEW MCCOMB\DOCUMENTS\GITHUB\POVRAY\WINDOWS\VS10\BUILD\POVFRONTEND\WIN32\DEBUG\DISPLAY.SBR
C:\USERS\MATTHEW MCCOMB\DOCUMENTS\GITHUB\POVRAY\WINDOWS\VS10\BUILD\POVFRONTEND\WIN32\DEBUG\FILEMESSAGEHANDLER.SBR
C:\USERS\MATTHEW MCCOMB\DOCUMENTS\GITHUB\POVRAY\WINDOWS\VS10\BUILD\POVFRONTEND\WIN32\DEBUG\IMAGEMESSAGEHANDLER.SBR
C:\USERS\MATTHEW MCCOMB\DOCUMENTS\GITHUB\POVRAY\WINDOWS\VS10\BUILD\POVFRONTEND\WIN32\DEBUG\IMAGEPROCESSING.SBR
C:\USERS\MATTHEW MCCOMB\DOCUMENTS\GITHUB\POVRAY\WINDOWS\VS10\BUILD\POVFRONTEND\WIN32\DEBUG\PARSERMESSAGEHANDLER.SBR
C:\USERS\MATTHEW MCCOMB\DOCUMENTS\GITHUB\POVRAY\WINDOWS\VS10\BUILD\POVFRONTEND\WIN32\DEBUG\PROCESSRENDEROPTIONS.SBR
C:\USERS\MATTHEW MCCOMB\DOCUMENTS\GITHUB\POVRAY\WINDOWS\VS10\BUILD\POVFRONTEND\WIN32\DEBUG\RENDERFRONTEND.SBR
C:\USERS\MATTHEW MCCOMB\DOCUMENTS\GITHUB\POVRAY\WINDOWS\VS10\BUILD\POVFRONTEND\WIN32\DEBUG\RENDERMESSAGEHANDLER.SBR
C:\USERS\MATTHEW MCCOMB\DOCUMENTS\GITHUB\POVRAY\WINDOWS\VS10\BUILD\POVFRONTEND\WIN32\DEBUG\SHELLOUTPROCESSING.SBR
C:\USERS\MATTHEW MCCOMB\DOCUMENTS\GITHUB\POVRAY\WINDOWS\VS10\BUILD\POVFRONTEND\WIN32\DEBUG\SHELLOUTPROCESSING.OBJ
C:\USERS\MATTHEW MCCOMB\DOCUMENTS\GITHUB\POVRAY\WINDOWS\VS10\BUILD\POVFRONTEND\WIN32\DEBUG\RENDERMESSAGEHANDLER.OBJ
C:\USERS\MATTHEW MCCOMB\DOCUMENTS\GITHUB\POVRAY\WINDOWS\VS10\BUILD\POVFRONTEND\WIN32\DEBUG\RENDERFRONTEND.OBJ
C:\USERS\MATTHEW MCCOMB\DOCUMENTS\GITHUB\POVRAY\WINDOWS\VS10\BUILD\POVFRONTEND\WIN32\DEBUG\PROCESSRENDEROPTIONS.OBJ
C:\USERS\MATTHEW MCCOMB\DOCUMENTS\GITHUB\POVRAY\WINDOWS\VS10\BUILD\POVFRONTEND\WIN32\DEBUG\PARSERMESSAGEHANDLER.OBJ
C:\USERS\MATTHEW MCCOMB\DOCUMENTS\GITHUB\POVRAY\WINDOWS\VS10\BUILD\POVFRONTEND\WIN32\DEBUG\IMAGEPROCESSING.OBJ
C:\USERS\MATTHEW MCCOMB\DOCUMENTS\GITHUB\POVRAY\WINDOWS\VS10\BUILD\POVFRONTEND\WIN32\DEBUG\IMAGEMESSAGEHANDLER.OBJ
C:\USERS\MATTHEW MCCOMB\DOCUMENTS\GITHUB\POVRAY\WINDOWS\VS10\BUILD\POVFRONTEND\WIN32\DEBUG\FILEMESSAGEHANDLER.OBJ
C:\USERS\MATTHEW MCCOMB\DOCUMENTS\GITHUB\POVRAY\WINDOWS\VS10\BUILD\POVFRONTEND\WIN32\DEBUG\DISPLAY.OBJ
C:\USERS\MATTHEW MCCOMB\DOCUMENTS\GITHUB\POVRAY\WINDOWS\VS10\BUILD\POVFRONTEND\WIN32\DEBUG\DEFAULTPLATFORMBASE.OBJ
C:\USERS\MATTHEW MCCOMB\DOCUMENTS\GITHUB\POVRAY\WINDOWS\VS10\BUILD\POVFRONTEND\WIN32\DEBUG\CONSOLE.OBJ
C:\USERS\MATTHEW MCCOMB\DOCUMENTS\GITHUB\POVRAY\WINDOWS\VS10\BUILD\POVFRONTEND\WIN32\DEBUG\ANIMATIONPROCESSING.OBJ
^C:\USERS\MATTHEW MCCOMB\DOCUMENTS\GITHUB\POVRAY\SOURCE\FRONTEND\ANIMATIONPROCESSING.CPP
C:\USERS\MATTHEW MCCOMB\DOCUMENTS\GITHUB\POVRAY\WINDOWS\VS10\BUILD\POVFRONTEND\WIN32\DEBUG\POVFRONTEND.PDB
^C:\USERS\MATTHEW MCCOMB\DOCUMENTS\GITHUB\POVRAY\SOURCE\FRONTEND\CONSOLE.CPP
C:\USERS\MATTHEW MCCOMB\DOCUMENTS\GITHUB\POVRAY\WINDOWS\VS10\BUILD\POVFRONTEND\WIN32\DEBUG\POVFRONTEND.PDB
^C:\USERS\MATTHEW MCCOMB\DOCUMENTS\GITHUB\POVRAY\SOURCE\FRONTEND\DEFAULTPLATFORMBASE.CPP
C:\USERS\MATTHEW MCCOMB\DOCUMENTS\GITHUB\POVRAY\WINDOWS\VS10\BUILD\POVFRONTEND\WIN32\DEBUG\POVFRONTEND.PDB
^C:\USERS\MATTHEW MCCOMB\DOCUMENTS\GITHUB\POVRAY\SOURCE\FRONTEND\DISPLAY.CPP
C:\USERS\MATTHEW MCCOMB\DOCUMENTS\GITHUB\POVRAY\WINDOWS\VS10\BUILD\POVFRONTEND\WIN32\DEBUG\POVFRONTEND.PDB
^C:\USERS\MATTHEW MCCOMB\DOCUMENTS\GITHUB\POVRAY\SOURCE\FRONTEND\FILEMESSAGEHANDLER.CPP
C:\USERS\MATTHEW MCCOMB\DOCUMENTS\GITHUB\POVRAY\WINDOWS\VS10\BUILD\POVFRONTEND\WIN32\DEBUG\POVFRONTEND.PDB
^C:\USERS\MATTHEW MCCOMB\DOCUMENTS\GITHUB\POVRAY\SOURCE\FRONTEND\IMAGEMESSAGEHANDLER.CPP
C:\USERS\MATTHEW MCCOMB\DOCUMENTS\GITHUB\POVRAY\WINDOWS\VS10\BUILD\POVFRONTEND\WIN32\DEBUG\POVFRONTEND.PDB
^C:\USERS\MATTHEW MCCOMB\DOCUMENTS\GITHUB\POVRAY\SOURCE\FRONTEND\IMAGEPROCESSING.CPP
C:\USERS\MATTHEW MCCOMB\DOCUMENTS\GITHUB\POVRAY\WINDOWS\VS10\BUILD\POVFRONTEND\WIN32\DEBUG\POVFRONTEND.PDB
^C:\USERS\MATTHEW MCCOMB\DOCUMENTS\GITHUB\POVRAY\SOURCE\FRONTEND\PARSERMESSAGEHANDLER.CPP
C:\USERS\MATTHEW MCCOMB\DOCUMENTS\GITHUB\POVRAY\WINDOWS\VS10\BUILD\POVFRONTEND\WIN32\DEBUG\POVFRONTEND.PDB
^C:\USERS\MATTHEW MCCOMB\DOCUMENTS\GITHUB\POVRAY\SOURCE\FRONTEND\PROCESSRENDEROPTIONS.CPP
C:\USERS\MATTHEW MCCOMB\DOCUMENTS\GITHUB\POVRAY\WINDOWS\VS10\BUILD\POVFRONTEND\WIN32\DEBUG\POVFRONTEND.PDB
^C:\USERS\MATTHEW MCCOMB\DOCUMENTS\GITHUB\POVRAY\SOURCE\FRONTEND\RENDERFRONTEND.CPP
C:\USERS\MATTHEW MCCOMB\DOCUMENTS\GITHUB\POVRAY\WINDOWS\VS10\BUILD\POVFRONTEND\WIN32\DEBUG\POVFRONTEND.PDB
^C:\USERS\MATTHEW MCCOMB\DOCUMENTS\GITHUB\POVRAY\SOURCE\FRONTEND\RENDERMESSAGEHANDLER.CPP
C:\USERS\MATTHEW MCCOMB\DOCUMENTS\GITHUB\POVRAY\WINDOWS\VS10\BUILD\POVFRONTEND\WIN32\DEBUG\POVFRONTEND.PDB
^C:\USERS\MATTHEW MCCOMB\DOCUMENTS\GITHUB\POVRAY\SOURCE\FRONTEND\SHELLOUTPROCESSING.CPP
C:\USERS\MATTHEW MCCOMB\DOCUMENTS\GITHUB\POVRAY\WINDOWS\VS10\BUILD\POVFRONTEND\WIN32\DEBUG\POVFRONTEND.PDB
