^C:\USERS\MATTHEW MCCOMB\DOCUMENTS\GITHUB\POVRAY\WINDOWS\VS2015\BUILD\POVPLATFORM\WIN32\RELEASE\AVX2FMA3NOISE.OBJ|C:\USERS\MATTHEW MCCOMB\DOCUMENTS\GITHUB\POVRAY\WINDOWS\VS2015\BUILD\POVPLATFORM\WIN32\RELEASE\AVXFMA4NOISE.OBJ|C:\USERS\MATTHEW MCCOMB\DOCUMENTS\GITHUB\POVRAY\WINDOWS\VS2015\BUILD\POVPLATFORM\WIN32\RELEASE\AVXNOISE.OBJ|C:\USERS\MATTHEW MCCOMB\DOCUMENTS\GITHUB\POVRAY\WINDOWS\VS2015\BUILD\POVPLATFORM\WIN32\RELEASE\AVXPORTABLENOISE.OBJ|C:\USERS\MATTHEW MCCOMB\DOCUMENTS\GITHUB\POVRAY\WINDOWS\VS2015\BUILD\POVPLATFORM\WIN32\RELEASE\CPUID.OBJ|C:\USERS\MATTHEW MCCOMB\DOCUMENTS\GITHUB\POVRAY\WINDOWS\VS2015\BUILD\POVPLATFORM\WIN32\RELEASE\OPTIMIZEDNOISE.OBJ|C:\USERS\MATTHEW MCCOMB\DOCUMENTS\GITHUB\POVRAY\WINDOWS\VS2015\BUILD\POVPLATFORM\WIN32\RELEASE\OSVERSIONINFO.OBJ|C:\USERS\MATTHEW MCCOMB\DOCUMENTS\GITHUB\POVRAY\WINDOWS\VS2015\BUILD\POVPLATFORM\WIN32\RELEASE\SYSPOVPATH.OBJ|C:\USERS\MATTHEW MCCOMB\DOCUMENTS\GITHUB\POVRAY\WINDOWS\VS2015\BUILD\POVPLATFORM\WIN32\RELEASE\SYSPOVTASK.OBJ|C:\USERS\MATTHEW MCCOMB\DOCUMENTS\GITHUB\POVRAY\WINDOWS\VS2015\BUILD\POVPLATFORM\WIN32\RELEASE\SYSPOVTIMER.OBJ
/OUT:"BIN32\LIB\POVPLATFORM32.LIB" /NOLOGO /LTCG BUILD\POVPLATFORM\WIN32\RELEASE\OSVERSIONINFO.OBJBUILD\POVPLATFORM\WIN32\RELEASE\SYSPOVPATH.OBJBUILD\POVPLATFORM\WIN32\RELEASE\SYSPOVTASK.OBJBUILD\POVPLATFORM\WIN32\RELEASE\SYSPOVTIMER.OBJBUILD\POVPLATFORM\WIN32\RELEASE\AVX2FMA3NOISE.OBJBUILD\POVPLATFORM\WIN32\RELEASE\AVXFMA4NOISE.OBJBUILD\POVPLATFORM\WIN32\RELEASE\AVXNOISE.OBJBUILD\POVPLATFORM\WIN32\RELEASE\AVXPORTABLENOISE.OBJBUILD\POVPLATFORM\WIN32\RELEASE\CPUID.OBJBUILD\POVPLATFORM\WIN32\RELEASE\OPTIMIZEDNOISE.OBJ
^D:\POV-RAY\POV-RAY SOURCES\NORMAL MINUS\POVRAY\WINDOWS\VS2015\BUILD\POVPLATFORM\WIN32\RELEASE\AVX2FMA3NOISE.OBJ|D:\POV-RAY\POV-RAY SOURCES\NORMAL MINUS\POVRAY\WINDOWS\VS2015\BUILD\POVPLATFORM\WIN32\RELEASE\AVXFMA4NOISE.OBJ|D:\POV-RAY\POV-RAY SOURCES\NORMAL MINUS\POVRAY\WINDOWS\VS2015\BUILD\POVPLATFORM\WIN32\RELEASE\AVXNOISE.OBJ|D:\POV-RAY\POV-RAY SOURCES\NORMAL MINUS\POVRAY\WINDOWS\VS2015\BUILD\POVPLATFORM\WIN32\RELEASE\AVXPORTABLENOISE.OBJ|D:\POV-RAY\POV-RAY SOURCES\NORMAL MINUS\POVRAY\WINDOWS\VS2015\BUILD\POVPLATFORM\WIN32\RELEASE\CPUID.OBJ|D:\POV-RAY\POV-RAY SOURCES\NORMAL MINUS\POVRAY\WINDOWS\VS2015\BUILD\POVPLATFORM\WIN32\RELEASE\OPTIMIZEDNOISE.OBJ|D:\POV-RAY\POV-RAY SOURCES\NORMAL MINUS\POVRAY\WINDOWS\VS2015\BUILD\POVPLATFORM\WIN32\RELEASE\OSVERSIONINFO.OBJ|D:\POV-RAY\POV-RAY SOURCES\NORMAL MINUS\POVRAY\WINDOWS\VS2015\BUILD\POVPLATFORM\WIN32\RELEASE\SYSPOVPATH.OBJ|D:\POV-RAY\POV-RAY SOURCES\NORMAL MINUS\POVRAY\WINDOWS\VS2015\BUILD\POVPLATFORM\WIN32\RELEASE\SYSPOVTASK.OBJ|D:\POV-RAY\POV-RAY SOURCES\NORMAL MINUS\POVRAY\WINDOWS\VS2015\BUILD\POVPLATFORM\WIN32\RELEASE\SYSPOVTIMER.OBJ
/OUT:"BIN32\LIB\POVPLATFORM32.LIB" /NOLOGO /LTCG BUILD\POVPLATFORM\WIN32\RELEASE\OSVERSIONINFO.OBJBUILD\POVPLATFORM\WIN32\RELEASE\SYSPOVPATH.OBJBUILD\POVPLATFORM\WIN32\RELEASE\SYSPOVTASK.OBJBUILD\POVPLATFORM\WIN32\RELEASE\SYSPOVTIMER.OBJBUILD\POVPLATFORM\WIN32\RELEASE\AVX2FMA3NOISE.OBJBUILD\POVPLATFORM\WIN32\RELEASE\AVXFMA4NOISE.OBJBUILD\POVPLATFORM\WIN32\RELEASE\AVXNOISE.OBJBUILD\POVPLATFORM\WIN32\RELEASE\AVXPORTABLENOISE.OBJBUILD\POVPLATFORM\WIN32\RELEASE\CPUID.OBJBUILD\POVPLATFORM\WIN32\RELEASE\OPTIMIZEDNOISE.OBJ
