^C:\USERS\MATTHEW MCCOMB\DOCUMENTS\GITHUB\POVRAY\LIBRARIES\ILMBASE\HALF\TOFLOAT.CPP
C:\USERS\MATTHEW MCCOMB\DOCUMENTS\GITHUB\POVRAY\WINDOWS\VS2015\BUILD\OPENEXR ILMBASE HALF TOFLOAT\WIN32\RELEASE\VC140.PDB
C:\USERS\MATTHEW MCCOMB\DOCUMENTS\GITHUB\POVRAY\WINDOWS\VS2015\BUILD\OPENEXR ILMBASE HALF TOFLOAT\WIN32\RELEASE\TOFLOAT.OBJ
^D:\POV-RAY\POV-RAY SOURCES\MIDDLE\POVRAY\LIBRARIES\ILMBASE\HALF\TOFLOAT.CPP
D:\POV-RAY\POV-RAY SOURCES\MIDDLE\POVRAY\WINDOWS\VS2015\BUILD\OPENEXR ILMBASE HALF TOFLOAT\WIN32\RELEASE\VC140.PDB
D:\POV-RAY\POV-RAY SOURCES\MIDDLE\POVRAY\WINDOWS\VS2015\BUILD\OPENEXR ILMBASE HALF TOFLOAT\WIN32\RELEASE\TOFLOAT.OBJ
