^C:\USERS\MATTHEW MCCOMB\DOCUMENTS\GITHUB\POVRAY\WINDOWS\VS2015\BUILD\VFEWIN\WIN32\RELEASE\VFE.SBR|C:\USERS\MATTHEW MCCOMB\DOCUMENTS\GITHUB\POVRAY\WINDOWS\VS2015\BUILD\VFEWIN\WIN32\RELEASE\VFECONTROL.SBR|C:\USERS\MATTHEW MCCOMB\DOCUMENTS\GITHUB\POVRAY\WINDOWS\VS2015\BUILD\VFEWIN\WIN32\RELEASE\VFEDISPLAY.SBR|C:\USERS\MATTHEW MCCOMB\DOCUMENTS\GITHUB\POVRAY\WINDOWS\VS2015\BUILD\VFEWIN\WIN32\RELEASE\VFEPLATFORM.SBR|C:\USERS\MATTHEW MCCOMB\DOCUMENTS\GITHUB\POVRAY\WINDOWS\VS2015\BUILD\VFEWIN\WIN32\RELEASE\VFEPOVMS.SBR|C:\USERS\MATTHEW MCCOMB\DOCUMENTS\GITHUB\POVRAY\WINDOWS\VS2015\BUILD\VFEWIN\WIN32\RELEASE\VFEPRECOMP.SBR|C:\USERS\MATTHEW MCCOMB\DOCUMENTS\GITHUB\POVRAY\WINDOWS\VS2015\BUILD\VFEWIN\WIN32\RELEASE\VFESESSION.SBR
C:\USERS\MATTHEW MCCOMB\DOCUMENTS\GITHUB\POVRAY\WINDOWS\VS2015\BIN32\LIB\VFE32.BSC
^D:\POV-RAY\POV-RAY SOURCES\MIDDLE\POVRAY\WINDOWS\VS2015\BUILD\VFEWIN\WIN32\RELEASE\VFE.SBR|D:\POV-RAY\POV-RAY SOURCES\MIDDLE\POVRAY\WINDOWS\VS2015\BUILD\VFEWIN\WIN32\RELEASE\VFECONTROL.SBR|D:\POV-RAY\POV-RAY SOURCES\MIDDLE\POVRAY\WINDOWS\VS2015\BUILD\VFEWIN\WIN32\RELEASE\VFEDISPLAY.SBR|D:\POV-RAY\POV-RAY SOURCES\MIDDLE\POVRAY\WINDOWS\VS2015\BUILD\VFEWIN\WIN32\RELEASE\VFEPLATFORM.SBR|D:\POV-RAY\POV-RAY SOURCES\MIDDLE\POVRAY\WINDOWS\VS2015\BUILD\VFEWIN\WIN32\RELEASE\VFEPOVMS.SBR|D:\POV-RAY\POV-RAY SOURCES\MIDDLE\POVRAY\WINDOWS\VS2015\BUILD\VFEWIN\WIN32\RELEASE\VFEPRECOMP.SBR|D:\POV-RAY\POV-RAY SOURCES\MIDDLE\POVRAY\WINDOWS\VS2015\BUILD\VFEWIN\WIN32\RELEASE\VFESESSION.SBR
D:\POV-RAY\POV-RAY SOURCES\MIDDLE\POVRAY\WINDOWS\VS2015\BIN32\LIB\VFE32.BSC
