^C:\USERS\MATTHEW MCCOMB\DOCUMENTS\GITHUB\POVRAY\WINDOWS\VS2015\BUILD\RTRSUPPORT\WIN32\RELEASE\RTRSUPPORT.SBR|C:\USERS\MATTHEW MCCOMB\DOCUMENTS\GITHUB\POVRAY\WINDOWS\VS2015\BUILD\RTRSUPPORT\WIN32\RELEASE\VIDCAP.SBR|C:\USERS\MATTHEW MCCOMB\DOCUMENTS\GITHUB\POVRAY\WINDOWS\VS2015\BUILD\RTRSUPPORT\WIN32\RELEASE\VIDCAPIMPL.SBR
C:\USERS\MATTHEW MCCOMB\DOCUMENTS\GITHUB\POVRAY\WINDOWS\VS2015\BIN32\LIB\RTRSUPPORT32.BSC
^D:\POV-RAY\POV-RAY SOURCES\NORMAL\POVRAY\WINDOWS\VS2015\BUILD\RTRSUPPORT\WIN32\RELEASE\RTRSUPPORT.SBR|D:\POV-RAY\POV-RAY SOURCES\NORMAL\POVRAY\WINDOWS\VS2015\BUILD\RTRSUPPORT\WIN32\RELEASE\VIDCAP.SBR|D:\POV-RAY\POV-RAY SOURCES\NORMAL\POVRAY\WINDOWS\VS2015\BUILD\RTRSUPPORT\WIN32\RELEASE\VIDCAPIMPL.SBR
D:\POV-RAY\POV-RAY SOURCES\NORMAL\POVRAY\WINDOWS\VS2015\BIN32\LIB\RTRSUPPORT32.BSC
