^C:\USERS\MATTHEW MCCOMB\DOCUMENTS\GITHUB\POVRAY\WINDOWS\VS2015\BUILD\OPENEXR ILMBASE IEX\WIN32\DEBUG\IEXBASEEXC.OBJ|C:\USERS\MATTHEW MCCOMB\DOCUMENTS\GITHUB\POVRAY\WINDOWS\VS2015\BUILD\OPENEXR ILMBASE IEX\WIN32\DEBUG\IEXTHROWERRNOEXC.OBJ
C:\USERS\MATTHEW MCCOMB\DOCUMENTS\GITHUB\POVRAY\WINDOWS\VS2015\BUILD\OPENEXR ILMBASE IEX\WIN32\DEBUG\IEXBASEEXC.OBJ
C:\WINDOWS\SYSTEM32\TZRES.DLL
C:\USERS\MATTHEW MCCOMB\DOCUMENTS\GITHUB\POVRAY\WINDOWS\VS2015\BUILD\OPENEXR ILMBASE IEX\WIN32\DEBUG\IEXTHROWERRNOEXC.OBJ
C:\WINDOWS\GLOBALIZATION\SORTING\SORTDEFAULT.NLS
