^C:\USERS\MATTHEW MCCOMB\DOCUMENTS\GITHUB\POVRAY\WINDOWS\VS2015\BUILD\POVBACKEND\WIN32\RELEASE\BACKENDSCENEDATA.SBR|C:\USERS\MATTHEW MCCOMB\DOCUMENTS\GITHUB\POVRAY\WINDOWS\VS2015\BUILD\POVBACKEND\WIN32\RELEASE\BENCHMARK.SBR|C:\USERS\MATTHEW MCCOMB\DOCUMENTS\GITHUB\POVRAY\WINDOWS\VS2015\BUILD\POVBACKEND\WIN32\RELEASE\BENCHMARK_INI.SBR|C:\USERS\MATTHEW MCCOMB\DOCUMENTS\GITHUB\POVRAY\WINDOWS\VS2015\BUILD\POVBACKEND\WIN32\RELEASE\BENCHMARK_POV.SBR|C:\USERS\MATTHEW MCCOMB\DOCUMENTS\GITHUB\POVRAY\WINDOWS\VS2015\BUILD\POVBACKEND\WIN32\RELEASE\BOUNDINGTASK.SBR|C:\USERS\MATTHEW MCCOMB\DOCUMENTS\GITHUB\POVRAY\WINDOWS\VS2015\BUILD\POVBACKEND\WIN32\RELEASE\MESSAGEFACTORY.SBR|C:\USERS\MATTHEW MCCOMB\DOCUMENTS\GITHUB\POVRAY\WINDOWS\VS2015\BUILD\POVBACKEND\WIN32\RELEASE\PHOTONESTIMATIONTASK.SBR|C:\USERS\MATTHEW MCCOMB\DOCUMENTS\GITHUB\POVRAY\WINDOWS\VS2015\BUILD\POVBACKEND\WIN32\RELEASE\PHOTONSHOOTINGSTRATEGY.SBR|C:\USERS\MATTHEW MCCOMB\DOCUMENTS\GITHUB\POVRAY\WINDOWS\VS2015\BUILD\POVBACKEND\WIN32\RELEASE\PHOTONSHOOTINGTASK.SBR|C:\USERS\MATTHEW MCCOMB\DOCUMENTS\GITHUB\POVRAY\WINDOWS\VS2015\BUILD\POVBACKEND\WIN32\RELEASE\PHOTONSORTINGTASK.SBR|C:\USERS\MATTHEW MCCOMB\DOCUMENTS\GITHUB\POVRAY\WINDOWS\VS2015\BUILD\POVBACKEND\WIN32\RELEASE\PHOTONSTRATEGYTASK.SBR|C:\USERS\MATTHEW MCCOMB\DOCUMENTS\GITHUB\POVRAY\WINDOWS\VS2015\BUILD\POVBACKEND\WIN32\RELEASE\POVRAY.SBR|C:\USERS\MATTHEW MCCOMB\DOCUMENTS\GITHUB\POVRAY\WINDOWS\VS2015\BUILD\POVBACKEND\WIN32\RELEASE\PRECOMP.SBR|C:\USERS\MATTHEW MCCOMB\DOCUMENTS\GITHUB\POVRAY\WINDOWS\VS2015\BUILD\POVBACKEND\WIN32\RELEASE\RADIOSITYTASK.SBR|C:\USERS\MATTHEW MCCOMB\DOCUMENTS\GITHUB\POVRAY\WINDOWS\VS2015\BUILD\POVBACKEND\WIN32\RELEASE\RENDERBACKEND.SBR|C:\USERS\MATTHEW MCCOMB\DOCUMENTS\GITHUB\POVRAY\WINDOWS\VS2015\BUILD\POVBACKEND\WIN32\RELEASE\RENDERTASK.SBR|C:\USERS\MATTHEW MCCOMB\DOCUMENTS\GITHUB\POVRAY\WINDOWS\VS2015\BUILD\POVBACKEND\WIN32\RELEASE\SCENE.SBR|C:\USERS\MATTHEW MCCOMB\DOCUMENTS\GITHUB\POVRAY\WINDOWS\VS2015\BUILD\POVBACKEND\WIN32\RELEASE\TASK.SBR|C:\USERS\MATTHEW MCCOMB\DOCUMENTS\GITHUB\POVRAY\WINDOWS\VS2015\BUILD\POVBACKEND\WIN32\RELEASE\TASKQUEUE.SBR|C:\USERS\MATTHEW MCCOMB\DOCUMENTS\GITHUB\POVRAY\WINDOWS\VS2015\BUILD\POVBACKEND\WIN32\RELEASE\TRACETASK.SBR|C:\USERS\MATTHEW MCCOMB\DOCUMENTS\GITHUB\POVRAY\WINDOWS\VS2015\BUILD\POVBACKEND\WIN32\RELEASE\VIEW.SBR|C:\USERS\MATTHEW MCCOMB\DOCUMENTS\GITHUB\POVRAY\WINDOWS\VS2015\BUILD\POVBACKEND\WIN32\RELEASE\VIEWTHREADDATA.SBR
C:\USERS\MATTHEW MCCOMB\DOCUMENTS\GITHUB\POVRAY\WINDOWS\VS2015\BIN32\LIB\POVBACKEND32.BSC
^D:\POV-RAY\POV-RAY SOURCES\NORMAL\POVRAY\WINDOWS\VS2015\BUILD\POVBACKEND\WIN32\RELEASE\BACKENDSCENEDATA.SBR|D:\POV-RAY\POV-RAY SOURCES\NORMAL\POVRAY\WINDOWS\VS2015\BUILD\POVBACKEND\WIN32\RELEASE\BENCHMARK.SBR|D:\POV-RAY\POV-RAY SOURCES\NORMAL\POVRAY\WINDOWS\VS2015\BUILD\POVBACKEND\WIN32\RELEASE\BENCHMARK_INI.SBR|D:\POV-RAY\POV-RAY SOURCES\NORMAL\POVRAY\WINDOWS\VS2015\BUILD\POVBACKEND\WIN32\RELEASE\BENCHMARK_POV.SBR|D:\POV-RAY\POV-RAY SOURCES\NORMAL\POVRAY\WINDOWS\VS2015\BUILD\POVBACKEND\WIN32\RELEASE\BOUNDINGTASK.SBR|D:\POV-RAY\POV-RAY SOURCES\NORMAL\POVRAY\WINDOWS\VS2015\BUILD\POVBACKEND\WIN32\RELEASE\MESSAGEFACTORY.SBR|D:\POV-RAY\POV-RAY SOURCES\NORMAL\POVRAY\WINDOWS\VS2015\BUILD\POVBACKEND\WIN32\RELEASE\PHOTONESTIMATIONTASK.SBR|D:\POV-RAY\POV-RAY SOURCES\NORMAL\POVRAY\WINDOWS\VS2015\BUILD\POVBACKEND\WIN32\RELEASE\PHOTONSHOOTINGSTRATEGY.SBR|D:\POV-RAY\POV-RAY SOURCES\NORMAL\POVRAY\WINDOWS\VS2015\BUILD\POVBACKEND\WIN32\RELEASE\PHOTONSHOOTINGTASK.SBR|D:\POV-RAY\POV-RAY SOURCES\NORMAL\POVRAY\WINDOWS\VS2015\BUILD\POVBACKEND\WIN32\RELEASE\PHOTONSORTINGTASK.SBR|D:\POV-RAY\POV-RAY SOURCES\NORMAL\POVRAY\WINDOWS\VS2015\BUILD\POVBACKEND\WIN32\RELEASE\PHOTONSTRATEGYTASK.SBR|D:\POV-RAY\POV-RAY SOURCES\NORMAL\POVRAY\WINDOWS\VS2015\BUILD\POVBACKEND\WIN32\RELEASE\POVRAY.SBR|D:\POV-RAY\POV-RAY SOURCES\NORMAL\POVRAY\WINDOWS\VS2015\BUILD\POVBACKEND\WIN32\RELEASE\PRECOMP.SBR|D:\POV-RAY\POV-RAY SOURCES\NORMAL\POVRAY\WINDOWS\VS2015\BUILD\POVBACKEND\WIN32\RELEASE\RADIOSITYTASK.SBR|D:\POV-RAY\POV-RAY SOURCES\NORMAL\POVRAY\WINDOWS\VS2015\BUILD\POVBACKEND\WIN32\RELEASE\RENDERBACKEND.SBR|D:\POV-RAY\POV-RAY SOURCES\NORMAL\POVRAY\WINDOWS\VS2015\BUILD\POVBACKEND\WIN32\RELEASE\RENDERTASK.SBR|D:\POV-RAY\POV-RAY SOURCES\NORMAL\POVRAY\WINDOWS\VS2015\BUILD\POVBACKEND\WIN32\RELEASE\SCENE.SBR|D:\POV-RAY\POV-RAY SOURCES\NORMAL\POVRAY\WINDOWS\VS2015\BUILD\POVBACKEND\WIN32\RELEASE\TASK.SBR|D:\POV-RAY\POV-RAY SOURCES\NORMAL\POVRAY\WINDOWS\VS2015\BUILD\POVBACKEND\WIN32\RELEASE\TASKQUEUE.SBR|D:\POV-RAY\POV-RAY SOURCES\NORMAL\POVRAY\WINDOWS\VS2015\BUILD\POVBACKEND\WIN32\RELEASE\TRACETASK.SBR|D:\POV-RAY\POV-RAY SOURCES\NORMAL\POVRAY\WINDOWS\VS2015\BUILD\POVBACKEND\WIN32\RELEASE\VIEW.SBR|D:\POV-RAY\POV-RAY SOURCES\NORMAL\POVRAY\WINDOWS\VS2015\BUILD\POVBACKEND\WIN32\RELEASE\VIEWTHREADDATA.SBR
D:\POV-RAY\POV-RAY SOURCES\NORMAL\POVRAY\WINDOWS\VS2015\BIN32\LIB\POVBACKEND32.BSC
