^C:\USERS\MATTHEW MCCOMB\DOCUMENTS\GITHUB\POVRAY\WINDOWS\VS2015\BUILD\ZLIB\WIN32\RELEASE\ADLER32.SBR|C:\USERS\MATTHEW MCCOMB\DOCUMENTS\GITHUB\POVRAY\WINDOWS\VS2015\BUILD\ZLIB\WIN32\RELEASE\COMPRESS.SBR|C:\USERS\MATTHEW MCCOMB\DOCUMENTS\GITHUB\POVRAY\WINDOWS\VS2015\BUILD\ZLIB\WIN32\RELEASE\CRC32.SBR|C:\USERS\MATTHEW MCCOMB\DOCUMENTS\GITHUB\POVRAY\WINDOWS\VS2015\BUILD\ZLIB\WIN32\RELEASE\DEFLATE.SBR|C:\USERS\MATTHEW MCCOMB\DOCUMENTS\GITHUB\POVRAY\WINDOWS\VS2015\BUILD\ZLIB\WIN32\RELEASE\GZCLOSE.SBR|C:\USERS\MATTHEW MCCOMB\DOCUMENTS\GITHUB\POVRAY\WINDOWS\VS2015\BUILD\ZLIB\WIN32\RELEASE\GZLIB.SBR|C:\USERS\MATTHEW MCCOMB\DOCUMENTS\GITHUB\POVRAY\WINDOWS\VS2015\BUILD\ZLIB\WIN32\RELEASE\GZREAD.SBR|C:\USERS\MATTHEW MCCOMB\DOCUMENTS\GITHUB\POVRAY\WINDOWS\VS2015\BUILD\ZLIB\WIN32\RELEASE\GZWRITE.SBR|C:\USERS\MATTHEW MCCOMB\DOCUMENTS\GITHUB\POVRAY\WINDOWS\VS2015\BUILD\ZLIB\WIN32\RELEASE\INFBACK.SBR|C:\USERS\MATTHEW MCCOMB\DOCUMENTS\GITHUB\POVRAY\WINDOWS\VS2015\BUILD\ZLIB\WIN32\RELEASE\INFFAST.SBR|C:\USERS\MATTHEW MCCOMB\DOCUMENTS\GITHUB\POVRAY\WINDOWS\VS2015\BUILD\ZLIB\WIN32\RELEASE\INFLATE.SBR|C:\USERS\MATTHEW MCCOMB\DOCUMENTS\GITHUB\POVRAY\WINDOWS\VS2015\BUILD\ZLIB\WIN32\RELEASE\INFTREES.SBR|C:\USERS\MATTHEW MCCOMB\DOCUMENTS\GITHUB\POVRAY\WINDOWS\VS2015\BUILD\ZLIB\WIN32\RELEASE\TREES.SBR|C:\USERS\MATTHEW MCCOMB\DOCUMENTS\GITHUB\POVRAY\WINDOWS\VS2015\BUILD\ZLIB\WIN32\RELEASE\UNCOMPR.SBR|C:\USERS\MATTHEW MCCOMB\DOCUMENTS\GITHUB\POVRAY\WINDOWS\VS2015\BUILD\ZLIB\WIN32\RELEASE\ZUTIL.SBR
/nologo /o"BIN32\LIB\ZLIB32.BSC" BUILD\ZLIB\WIN32\RELEASE\ADLER32.SBR BUILD\ZLIB\WIN32\RELEASE\COMPRESS.SBR BUILD\ZLIB\WIN32\RELEASE\CRC32.SBR BUILD\ZLIB\WIN32\RELEASE\DEFLATE.SBR BUILD\ZLIB\WIN32\RELEASE\GZCLOSE.SBR BUILD\ZLIB\WIN32\RELEASE\GZLIB.SBR BUILD\ZLIB\WIN32\RELEASE\GZREAD.SBR BUILD\ZLIB\WIN32\RELEASE\GZWRITE.SBR BUILD\ZLIB\WIN32\RELEASE\INFBACK.SBR BUILD\ZLIB\WIN32\RELEASE\INFFAST.SBR BUILD\ZLIB\WIN32\RELEASE\INFLATE.SBR BUILD\ZLIB\WIN32\RELEASE\INFTREES.SBR BUILD\ZLIB\WIN32\RELEASE\TREES.SBR BUILD\ZLIB\WIN32\RELEASE\UNCOMPR.SBR BUILD\ZLIB\WIN32\RELEASE\ZUTIL.SBR
^D:\POV-RAY\POV-RAY SOURCES\NORMAL PLUS\POVRAY\WINDOWS\VS2015\BUILD\ZLIB\WIN32\RELEASE\ADLER32.SBR|D:\POV-RAY\POV-RAY SOURCES\NORMAL PLUS\POVRAY\WINDOWS\VS2015\BUILD\ZLIB\WIN32\RELEASE\COMPRESS.SBR|D:\POV-RAY\POV-RAY SOURCES\NORMAL PLUS\POVRAY\WINDOWS\VS2015\BUILD\ZLIB\WIN32\RELEASE\CRC32.SBR|D:\POV-RAY\POV-RAY SOURCES\NORMAL PLUS\POVRAY\WINDOWS\VS2015\BUILD\ZLIB\WIN32\RELEASE\DEFLATE.SBR|D:\POV-RAY\POV-RAY SOURCES\NORMAL PLUS\POVRAY\WINDOWS\VS2015\BUILD\ZLIB\WIN32\RELEASE\GZCLOSE.SBR|D:\POV-RAY\POV-RAY SOURCES\NORMAL PLUS\POVRAY\WINDOWS\VS2015\BUILD\ZLIB\WIN32\RELEASE\GZLIB.SBR|D:\POV-RAY\POV-RAY SOURCES\NORMAL PLUS\POVRAY\WINDOWS\VS2015\BUILD\ZLIB\WIN32\RELEASE\GZREAD.SBR|D:\POV-RAY\POV-RAY SOURCES\NORMAL PLUS\POVRAY\WINDOWS\VS2015\BUILD\ZLIB\WIN32\RELEASE\GZWRITE.SBR|D:\POV-RAY\POV-RAY SOURCES\NORMAL PLUS\POVRAY\WINDOWS\VS2015\BUILD\ZLIB\WIN32\RELEASE\INFBACK.SBR|D:\POV-RAY\POV-RAY SOURCES\NORMAL PLUS\POVRAY\WINDOWS\VS2015\BUILD\ZLIB\WIN32\RELEASE\INFFAST.SBR|D:\POV-RAY\POV-RAY SOURCES\NORMAL PLUS\POVRAY\WINDOWS\VS2015\BUILD\ZLIB\WIN32\RELEASE\INFLATE.SBR|D:\POV-RAY\POV-RAY SOURCES\NORMAL PLUS\POVRAY\WINDOWS\VS2015\BUILD\ZLIB\WIN32\RELEASE\INFTREES.SBR|D:\POV-RAY\POV-RAY SOURCES\NORMAL PLUS\POVRAY\WINDOWS\VS2015\BUILD\ZLIB\WIN32\RELEASE\TREES.SBR|D:\POV-RAY\POV-RAY SOURCES\NORMAL PLUS\POVRAY\WINDOWS\VS2015\BUILD\ZLIB\WIN32\RELEASE\UNCOMPR.SBR|D:\POV-RAY\POV-RAY SOURCES\NORMAL PLUS\POVRAY\WINDOWS\VS2015\BUILD\ZLIB\WIN32\RELEASE\ZUTIL.SBR
/nologo /o"BIN32\LIB\ZLIB32.BSC" BUILD\ZLIB\WIN32\RELEASE\ADLER32.SBR BUILD\ZLIB\WIN32\RELEASE\COMPRESS.SBR BUILD\ZLIB\WIN32\RELEASE\CRC32.SBR BUILD\ZLIB\WIN32\RELEASE\DEFLATE.SBR BUILD\ZLIB\WIN32\RELEASE\GZCLOSE.SBR BUILD\ZLIB\WIN32\RELEASE\GZLIB.SBR BUILD\ZLIB\WIN32\RELEASE\GZREAD.SBR BUILD\ZLIB\WIN32\RELEASE\GZWRITE.SBR BUILD\ZLIB\WIN32\RELEASE\INFBACK.SBR BUILD\ZLIB\WIN32\RELEASE\INFFAST.SBR BUILD\ZLIB\WIN32\RELEASE\INFLATE.SBR BUILD\ZLIB\WIN32\RELEASE\INFTREES.SBR BUILD\ZLIB\WIN32\RELEASE\TREES.SBR BUILD\ZLIB\WIN32\RELEASE\UNCOMPR.SBR BUILD\ZLIB\WIN32\RELEASE\ZUTIL.SBR
