^C:\USERS\MATTHEW MCCOMB\DOCUMENTS\GITHUB\POVRAY\WINDOWS\VS2015\BUILD\ZLIB\WIN32\RELEASE\ADLER32.OBJ|C:\USERS\MATTHEW MCCOMB\DOCUMENTS\GITHUB\POVRAY\WINDOWS\VS2015\BUILD\ZLIB\WIN32\RELEASE\COMPRESS.OBJ|C:\USERS\MATTHEW MCCOMB\DOCUMENTS\GITHUB\POVRAY\WINDOWS\VS2015\BUILD\ZLIB\WIN32\RELEASE\CRC32.OBJ|C:\USERS\MATTHEW MCCOMB\DOCUMENTS\GITHUB\POVRAY\WINDOWS\VS2015\BUILD\ZLIB\WIN32\RELEASE\DEFLATE.OBJ|C:\USERS\MATTHEW MCCOMB\DOCUMENTS\GITHUB\POVRAY\WINDOWS\VS2015\BUILD\ZLIB\WIN32\RELEASE\GZCLOSE.OBJ|C:\USERS\MATTHEW MCCOMB\DOCUMENTS\GITHUB\POVRAY\WINDOWS\VS2015\BUILD\ZLIB\WIN32\RELEASE\GZLIB.OBJ|C:\USERS\MATTHEW MCCOMB\DOCUMENTS\GITHUB\POVRAY\WINDOWS\VS2015\BUILD\ZLIB\WIN32\RELEASE\GZREAD.OBJ|C:\USERS\MATTHEW MCCOMB\DOCUMENTS\GITHUB\POVRAY\WINDOWS\VS2015\BUILD\ZLIB\WIN32\RELEASE\GZWRITE.OBJ|C:\USERS\MATTHEW MCCOMB\DOCUMENTS\GITHUB\POVRAY\WINDOWS\VS2015\BUILD\ZLIB\WIN32\RELEASE\INFBACK.OBJ|C:\USERS\MATTHEW MCCOMB\DOCUMENTS\GITHUB\POVRAY\WINDOWS\VS2015\BUILD\ZLIB\WIN32\RELEASE\INFFAST.OBJ|C:\USERS\MATTHEW MCCOMB\DOCUMENTS\GITHUB\POVRAY\WINDOWS\VS2015\BUILD\ZLIB\WIN32\RELEASE\INFLATE.OBJ|C:\USERS\MATTHEW MCCOMB\DOCUMENTS\GITHUB\POVRAY\WINDOWS\VS2015\BUILD\ZLIB\WIN32\RELEASE\INFTREES.OBJ|C:\USERS\MATTHEW MCCOMB\DOCUMENTS\GITHUB\POVRAY\WINDOWS\VS2015\BUILD\ZLIB\WIN32\RELEASE\TREES.OBJ|C:\USERS\MATTHEW MCCOMB\DOCUMENTS\GITHUB\POVRAY\WINDOWS\VS2015\BUILD\ZLIB\WIN32\RELEASE\UNCOMPR.OBJ|C:\USERS\MATTHEW MCCOMB\DOCUMENTS\GITHUB\POVRAY\WINDOWS\VS2015\BUILD\ZLIB\WIN32\RELEASE\ZUTIL.OBJ
C:\USERS\MATTHEW MCCOMB\DOCUMENTS\GITHUB\POVRAY\WINDOWS\VS2015\BIN32\LIB\ZLIB32.LIB
^D:\POV-RAY\POV-RAY SOURCES\NORMAL PLUS\POVRAY\WINDOWS\VS2015\BUILD\ZLIB\WIN32\RELEASE\ADLER32.OBJ|D:\POV-RAY\POV-RAY SOURCES\NORMAL PLUS\POVRAY\WINDOWS\VS2015\BUILD\ZLIB\WIN32\RELEASE\COMPRESS.OBJ|D:\POV-RAY\POV-RAY SOURCES\NORMAL PLUS\POVRAY\WINDOWS\VS2015\BUILD\ZLIB\WIN32\RELEASE\CRC32.OBJ|D:\POV-RAY\POV-RAY SOURCES\NORMAL PLUS\POVRAY\WINDOWS\VS2015\BUILD\ZLIB\WIN32\RELEASE\DEFLATE.OBJ|D:\POV-RAY\POV-RAY SOURCES\NORMAL PLUS\POVRAY\WINDOWS\VS2015\BUILD\ZLIB\WIN32\RELEASE\GZCLOSE.OBJ|D:\POV-RAY\POV-RAY SOURCES\NORMAL PLUS\POVRAY\WINDOWS\VS2015\BUILD\ZLIB\WIN32\RELEASE\GZLIB.OBJ|D:\POV-RAY\POV-RAY SOURCES\NORMAL PLUS\POVRAY\WINDOWS\VS2015\BUILD\ZLIB\WIN32\RELEASE\GZREAD.OBJ|D:\POV-RAY\POV-RAY SOURCES\NORMAL PLUS\POVRAY\WINDOWS\VS2015\BUILD\ZLIB\WIN32\RELEASE\GZWRITE.OBJ|D:\POV-RAY\POV-RAY SOURCES\NORMAL PLUS\POVRAY\WINDOWS\VS2015\BUILD\ZLIB\WIN32\RELEASE\INFBACK.OBJ|D:\POV-RAY\POV-RAY SOURCES\NORMAL PLUS\POVRAY\WINDOWS\VS2015\BUILD\ZLIB\WIN32\RELEASE\INFFAST.OBJ|D:\POV-RAY\POV-RAY SOURCES\NORMAL PLUS\POVRAY\WINDOWS\VS2015\BUILD\ZLIB\WIN32\RELEASE\INFLATE.OBJ|D:\POV-RAY\POV-RAY SOURCES\NORMAL PLUS\POVRAY\WINDOWS\VS2015\BUILD\ZLIB\WIN32\RELEASE\INFTREES.OBJ|D:\POV-RAY\POV-RAY SOURCES\NORMAL PLUS\POVRAY\WINDOWS\VS2015\BUILD\ZLIB\WIN32\RELEASE\TREES.OBJ|D:\POV-RAY\POV-RAY SOURCES\NORMAL PLUS\POVRAY\WINDOWS\VS2015\BUILD\ZLIB\WIN32\RELEASE\UNCOMPR.OBJ|D:\POV-RAY\POV-RAY SOURCES\NORMAL PLUS\POVRAY\WINDOWS\VS2015\BUILD\ZLIB\WIN32\RELEASE\ZUTIL.OBJ
D:\POV-RAY\POV-RAY SOURCES\NORMAL PLUS\POVRAY\WINDOWS\VS2015\BIN32\LIB\ZLIB32.LIB
