^C:\USERS\MATTHEW MCCOMB\DOCUMENTS\GITHUB\POVRAY\WINDOWS\VS2015\BUILD\JPEG\WIN32\DEBUG\JARICOM.SBR|C:\USERS\MATTHEW MCCOMB\DOCUMENTS\GITHUB\POVRAY\WINDOWS\VS2015\BUILD\JPEG\WIN32\DEBUG\JCAPIMIN.SBR|C:\USERS\MATTHEW MCCOMB\DOCUMENTS\GITHUB\POVRAY\WINDOWS\VS2015\BUILD\JPEG\WIN32\DEBUG\JCAPISTD.SBR|C:\USERS\MATTHEW MCCOMB\DOCUMENTS\GITHUB\POVRAY\WINDOWS\VS2015\BUILD\JPEG\WIN32\DEBUG\JCARITH.SBR|C:\USERS\MATTHEW MCCOMB\DOCUMENTS\GITHUB\POVRAY\WINDOWS\VS2015\BUILD\JPEG\WIN32\DEBUG\JCCOEFCT.SBR|C:\USERS\MATTHEW MCCOMB\DOCUMENTS\GITHUB\POVRAY\WINDOWS\VS2015\BUILD\JPEG\WIN32\DEBUG\JCCOLOR.SBR|C:\USERS\MATTHEW MCCOMB\DOCUMENTS\GITHUB\POVRAY\WINDOWS\VS2015\BUILD\JPEG\WIN32\DEBUG\JCDCTMGR.SBR|C:\USERS\MATTHEW MCCOMB\DOCUMENTS\GITHUB\POVRAY\WINDOWS\VS2015\BUILD\JPEG\WIN32\DEBUG\JCHUFF.SBR|C:\USERS\MATTHEW MCCOMB\DOCUMENTS\GITHUB\POVRAY\WINDOWS\VS2015\BUILD\JPEG\WIN32\DEBUG\JCINIT.SBR|C:\USERS\MATTHEW MCCOMB\DOCUMENTS\GITHUB\POVRAY\WINDOWS\VS2015\BUILD\JPEG\WIN32\DEBUG\JCMAINCT.SBR|C:\USERS\MATTHEW MCCOMB\DOCUMENTS\GITHUB\POVRAY\WINDOWS\VS2015\BUILD\JPEG\WIN32\DEBUG\JCMARKER.SBR|C:\USERS\MATTHEW MCCOMB\DOCUMENTS\GITHUB\POVRAY\WINDOWS\VS2015\BUILD\JPEG\WIN32\DEBUG\JCMASTER.SBR|C:\USERS\MATTHEW MCCOMB\DOCUMENTS\GITHUB\POVRAY\WINDOWS\VS2015\BUILD\JPEG\WIN32\DEBUG\JCOMAPI.SBR|C:\USERS\MATTHEW MCCOMB\DOCUMENTS\GITHUB\POVRAY\WINDOWS\VS2015\BUILD\JPEG\WIN32\DEBUG\JCPARAM.SBR|C:\USERS\MATTHEW MCCOMB\DOCUMENTS\GITHUB\POVRAY\WINDOWS\VS2015\BUILD\JPEG\WIN32\DEBUG\JCPREPCT.SBR|C:\USERS\MATTHEW MCCOMB\DOCUMENTS\GITHUB\POVRAY\WINDOWS\VS2015\BUILD\JPEG\WIN32\DEBUG\JCSAMPLE.SBR|C:\USERS\MATTHEW MCCOMB\DOCUMENTS\GITHUB\POVRAY\WINDOWS\VS2015\BUILD\JPEG\WIN32\DEBUG\JCTRANS.SBR|C:\USERS\MATTHEW MCCOMB\DOCUMENTS\GITHUB\POVRAY\WINDOWS\VS2015\BUILD\JPEG\WIN32\DEBUG\JDAPIMIN.SBR|C:\USERS\MATTHEW MCCOMB\DOCUMENTS\GITHUB\POVRAY\WINDOWS\VS2015\BUILD\JPEG\WIN32\DEBUG\JDAPISTD.SBR|C:\USERS\MATTHEW MCCOMB\DOCUMENTS\GITHUB\POVRAY\WINDOWS\VS2015\BUILD\JPEG\WIN32\DEBUG\JDARITH.SBR|C:\USERS\MATTHEW MCCOMB\DOCUMENTS\GITHUB\POVRAY\WINDOWS\VS2015\BUILD\JPEG\WIN32\DEBUG\JDATADST.SBR|C:\USERS\MATTHEW MCCOMB\DOCUMENTS\GITHUB\POVRAY\WINDOWS\VS2015\BUILD\JPEG\WIN32\DEBUG\JDATASRC.SBR|C:\USERS\MATTHEW MCCOMB\DOCUMENTS\GITHUB\POVRAY\WINDOWS\VS2015\BUILD\JPEG\WIN32\DEBUG\JDCOEFCT.SBR|C:\USERS\MATTHEW MCCOMB\DOCUMENTS\GITHUB\POVRAY\WINDOWS\VS2015\BUILD\JPEG\WIN32\DEBUG\JDCOLOR.SBR|C:\USERS\MATTHEW MCCOMB\DOCUMENTS\GITHUB\POVRAY\WINDOWS\VS2015\BUILD\JPEG\WIN32\DEBUG\JDDCTMGR.SBR|C:\USERS\MATTHEW MCCOMB\DOCUMENTS\GITHUB\POVRAY\WINDOWS\VS2015\BUILD\JPEG\WIN32\DEBUG\JDHUFF.SBR|C:\USERS\MATTHEW MCCOMB\DOCUMENTS\GITHUB\POVRAY\WINDOWS\VS2015\BUILD\JPEG\WIN32\DEBUG\JDINPUT.SBR|C:\USERS\MATTHEW MCCOMB\DOCUMENTS\GITHUB\POVRAY\WINDOWS\VS2015\BUILD\JPEG\WIN32\DEBUG\JDMAINCT.SBR|C:\USERS\MATTHEW MCCOMB\DOCUMENTS\GITHUB\POVRAY\WINDOWS\VS2015\BUILD\JPEG\WIN32\DEBUG\JDMARKER.SBR|C:\USERS\MATTHEW MCCOMB\DOCUMENTS\GITHUB\POVRAY\WINDOWS\VS2015\BUILD\JPEG\WIN32\DEBUG\JDMASTER.SBR|C:\USERS\MATTHEW MCCOMB\DOCUMENTS\GITHUB\POVRAY\WINDOWS\VS2015\BUILD\JPEG\WIN32\DEBUG\JDMERGE.SBR|C:\USERS\MATTHEW MCCOMB\DOCUMENTS\GITHUB\POVRAY\WINDOWS\VS2015\BUILD\JPEG\WIN32\DEBUG\JDPOSTCT.SBR|C:\USERS\MATTHEW MCCOMB\DOCUMENTS\GITHUB\POVRAY\WINDOWS\VS2015\BUILD\JPEG\WIN32\DEBUG\JDSAMPLE.SBR|C:\USERS\MATTHEW MCCOMB\DOCUMENTS\GITHUB\POVRAY\WINDOWS\VS2015\BUILD\JPEG\WIN32\DEBUG\JDTRANS.SBR|C:\USERS\MATTHEW MCCOMB\DOCUMENTS\GITHUB\POVRAY\WINDOWS\VS2015\BUILD\JPEG\WIN32\DEBUG\JERROR.SBR|C:\USERS\MATTHEW MCCOMB\DOCUMENTS\GITHUB\POVRAY\WINDOWS\VS2015\BUILD\JPEG\WIN32\DEBUG\JFDCTFLT.SBR|C:\USERS\MATTHEW MCCOMB\DOCUMENTS\GITHUB\POVRAY\WINDOWS\VS2015\BUILD\JPEG\WIN32\DEBUG\JFDCTFST.SBR|C:\USERS\MATTHEW MCCOMB\DOCUMENTS\GITHUB\POVRAY\WINDOWS\VS2015\BUILD\JPEG\WIN32\DEBUG\JFDCTINT.SBR|C:\USERS\MATTHEW MCCOMB\DOCUMENTS\GITHUB\POVRAY\WINDOWS\VS2015\BUILD\JPEG\WIN32\DEBUG\JIDCTFLT.SBR|C:\USERS\MATTHEW MCCOMB\DOCUMENTS\GITHUB\POVRAY\WINDOWS\VS2015\BUILD\JPEG\WIN32\DEBUG\JIDCTFST.SBR|C:\USERS\MATTHEW MCCOMB\DOCUMENTS\GITHUB\POVRAY\WINDOWS\VS2015\BUILD\JPEG\WIN32\DEBUG\JIDCTINT.SBR|C:\USERS\MATTHEW MCCOMB\DOCUMENTS\GITHUB\POVRAY\WINDOWS\VS2015\BUILD\JPEG\WIN32\DEBUG\JMEMMGR.SBR|C:\USERS\MATTHEW MCCOMB\DOCUMENTS\GITHUB\POVRAY\WINDOWS\VS2015\BUILD\JPEG\WIN32\DEBUG\JMEMNOBS.SBR|C:\USERS\MATTHEW MCCOMB\DOCUMENTS\GITHUB\POVRAY\WINDOWS\VS2015\BUILD\JPEG\WIN32\DEBUG\JQUANT1.SBR|C:\USERS\MATTHEW MCCOMB\DOCUMENTS\GITHUB\POVRAY\WINDOWS\VS2015\BUILD\JPEG\WIN32\DEBUG\JQUANT2.SBR|C:\USERS\MATTHEW MCCOMB\DOCUMENTS\GITHUB\POVRAY\WINDOWS\VS2015\BUILD\JPEG\WIN32\DEBUG\JUTILS.SBR
C:\WINDOWS\SYSTEM32\TZRES.DLL
C:\USERS\MATTHEW MCCOMB\DOCUMENTS\GITHUB\POVRAY\WINDOWS\VS2015\BUILD\JPEG\WIN32\DEBUG\JARICOM.SBR
C:\USERS\MATTHEW MCCOMB\DOCUMENTS\GITHUB\POVRAY\WINDOWS\VS2015\BUILD\JPEG\WIN32\DEBUG\JCAPIMIN.SBR
C:\USERS\MATTHEW MCCOMB\DOCUMENTS\GITHUB\POVRAY\WINDOWS\VS2015\BUILD\JPEG\WIN32\DEBUG\JCAPISTD.SBR
C:\USERS\MATTHEW MCCOMB\DOCUMENTS\GITHUB\POVRAY\WINDOWS\VS2015\BUILD\JPEG\WIN32\DEBUG\JCARITH.SBR
C:\USERS\MATTHEW MCCOMB\DOCUMENTS\GITHUB\POVRAY\WINDOWS\VS2015\BUILD\JPEG\WIN32\DEBUG\JCCOEFCT.SBR
C:\USERS\MATTHEW MCCOMB\DOCUMENTS\GITHUB\POVRAY\WINDOWS\VS2015\BUILD\JPEG\WIN32\DEBUG\JCCOLOR.SBR
C:\USERS\MATTHEW MCCOMB\DOCUMENTS\GITHUB\POVRAY\WINDOWS\VS2015\BUILD\JPEG\WIN32\DEBUG\JCDCTMGR.SBR
C:\USERS\MATTHEW MCCOMB\DOCUMENTS\GITHUB\POVRAY\WINDOWS\VS2015\BUILD\JPEG\WIN32\DEBUG\JCHUFF.SBR
C:\USERS\MATTHEW MCCOMB\DOCUMENTS\GITHUB\POVRAY\WINDOWS\VS2015\BUILD\JPEG\WIN32\DEBUG\JCINIT.SBR
C:\USERS\MATTHEW MCCOMB\DOCUMENTS\GITHUB\POVRAY\WINDOWS\VS2015\BUILD\JPEG\WIN32\DEBUG\JCMAINCT.SBR
C:\USERS\MATTHEW MCCOMB\DOCUMENTS\GITHUB\POVRAY\WINDOWS\VS2015\BUILD\JPEG\WIN32\DEBUG\JCMARKER.SBR
C:\USERS\MATTHEW MCCOMB\DOCUMENTS\GITHUB\POVRAY\WINDOWS\VS2015\BUILD\JPEG\WIN32\DEBUG\JCMASTER.SBR
C:\USERS\MATTHEW MCCOMB\DOCUMENTS\GITHUB\POVRAY\WINDOWS\VS2015\BUILD\JPEG\WIN32\DEBUG\JCOMAPI.SBR
C:\USERS\MATTHEW MCCOMB\DOCUMENTS\GITHUB\POVRAY\WINDOWS\VS2015\BUILD\JPEG\WIN32\DEBUG\JCPARAM.SBR
C:\USERS\MATTHEW MCCOMB\DOCUMENTS\GITHUB\POVRAY\WINDOWS\VS2015\BUILD\JPEG\WIN32\DEBUG\JCPREPCT.SBR
C:\USERS\MATTHEW MCCOMB\DOCUMENTS\GITHUB\POVRAY\WINDOWS\VS2015\BUILD\JPEG\WIN32\DEBUG\JCSAMPLE.SBR
C:\USERS\MATTHEW MCCOMB\DOCUMENTS\GITHUB\POVRAY\WINDOWS\VS2015\BUILD\JPEG\WIN32\DEBUG\JCTRANS.SBR
C:\USERS\MATTHEW MCCOMB\DOCUMENTS\GITHUB\POVRAY\WINDOWS\VS2015\BUILD\JPEG\WIN32\DEBUG\JDAPIMIN.SBR
C:\USERS\MATTHEW MCCOMB\DOCUMENTS\GITHUB\POVRAY\WINDOWS\VS2015\BUILD\JPEG\WIN32\DEBUG\JDAPISTD.SBR
C:\USERS\MATTHEW MCCOMB\DOCUMENTS\GITHUB\POVRAY\WINDOWS\VS2015\BUILD\JPEG\WIN32\DEBUG\JDARITH.SBR
C:\USERS\MATTHEW MCCOMB\DOCUMENTS\GITHUB\POVRAY\WINDOWS\VS2015\BUILD\JPEG\WIN32\DEBUG\JDATADST.SBR
C:\USERS\MATTHEW MCCOMB\DOCUMENTS\GITHUB\POVRAY\WINDOWS\VS2015\BUILD\JPEG\WIN32\DEBUG\JDATASRC.SBR
C:\USERS\MATTHEW MCCOMB\DOCUMENTS\GITHUB\POVRAY\WINDOWS\VS2015\BUILD\JPEG\WIN32\DEBUG\JDCOEFCT.SBR
C:\USERS\MATTHEW MCCOMB\DOCUMENTS\GITHUB\POVRAY\WINDOWS\VS2015\BUILD\JPEG\WIN32\DEBUG\JDCOLOR.SBR
C:\USERS\MATTHEW MCCOMB\DOCUMENTS\GITHUB\POVRAY\WINDOWS\VS2015\BUILD\JPEG\WIN32\DEBUG\JDDCTMGR.SBR
C:\USERS\MATTHEW MCCOMB\DOCUMENTS\GITHUB\POVRAY\WINDOWS\VS2015\BUILD\JPEG\WIN32\DEBUG\JDHUFF.SBR
C:\USERS\MATTHEW MCCOMB\DOCUMENTS\GITHUB\POVRAY\WINDOWS\VS2015\BUILD\JPEG\WIN32\DEBUG\JDINPUT.SBR
C:\USERS\MATTHEW MCCOMB\DOCUMENTS\GITHUB\POVRAY\WINDOWS\VS2015\BUILD\JPEG\WIN32\DEBUG\JDMAINCT.SBR
C:\USERS\MATTHEW MCCOMB\DOCUMENTS\GITHUB\POVRAY\WINDOWS\VS2015\BUILD\JPEG\WIN32\DEBUG\JDMARKER.SBR
C:\USERS\MATTHEW MCCOMB\DOCUMENTS\GITHUB\POVRAY\WINDOWS\VS2015\BUILD\JPEG\WIN32\DEBUG\JDMASTER.SBR
C:\USERS\MATTHEW MCCOMB\DOCUMENTS\GITHUB\POVRAY\WINDOWS\VS2015\BUILD\JPEG\WIN32\DEBUG\JDMERGE.SBR
C:\USERS\MATTHEW MCCOMB\DOCUMENTS\GITHUB\POVRAY\WINDOWS\VS2015\BUILD\JPEG\WIN32\DEBUG\JDPOSTCT.SBR
C:\USERS\MATTHEW MCCOMB\DOCUMENTS\GITHUB\POVRAY\WINDOWS\VS2015\BUILD\JPEG\WIN32\DEBUG\JDSAMPLE.SBR
C:\USERS\MATTHEW MCCOMB\DOCUMENTS\GITHUB\POVRAY\WINDOWS\VS2015\BUILD\JPEG\WIN32\DEBUG\JDTRANS.SBR
C:\USERS\MATTHEW MCCOMB\DOCUMENTS\GITHUB\POVRAY\WINDOWS\VS2015\BUILD\JPEG\WIN32\DEBUG\JERROR.SBR
C:\USERS\MATTHEW MCCOMB\DOCUMENTS\GITHUB\POVRAY\WINDOWS\VS2015\BUILD\JPEG\WIN32\DEBUG\JFDCTFLT.SBR
C:\USERS\MATTHEW MCCOMB\DOCUMENTS\GITHUB\POVRAY\WINDOWS\VS2015\BUILD\JPEG\WIN32\DEBUG\JFDCTFST.SBR
C:\USERS\MATTHEW MCCOMB\DOCUMENTS\GITHUB\POVRAY\WINDOWS\VS2015\BUILD\JPEG\WIN32\DEBUG\JFDCTINT.SBR
C:\USERS\MATTHEW MCCOMB\DOCUMENTS\GITHUB\POVRAY\WINDOWS\VS2015\BUILD\JPEG\WIN32\DEBUG\JIDCTFLT.SBR
C:\USERS\MATTHEW MCCOMB\DOCUMENTS\GITHUB\POVRAY\WINDOWS\VS2015\BUILD\JPEG\WIN32\DEBUG\JIDCTFST.SBR
C:\USERS\MATTHEW MCCOMB\DOCUMENTS\GITHUB\POVRAY\WINDOWS\VS2015\BUILD\JPEG\WIN32\DEBUG\JIDCTINT.SBR
C:\USERS\MATTHEW MCCOMB\DOCUMENTS\GITHUB\POVRAY\WINDOWS\VS2015\BUILD\JPEG\WIN32\DEBUG\JMEMMGR.SBR
C:\USERS\MATTHEW MCCOMB\DOCUMENTS\GITHUB\POVRAY\WINDOWS\VS2015\BUILD\JPEG\WIN32\DEBUG\JMEMNOBS.SBR
C:\USERS\MATTHEW MCCOMB\DOCUMENTS\GITHUB\POVRAY\WINDOWS\VS2015\BUILD\JPEG\WIN32\DEBUG\JQUANT1.SBR
C:\USERS\MATTHEW MCCOMB\DOCUMENTS\GITHUB\POVRAY\WINDOWS\VS2015\BUILD\JPEG\WIN32\DEBUG\JQUANT2.SBR
C:\USERS\MATTHEW MCCOMB\DOCUMENTS\GITHUB\POVRAY\WINDOWS\VS2015\BUILD\JPEG\WIN32\DEBUG\JUTILS.SBR
