^C:\USERS\MATTHEW MCCOMB\DOCUMENTS\GITHUB\POVRAY\SOURCE\BACKEND\PRECOMP.CPP
C:\USERS\MATTHEW MCCOMB\DOCUMENTS\GITHUB\POVRAY\WINDOWS\VS10\BUILD\POVBACKEND\WIN32\DEBUG\PRECOMP.PCH
C:\USERS\MATTHEW MCCOMB\DOCUMENTS\GITHUB\POVRAY\WINDOWS\VS10\BUILD\POVBACKEND\WIN32\DEBUG\POVBACKEND.PDB
C:\USERS\MATTHEW MCCOMB\DOCUMENTS\GITHUB\POVRAY\WINDOWS\VS10\BUILD\POVBACKEND\WIN32\DEBUG\PRECOMP.SBR
C:\USERS\MATTHEW MCCOMB\DOCUMENTS\GITHUB\POVRAY\WINDOWS\VS10\BUILD\POVBACKEND\WIN32\DEBUG\PRECOMP.OBJ
