^C:\USERS\MATTHEW MCCOMB\DOCUMENTS\GITHUB\POVRAY\WINDOWS\VS2015\BUILD\OPENEXR ILMBASE IEX\WIN32\RELEASE\IEXBASEEXC.SBR|C:\USERS\MATTHEW MCCOMB\DOCUMENTS\GITHUB\POVRAY\WINDOWS\VS2015\BUILD\OPENEXR ILMBASE IEX\WIN32\RELEASE\IEXTHROWERRNOEXC.SBR
C:\WINDOWS\SYSTEM32\TZRES.DLL
C:\USERS\MATTHEW MCCOMB\DOCUMENTS\GITHUB\POVRAY\WINDOWS\VS2015\BUILD\OPENEXR ILMBASE IEX\WIN32\RELEASE\IEXBASEEXC.SBR
C:\USERS\MATTHEW MCCOMB\DOCUMENTS\GITHUB\POVRAY\WINDOWS\VS2015\BUILD\OPENEXR ILMBASE IEX\WIN32\RELEASE\IEXTHROWERRNOEXC.SBR
^D:\POV-RAY\POV-RAY SOURCES\NORMAL MINUS\POVRAY\WINDOWS\VS2015\BUILD\OPENEXR ILMBASE IEX\WIN32\RELEASE\IEXBASEEXC.SBR|D:\POV-RAY\POV-RAY SOURCES\NORMAL MINUS\POVRAY\WINDOWS\VS2015\BUILD\OPENEXR ILMBASE IEX\WIN32\RELEASE\IEXTHROWERRNOEXC.SBR
C:\WINDOWS\SYSTEM32\TZRES.DLL
D:\POV-RAY\POV-RAY SOURCES\NORMAL MINUS\POVRAY\WINDOWS\VS2015\BIN32\LIB\IEX32.BSC
D:\POV-RAY\POV-RAY SOURCES\NORMAL MINUS\POVRAY\WINDOWS\VS2015\BUILD\OPENEXR ILMBASE IEX\WIN32\RELEASE\IEXBASEEXC.SBR
D:\POV-RAY\POV-RAY SOURCES\NORMAL MINUS\POVRAY\WINDOWS\VS2015\BUILD\OPENEXR ILMBASE IEX\WIN32\RELEASE\IEXTHROWERRNOEXC.SBR
