^C:\USERS\MATTHEW MCCOMB\DOCUMENTS\GITHUB\POVRAY\WINDOWS\VS2015\BUILD\POVFRONTEND\WIN32\RELEASE\ANIMATIONPROCESSING.SBR|C:\USERS\MATTHEW MCCOMB\DOCUMENTS\GITHUB\POVRAY\WINDOWS\VS2015\BUILD\POVFRONTEND\WIN32\RELEASE\CONSOLE.SBR|C:\USERS\MATTHEW MCCOMB\DOCUMENTS\GITHUB\POVRAY\WINDOWS\VS2015\BUILD\POVFRONTEND\WIN32\RELEASE\DISPLAY.SBR|C:\USERS\MATTHEW MCCOMB\DOCUMENTS\GITHUB\POVRAY\WINDOWS\VS2015\BUILD\POVFRONTEND\WIN32\RELEASE\FILEMESSAGEHANDLER.SBR|C:\USERS\MATTHEW MCCOMB\DOCUMENTS\GITHUB\POVRAY\WINDOWS\VS2015\BUILD\POVFRONTEND\WIN32\RELEASE\IMAGEMESSAGEHANDLER.SBR|C:\USERS\MATTHEW MCCOMB\DOCUMENTS\GITHUB\POVRAY\WINDOWS\VS2015\BUILD\POVFRONTEND\WIN32\RELEASE\IMAGEPROCESSING.SBR|C:\USERS\MATTHEW MCCOMB\DOCUMENTS\GITHUB\POVRAY\WINDOWS\VS2015\BUILD\POVFRONTEND\WIN32\RELEASE\PARSERMESSAGEHANDLER.SBR|C:\USERS\MATTHEW MCCOMB\DOCUMENTS\GITHUB\POVRAY\WINDOWS\VS2015\BUILD\POVFRONTEND\WIN32\RELEASE\POVMAIN.SBR|C:\USERS\MATTHEW MCCOMB\DOCUMENTS\GITHUB\POVRAY\WINDOWS\VS2015\BUILD\POVFRONTEND\WIN32\RELEASE\PRECOMP.SBR|C:\USERS\MATTHEW MCCOMB\DOCUMENTS\GITHUB\POVRAY\WINDOWS\VS2015\BUILD\POVFRONTEND\WIN32\RELEASE\PROCESSOPTIONS.SBR|C:\USERS\MATTHEW MCCOMB\DOCUMENTS\GITHUB\POVRAY\WINDOWS\VS2015\BUILD\POVFRONTEND\WIN32\RELEASE\PROCESSRENDEROPTIONS.SBR|C:\USERS\MATTHEW MCCOMB\DOCUMENTS\GITHUB\POVRAY\WINDOWS\VS2015\BUILD\POVFRONTEND\WIN32\RELEASE\RENDERFRONTEND.SBR|C:\USERS\MATTHEW MCCOMB\DOCUMENTS\GITHUB\POVRAY\WINDOWS\VS2015\BUILD\POVFRONTEND\WIN32\RELEASE\RENDERMESSAGEHANDLER.SBR|C:\USERS\MATTHEW MCCOMB\DOCUMENTS\GITHUB\POVRAY\WINDOWS\VS2015\BUILD\POVFRONTEND\WIN32\RELEASE\SHELLOUTPROCESSING.SBR
/nologo /o"BIN32\LIB\POVFRONTEND32.BSC" BUILD\POVFRONTEND\WIN32\RELEASE\ANIMATIONPROCESSING.SBR BUILD\POVFRONTEND\WIN32\RELEASE\CONSOLE.SBR BUILD\POVFRONTEND\WIN32\RELEASE\DISPLAY.SBR BUILD\POVFRONTEND\WIN32\RELEASE\FILEMESSAGEHANDLER.SBR BUILD\POVFRONTEND\WIN32\RELEASE\IMAGEMESSAGEHANDLER.SBR BUILD\POVFRONTEND\WIN32\RELEASE\IMAGEPROCESSING.SBR BUILD\POVFRONTEND\WIN32\RELEASE\PARSERMESSAGEHANDLER.SBR BUILD\POVFRONTEND\WIN32\RELEASE\PROCESSOPTIONS.SBR BUILD\POVFRONTEND\WIN32\RELEASE\PROCESSRENDEROPTIONS.SBR BUILD\POVFRONTEND\WIN32\RELEASE\RENDERFRONTEND.SBR BUILD\POVFRONTEND\WIN32\RELEASE\RENDERMESSAGEHANDLER.SBR BUILD\POVFRONTEND\WIN32\RELEASE\SHELLOUTPROCESSING.SBR BUILD\POVFRONTEND\WIN32\RELEASE\POVMAIN.SBR BUILD\POVFRONTEND\WIN32\RELEASE\PRECOMP.SBR
^D:\POV-RAY\POV-RAY SOURCES\NORMAL MINUS\POVRAY\WINDOWS\VS2015\BUILD\POVFRONTEND\WIN32\RELEASE\ANIMATIONPROCESSING.SBR|D:\POV-RAY\POV-RAY SOURCES\NORMAL MINUS\POVRAY\WINDOWS\VS2015\BUILD\POVFRONTEND\WIN32\RELEASE\CONSOLE.SBR|D:\POV-RAY\POV-RAY SOURCES\NORMAL MINUS\POVRAY\WINDOWS\VS2015\BUILD\POVFRONTEND\WIN32\RELEASE\DISPLAY.SBR|D:\POV-RAY\POV-RAY SOURCES\NORMAL MINUS\POVRAY\WINDOWS\VS2015\BUILD\POVFRONTEND\WIN32\RELEASE\FILEMESSAGEHANDLER.SBR|D:\POV-RAY\POV-RAY SOURCES\NORMAL MINUS\POVRAY\WINDOWS\VS2015\BUILD\POVFRONTEND\WIN32\RELEASE\IMAGEMESSAGEHANDLER.SBR|D:\POV-RAY\POV-RAY SOURCES\NORMAL MINUS\POVRAY\WINDOWS\VS2015\BUILD\POVFRONTEND\WIN32\RELEASE\IMAGEPROCESSING.SBR|D:\POV-RAY\POV-RAY SOURCES\NORMAL MINUS\POVRAY\WINDOWS\VS2015\BUILD\POVFRONTEND\WIN32\RELEASE\PARSERMESSAGEHANDLER.SBR|D:\POV-RAY\POV-RAY SOURCES\NORMAL MINUS\POVRAY\WINDOWS\VS2015\BUILD\POVFRONTEND\WIN32\RELEASE\POVMAIN.SBR|D:\POV-RAY\POV-RAY SOURCES\NORMAL MINUS\POVRAY\WINDOWS\VS2015\BUILD\POVFRONTEND\WIN32\RELEASE\PRECOMP.SBR|D:\POV-RAY\POV-RAY SOURCES\NORMAL MINUS\POVRAY\WINDOWS\VS2015\BUILD\POVFRONTEND\WIN32\RELEASE\PROCESSOPTIONS.SBR|D:\POV-RAY\POV-RAY SOURCES\NORMAL MINUS\POVRAY\WINDOWS\VS2015\BUILD\POVFRONTEND\WIN32\RELEASE\PROCESSRENDEROPTIONS.SBR|D:\POV-RAY\POV-RAY SOURCES\NORMAL MINUS\POVRAY\WINDOWS\VS2015\BUILD\POVFRONTEND\WIN32\RELEASE\RENDERFRONTEND.SBR|D:\POV-RAY\POV-RAY SOURCES\NORMAL MINUS\POVRAY\WINDOWS\VS2015\BUILD\POVFRONTEND\WIN32\RELEASE\RENDERMESSAGEHANDLER.SBR|D:\POV-RAY\POV-RAY SOURCES\NORMAL MINUS\POVRAY\WINDOWS\VS2015\BUILD\POVFRONTEND\WIN32\RELEASE\SHELLOUTPROCESSING.SBR
/nologo /o"BIN32\LIB\POVFRONTEND32.BSC" BUILD\POVFRONTEND\WIN32\RELEASE\ANIMATIONPROCESSING.SBR BUILD\POVFRONTEND\WIN32\RELEASE\CONSOLE.SBR BUILD\POVFRONTEND\WIN32\RELEASE\DISPLAY.SBR BUILD\POVFRONTEND\WIN32\RELEASE\FILEMESSAGEHANDLER.SBR BUILD\POVFRONTEND\WIN32\RELEASE\IMAGEMESSAGEHANDLER.SBR BUILD\POVFRONTEND\WIN32\RELEASE\IMAGEPROCESSING.SBR BUILD\POVFRONTEND\WIN32\RELEASE\PARSERMESSAGEHANDLER.SBR BUILD\POVFRONTEND\WIN32\RELEASE\PROCESSOPTIONS.SBR BUILD\POVFRONTEND\WIN32\RELEASE\PROCESSRENDEROPTIONS.SBR BUILD\POVFRONTEND\WIN32\RELEASE\RENDERFRONTEND.SBR BUILD\POVFRONTEND\WIN32\RELEASE\RENDERMESSAGEHANDLER.SBR BUILD\POVFRONTEND\WIN32\RELEASE\SHELLOUTPROCESSING.SBR BUILD\POVFRONTEND\WIN32\RELEASE\POVMAIN.SBR BUILD\POVFRONTEND\WIN32\RELEASE\PRECOMP.SBR
