^C:\USERS\MATTHEW MCCOMB\DOCUMENTS\GITHUB\POVRAY\SOURCE\FRONTEND\PRECOMP.CPP
/c /I..\..\INTERNAL\WINDOWS /I..\..\PLATFORM\X86 /I..\..\PLATFORM\WINDOWS /I..\..\WINDOWS\POVCONFIG /I..\..\LIBRARIES\BOOST /I..\..\VFE\WIN\ /I..\..\VFE\ /I..\..\SOURCE /I..\..\LIBRARIES\JPEG /I..\..\LIBRARIES\ZLIB /I..\..\LIBRARIES\PNG /I..\..\LIBRARIES\TIFF\LIBTIFF /Zi /nologo /W3 /WX- /Ox /Ob2 /Oi /Ot /Oy- /GL /D BOOST_ALL_NO_LIB /D NDEBUG /D WIN32 /D WIN32_LEAN_AND_MEAN /D _WINDOWS /D COMMONCTRL_VERSION=0x500 /D CLASSLIB_DEFS_H /D WINVER=0x0500 /D _WIN32_WINNT=0x0500 /D NOMINMAX /D ISOLATION_AWARE_ENABLED /D _CRT_SECURE_NO_DEPRECATE /D _SECURE_SCL=0 /GF /Gm- /EHsc /MT /GS- /fp:precise /fp:except- /Zc:wchar_t /Zc:forScope /Zc:inline /GR /Yc"precomp.h" /Fp"BUILD\POVFRONTEND\WIN32\RELEASE\PRECOMP.PCH" /Fo"BUILD\POVFRONTEND\WIN32\RELEASE\\" /Fd"BUILD\POVFRONTEND\WIN32\RELEASE\POVFRONTEND.PDB" /FR"build\povfrontend\Win32\Release\\" /Gd /TP /wd4800 /wd4355 /FIPRECOMP.H /analyze- C:\USERS\MATTHEW MCCOMB\DOCUMENTS\GITHUB\POVRAY\SOURCE\FRONTEND\PRECOMP.CPP
^C:\USERS\MATTHEW MCCOMB\DOCUMENTS\GITHUB\POVRAY\SOURCE\FRONTEND\ANIMATIONPROCESSING.CPP
/c /I..\..\INTERNAL\WINDOWS /I..\..\PLATFORM\X86 /I..\..\PLATFORM\WINDOWS /I..\..\WINDOWS\POVCONFIG /I..\..\LIBRARIES\BOOST /I..\..\VFE\WIN\ /I..\..\VFE\ /I..\..\SOURCE /I..\..\LIBRARIES\JPEG /I..\..\LIBRARIES\ZLIB /I..\..\LIBRARIES\PNG /I..\..\LIBRARIES\TIFF\LIBTIFF /Zi /nologo /W3 /WX- /Ox /Ob2 /Oi /Ot /Oy- /GL /D BOOST_ALL_NO_LIB /D NDEBUG /D WIN32 /D WIN32_LEAN_AND_MEAN /D _WINDOWS /D COMMONCTRL_VERSION=0x500 /D CLASSLIB_DEFS_H /D WINVER=0x0500 /D _WIN32_WINNT=0x0500 /D NOMINMAX /D ISOLATION_AWARE_ENABLED /D _CRT_SECURE_NO_DEPRECATE /D _SECURE_SCL=0 /GF /Gm- /EHsc /MT /GS- /fp:precise /fp:except- /Zc:wchar_t /Zc:forScope /Zc:inline /GR /Yu"precomp.h" /Fp"BUILD\POVFRONTEND\WIN32\RELEASE\PRECOMP.PCH" /Fo"BUILD\POVFRONTEND\WIN32\RELEASE\\" /Fd"BUILD\POVFRONTEND\WIN32\RELEASE\POVFRONTEND.PDB" /FR"build\povfrontend\Win32\Release\\" /Gd /TP /wd4800 /wd4355 /FIPRECOMP.H /analyze- C:\USERS\MATTHEW MCCOMB\DOCUMENTS\GITHUB\POVRAY\SOURCE\FRONTEND\ANIMATIONPROCESSING.CPP
^C:\USERS\MATTHEW MCCOMB\DOCUMENTS\GITHUB\POVRAY\SOURCE\FRONTEND\CONSOLE.CPP
/c /I..\..\INTERNAL\WINDOWS /I..\..\PLATFORM\X86 /I..\..\PLATFORM\WINDOWS /I..\..\WINDOWS\POVCONFIG /I..\..\LIBRARIES\BOOST /I..\..\VFE\WIN\ /I..\..\VFE\ /I..\..\SOURCE /I..\..\LIBRARIES\JPEG /I..\..\LIBRARIES\ZLIB /I..\..\LIBRARIES\PNG /I..\..\LIBRARIES\TIFF\LIBTIFF /Zi /nologo /W3 /WX- /Ox /Ob2 /Oi /Ot /Oy- /GL /D BOOST_ALL_NO_LIB /D NDEBUG /D WIN32 /D WIN32_LEAN_AND_MEAN /D _WINDOWS /D COMMONCTRL_VERSION=0x500 /D CLASSLIB_DEFS_H /D WINVER=0x0500 /D _WIN32_WINNT=0x0500 /D NOMINMAX /D ISOLATION_AWARE_ENABLED /D _CRT_SECURE_NO_DEPRECATE /D _SECURE_SCL=0 /GF /Gm- /EHsc /MT /GS- /fp:precise /fp:except- /Zc:wchar_t /Zc:forScope /Zc:inline /GR /Yu"precomp.h" /Fp"BUILD\POVFRONTEND\WIN32\RELEASE\PRECOMP.PCH" /Fo"BUILD\POVFRONTEND\WIN32\RELEASE\\" /Fd"BUILD\POVFRONTEND\WIN32\RELEASE\POVFRONTEND.PDB" /FR"build\povfrontend\Win32\Release\\" /Gd /TP /wd4800 /wd4355 /FIPRECOMP.H /analyze- C:\USERS\MATTHEW MCCOMB\DOCUMENTS\GITHUB\POVRAY\SOURCE\FRONTEND\CONSOLE.CPP
^C:\USERS\MATTHEW MCCOMB\DOCUMENTS\GITHUB\POVRAY\SOURCE\FRONTEND\DISPLAY.CPP
/c /I..\..\INTERNAL\WINDOWS /I..\..\PLATFORM\X86 /I..\..\PLATFORM\WINDOWS /I..\..\WINDOWS\POVCONFIG /I..\..\LIBRARIES\BOOST /I..\..\VFE\WIN\ /I..\..\VFE\ /I..\..\SOURCE /I..\..\LIBRARIES\JPEG /I..\..\LIBRARIES\ZLIB /I..\..\LIBRARIES\PNG /I..\..\LIBRARIES\TIFF\LIBTIFF /Zi /nologo /W3 /WX- /Ox /Ob2 /Oi /Ot /Oy- /GL /D BOOST_ALL_NO_LIB /D NDEBUG /D WIN32 /D WIN32_LEAN_AND_MEAN /D _WINDOWS /D COMMONCTRL_VERSION=0x500 /D CLASSLIB_DEFS_H /D WINVER=0x0500 /D _WIN32_WINNT=0x0500 /D NOMINMAX /D ISOLATION_AWARE_ENABLED /D _CRT_SECURE_NO_DEPRECATE /D _SECURE_SCL=0 /GF /Gm- /EHsc /MT /GS- /fp:precise /fp:except- /Zc:wchar_t /Zc:forScope /Zc:inline /GR /Yu"precomp.h" /Fp"BUILD\POVFRONTEND\WIN32\RELEASE\PRECOMP.PCH" /Fo"BUILD\POVFRONTEND\WIN32\RELEASE\\" /Fd"BUILD\POVFRONTEND\WIN32\RELEASE\POVFRONTEND.PDB" /FR"build\povfrontend\Win32\Release\\" /Gd /TP /wd4800 /wd4355 /FIPRECOMP.H /analyze- C:\USERS\MATTHEW MCCOMB\DOCUMENTS\GITHUB\POVRAY\SOURCE\FRONTEND\DISPLAY.CPP
^C:\USERS\MATTHEW MCCOMB\DOCUMENTS\GITHUB\POVRAY\SOURCE\FRONTEND\FILEMESSAGEHANDLER.CPP
/c /I..\..\INTERNAL\WINDOWS /I..\..\PLATFORM\X86 /I..\..\PLATFORM\WINDOWS /I..\..\WINDOWS\POVCONFIG /I..\..\LIBRARIES\BOOST /I..\..\VFE\WIN\ /I..\..\VFE\ /I..\..\SOURCE /I..\..\LIBRARIES\JPEG /I..\..\LIBRARIES\ZLIB /I..\..\LIBRARIES\PNG /I..\..\LIBRARIES\TIFF\LIBTIFF /Zi /nologo /W3 /WX- /Ox /Ob2 /Oi /Ot /Oy- /GL /D BOOST_ALL_NO_LIB /D NDEBUG /D WIN32 /D WIN32_LEAN_AND_MEAN /D _WINDOWS /D COMMONCTRL_VERSION=0x500 /D CLASSLIB_DEFS_H /D WINVER=0x0500 /D _WIN32_WINNT=0x0500 /D NOMINMAX /D ISOLATION_AWARE_ENABLED /D _CRT_SECURE_NO_DEPRECATE /D _SECURE_SCL=0 /GF /Gm- /EHsc /MT /GS- /fp:precise /fp:except- /Zc:wchar_t /Zc:forScope /Zc:inline /GR /Yu"precomp.h" /Fp"BUILD\POVFRONTEND\WIN32\RELEASE\PRECOMP.PCH" /Fo"BUILD\POVFRONTEND\WIN32\RELEASE\\" /Fd"BUILD\POVFRONTEND\WIN32\RELEASE\POVFRONTEND.PDB" /FR"build\povfrontend\Win32\Release\\" /Gd /TP /wd4800 /wd4355 /FIPRECOMP.H /analyze- C:\USERS\MATTHEW MCCOMB\DOCUMENTS\GITHUB\POVRAY\SOURCE\FRONTEND\FILEMESSAGEHANDLER.CPP
^C:\USERS\MATTHEW MCCOMB\DOCUMENTS\GITHUB\POVRAY\SOURCE\FRONTEND\IMAGEMESSAGEHANDLER.CPP
/c /I..\..\INTERNAL\WINDOWS /I..\..\PLATFORM\X86 /I..\..\PLATFORM\WINDOWS /I..\..\WINDOWS\POVCONFIG /I..\..\LIBRARIES\BOOST /I..\..\VFE\WIN\ /I..\..\VFE\ /I..\..\SOURCE /I..\..\LIBRARIES\JPEG /I..\..\LIBRARIES\ZLIB /I..\..\LIBRARIES\PNG /I..\..\LIBRARIES\TIFF\LIBTIFF /Zi /nologo /W3 /WX- /Ox /Ob2 /Oi /Ot /Oy- /GL /D BOOST_ALL_NO_LIB /D NDEBUG /D WIN32 /D WIN32_LEAN_AND_MEAN /D _WINDOWS /D COMMONCTRL_VERSION=0x500 /D CLASSLIB_DEFS_H /D WINVER=0x0500 /D _WIN32_WINNT=0x0500 /D NOMINMAX /D ISOLATION_AWARE_ENABLED /D _CRT_SECURE_NO_DEPRECATE /D _SECURE_SCL=0 /GF /Gm- /EHsc /MT /GS- /fp:precise /fp:except- /Zc:wchar_t /Zc:forScope /Zc:inline /GR /Yu"precomp.h" /Fp"BUILD\POVFRONTEND\WIN32\RELEASE\PRECOMP.PCH" /Fo"BUILD\POVFRONTEND\WIN32\RELEASE\\" /Fd"BUILD\POVFRONTEND\WIN32\RELEASE\POVFRONTEND.PDB" /FR"build\povfrontend\Win32\Release\\" /Gd /TP /wd4800 /wd4355 /FIPRECOMP.H /analyze- C:\USERS\MATTHEW MCCOMB\DOCUMENTS\GITHUB\POVRAY\SOURCE\FRONTEND\IMAGEMESSAGEHANDLER.CPP
^C:\USERS\MATTHEW MCCOMB\DOCUMENTS\GITHUB\POVRAY\SOURCE\FRONTEND\IMAGEPROCESSING.CPP
/c /I..\..\INTERNAL\WINDOWS /I..\..\PLATFORM\X86 /I..\..\PLATFORM\WINDOWS /I..\..\WINDOWS\POVCONFIG /I..\..\LIBRARIES\BOOST /I..\..\VFE\WIN\ /I..\..\VFE\ /I..\..\SOURCE /I..\..\LIBRARIES\JPEG /I..\..\LIBRARIES\ZLIB /I..\..\LIBRARIES\PNG /I..\..\LIBRARIES\TIFF\LIBTIFF /Zi /nologo /W3 /WX- /Ox /Ob2 /Oi /Ot /Oy- /GL /D BOOST_ALL_NO_LIB /D NDEBUG /D WIN32 /D WIN32_LEAN_AND_MEAN /D _WINDOWS /D COMMONCTRL_VERSION=0x500 /D CLASSLIB_DEFS_H /D WINVER=0x0500 /D _WIN32_WINNT=0x0500 /D NOMINMAX /D ISOLATION_AWARE_ENABLED /D _CRT_SECURE_NO_DEPRECATE /D _SECURE_SCL=0 /GF /Gm- /EHsc /MT /GS- /fp:precise /fp:except- /Zc:wchar_t /Zc:forScope /Zc:inline /GR /Yu"precomp.h" /Fp"BUILD\POVFRONTEND\WIN32\RELEASE\PRECOMP.PCH" /Fo"BUILD\POVFRONTEND\WIN32\RELEASE\\" /Fd"BUILD\POVFRONTEND\WIN32\RELEASE\POVFRONTEND.PDB" /FR"build\povfrontend\Win32\Release\\" /Gd /TP /wd4800 /wd4355 /FIPRECOMP.H /analyze- C:\USERS\MATTHEW MCCOMB\DOCUMENTS\GITHUB\POVRAY\SOURCE\FRONTEND\IMAGEPROCESSING.CPP
^C:\USERS\MATTHEW MCCOMB\DOCUMENTS\GITHUB\POVRAY\SOURCE\FRONTEND\PARSERMESSAGEHANDLER.CPP
/c /I..\..\INTERNAL\WINDOWS /I..\..\PLATFORM\X86 /I..\..\PLATFORM\WINDOWS /I..\..\WINDOWS\POVCONFIG /I..\..\LIBRARIES\BOOST /I..\..\VFE\WIN\ /I..\..\VFE\ /I..\..\SOURCE /I..\..\LIBRARIES\JPEG /I..\..\LIBRARIES\ZLIB /I..\..\LIBRARIES\PNG /I..\..\LIBRARIES\TIFF\LIBTIFF /Zi /nologo /W3 /WX- /Ox /Ob2 /Oi /Ot /Oy- /GL /D BOOST_ALL_NO_LIB /D NDEBUG /D WIN32 /D WIN32_LEAN_AND_MEAN /D _WINDOWS /D COMMONCTRL_VERSION=0x500 /D CLASSLIB_DEFS_H /D WINVER=0x0500 /D _WIN32_WINNT=0x0500 /D NOMINMAX /D ISOLATION_AWARE_ENABLED /D _CRT_SECURE_NO_DEPRECATE /D _SECURE_SCL=0 /GF /Gm- /EHsc /MT /GS- /fp:precise /fp:except- /Zc:wchar_t /Zc:forScope /Zc:inline /GR /Yu"precomp.h" /Fp"BUILD\POVFRONTEND\WIN32\RELEASE\PRECOMP.PCH" /Fo"BUILD\POVFRONTEND\WIN32\RELEASE\\" /Fd"BUILD\POVFRONTEND\WIN32\RELEASE\POVFRONTEND.PDB" /FR"build\povfrontend\Win32\Release\\" /Gd /TP /wd4800 /wd4355 /FIPRECOMP.H /analyze- C:\USERS\MATTHEW MCCOMB\DOCUMENTS\GITHUB\POVRAY\SOURCE\FRONTEND\PARSERMESSAGEHANDLER.CPP
^C:\USERS\MATTHEW MCCOMB\DOCUMENTS\GITHUB\POVRAY\SOURCE\FRONTEND\PROCESSOPTIONS.CPP
/c /I..\..\INTERNAL\WINDOWS /I..\..\PLATFORM\X86 /I..\..\PLATFORM\WINDOWS /I..\..\WINDOWS\POVCONFIG /I..\..\LIBRARIES\BOOST /I..\..\VFE\WIN\ /I..\..\VFE\ /I..\..\SOURCE /I..\..\LIBRARIES\JPEG /I..\..\LIBRARIES\ZLIB /I..\..\LIBRARIES\PNG /I..\..\LIBRARIES\TIFF\LIBTIFF /Zi /nologo /W3 /WX- /Ox /Ob2 /Oi /Ot /Oy- /GL /D BOOST_ALL_NO_LIB /D NDEBUG /D WIN32 /D WIN32_LEAN_AND_MEAN /D _WINDOWS /D COMMONCTRL_VERSION=0x500 /D CLASSLIB_DEFS_H /D WINVER=0x0500 /D _WIN32_WINNT=0x0500 /D NOMINMAX /D ISOLATION_AWARE_ENABLED /D _CRT_SECURE_NO_DEPRECATE /D _SECURE_SCL=0 /GF /Gm- /EHsc /MT /GS- /fp:precise /fp:except- /Zc:wchar_t /Zc:forScope /Zc:inline /GR /Yu"precomp.h" /Fp"BUILD\POVFRONTEND\WIN32\RELEASE\PRECOMP.PCH" /Fo"BUILD\POVFRONTEND\WIN32\RELEASE\\" /Fd"BUILD\POVFRONTEND\WIN32\RELEASE\POVFRONTEND.PDB" /FR"build\povfrontend\Win32\Release\\" /Gd /TP /wd4800 /wd4355 /FIPRECOMP.H /analyze- C:\USERS\MATTHEW MCCOMB\DOCUMENTS\GITHUB\POVRAY\SOURCE\FRONTEND\PROCESSOPTIONS.CPP
^C:\USERS\MATTHEW MCCOMB\DOCUMENTS\GITHUB\POVRAY\SOURCE\FRONTEND\PROCESSRENDEROPTIONS.CPP
/c /I..\..\INTERNAL\WINDOWS /I..\..\PLATFORM\X86 /I..\..\PLATFORM\WINDOWS /I..\..\WINDOWS\POVCONFIG /I..\..\LIBRARIES\BOOST /I..\..\VFE\WIN\ /I..\..\VFE\ /I..\..\SOURCE /I..\..\LIBRARIES\JPEG /I..\..\LIBRARIES\ZLIB /I..\..\LIBRARIES\PNG /I..\..\LIBRARIES\TIFF\LIBTIFF /Zi /nologo /W3 /WX- /Ox /Ob2 /Oi /Ot /Oy- /GL /D BOOST_ALL_NO_LIB /D NDEBUG /D WIN32 /D WIN32_LEAN_AND_MEAN /D _WINDOWS /D COMMONCTRL_VERSION=0x500 /D CLASSLIB_DEFS_H /D WINVER=0x0500 /D _WIN32_WINNT=0x0500 /D NOMINMAX /D ISOLATION_AWARE_ENABLED /D _CRT_SECURE_NO_DEPRECATE /D _SECURE_SCL=0 /GF /Gm- /EHsc /MT /GS- /fp:precise /fp:except- /Zc:wchar_t /Zc:forScope /Zc:inline /GR /Yu"precomp.h" /Fp"BUILD\POVFRONTEND\WIN32\RELEASE\PRECOMP.PCH" /Fo"BUILD\POVFRONTEND\WIN32\RELEASE\\" /Fd"BUILD\POVFRONTEND\WIN32\RELEASE\POVFRONTEND.PDB" /FR"build\povfrontend\Win32\Release\\" /Gd /TP /wd4800 /wd4355 /FIPRECOMP.H /analyze- C:\USERS\MATTHEW MCCOMB\DOCUMENTS\GITHUB\POVRAY\SOURCE\FRONTEND\PROCESSRENDEROPTIONS.CPP
^C:\USERS\MATTHEW MCCOMB\DOCUMENTS\GITHUB\POVRAY\SOURCE\FRONTEND\RENDERFRONTEND.CPP
/c /I..\..\INTERNAL\WINDOWS /I..\..\PLATFORM\X86 /I..\..\PLATFORM\WINDOWS /I..\..\WINDOWS\POVCONFIG /I..\..\LIBRARIES\BOOST /I..\..\VFE\WIN\ /I..\..\VFE\ /I..\..\SOURCE /I..\..\LIBRARIES\JPEG /I..\..\LIBRARIES\ZLIB /I..\..\LIBRARIES\PNG /I..\..\LIBRARIES\TIFF\LIBTIFF /Zi /nologo /W3 /WX- /Ox /Ob2 /Oi /Ot /Oy- /GL /D BOOST_ALL_NO_LIB /D NDEBUG /D WIN32 /D WIN32_LEAN_AND_MEAN /D _WINDOWS /D COMMONCTRL_VERSION=0x500 /D CLASSLIB_DEFS_H /D WINVER=0x0500 /D _WIN32_WINNT=0x0500 /D NOMINMAX /D ISOLATION_AWARE_ENABLED /D _CRT_SECURE_NO_DEPRECATE /D _SECURE_SCL=0 /GF /Gm- /EHsc /MT /GS- /fp:precise /fp:except- /Zc:wchar_t /Zc:forScope /Zc:inline /GR /Yu"precomp.h" /Fp"BUILD\POVFRONTEND\WIN32\RELEASE\PRECOMP.PCH" /Fo"BUILD\POVFRONTEND\WIN32\RELEASE\\" /Fd"BUILD\POVFRONTEND\WIN32\RELEASE\POVFRONTEND.PDB" /FR"build\povfrontend\Win32\Release\\" /Gd /TP /wd4800 /wd4355 /FIPRECOMP.H /analyze- C:\USERS\MATTHEW MCCOMB\DOCUMENTS\GITHUB\POVRAY\SOURCE\FRONTEND\RENDERFRONTEND.CPP
^C:\USERS\MATTHEW MCCOMB\DOCUMENTS\GITHUB\POVRAY\SOURCE\FRONTEND\RENDERMESSAGEHANDLER.CPP
/c /I..\..\INTERNAL\WINDOWS /I..\..\PLATFORM\X86 /I..\..\PLATFORM\WINDOWS /I..\..\WINDOWS\POVCONFIG /I..\..\LIBRARIES\BOOST /I..\..\VFE\WIN\ /I..\..\VFE\ /I..\..\SOURCE /I..\..\LIBRARIES\JPEG /I..\..\LIBRARIES\ZLIB /I..\..\LIBRARIES\PNG /I..\..\LIBRARIES\TIFF\LIBTIFF /Zi /nologo /W3 /WX- /Ox /Ob2 /Oi /Ot /Oy- /GL /D BOOST_ALL_NO_LIB /D NDEBUG /D WIN32 /D WIN32_LEAN_AND_MEAN /D _WINDOWS /D COMMONCTRL_VERSION=0x500 /D CLASSLIB_DEFS_H /D WINVER=0x0500 /D _WIN32_WINNT=0x0500 /D NOMINMAX /D ISOLATION_AWARE_ENABLED /D _CRT_SECURE_NO_DEPRECATE /D _SECURE_SCL=0 /GF /Gm- /EHsc /MT /GS- /fp:precise /fp:except- /Zc:wchar_t /Zc:forScope /Zc:inline /GR /Yu"precomp.h" /Fp"BUILD\POVFRONTEND\WIN32\RELEASE\PRECOMP.PCH" /Fo"BUILD\POVFRONTEND\WIN32\RELEASE\\" /Fd"BUILD\POVFRONTEND\WIN32\RELEASE\POVFRONTEND.PDB" /FR"build\povfrontend\Win32\Release\\" /Gd /TP /wd4800 /wd4355 /FIPRECOMP.H /analyze- C:\USERS\MATTHEW MCCOMB\DOCUMENTS\GITHUB\POVRAY\SOURCE\FRONTEND\RENDERMESSAGEHANDLER.CPP
^C:\USERS\MATTHEW MCCOMB\DOCUMENTS\GITHUB\POVRAY\SOURCE\FRONTEND\SHELLOUTPROCESSING.CPP
/c /I..\..\INTERNAL\WINDOWS /I..\..\PLATFORM\X86 /I..\..\PLATFORM\WINDOWS /I..\..\WINDOWS\POVCONFIG /I..\..\LIBRARIES\BOOST /I..\..\VFE\WIN\ /I..\..\VFE\ /I..\..\SOURCE /I..\..\LIBRARIES\JPEG /I..\..\LIBRARIES\ZLIB /I..\..\LIBRARIES\PNG /I..\..\LIBRARIES\TIFF\LIBTIFF /Zi /nologo /W3 /WX- /Ox /Ob2 /Oi /Ot /Oy- /GL /D BOOST_ALL_NO_LIB /D NDEBUG /D WIN32 /D WIN32_LEAN_AND_MEAN /D _WINDOWS /D COMMONCTRL_VERSION=0x500 /D CLASSLIB_DEFS_H /D WINVER=0x0500 /D _WIN32_WINNT=0x0500 /D NOMINMAX /D ISOLATION_AWARE_ENABLED /D _CRT_SECURE_NO_DEPRECATE /D _SECURE_SCL=0 /GF /Gm- /EHsc /MT /GS- /fp:precise /fp:except- /Zc:wchar_t /Zc:forScope /Zc:inline /GR /Yu"precomp.h" /Fp"BUILD\POVFRONTEND\WIN32\RELEASE\PRECOMP.PCH" /Fo"BUILD\POVFRONTEND\WIN32\RELEASE\\" /Fd"BUILD\POVFRONTEND\WIN32\RELEASE\POVFRONTEND.PDB" /FR"build\povfrontend\Win32\Release\\" /Gd /TP /wd4800 /wd4355 /FIPRECOMP.H /analyze- C:\USERS\MATTHEW MCCOMB\DOCUMENTS\GITHUB\POVRAY\SOURCE\FRONTEND\SHELLOUTPROCESSING.CPP
^C:\USERS\MATTHEW MCCOMB\DOCUMENTS\GITHUB\POVRAY\SOURCE\POVMAIN.CPP
/c /I..\..\INTERNAL\WINDOWS /I..\..\PLATFORM\X86 /I..\..\PLATFORM\WINDOWS /I..\..\WINDOWS\POVCONFIG /I..\..\LIBRARIES\BOOST /I..\..\VFE\WIN\ /I..\..\VFE\ /I..\..\SOURCE /I..\..\LIBRARIES\JPEG /I..\..\LIBRARIES\ZLIB /I..\..\LIBRARIES\PNG /I..\..\LIBRARIES\TIFF\LIBTIFF /Zi /nologo /W3 /WX- /Ox /Ob2 /Oi /Ot /Oy- /GL /D BOOST_ALL_NO_LIB /D NDEBUG /D WIN32 /D WIN32_LEAN_AND_MEAN /D _WINDOWS /D COMMONCTRL_VERSION=0x500 /D CLASSLIB_DEFS_H /D WINVER=0x0500 /D _WIN32_WINNT=0x0500 /D NOMINMAX /D ISOLATION_AWARE_ENABLED /D _CRT_SECURE_NO_DEPRECATE /D _SECURE_SCL=0 /GF /Gm- /EHsc /MT /GS- /fp:precise /fp:except- /Zc:wchar_t /Zc:forScope /Zc:inline /GR /Yu"precomp.h" /Fp"BUILD\POVFRONTEND\WIN32\RELEASE\PRECOMP.PCH" /Fo"BUILD\POVFRONTEND\WIN32\RELEASE\\" /Fd"BUILD\POVFRONTEND\WIN32\RELEASE\POVFRONTEND.PDB" /FR"build\povfrontend\Win32\Release\\" /Gd /TP /wd4800 /wd4355 /FIPRECOMP.H /analyze- C:\USERS\MATTHEW MCCOMB\DOCUMENTS\GITHUB\POVRAY\SOURCE\POVMAIN.CPP
^D:\POV-RAY\POV-RAY SOURCES\NORMAL MINUS\POVRAY\SOURCE\FRONTEND\PRECOMP.CPP
/c /I..\..\INTERNAL\WINDOWS /I..\..\PLATFORM\X86 /I..\..\PLATFORM\WINDOWS /I..\..\WINDOWS\POVCONFIG /I..\..\LIBRARIES\BOOST /I..\..\VFE\WIN\ /I..\..\VFE\ /I..\..\SOURCE /I..\..\LIBRARIES\JPEG /I..\..\LIBRARIES\ZLIB /I..\..\LIBRARIES\PNG /I..\..\LIBRARIES\TIFF\LIBTIFF /Zi /nologo /W3 /WX- /Ox /Ob2 /Oi /Ot /Oy- /GL /D BOOST_ALL_NO_LIB /D NDEBUG /D WIN32 /D WIN32_LEAN_AND_MEAN /D _WINDOWS /D COMMONCTRL_VERSION=0x500 /D CLASSLIB_DEFS_H /D WINVER=0x0500 /D _WIN32_WINNT=0x0500 /D NOMINMAX /D ISOLATION_AWARE_ENABLED /D _CRT_SECURE_NO_DEPRECATE /D _SECURE_SCL=0 /GF /Gm- /EHsc /MT /GS- /fp:precise /fp:except- /Zc:wchar_t /Zc:forScope /Zc:inline /GR /Yc"precomp.h" /Fp"BUILD\POVFRONTEND\WIN32\RELEASE\PRECOMP.PCH" /Fo"BUILD\POVFRONTEND\WIN32\RELEASE\\" /Fd"BUILD\POVFRONTEND\WIN32\RELEASE\POVFRONTEND.PDB" /FR"build\povfrontend\Win32\Release\\" /Gd /TP /wd4800 /wd4355 /FIPRECOMP.H /analyze- D:\POV-RAY\POV-RAY SOURCES\NORMAL MINUS\POVRAY\SOURCE\FRONTEND\PRECOMP.CPP
^D:\POV-RAY\POV-RAY SOURCES\NORMAL MINUS\POVRAY\SOURCE\FRONTEND\ANIMATIONPROCESSING.CPP
/c /I..\..\INTERNAL\WINDOWS /I..\..\PLATFORM\X86 /I..\..\PLATFORM\WINDOWS /I..\..\WINDOWS\POVCONFIG /I..\..\LIBRARIES\BOOST /I..\..\VFE\WIN\ /I..\..\VFE\ /I..\..\SOURCE /I..\..\LIBRARIES\JPEG /I..\..\LIBRARIES\ZLIB /I..\..\LIBRARIES\PNG /I..\..\LIBRARIES\TIFF\LIBTIFF /Zi /nologo /W3 /WX- /Ox /Ob2 /Oi /Ot /Oy- /GL /D BOOST_ALL_NO_LIB /D NDEBUG /D WIN32 /D WIN32_LEAN_AND_MEAN /D _WINDOWS /D COMMONCTRL_VERSION=0x500 /D CLASSLIB_DEFS_H /D WINVER=0x0500 /D _WIN32_WINNT=0x0500 /D NOMINMAX /D ISOLATION_AWARE_ENABLED /D _CRT_SECURE_NO_DEPRECATE /D _SECURE_SCL=0 /GF /Gm- /EHsc /MT /GS- /fp:precise /fp:except- /Zc:wchar_t /Zc:forScope /Zc:inline /GR /Yu"precomp.h" /Fp"BUILD\POVFRONTEND\WIN32\RELEASE\PRECOMP.PCH" /Fo"BUILD\POVFRONTEND\WIN32\RELEASE\\" /Fd"BUILD\POVFRONTEND\WIN32\RELEASE\POVFRONTEND.PDB" /FR"build\povfrontend\Win32\Release\\" /Gd /TP /wd4800 /wd4355 /FIPRECOMP.H /analyze- D:\POV-RAY\POV-RAY SOURCES\NORMAL MINUS\POVRAY\SOURCE\FRONTEND\ANIMATIONPROCESSING.CPP
^D:\POV-RAY\POV-RAY SOURCES\NORMAL MINUS\POVRAY\SOURCE\FRONTEND\CONSOLE.CPP
/c /I..\..\INTERNAL\WINDOWS /I..\..\PLATFORM\X86 /I..\..\PLATFORM\WINDOWS /I..\..\WINDOWS\POVCONFIG /I..\..\LIBRARIES\BOOST /I..\..\VFE\WIN\ /I..\..\VFE\ /I..\..\SOURCE /I..\..\LIBRARIES\JPEG /I..\..\LIBRARIES\ZLIB /I..\..\LIBRARIES\PNG /I..\..\LIBRARIES\TIFF\LIBTIFF /Zi /nologo /W3 /WX- /Ox /Ob2 /Oi /Ot /Oy- /GL /D BOOST_ALL_NO_LIB /D NDEBUG /D WIN32 /D WIN32_LEAN_AND_MEAN /D _WINDOWS /D COMMONCTRL_VERSION=0x500 /D CLASSLIB_DEFS_H /D WINVER=0x0500 /D _WIN32_WINNT=0x0500 /D NOMINMAX /D ISOLATION_AWARE_ENABLED /D _CRT_SECURE_NO_DEPRECATE /D _SECURE_SCL=0 /GF /Gm- /EHsc /MT /GS- /fp:precise /fp:except- /Zc:wchar_t /Zc:forScope /Zc:inline /GR /Yu"precomp.h" /Fp"BUILD\POVFRONTEND\WIN32\RELEASE\PRECOMP.PCH" /Fo"BUILD\POVFRONTEND\WIN32\RELEASE\\" /Fd"BUILD\POVFRONTEND\WIN32\RELEASE\POVFRONTEND.PDB" /FR"build\povfrontend\Win32\Release\\" /Gd /TP /wd4800 /wd4355 /FIPRECOMP.H /analyze- D:\POV-RAY\POV-RAY SOURCES\NORMAL MINUS\POVRAY\SOURCE\FRONTEND\CONSOLE.CPP
^D:\POV-RAY\POV-RAY SOURCES\NORMAL MINUS\POVRAY\SOURCE\FRONTEND\DISPLAY.CPP
/c /I..\..\INTERNAL\WINDOWS /I..\..\PLATFORM\X86 /I..\..\PLATFORM\WINDOWS /I..\..\WINDOWS\POVCONFIG /I..\..\LIBRARIES\BOOST /I..\..\VFE\WIN\ /I..\..\VFE\ /I..\..\SOURCE /I..\..\LIBRARIES\JPEG /I..\..\LIBRARIES\ZLIB /I..\..\LIBRARIES\PNG /I..\..\LIBRARIES\TIFF\LIBTIFF /Zi /nologo /W3 /WX- /Ox /Ob2 /Oi /Ot /Oy- /GL /D BOOST_ALL_NO_LIB /D NDEBUG /D WIN32 /D WIN32_LEAN_AND_MEAN /D _WINDOWS /D COMMONCTRL_VERSION=0x500 /D CLASSLIB_DEFS_H /D WINVER=0x0500 /D _WIN32_WINNT=0x0500 /D NOMINMAX /D ISOLATION_AWARE_ENABLED /D _CRT_SECURE_NO_DEPRECATE /D _SECURE_SCL=0 /GF /Gm- /EHsc /MT /GS- /fp:precise /fp:except- /Zc:wchar_t /Zc:forScope /Zc:inline /GR /Yu"precomp.h" /Fp"BUILD\POVFRONTEND\WIN32\RELEASE\PRECOMP.PCH" /Fo"BUILD\POVFRONTEND\WIN32\RELEASE\\" /Fd"BUILD\POVFRONTEND\WIN32\RELEASE\POVFRONTEND.PDB" /FR"build\povfrontend\Win32\Release\\" /Gd /TP /wd4800 /wd4355 /FIPRECOMP.H /analyze- D:\POV-RAY\POV-RAY SOURCES\NORMAL MINUS\POVRAY\SOURCE\FRONTEND\DISPLAY.CPP
^D:\POV-RAY\POV-RAY SOURCES\NORMAL MINUS\POVRAY\SOURCE\FRONTEND\FILEMESSAGEHANDLER.CPP
/c /I..\..\INTERNAL\WINDOWS /I..\..\PLATFORM\X86 /I..\..\PLATFORM\WINDOWS /I..\..\WINDOWS\POVCONFIG /I..\..\LIBRARIES\BOOST /I..\..\VFE\WIN\ /I..\..\VFE\ /I..\..\SOURCE /I..\..\LIBRARIES\JPEG /I..\..\LIBRARIES\ZLIB /I..\..\LIBRARIES\PNG /I..\..\LIBRARIES\TIFF\LIBTIFF /Zi /nologo /W3 /WX- /Ox /Ob2 /Oi /Ot /Oy- /GL /D BOOST_ALL_NO_LIB /D NDEBUG /D WIN32 /D WIN32_LEAN_AND_MEAN /D _WINDOWS /D COMMONCTRL_VERSION=0x500 /D CLASSLIB_DEFS_H /D WINVER=0x0500 /D _WIN32_WINNT=0x0500 /D NOMINMAX /D ISOLATION_AWARE_ENABLED /D _CRT_SECURE_NO_DEPRECATE /D _SECURE_SCL=0 /GF /Gm- /EHsc /MT /GS- /fp:precise /fp:except- /Zc:wchar_t /Zc:forScope /Zc:inline /GR /Yu"precomp.h" /Fp"BUILD\POVFRONTEND\WIN32\RELEASE\PRECOMP.PCH" /Fo"BUILD\POVFRONTEND\WIN32\RELEASE\\" /Fd"BUILD\POVFRONTEND\WIN32\RELEASE\POVFRONTEND.PDB" /FR"build\povfrontend\Win32\Release\\" /Gd /TP /wd4800 /wd4355 /FIPRECOMP.H /analyze- D:\POV-RAY\POV-RAY SOURCES\NORMAL MINUS\POVRAY\SOURCE\FRONTEND\FILEMESSAGEHANDLER.CPP
^D:\POV-RAY\POV-RAY SOURCES\NORMAL MINUS\POVRAY\SOURCE\FRONTEND\IMAGEMESSAGEHANDLER.CPP
/c /I..\..\INTERNAL\WINDOWS /I..\..\PLATFORM\X86 /I..\..\PLATFORM\WINDOWS /I..\..\WINDOWS\POVCONFIG /I..\..\LIBRARIES\BOOST /I..\..\VFE\WIN\ /I..\..\VFE\ /I..\..\SOURCE /I..\..\LIBRARIES\JPEG /I..\..\LIBRARIES\ZLIB /I..\..\LIBRARIES\PNG /I..\..\LIBRARIES\TIFF\LIBTIFF /Zi /nologo /W3 /WX- /Ox /Ob2 /Oi /Ot /Oy- /GL /D BOOST_ALL_NO_LIB /D NDEBUG /D WIN32 /D WIN32_LEAN_AND_MEAN /D _WINDOWS /D COMMONCTRL_VERSION=0x500 /D CLASSLIB_DEFS_H /D WINVER=0x0500 /D _WIN32_WINNT=0x0500 /D NOMINMAX /D ISOLATION_AWARE_ENABLED /D _CRT_SECURE_NO_DEPRECATE /D _SECURE_SCL=0 /GF /Gm- /EHsc /MT /GS- /fp:precise /fp:except- /Zc:wchar_t /Zc:forScope /Zc:inline /GR /Yu"precomp.h" /Fp"BUILD\POVFRONTEND\WIN32\RELEASE\PRECOMP.PCH" /Fo"BUILD\POVFRONTEND\WIN32\RELEASE\\" /Fd"BUILD\POVFRONTEND\WIN32\RELEASE\POVFRONTEND.PDB" /FR"build\povfrontend\Win32\Release\\" /Gd /TP /wd4800 /wd4355 /FIPRECOMP.H /analyze- D:\POV-RAY\POV-RAY SOURCES\NORMAL MINUS\POVRAY\SOURCE\FRONTEND\IMAGEMESSAGEHANDLER.CPP
^D:\POV-RAY\POV-RAY SOURCES\NORMAL MINUS\POVRAY\SOURCE\FRONTEND\IMAGEPROCESSING.CPP
/c /I..\..\INTERNAL\WINDOWS /I..\..\PLATFORM\X86 /I..\..\PLATFORM\WINDOWS /I..\..\WINDOWS\POVCONFIG /I..\..\LIBRARIES\BOOST /I..\..\VFE\WIN\ /I..\..\VFE\ /I..\..\SOURCE /I..\..\LIBRARIES\JPEG /I..\..\LIBRARIES\ZLIB /I..\..\LIBRARIES\PNG /I..\..\LIBRARIES\TIFF\LIBTIFF /Zi /nologo /W3 /WX- /Ox /Ob2 /Oi /Ot /Oy- /GL /D BOOST_ALL_NO_LIB /D NDEBUG /D WIN32 /D WIN32_LEAN_AND_MEAN /D _WINDOWS /D COMMONCTRL_VERSION=0x500 /D CLASSLIB_DEFS_H /D WINVER=0x0500 /D _WIN32_WINNT=0x0500 /D NOMINMAX /D ISOLATION_AWARE_ENABLED /D _CRT_SECURE_NO_DEPRECATE /D _SECURE_SCL=0 /GF /Gm- /EHsc /MT /GS- /fp:precise /fp:except- /Zc:wchar_t /Zc:forScope /Zc:inline /GR /Yu"precomp.h" /Fp"BUILD\POVFRONTEND\WIN32\RELEASE\PRECOMP.PCH" /Fo"BUILD\POVFRONTEND\WIN32\RELEASE\\" /Fd"BUILD\POVFRONTEND\WIN32\RELEASE\POVFRONTEND.PDB" /FR"build\povfrontend\Win32\Release\\" /Gd /TP /wd4800 /wd4355 /FIPRECOMP.H /analyze- D:\POV-RAY\POV-RAY SOURCES\NORMAL MINUS\POVRAY\SOURCE\FRONTEND\IMAGEPROCESSING.CPP
^D:\POV-RAY\POV-RAY SOURCES\NORMAL MINUS\POVRAY\SOURCE\FRONTEND\PARSERMESSAGEHANDLER.CPP
/c /I..\..\INTERNAL\WINDOWS /I..\..\PLATFORM\X86 /I..\..\PLATFORM\WINDOWS /I..\..\WINDOWS\POVCONFIG /I..\..\LIBRARIES\BOOST /I..\..\VFE\WIN\ /I..\..\VFE\ /I..\..\SOURCE /I..\..\LIBRARIES\JPEG /I..\..\LIBRARIES\ZLIB /I..\..\LIBRARIES\PNG /I..\..\LIBRARIES\TIFF\LIBTIFF /Zi /nologo /W3 /WX- /Ox /Ob2 /Oi /Ot /Oy- /GL /D BOOST_ALL_NO_LIB /D NDEBUG /D WIN32 /D WIN32_LEAN_AND_MEAN /D _WINDOWS /D COMMONCTRL_VERSION=0x500 /D CLASSLIB_DEFS_H /D WINVER=0x0500 /D _WIN32_WINNT=0x0500 /D NOMINMAX /D ISOLATION_AWARE_ENABLED /D _CRT_SECURE_NO_DEPRECATE /D _SECURE_SCL=0 /GF /Gm- /EHsc /MT /GS- /fp:precise /fp:except- /Zc:wchar_t /Zc:forScope /Zc:inline /GR /Yu"precomp.h" /Fp"BUILD\POVFRONTEND\WIN32\RELEASE\PRECOMP.PCH" /Fo"BUILD\POVFRONTEND\WIN32\RELEASE\\" /Fd"BUILD\POVFRONTEND\WIN32\RELEASE\POVFRONTEND.PDB" /FR"build\povfrontend\Win32\Release\\" /Gd /TP /wd4800 /wd4355 /FIPRECOMP.H /analyze- D:\POV-RAY\POV-RAY SOURCES\NORMAL MINUS\POVRAY\SOURCE\FRONTEND\PARSERMESSAGEHANDLER.CPP
^D:\POV-RAY\POV-RAY SOURCES\NORMAL MINUS\POVRAY\SOURCE\FRONTEND\PROCESSOPTIONS.CPP
/c /I..\..\INTERNAL\WINDOWS /I..\..\PLATFORM\X86 /I..\..\PLATFORM\WINDOWS /I..\..\WINDOWS\POVCONFIG /I..\..\LIBRARIES\BOOST /I..\..\VFE\WIN\ /I..\..\VFE\ /I..\..\SOURCE /I..\..\LIBRARIES\JPEG /I..\..\LIBRARIES\ZLIB /I..\..\LIBRARIES\PNG /I..\..\LIBRARIES\TIFF\LIBTIFF /Zi /nologo /W3 /WX- /Ox /Ob2 /Oi /Ot /Oy- /GL /D BOOST_ALL_NO_LIB /D NDEBUG /D WIN32 /D WIN32_LEAN_AND_MEAN /D _WINDOWS /D COMMONCTRL_VERSION=0x500 /D CLASSLIB_DEFS_H /D WINVER=0x0500 /D _WIN32_WINNT=0x0500 /D NOMINMAX /D ISOLATION_AWARE_ENABLED /D _CRT_SECURE_NO_DEPRECATE /D _SECURE_SCL=0 /GF /Gm- /EHsc /MT /GS- /fp:precise /fp:except- /Zc:wchar_t /Zc:forScope /Zc:inline /GR /Yu"precomp.h" /Fp"BUILD\POVFRONTEND\WIN32\RELEASE\PRECOMP.PCH" /Fo"BUILD\POVFRONTEND\WIN32\RELEASE\\" /Fd"BUILD\POVFRONTEND\WIN32\RELEASE\POVFRONTEND.PDB" /FR"build\povfrontend\Win32\Release\\" /Gd /TP /wd4800 /wd4355 /FIPRECOMP.H /analyze- D:\POV-RAY\POV-RAY SOURCES\NORMAL MINUS\POVRAY\SOURCE\FRONTEND\PROCESSOPTIONS.CPP
^D:\POV-RAY\POV-RAY SOURCES\NORMAL MINUS\POVRAY\SOURCE\FRONTEND\PROCESSRENDEROPTIONS.CPP
/c /I..\..\INTERNAL\WINDOWS /I..\..\PLATFORM\X86 /I..\..\PLATFORM\WINDOWS /I..\..\WINDOWS\POVCONFIG /I..\..\LIBRARIES\BOOST /I..\..\VFE\WIN\ /I..\..\VFE\ /I..\..\SOURCE /I..\..\LIBRARIES\JPEG /I..\..\LIBRARIES\ZLIB /I..\..\LIBRARIES\PNG /I..\..\LIBRARIES\TIFF\LIBTIFF /Zi /nologo /W3 /WX- /Ox /Ob2 /Oi /Ot /Oy- /GL /D BOOST_ALL_NO_LIB /D NDEBUG /D WIN32 /D WIN32_LEAN_AND_MEAN /D _WINDOWS /D COMMONCTRL_VERSION=0x500 /D CLASSLIB_DEFS_H /D WINVER=0x0500 /D _WIN32_WINNT=0x0500 /D NOMINMAX /D ISOLATION_AWARE_ENABLED /D _CRT_SECURE_NO_DEPRECATE /D _SECURE_SCL=0 /GF /Gm- /EHsc /MT /GS- /fp:precise /fp:except- /Zc:wchar_t /Zc:forScope /Zc:inline /GR /Yu"precomp.h" /Fp"BUILD\POVFRONTEND\WIN32\RELEASE\PRECOMP.PCH" /Fo"BUILD\POVFRONTEND\WIN32\RELEASE\\" /Fd"BUILD\POVFRONTEND\WIN32\RELEASE\POVFRONTEND.PDB" /FR"build\povfrontend\Win32\Release\\" /Gd /TP /wd4800 /wd4355 /FIPRECOMP.H /analyze- D:\POV-RAY\POV-RAY SOURCES\NORMAL MINUS\POVRAY\SOURCE\FRONTEND\PROCESSRENDEROPTIONS.CPP
^D:\POV-RAY\POV-RAY SOURCES\NORMAL MINUS\POVRAY\SOURCE\FRONTEND\RENDERFRONTEND.CPP
/c /I..\..\INTERNAL\WINDOWS /I..\..\PLATFORM\X86 /I..\..\PLATFORM\WINDOWS /I..\..\WINDOWS\POVCONFIG /I..\..\LIBRARIES\BOOST /I..\..\VFE\WIN\ /I..\..\VFE\ /I..\..\SOURCE /I..\..\LIBRARIES\JPEG /I..\..\LIBRARIES\ZLIB /I..\..\LIBRARIES\PNG /I..\..\LIBRARIES\TIFF\LIBTIFF /Zi /nologo /W3 /WX- /Ox /Ob2 /Oi /Ot /Oy- /GL /D BOOST_ALL_NO_LIB /D NDEBUG /D WIN32 /D WIN32_LEAN_AND_MEAN /D _WINDOWS /D COMMONCTRL_VERSION=0x500 /D CLASSLIB_DEFS_H /D WINVER=0x0500 /D _WIN32_WINNT=0x0500 /D NOMINMAX /D ISOLATION_AWARE_ENABLED /D _CRT_SECURE_NO_DEPRECATE /D _SECURE_SCL=0 /GF /Gm- /EHsc /MT /GS- /fp:precise /fp:except- /Zc:wchar_t /Zc:forScope /Zc:inline /GR /Yu"precomp.h" /Fp"BUILD\POVFRONTEND\WIN32\RELEASE\PRECOMP.PCH" /Fo"BUILD\POVFRONTEND\WIN32\RELEASE\\" /Fd"BUILD\POVFRONTEND\WIN32\RELEASE\POVFRONTEND.PDB" /FR"build\povfrontend\Win32\Release\\" /Gd /TP /wd4800 /wd4355 /FIPRECOMP.H /analyze- D:\POV-RAY\POV-RAY SOURCES\NORMAL MINUS\POVRAY\SOURCE\FRONTEND\RENDERFRONTEND.CPP
^D:\POV-RAY\POV-RAY SOURCES\NORMAL MINUS\POVRAY\SOURCE\FRONTEND\RENDERMESSAGEHANDLER.CPP
/c /I..\..\INTERNAL\WINDOWS /I..\..\PLATFORM\X86 /I..\..\PLATFORM\WINDOWS /I..\..\WINDOWS\POVCONFIG /I..\..\LIBRARIES\BOOST /I..\..\VFE\WIN\ /I..\..\VFE\ /I..\..\SOURCE /I..\..\LIBRARIES\JPEG /I..\..\LIBRARIES\ZLIB /I..\..\LIBRARIES\PNG /I..\..\LIBRARIES\TIFF\LIBTIFF /Zi /nologo /W3 /WX- /Ox /Ob2 /Oi /Ot /Oy- /GL /D BOOST_ALL_NO_LIB /D NDEBUG /D WIN32 /D WIN32_LEAN_AND_MEAN /D _WINDOWS /D COMMONCTRL_VERSION=0x500 /D CLASSLIB_DEFS_H /D WINVER=0x0500 /D _WIN32_WINNT=0x0500 /D NOMINMAX /D ISOLATION_AWARE_ENABLED /D _CRT_SECURE_NO_DEPRECATE /D _SECURE_SCL=0 /GF /Gm- /EHsc /MT /GS- /fp:precise /fp:except- /Zc:wchar_t /Zc:forScope /Zc:inline /GR /Yu"precomp.h" /Fp"BUILD\POVFRONTEND\WIN32\RELEASE\PRECOMP.PCH" /Fo"BUILD\POVFRONTEND\WIN32\RELEASE\\" /Fd"BUILD\POVFRONTEND\WIN32\RELEASE\POVFRONTEND.PDB" /FR"build\povfrontend\Win32\Release\\" /Gd /TP /wd4800 /wd4355 /FIPRECOMP.H /analyze- D:\POV-RAY\POV-RAY SOURCES\NORMAL MINUS\POVRAY\SOURCE\FRONTEND\RENDERMESSAGEHANDLER.CPP
^D:\POV-RAY\POV-RAY SOURCES\NORMAL MINUS\POVRAY\SOURCE\FRONTEND\SHELLOUTPROCESSING.CPP
/c /I..\..\INTERNAL\WINDOWS /I..\..\PLATFORM\X86 /I..\..\PLATFORM\WINDOWS /I..\..\WINDOWS\POVCONFIG /I..\..\LIBRARIES\BOOST /I..\..\VFE\WIN\ /I..\..\VFE\ /I..\..\SOURCE /I..\..\LIBRARIES\JPEG /I..\..\LIBRARIES\ZLIB /I..\..\LIBRARIES\PNG /I..\..\LIBRARIES\TIFF\LIBTIFF /Zi /nologo /W3 /WX- /Ox /Ob2 /Oi /Ot /Oy- /GL /D BOOST_ALL_NO_LIB /D NDEBUG /D WIN32 /D WIN32_LEAN_AND_MEAN /D _WINDOWS /D COMMONCTRL_VERSION=0x500 /D CLASSLIB_DEFS_H /D WINVER=0x0500 /D _WIN32_WINNT=0x0500 /D NOMINMAX /D ISOLATION_AWARE_ENABLED /D _CRT_SECURE_NO_DEPRECATE /D _SECURE_SCL=0 /GF /Gm- /EHsc /MT /GS- /fp:precise /fp:except- /Zc:wchar_t /Zc:forScope /Zc:inline /GR /Yu"precomp.h" /Fp"BUILD\POVFRONTEND\WIN32\RELEASE\PRECOMP.PCH" /Fo"BUILD\POVFRONTEND\WIN32\RELEASE\\" /Fd"BUILD\POVFRONTEND\WIN32\RELEASE\POVFRONTEND.PDB" /FR"build\povfrontend\Win32\Release\\" /Gd /TP /wd4800 /wd4355 /FIPRECOMP.H /analyze- D:\POV-RAY\POV-RAY SOURCES\NORMAL MINUS\POVRAY\SOURCE\FRONTEND\SHELLOUTPROCESSING.CPP
^D:\POV-RAY\POV-RAY SOURCES\NORMAL MINUS\POVRAY\SOURCE\POVMAIN.CPP
/c /I..\..\INTERNAL\WINDOWS /I..\..\PLATFORM\X86 /I..\..\PLATFORM\WINDOWS /I..\..\WINDOWS\POVCONFIG /I..\..\LIBRARIES\BOOST /I..\..\VFE\WIN\ /I..\..\VFE\ /I..\..\SOURCE /I..\..\LIBRARIES\JPEG /I..\..\LIBRARIES\ZLIB /I..\..\LIBRARIES\PNG /I..\..\LIBRARIES\TIFF\LIBTIFF /Zi /nologo /W3 /WX- /Ox /Ob2 /Oi /Ot /Oy- /GL /D BOOST_ALL_NO_LIB /D NDEBUG /D WIN32 /D WIN32_LEAN_AND_MEAN /D _WINDOWS /D COMMONCTRL_VERSION=0x500 /D CLASSLIB_DEFS_H /D WINVER=0x0500 /D _WIN32_WINNT=0x0500 /D NOMINMAX /D ISOLATION_AWARE_ENABLED /D _CRT_SECURE_NO_DEPRECATE /D _SECURE_SCL=0 /GF /Gm- /EHsc /MT /GS- /fp:precise /fp:except- /Zc:wchar_t /Zc:forScope /Zc:inline /GR /Yu"precomp.h" /Fp"BUILD\POVFRONTEND\WIN32\RELEASE\PRECOMP.PCH" /Fo"BUILD\POVFRONTEND\WIN32\RELEASE\\" /Fd"BUILD\POVFRONTEND\WIN32\RELEASE\POVFRONTEND.PDB" /FR"build\povfrontend\Win32\Release\\" /Gd /TP /wd4800 /wd4355 /FIPRECOMP.H /analyze- D:\POV-RAY\POV-RAY SOURCES\NORMAL MINUS\POVRAY\SOURCE\POVMAIN.CPP
