^C:\USERS\MATTHEW MCCOMB\DOCUMENTS\GITHUB\POVRAY\SOURCE\BACKEND\PRECOMP.CPP
/c /I..\..\INTERNAL\WINDOWS /I..\..\PLATFORM\X86 /I..\..\PLATFORM\WINDOWS /I..\..\WINDOWS\POVCONFIG /I..\..\LIBRARIES\BOOST /I..\..\VFE\WIN\ /I..\..\VFE\ /I..\..\SOURCE /I..\..\LIBRARIES\JPEG /I..\..\LIBRARIES\ZLIB /I..\..\LIBRARIES\PNG /I..\..\LIBRARIES\TIFF\LIBTIFF /I..\..\LIBRARIES\ILMBASE\CONFIG.WINDOWS /I..\..\LIBRARIES\OPENEXR\CONFIG.WINDOWS /Zi /nologo /W3 /WX- /diagnostics:classic /Od /Oi /Oy- /D BOOST_ALL_NO_LIB /D _DEBUG /D WIN32 /D WIN32_LEAN_AND_MEAN /D _WINDOWS /D WINVER=0x0500 /D _WIN32_WINNT=0x0500 /D COMMONCTRL_VERSION=0x500 /D CLASSLIB_DEFS_H /D NOMINMAX /D ISOLATION_AWARE_ENABLED /D _CRT_SECURE_NO_DEPRECATE /D _HAS_ITERATOR_DEBUGGING=0 /GF /Gm- /EHsc /MTd /GS- /arch:SSE2 /fp:precise /Zc:wchar_t /Zc:forScope /Zc:inline /GR /Yc"precomp.h" /Fp"BUILD\POVBACKEND\WIN32\DEBUG\PRECOMP.PCH" /Fo"BUILD\POVBACKEND\WIN32\DEBUG\\" /Fd"BUILD\POVBACKEND\WIN32\DEBUG\POVBACKEND.PDB" /FR"build\povbackend\Win32\Debug\\" /Gd /TP /wd4800 /wd4355 /FIPRECOMP.H /analyze- /FC C:\USERS\MATTHEW MCCOMB\DOCUMENTS\GITHUB\POVRAY\SOURCE\BACKEND\PRECOMP.CPP
^C:\USERS\MATTHEW MCCOMB\DOCUMENTS\GITHUB\POVRAY\SOURCE\BACKEND\BOUNDING\BOUNDINGTASK.CPP
/c /I..\..\INTERNAL\WINDOWS /I..\..\PLATFORM\X86 /I..\..\PLATFORM\WINDOWS /I..\..\WINDOWS\POVCONFIG /I..\..\LIBRARIES\BOOST /I..\..\VFE\WIN\ /I..\..\VFE\ /I..\..\SOURCE /I..\..\LIBRARIES\JPEG /I..\..\LIBRARIES\ZLIB /I..\..\LIBRARIES\PNG /I..\..\LIBRARIES\TIFF\LIBTIFF /I..\..\LIBRARIES\ILMBASE\CONFIG.WINDOWS /I..\..\LIBRARIES\OPENEXR\CONFIG.WINDOWS /Zi /nologo /W3 /WX- /diagnostics:classic /Od /Oi /Oy- /D BOOST_ALL_NO_LIB /D _DEBUG /D WIN32 /D WIN32_LEAN_AND_MEAN /D _WINDOWS /D WINVER=0x0500 /D _WIN32_WINNT=0x0500 /D COMMONCTRL_VERSION=0x500 /D CLASSLIB_DEFS_H /D NOMINMAX /D ISOLATION_AWARE_ENABLED /D _CRT_SECURE_NO_DEPRECATE /D _HAS_ITERATOR_DEBUGGING=0 /GF /Gm- /EHsc /MTd /GS- /arch:SSE2 /fp:precise /Zc:wchar_t /Zc:forScope /Zc:inline /GR /Yu"precomp.h" /Fp"BUILD\POVBACKEND\WIN32\DEBUG\PRECOMP.PCH" /Fo"BUILD\POVBACKEND\WIN32\DEBUG\\" /Fd"BUILD\POVBACKEND\WIN32\DEBUG\POVBACKEND.PDB" /FR"build\povbackend\Win32\Debug\\" /Gd /TP /wd4800 /wd4355 /FIPRECOMP.H /analyze- /FC C:\USERS\MATTHEW MCCOMB\DOCUMENTS\GITHUB\POVRAY\SOURCE\BACKEND\BOUNDING\BOUNDINGTASK.CPP
^C:\USERS\MATTHEW MCCOMB\DOCUMENTS\GITHUB\POVRAY\SOURCE\BACKEND\CONTROL\BENCHMARK_INI.CPP
/c /I..\..\INTERNAL\WINDOWS /I..\..\PLATFORM\X86 /I..\..\PLATFORM\WINDOWS /I..\..\WINDOWS\POVCONFIG /I..\..\LIBRARIES\BOOST /I..\..\VFE\WIN\ /I..\..\VFE\ /I..\..\SOURCE /I..\..\LIBRARIES\JPEG /I..\..\LIBRARIES\ZLIB /I..\..\LIBRARIES\PNG /I..\..\LIBRARIES\TIFF\LIBTIFF /I..\..\LIBRARIES\ILMBASE\CONFIG.WINDOWS /I..\..\LIBRARIES\OPENEXR\CONFIG.WINDOWS /Zi /nologo /W3 /WX- /diagnostics:classic /Od /Oi /Oy- /D BOOST_ALL_NO_LIB /D _DEBUG /D WIN32 /D WIN32_LEAN_AND_MEAN /D _WINDOWS /D WINVER=0x0500 /D _WIN32_WINNT=0x0500 /D COMMONCTRL_VERSION=0x500 /D CLASSLIB_DEFS_H /D NOMINMAX /D ISOLATION_AWARE_ENABLED /D _CRT_SECURE_NO_DEPRECATE /D _HAS_ITERATOR_DEBUGGING=0 /GF /Gm- /EHsc /MTd /GS- /arch:SSE2 /fp:precise /Zc:wchar_t /Zc:forScope /Zc:inline /GR /Yu"precomp.h" /Fp"BUILD\POVBACKEND\WIN32\DEBUG\PRECOMP.PCH" /Fo"BUILD\POVBACKEND\WIN32\DEBUG\\" /Fd"BUILD\POVBACKEND\WIN32\DEBUG\POVBACKEND.PDB" /FR"build\povbackend\Win32\Debug\\" /Gd /TP /wd4800 /wd4355 /FIPRECOMP.H /analyze- /FC C:\USERS\MATTHEW MCCOMB\DOCUMENTS\GITHUB\POVRAY\SOURCE\BACKEND\CONTROL\BENCHMARK_INI.CPP
^C:\USERS\MATTHEW MCCOMB\DOCUMENTS\GITHUB\POVRAY\SOURCE\BACKEND\CONTROL\BENCHMARK_POV.CPP
/c /I..\..\INTERNAL\WINDOWS /I..\..\PLATFORM\X86 /I..\..\PLATFORM\WINDOWS /I..\..\WINDOWS\POVCONFIG /I..\..\LIBRARIES\BOOST /I..\..\VFE\WIN\ /I..\..\VFE\ /I..\..\SOURCE /I..\..\LIBRARIES\JPEG /I..\..\LIBRARIES\ZLIB /I..\..\LIBRARIES\PNG /I..\..\LIBRARIES\TIFF\LIBTIFF /I..\..\LIBRARIES\ILMBASE\CONFIG.WINDOWS /I..\..\LIBRARIES\OPENEXR\CONFIG.WINDOWS /Zi /nologo /W3 /WX- /diagnostics:classic /Od /Oi /Oy- /D BOOST_ALL_NO_LIB /D _DEBUG /D WIN32 /D WIN32_LEAN_AND_MEAN /D _WINDOWS /D WINVER=0x0500 /D _WIN32_WINNT=0x0500 /D COMMONCTRL_VERSION=0x500 /D CLASSLIB_DEFS_H /D NOMINMAX /D ISOLATION_AWARE_ENABLED /D _CRT_SECURE_NO_DEPRECATE /D _HAS_ITERATOR_DEBUGGING=0 /GF /Gm- /EHsc /MTd /GS- /arch:SSE2 /fp:precise /Zc:wchar_t /Zc:forScope /Zc:inline /GR /Yu"precomp.h" /Fp"BUILD\POVBACKEND\WIN32\DEBUG\PRECOMP.PCH" /Fo"BUILD\POVBACKEND\WIN32\DEBUG\\" /Fd"BUILD\POVBACKEND\WIN32\DEBUG\POVBACKEND.PDB" /FR"build\povbackend\Win32\Debug\\" /Gd /TP /wd4800 /wd4355 /FIPRECOMP.H /analyze- /FC C:\USERS\MATTHEW MCCOMB\DOCUMENTS\GITHUB\POVRAY\SOURCE\BACKEND\CONTROL\BENCHMARK_POV.CPP
^C:\USERS\MATTHEW MCCOMB\DOCUMENTS\GITHUB\POVRAY\SOURCE\BACKEND\SCENE\BACKENDSCENEDATA.CPP
/c /I..\..\INTERNAL\WINDOWS /I..\..\PLATFORM\X86 /I..\..\PLATFORM\WINDOWS /I..\..\WINDOWS\POVCONFIG /I..\..\LIBRARIES\BOOST /I..\..\VFE\WIN\ /I..\..\VFE\ /I..\..\SOURCE /I..\..\LIBRARIES\JPEG /I..\..\LIBRARIES\ZLIB /I..\..\LIBRARIES\PNG /I..\..\LIBRARIES\TIFF\LIBTIFF /I..\..\LIBRARIES\ILMBASE\CONFIG.WINDOWS /I..\..\LIBRARIES\OPENEXR\CONFIG.WINDOWS /Zi /nologo /W3 /WX- /diagnostics:classic /Od /Oi /Oy- /D BOOST_ALL_NO_LIB /D _DEBUG /D WIN32 /D WIN32_LEAN_AND_MEAN /D _WINDOWS /D WINVER=0x0500 /D _WIN32_WINNT=0x0500 /D COMMONCTRL_VERSION=0x500 /D CLASSLIB_DEFS_H /D NOMINMAX /D ISOLATION_AWARE_ENABLED /D _CRT_SECURE_NO_DEPRECATE /D _HAS_ITERATOR_DEBUGGING=0 /GF /Gm- /EHsc /MTd /GS- /arch:SSE2 /fp:precise /Zc:wchar_t /Zc:forScope /Zc:inline /GR /Yu"precomp.h" /Fp"BUILD\POVBACKEND\WIN32\DEBUG\PRECOMP.PCH" /Fo"BUILD\POVBACKEND\WIN32\DEBUG\\" /Fd"BUILD\POVBACKEND\WIN32\DEBUG\POVBACKEND.PDB" /FR"build\povbackend\Win32\Debug\\" /Gd /TP /wd4800 /wd4355 /FIPRECOMP.H /analyze- /FC C:\USERS\MATTHEW MCCOMB\DOCUMENTS\GITHUB\POVRAY\SOURCE\BACKEND\SCENE\BACKENDSCENEDATA.CPP
^C:\USERS\MATTHEW MCCOMB\DOCUMENTS\GITHUB\POVRAY\SOURCE\BACKEND\SCENE\VIEWTHREADDATA.CPP
/c /I..\..\INTERNAL\WINDOWS /I..\..\PLATFORM\X86 /I..\..\PLATFORM\WINDOWS /I..\..\WINDOWS\POVCONFIG /I..\..\LIBRARIES\BOOST /I..\..\VFE\WIN\ /I..\..\VFE\ /I..\..\SOURCE /I..\..\LIBRARIES\JPEG /I..\..\LIBRARIES\ZLIB /I..\..\LIBRARIES\PNG /I..\..\LIBRARIES\TIFF\LIBTIFF /I..\..\LIBRARIES\ILMBASE\CONFIG.WINDOWS /I..\..\LIBRARIES\OPENEXR\CONFIG.WINDOWS /Zi /nologo /W3 /WX- /diagnostics:classic /Od /Oi /Oy- /D BOOST_ALL_NO_LIB /D _DEBUG /D WIN32 /D WIN32_LEAN_AND_MEAN /D _WINDOWS /D WINVER=0x0500 /D _WIN32_WINNT=0x0500 /D COMMONCTRL_VERSION=0x500 /D CLASSLIB_DEFS_H /D NOMINMAX /D ISOLATION_AWARE_ENABLED /D _CRT_SECURE_NO_DEPRECATE /D _HAS_ITERATOR_DEBUGGING=0 /GF /Gm- /EHsc /MTd /GS- /arch:SSE2 /fp:precise /Zc:wchar_t /Zc:forScope /Zc:inline /GR /Yu"precomp.h" /Fp"BUILD\POVBACKEND\WIN32\DEBUG\PRECOMP.PCH" /Fo"BUILD\POVBACKEND\WIN32\DEBUG\\" /Fd"BUILD\POVBACKEND\WIN32\DEBUG\POVBACKEND.PDB" /FR"build\povbackend\Win32\Debug\\" /Gd /TP /wd4800 /wd4355 /FIPRECOMP.H /analyze- /FC C:\USERS\MATTHEW MCCOMB\DOCUMENTS\GITHUB\POVRAY\SOURCE\BACKEND\SCENE\VIEWTHREADDATA.CPP
^C:\USERS\MATTHEW MCCOMB\DOCUMENTS\GITHUB\POVRAY\SOURCE\BACKEND\POVRAY.CPP
/c /I..\..\INTERNAL\WINDOWS /I..\..\PLATFORM\X86 /I..\..\PLATFORM\WINDOWS /I..\..\WINDOWS\POVCONFIG /I..\..\LIBRARIES\BOOST /I..\..\VFE\WIN\ /I..\..\VFE\ /I..\..\SOURCE /I..\..\LIBRARIES\JPEG /I..\..\LIBRARIES\ZLIB /I..\..\LIBRARIES\PNG /I..\..\LIBRARIES\TIFF\LIBTIFF /I..\..\LIBRARIES\ILMBASE\CONFIG.WINDOWS /I..\..\LIBRARIES\OPENEXR\CONFIG.WINDOWS /Zi /nologo /W3 /WX- /diagnostics:classic /Od /Oi /Oy- /D BOOST_ALL_NO_LIB /D _DEBUG /D WIN32 /D WIN32_LEAN_AND_MEAN /D _WINDOWS /D WINVER=0x0500 /D _WIN32_WINNT=0x0500 /D COMMONCTRL_VERSION=0x500 /D CLASSLIB_DEFS_H /D NOMINMAX /D ISOLATION_AWARE_ENABLED /D _CRT_SECURE_NO_DEPRECATE /D _HAS_ITERATOR_DEBUGGING=0 /GF /Gm- /EHsc /MTd /GS- /arch:SSE2 /fp:precise /Zc:wchar_t /Zc:forScope /Zc:inline /GR /Yu"precomp.h" /Fp"BUILD\POVBACKEND\WIN32\DEBUG\PRECOMP.PCH" /Fo"BUILD\POVBACKEND\WIN32\DEBUG\\" /Fd"BUILD\POVBACKEND\WIN32\DEBUG\POVBACKEND.PDB" /FR"build\povbackend\Win32\Debug\\" /Gd /TP /wd4800 /wd4355 /FIPRECOMP.H /analyze- /FC C:\USERS\MATTHEW MCCOMB\DOCUMENTS\GITHUB\POVRAY\SOURCE\BACKEND\POVRAY.CPP
^C:\USERS\MATTHEW MCCOMB\DOCUMENTS\GITHUB\POVRAY\SOURCE\BACKEND\CONTROL\BENCHMARK.CPP
/c /I..\..\INTERNAL\WINDOWS /I..\..\PLATFORM\X86 /I..\..\PLATFORM\WINDOWS /I..\..\WINDOWS\POVCONFIG /I..\..\LIBRARIES\BOOST /I..\..\VFE\WIN\ /I..\..\VFE\ /I..\..\SOURCE /I..\..\LIBRARIES\JPEG /I..\..\LIBRARIES\ZLIB /I..\..\LIBRARIES\PNG /I..\..\LIBRARIES\TIFF\LIBTIFF /I..\..\LIBRARIES\ILMBASE\CONFIG.WINDOWS /I..\..\LIBRARIES\OPENEXR\CONFIG.WINDOWS /Zi /nologo /W3 /WX- /diagnostics:classic /Od /Oi /Oy- /D BOOST_ALL_NO_LIB /D _DEBUG /D WIN32 /D WIN32_LEAN_AND_MEAN /D _WINDOWS /D WINVER=0x0500 /D _WIN32_WINNT=0x0500 /D COMMONCTRL_VERSION=0x500 /D CLASSLIB_DEFS_H /D NOMINMAX /D ISOLATION_AWARE_ENABLED /D _CRT_SECURE_NO_DEPRECATE /D _HAS_ITERATOR_DEBUGGING=0 /GF /Gm- /EHsc /MTd /GS- /arch:SSE2 /fp:precise /Zc:wchar_t /Zc:forScope /Zc:inline /GR /Yu"precomp.h" /Fp"BUILD\POVBACKEND\WIN32\DEBUG\PRECOMP.PCH" /Fo"BUILD\POVBACKEND\WIN32\DEBUG\\" /Fd"BUILD\POVBACKEND\WIN32\DEBUG\POVBACKEND.PDB" /FR"build\povbackend\Win32\Debug\\" /Gd /TP /wd4800 /wd4355 /FIPRECOMP.H /analyze- /FC C:\USERS\MATTHEW MCCOMB\DOCUMENTS\GITHUB\POVRAY\SOURCE\BACKEND\CONTROL\BENCHMARK.CPP
^C:\USERS\MATTHEW MCCOMB\DOCUMENTS\GITHUB\POVRAY\SOURCE\BACKEND\CONTROL\MESSAGEFACTORY.CPP
/c /I..\..\INTERNAL\WINDOWS /I..\..\PLATFORM\X86 /I..\..\PLATFORM\WINDOWS /I..\..\WINDOWS\POVCONFIG /I..\..\LIBRARIES\BOOST /I..\..\VFE\WIN\ /I..\..\VFE\ /I..\..\SOURCE /I..\..\LIBRARIES\JPEG /I..\..\LIBRARIES\ZLIB /I..\..\LIBRARIES\PNG /I..\..\LIBRARIES\TIFF\LIBTIFF /I..\..\LIBRARIES\ILMBASE\CONFIG.WINDOWS /I..\..\LIBRARIES\OPENEXR\CONFIG.WINDOWS /Zi /nologo /W3 /WX- /diagnostics:classic /Od /Oi /Oy- /D BOOST_ALL_NO_LIB /D _DEBUG /D WIN32 /D WIN32_LEAN_AND_MEAN /D _WINDOWS /D WINVER=0x0500 /D _WIN32_WINNT=0x0500 /D COMMONCTRL_VERSION=0x500 /D CLASSLIB_DEFS_H /D NOMINMAX /D ISOLATION_AWARE_ENABLED /D _CRT_SECURE_NO_DEPRECATE /D _HAS_ITERATOR_DEBUGGING=0 /GF /Gm- /EHsc /MTd /GS- /arch:SSE2 /fp:precise /Zc:wchar_t /Zc:forScope /Zc:inline /GR /Yu"precomp.h" /Fp"BUILD\POVBACKEND\WIN32\DEBUG\PRECOMP.PCH" /Fo"BUILD\POVBACKEND\WIN32\DEBUG\\" /Fd"BUILD\POVBACKEND\WIN32\DEBUG\POVBACKEND.PDB" /FR"build\povbackend\Win32\Debug\\" /Gd /TP /wd4800 /wd4355 /FIPRECOMP.H /analyze- /FC C:\USERS\MATTHEW MCCOMB\DOCUMENTS\GITHUB\POVRAY\SOURCE\BACKEND\CONTROL\MESSAGEFACTORY.CPP
^C:\USERS\MATTHEW MCCOMB\DOCUMENTS\GITHUB\POVRAY\SOURCE\BACKEND\CONTROL\RENDERBACKEND.CPP
/c /I..\..\INTERNAL\WINDOWS /I..\..\PLATFORM\X86 /I..\..\PLATFORM\WINDOWS /I..\..\WINDOWS\POVCONFIG /I..\..\LIBRARIES\BOOST /I..\..\VFE\WIN\ /I..\..\VFE\ /I..\..\SOURCE /I..\..\LIBRARIES\JPEG /I..\..\LIBRARIES\ZLIB /I..\..\LIBRARIES\PNG /I..\..\LIBRARIES\TIFF\LIBTIFF /I..\..\LIBRARIES\ILMBASE\CONFIG.WINDOWS /I..\..\LIBRARIES\OPENEXR\CONFIG.WINDOWS /Zi /nologo /W3 /WX- /diagnostics:classic /Od /Oi /Oy- /D BOOST_ALL_NO_LIB /D _DEBUG /D WIN32 /D WIN32_LEAN_AND_MEAN /D _WINDOWS /D WINVER=0x0500 /D _WIN32_WINNT=0x0500 /D COMMONCTRL_VERSION=0x500 /D CLASSLIB_DEFS_H /D NOMINMAX /D ISOLATION_AWARE_ENABLED /D _CRT_SECURE_NO_DEPRECATE /D _HAS_ITERATOR_DEBUGGING=0 /GF /Gm- /EHsc /MTd /GS- /arch:SSE2 /fp:precise /Zc:wchar_t /Zc:forScope /Zc:inline /GR /Yu"precomp.h" /Fp"BUILD\POVBACKEND\WIN32\DEBUG\PRECOMP.PCH" /Fo"BUILD\POVBACKEND\WIN32\DEBUG\\" /Fd"BUILD\POVBACKEND\WIN32\DEBUG\POVBACKEND.PDB" /FR"build\povbackend\Win32\Debug\\" /Gd /TP /wd4800 /wd4355 /FIPRECOMP.H /analyze- /FC C:\USERS\MATTHEW MCCOMB\DOCUMENTS\GITHUB\POVRAY\SOURCE\BACKEND\CONTROL\RENDERBACKEND.CPP
^C:\USERS\MATTHEW MCCOMB\DOCUMENTS\GITHUB\POVRAY\SOURCE\BACKEND\CONTROL\SCENE.CPP
/c /I..\..\INTERNAL\WINDOWS /I..\..\PLATFORM\X86 /I..\..\PLATFORM\WINDOWS /I..\..\WINDOWS\POVCONFIG /I..\..\LIBRARIES\BOOST /I..\..\VFE\WIN\ /I..\..\VFE\ /I..\..\SOURCE /I..\..\LIBRARIES\JPEG /I..\..\LIBRARIES\ZLIB /I..\..\LIBRARIES\PNG /I..\..\LIBRARIES\TIFF\LIBTIFF /I..\..\LIBRARIES\ILMBASE\CONFIG.WINDOWS /I..\..\LIBRARIES\OPENEXR\CONFIG.WINDOWS /Zi /nologo /W3 /WX- /diagnostics:classic /Od /Oi /Oy- /D BOOST_ALL_NO_LIB /D _DEBUG /D WIN32 /D WIN32_LEAN_AND_MEAN /D _WINDOWS /D WINVER=0x0500 /D _WIN32_WINNT=0x0500 /D COMMONCTRL_VERSION=0x500 /D CLASSLIB_DEFS_H /D NOMINMAX /D ISOLATION_AWARE_ENABLED /D _CRT_SECURE_NO_DEPRECATE /D _HAS_ITERATOR_DEBUGGING=0 /GF /Gm- /EHsc /MTd /GS- /arch:SSE2 /fp:precise /Zc:wchar_t /Zc:forScope /Zc:inline /GR /Yu"precomp.h" /Fp"BUILD\POVBACKEND\WIN32\DEBUG\PRECOMP.PCH" /Fo"BUILD\POVBACKEND\WIN32\DEBUG\\" /Fd"BUILD\POVBACKEND\WIN32\DEBUG\POVBACKEND.PDB" /FR"build\povbackend\Win32\Debug\\" /Gd /TP /wd4800 /wd4355 /FIPRECOMP.H /analyze- /FC C:\USERS\MATTHEW MCCOMB\DOCUMENTS\GITHUB\POVRAY\SOURCE\BACKEND\CONTROL\SCENE.CPP
^C:\USERS\MATTHEW MCCOMB\DOCUMENTS\GITHUB\POVRAY\SOURCE\BACKEND\RENDER\RADIOSITYTASK.CPP
/c /I..\..\INTERNAL\WINDOWS /I..\..\PLATFORM\X86 /I..\..\PLATFORM\WINDOWS /I..\..\WINDOWS\POVCONFIG /I..\..\LIBRARIES\BOOST /I..\..\VFE\WIN\ /I..\..\VFE\ /I..\..\SOURCE /I..\..\LIBRARIES\JPEG /I..\..\LIBRARIES\ZLIB /I..\..\LIBRARIES\PNG /I..\..\LIBRARIES\TIFF\LIBTIFF /I..\..\LIBRARIES\ILMBASE\CONFIG.WINDOWS /I..\..\LIBRARIES\OPENEXR\CONFIG.WINDOWS /Zi /nologo /W3 /WX- /diagnostics:classic /Od /Oi /Oy- /D BOOST_ALL_NO_LIB /D _DEBUG /D WIN32 /D WIN32_LEAN_AND_MEAN /D _WINDOWS /D WINVER=0x0500 /D _WIN32_WINNT=0x0500 /D COMMONCTRL_VERSION=0x500 /D CLASSLIB_DEFS_H /D NOMINMAX /D ISOLATION_AWARE_ENABLED /D _CRT_SECURE_NO_DEPRECATE /D _HAS_ITERATOR_DEBUGGING=0 /GF /Gm- /EHsc /MTd /GS- /arch:SSE2 /fp:precise /Zc:wchar_t /Zc:forScope /Zc:inline /GR /Yu"precomp.h" /Fp"BUILD\POVBACKEND\WIN32\DEBUG\PRECOMP.PCH" /Fo"BUILD\POVBACKEND\WIN32\DEBUG\\" /Fd"BUILD\POVBACKEND\WIN32\DEBUG\POVBACKEND.PDB" /FR"build\povbackend\Win32\Debug\\" /Gd /TP /wd4800 /wd4355 /FIPRECOMP.H /analyze- /FC C:\USERS\MATTHEW MCCOMB\DOCUMENTS\GITHUB\POVRAY\SOURCE\BACKEND\RENDER\RADIOSITYTASK.CPP
^C:\USERS\MATTHEW MCCOMB\DOCUMENTS\GITHUB\POVRAY\SOURCE\BACKEND\RENDER\RENDERTASK.CPP
/c /I..\..\INTERNAL\WINDOWS /I..\..\PLATFORM\X86 /I..\..\PLATFORM\WINDOWS /I..\..\WINDOWS\POVCONFIG /I..\..\LIBRARIES\BOOST /I..\..\VFE\WIN\ /I..\..\VFE\ /I..\..\SOURCE /I..\..\LIBRARIES\JPEG /I..\..\LIBRARIES\ZLIB /I..\..\LIBRARIES\PNG /I..\..\LIBRARIES\TIFF\LIBTIFF /I..\..\LIBRARIES\ILMBASE\CONFIG.WINDOWS /I..\..\LIBRARIES\OPENEXR\CONFIG.WINDOWS /Zi /nologo /W3 /WX- /diagnostics:classic /Od /Oi /Oy- /D BOOST_ALL_NO_LIB /D _DEBUG /D WIN32 /D WIN32_LEAN_AND_MEAN /D _WINDOWS /D WINVER=0x0500 /D _WIN32_WINNT=0x0500 /D COMMONCTRL_VERSION=0x500 /D CLASSLIB_DEFS_H /D NOMINMAX /D ISOLATION_AWARE_ENABLED /D _CRT_SECURE_NO_DEPRECATE /D _HAS_ITERATOR_DEBUGGING=0 /GF /Gm- /EHsc /MTd /GS- /arch:SSE2 /fp:precise /Zc:wchar_t /Zc:forScope /Zc:inline /GR /Yu"precomp.h" /Fp"BUILD\POVBACKEND\WIN32\DEBUG\PRECOMP.PCH" /Fo"BUILD\POVBACKEND\WIN32\DEBUG\\" /Fd"BUILD\POVBACKEND\WIN32\DEBUG\POVBACKEND.PDB" /FR"build\povbackend\Win32\Debug\\" /Gd /TP /wd4800 /wd4355 /FIPRECOMP.H /analyze- /FC C:\USERS\MATTHEW MCCOMB\DOCUMENTS\GITHUB\POVRAY\SOURCE\BACKEND\RENDER\RENDERTASK.CPP
^C:\USERS\MATTHEW MCCOMB\DOCUMENTS\GITHUB\POVRAY\SOURCE\BACKEND\RENDER\TRACETASK.CPP
/c /I..\..\INTERNAL\WINDOWS /I..\..\PLATFORM\X86 /I..\..\PLATFORM\WINDOWS /I..\..\WINDOWS\POVCONFIG /I..\..\LIBRARIES\BOOST /I..\..\VFE\WIN\ /I..\..\VFE\ /I..\..\SOURCE /I..\..\LIBRARIES\JPEG /I..\..\LIBRARIES\ZLIB /I..\..\LIBRARIES\PNG /I..\..\LIBRARIES\TIFF\LIBTIFF /I..\..\LIBRARIES\ILMBASE\CONFIG.WINDOWS /I..\..\LIBRARIES\OPENEXR\CONFIG.WINDOWS /Zi /nologo /W3 /WX- /diagnostics:classic /Od /Oi /Oy- /D BOOST_ALL_NO_LIB /D _DEBUG /D WIN32 /D WIN32_LEAN_AND_MEAN /D _WINDOWS /D WINVER=0x0500 /D _WIN32_WINNT=0x0500 /D COMMONCTRL_VERSION=0x500 /D CLASSLIB_DEFS_H /D NOMINMAX /D ISOLATION_AWARE_ENABLED /D _CRT_SECURE_NO_DEPRECATE /D _HAS_ITERATOR_DEBUGGING=0 /GF /Gm- /EHsc /MTd /GS- /arch:SSE2 /fp:precise /Zc:wchar_t /Zc:forScope /Zc:inline /GR /Yu"precomp.h" /Fp"BUILD\POVBACKEND\WIN32\DEBUG\PRECOMP.PCH" /Fo"BUILD\POVBACKEND\WIN32\DEBUG\\" /Fd"BUILD\POVBACKEND\WIN32\DEBUG\POVBACKEND.PDB" /FR"build\povbackend\Win32\Debug\\" /Gd /TP /wd4800 /wd4355 /FIPRECOMP.H /analyze- /FC C:\USERS\MATTHEW MCCOMB\DOCUMENTS\GITHUB\POVRAY\SOURCE\BACKEND\RENDER\TRACETASK.CPP
^C:\USERS\MATTHEW MCCOMB\DOCUMENTS\GITHUB\POVRAY\SOURCE\BACKEND\SCENE\VIEW.CPP
/c /I..\..\INTERNAL\WINDOWS /I..\..\PLATFORM\X86 /I..\..\PLATFORM\WINDOWS /I..\..\WINDOWS\POVCONFIG /I..\..\LIBRARIES\BOOST /I..\..\VFE\WIN\ /I..\..\VFE\ /I..\..\SOURCE /I..\..\LIBRARIES\JPEG /I..\..\LIBRARIES\ZLIB /I..\..\LIBRARIES\PNG /I..\..\LIBRARIES\TIFF\LIBTIFF /I..\..\LIBRARIES\ILMBASE\CONFIG.WINDOWS /I..\..\LIBRARIES\OPENEXR\CONFIG.WINDOWS /Zi /nologo /W3 /WX- /diagnostics:classic /Od /Oi /Oy- /D BOOST_ALL_NO_LIB /D _DEBUG /D WIN32 /D WIN32_LEAN_AND_MEAN /D _WINDOWS /D WINVER=0x0500 /D _WIN32_WINNT=0x0500 /D COMMONCTRL_VERSION=0x500 /D CLASSLIB_DEFS_H /D NOMINMAX /D ISOLATION_AWARE_ENABLED /D _CRT_SECURE_NO_DEPRECATE /D _HAS_ITERATOR_DEBUGGING=0 /GF /Gm- /EHsc /MTd /GS- /arch:SSE2 /fp:precise /Zc:wchar_t /Zc:forScope /Zc:inline /GR /Yu"precomp.h" /Fp"BUILD\POVBACKEND\WIN32\DEBUG\PRECOMP.PCH" /Fo"BUILD\POVBACKEND\WIN32\DEBUG\\" /Fd"BUILD\POVBACKEND\WIN32\DEBUG\POVBACKEND.PDB" /FR"build\povbackend\Win32\Debug\\" /Gd /TP /wd4800 /wd4355 /FIPRECOMP.H /analyze- /FC C:\USERS\MATTHEW MCCOMB\DOCUMENTS\GITHUB\POVRAY\SOURCE\BACKEND\SCENE\VIEW.CPP
^C:\USERS\MATTHEW MCCOMB\DOCUMENTS\GITHUB\POVRAY\SOURCE\BACKEND\SUPPORT\TASK.CPP
/c /I..\..\INTERNAL\WINDOWS /I..\..\PLATFORM\X86 /I..\..\PLATFORM\WINDOWS /I..\..\WINDOWS\POVCONFIG /I..\..\LIBRARIES\BOOST /I..\..\VFE\WIN\ /I..\..\VFE\ /I..\..\SOURCE /I..\..\LIBRARIES\JPEG /I..\..\LIBRARIES\ZLIB /I..\..\LIBRARIES\PNG /I..\..\LIBRARIES\TIFF\LIBTIFF /I..\..\LIBRARIES\ILMBASE\CONFIG.WINDOWS /I..\..\LIBRARIES\OPENEXR\CONFIG.WINDOWS /Zi /nologo /W3 /WX- /diagnostics:classic /Od /Oi /Oy- /D BOOST_ALL_NO_LIB /D _DEBUG /D WIN32 /D WIN32_LEAN_AND_MEAN /D _WINDOWS /D WINVER=0x0500 /D _WIN32_WINNT=0x0500 /D COMMONCTRL_VERSION=0x500 /D CLASSLIB_DEFS_H /D NOMINMAX /D ISOLATION_AWARE_ENABLED /D _CRT_SECURE_NO_DEPRECATE /D _HAS_ITERATOR_DEBUGGING=0 /GF /Gm- /EHsc /MTd /GS- /arch:SSE2 /fp:precise /Zc:wchar_t /Zc:forScope /Zc:inline /GR /Yu"precomp.h" /Fp"BUILD\POVBACKEND\WIN32\DEBUG\PRECOMP.PCH" /Fo"BUILD\POVBACKEND\WIN32\DEBUG\\" /Fd"BUILD\POVBACKEND\WIN32\DEBUG\POVBACKEND.PDB" /FR"build\povbackend\Win32\Debug\\" /Gd /TP /wd4800 /wd4355 /FIPRECOMP.H /analyze- /FC C:\USERS\MATTHEW MCCOMB\DOCUMENTS\GITHUB\POVRAY\SOURCE\BACKEND\SUPPORT\TASK.CPP
^C:\USERS\MATTHEW MCCOMB\DOCUMENTS\GITHUB\POVRAY\SOURCE\BACKEND\SUPPORT\TASKQUEUE.CPP
/c /I..\..\INTERNAL\WINDOWS /I..\..\PLATFORM\X86 /I..\..\PLATFORM\WINDOWS /I..\..\WINDOWS\POVCONFIG /I..\..\LIBRARIES\BOOST /I..\..\VFE\WIN\ /I..\..\VFE\ /I..\..\SOURCE /I..\..\LIBRARIES\JPEG /I..\..\LIBRARIES\ZLIB /I..\..\LIBRARIES\PNG /I..\..\LIBRARIES\TIFF\LIBTIFF /I..\..\LIBRARIES\ILMBASE\CONFIG.WINDOWS /I..\..\LIBRARIES\OPENEXR\CONFIG.WINDOWS /Zi /nologo /W3 /WX- /diagnostics:classic /Od /Oi /Oy- /D BOOST_ALL_NO_LIB /D _DEBUG /D WIN32 /D WIN32_LEAN_AND_MEAN /D _WINDOWS /D WINVER=0x0500 /D _WIN32_WINNT=0x0500 /D COMMONCTRL_VERSION=0x500 /D CLASSLIB_DEFS_H /D NOMINMAX /D ISOLATION_AWARE_ENABLED /D _CRT_SECURE_NO_DEPRECATE /D _HAS_ITERATOR_DEBUGGING=0 /GF /Gm- /EHsc /MTd /GS- /arch:SSE2 /fp:precise /Zc:wchar_t /Zc:forScope /Zc:inline /GR /Yu"precomp.h" /Fp"BUILD\POVBACKEND\WIN32\DEBUG\PRECOMP.PCH" /Fo"BUILD\POVBACKEND\WIN32\DEBUG\\" /Fd"BUILD\POVBACKEND\WIN32\DEBUG\POVBACKEND.PDB" /FR"build\povbackend\Win32\Debug\\" /Gd /TP /wd4800 /wd4355 /FIPRECOMP.H /analyze- /FC C:\USERS\MATTHEW MCCOMB\DOCUMENTS\GITHUB\POVRAY\SOURCE\BACKEND\SUPPORT\TASKQUEUE.CPP
^C:\USERS\MATTHEW MCCOMB\DOCUMENTS\GITHUB\POVRAY\SOURCE\BACKEND\LIGHTING\PHOTONESTIMATIONTASK.CPP
/c /I..\..\INTERNAL\WINDOWS /I..\..\PLATFORM\X86 /I..\..\PLATFORM\WINDOWS /I..\..\WINDOWS\POVCONFIG /I..\..\LIBRARIES\BOOST /I..\..\VFE\WIN\ /I..\..\VFE\ /I..\..\SOURCE /I..\..\LIBRARIES\JPEG /I..\..\LIBRARIES\ZLIB /I..\..\LIBRARIES\PNG /I..\..\LIBRARIES\TIFF\LIBTIFF /I..\..\LIBRARIES\ILMBASE\CONFIG.WINDOWS /I..\..\LIBRARIES\OPENEXR\CONFIG.WINDOWS /Zi /nologo /W3 /WX- /diagnostics:classic /Od /Oi /Oy- /D BOOST_ALL_NO_LIB /D _DEBUG /D WIN32 /D WIN32_LEAN_AND_MEAN /D _WINDOWS /D WINVER=0x0500 /D _WIN32_WINNT=0x0500 /D COMMONCTRL_VERSION=0x500 /D CLASSLIB_DEFS_H /D NOMINMAX /D ISOLATION_AWARE_ENABLED /D _CRT_SECURE_NO_DEPRECATE /D _HAS_ITERATOR_DEBUGGING=0 /GF /Gm- /EHsc /MTd /GS- /arch:SSE2 /fp:precise /Zc:wchar_t /Zc:forScope /Zc:inline /GR /Yu"precomp.h" /Fp"BUILD\POVBACKEND\WIN32\DEBUG\PRECOMP.PCH" /Fo"BUILD\POVBACKEND\WIN32\DEBUG\\" /Fd"BUILD\POVBACKEND\WIN32\DEBUG\POVBACKEND.PDB" /FR"build\povbackend\Win32\Debug\\" /Gd /TP /wd4800 /wd4355 /FIPRECOMP.H /analyze- /FC C:\USERS\MATTHEW MCCOMB\DOCUMENTS\GITHUB\POVRAY\SOURCE\BACKEND\LIGHTING\PHOTONESTIMATIONTASK.CPP
^C:\USERS\MATTHEW MCCOMB\DOCUMENTS\GITHUB\POVRAY\SOURCE\BACKEND\LIGHTING\PHOTONSHOOTINGSTRATEGY.CPP
/c /I..\..\INTERNAL\WINDOWS /I..\..\PLATFORM\X86 /I..\..\PLATFORM\WINDOWS /I..\..\WINDOWS\POVCONFIG /I..\..\LIBRARIES\BOOST /I..\..\VFE\WIN\ /I..\..\VFE\ /I..\..\SOURCE /I..\..\LIBRARIES\JPEG /I..\..\LIBRARIES\ZLIB /I..\..\LIBRARIES\PNG /I..\..\LIBRARIES\TIFF\LIBTIFF /I..\..\LIBRARIES\ILMBASE\CONFIG.WINDOWS /I..\..\LIBRARIES\OPENEXR\CONFIG.WINDOWS /Zi /nologo /W3 /WX- /diagnostics:classic /Od /Oi /Oy- /D BOOST_ALL_NO_LIB /D _DEBUG /D WIN32 /D WIN32_LEAN_AND_MEAN /D _WINDOWS /D WINVER=0x0500 /D _WIN32_WINNT=0x0500 /D COMMONCTRL_VERSION=0x500 /D CLASSLIB_DEFS_H /D NOMINMAX /D ISOLATION_AWARE_ENABLED /D _CRT_SECURE_NO_DEPRECATE /D _HAS_ITERATOR_DEBUGGING=0 /GF /Gm- /EHsc /MTd /GS- /arch:SSE2 /fp:precise /Zc:wchar_t /Zc:forScope /Zc:inline /GR /Yu"precomp.h" /Fp"BUILD\POVBACKEND\WIN32\DEBUG\PRECOMP.PCH" /Fo"BUILD\POVBACKEND\WIN32\DEBUG\\" /Fd"BUILD\POVBACKEND\WIN32\DEBUG\POVBACKEND.PDB" /FR"build\povbackend\Win32\Debug\\" /Gd /TP /wd4800 /wd4355 /FIPRECOMP.H /analyze- /FC C:\USERS\MATTHEW MCCOMB\DOCUMENTS\GITHUB\POVRAY\SOURCE\BACKEND\LIGHTING\PHOTONSHOOTINGSTRATEGY.CPP
^C:\USERS\MATTHEW MCCOMB\DOCUMENTS\GITHUB\POVRAY\SOURCE\BACKEND\LIGHTING\PHOTONSHOOTINGTASK.CPP
/c /I..\..\INTERNAL\WINDOWS /I..\..\PLATFORM\X86 /I..\..\PLATFORM\WINDOWS /I..\..\WINDOWS\POVCONFIG /I..\..\LIBRARIES\BOOST /I..\..\VFE\WIN\ /I..\..\VFE\ /I..\..\SOURCE /I..\..\LIBRARIES\JPEG /I..\..\LIBRARIES\ZLIB /I..\..\LIBRARIES\PNG /I..\..\LIBRARIES\TIFF\LIBTIFF /I..\..\LIBRARIES\ILMBASE\CONFIG.WINDOWS /I..\..\LIBRARIES\OPENEXR\CONFIG.WINDOWS /Zi /nologo /W3 /WX- /diagnostics:classic /Od /Oi /Oy- /D BOOST_ALL_NO_LIB /D _DEBUG /D WIN32 /D WIN32_LEAN_AND_MEAN /D _WINDOWS /D WINVER=0x0500 /D _WIN32_WINNT=0x0500 /D COMMONCTRL_VERSION=0x500 /D CLASSLIB_DEFS_H /D NOMINMAX /D ISOLATION_AWARE_ENABLED /D _CRT_SECURE_NO_DEPRECATE /D _HAS_ITERATOR_DEBUGGING=0 /GF /Gm- /EHsc /MTd /GS- /arch:SSE2 /fp:precise /Zc:wchar_t /Zc:forScope /Zc:inline /GR /Yu"precomp.h" /Fp"BUILD\POVBACKEND\WIN32\DEBUG\PRECOMP.PCH" /Fo"BUILD\POVBACKEND\WIN32\DEBUG\\" /Fd"BUILD\POVBACKEND\WIN32\DEBUG\POVBACKEND.PDB" /FR"build\povbackend\Win32\Debug\\" /Gd /TP /wd4800 /wd4355 /FIPRECOMP.H /analyze- /FC C:\USERS\MATTHEW MCCOMB\DOCUMENTS\GITHUB\POVRAY\SOURCE\BACKEND\LIGHTING\PHOTONSHOOTINGTASK.CPP
^C:\USERS\MATTHEW MCCOMB\DOCUMENTS\GITHUB\POVRAY\SOURCE\BACKEND\LIGHTING\PHOTONSORTINGTASK.CPP
/c /I..\..\INTERNAL\WINDOWS /I..\..\PLATFORM\X86 /I..\..\PLATFORM\WINDOWS /I..\..\WINDOWS\POVCONFIG /I..\..\LIBRARIES\BOOST /I..\..\VFE\WIN\ /I..\..\VFE\ /I..\..\SOURCE /I..\..\LIBRARIES\JPEG /I..\..\LIBRARIES\ZLIB /I..\..\LIBRARIES\PNG /I..\..\LIBRARIES\TIFF\LIBTIFF /I..\..\LIBRARIES\ILMBASE\CONFIG.WINDOWS /I..\..\LIBRARIES\OPENEXR\CONFIG.WINDOWS /Zi /nologo /W3 /WX- /diagnostics:classic /Od /Oi /Oy- /D BOOST_ALL_NO_LIB /D _DEBUG /D WIN32 /D WIN32_LEAN_AND_MEAN /D _WINDOWS /D WINVER=0x0500 /D _WIN32_WINNT=0x0500 /D COMMONCTRL_VERSION=0x500 /D CLASSLIB_DEFS_H /D NOMINMAX /D ISOLATION_AWARE_ENABLED /D _CRT_SECURE_NO_DEPRECATE /D _HAS_ITERATOR_DEBUGGING=0 /GF /Gm- /EHsc /MTd /GS- /arch:SSE2 /fp:precise /Zc:wchar_t /Zc:forScope /Zc:inline /GR /Yu"precomp.h" /Fp"BUILD\POVBACKEND\WIN32\DEBUG\PRECOMP.PCH" /Fo"BUILD\POVBACKEND\WIN32\DEBUG\\" /Fd"BUILD\POVBACKEND\WIN32\DEBUG\POVBACKEND.PDB" /FR"build\povbackend\Win32\Debug\\" /Gd /TP /wd4800 /wd4355 /FIPRECOMP.H /analyze- /FC C:\USERS\MATTHEW MCCOMB\DOCUMENTS\GITHUB\POVRAY\SOURCE\BACKEND\LIGHTING\PHOTONSORTINGTASK.CPP
^C:\USERS\MATTHEW MCCOMB\DOCUMENTS\GITHUB\POVRAY\SOURCE\BACKEND\LIGHTING\PHOTONSTRATEGYTASK.CPP
/c /I..\..\INTERNAL\WINDOWS /I..\..\PLATFORM\X86 /I..\..\PLATFORM\WINDOWS /I..\..\WINDOWS\POVCONFIG /I..\..\LIBRARIES\BOOST /I..\..\VFE\WIN\ /I..\..\VFE\ /I..\..\SOURCE /I..\..\LIBRARIES\JPEG /I..\..\LIBRARIES\ZLIB /I..\..\LIBRARIES\PNG /I..\..\LIBRARIES\TIFF\LIBTIFF /I..\..\LIBRARIES\ILMBASE\CONFIG.WINDOWS /I..\..\LIBRARIES\OPENEXR\CONFIG.WINDOWS /Zi /nologo /W3 /WX- /diagnostics:classic /Od /Oi /Oy- /D BOOST_ALL_NO_LIB /D _DEBUG /D WIN32 /D WIN32_LEAN_AND_MEAN /D _WINDOWS /D WINVER=0x0500 /D _WIN32_WINNT=0x0500 /D COMMONCTRL_VERSION=0x500 /D CLASSLIB_DEFS_H /D NOMINMAX /D ISOLATION_AWARE_ENABLED /D _CRT_SECURE_NO_DEPRECATE /D _HAS_ITERATOR_DEBUGGING=0 /GF /Gm- /EHsc /MTd /GS- /arch:SSE2 /fp:precise /Zc:wchar_t /Zc:forScope /Zc:inline /GR /Yu"precomp.h" /Fp"BUILD\POVBACKEND\WIN32\DEBUG\PRECOMP.PCH" /Fo"BUILD\POVBACKEND\WIN32\DEBUG\\" /Fd"BUILD\POVBACKEND\WIN32\DEBUG\POVBACKEND.PDB" /FR"build\povbackend\Win32\Debug\\" /Gd /TP /wd4800 /wd4355 /FIPRECOMP.H /analyze- /FC C:\USERS\MATTHEW MCCOMB\DOCUMENTS\GITHUB\POVRAY\SOURCE\BACKEND\LIGHTING\PHOTONSTRATEGYTASK.CPP
