^C:\USERS\MATTHEW MCCOMB\DOCUMENTS\GITHUB\POVRAY\WINDOWS\VS10\BUILD\TOFLOAT\WIN32\RELEASE\TOFLOAT.OBJ
C:\USERS\MATTHEW MCCOMB\DOCUMENTS\GITHUB\POVRAY\WINDOWS\VS10\BUILD\TOFLOAT\WIN32\RELEASE\TOFLOAT.ILK
C:\USERS\MATTHEW MCCOMB\DOCUMENTS\GITHUB\POVRAY\WINDOWS\VS10\BUILD\TOFLOAT\WIN32\RELEASE\TOFLOAT.EXE
C:\USERS\MATTHEW MCCOMB\DOCUMENTS\GITHUB\POVRAY\WINDOWS\VS10\BUILD\TOFLOAT\WIN32\RELEASE\TOFLOAT.PDB
