^C:\USERS\MATTHEW MCCOMB\DOCUMENTS\GITHUB\POVRAY\WINDOWS\PVENGINE.RC
/D NDEBUG /l"0x0409" /I..\..\SOURCE /nologo /fo"BUILD\GUI\WIN32\RELEASE\PVENGINE.RES"   C:\USERS\MATTHEW MCCOMB\DOCUMENTS\GITHUB\POVRAY\WINDOWS\PVENGINE.RC
^D:\POV-RAY\POV-RAY SOURCES\NORMAL PLUS\POVRAY\WINDOWS\PVENGINE.RC
/D NDEBUG /l"0x0409" /I..\..\SOURCE /nologo /fo"BUILD\GUI\WIN32\RELEASE\PVENGINE.RES"   D:\POV-RAY\POV-RAY SOURCES\NORMAL PLUS\POVRAY\WINDOWS\PVENGINE.RC
