^C:\USERS\MATTHEW MCCOMB\DOCUMENTS\GITHUB\POVRAY\SOURCE\POVMS\PRECOMP.CPP
C:\USERS\MATTHEW MCCOMB\DOCUMENTS\GITHUB\POVRAY\WINDOWS\VS2015\BUILD\POVMS\WIN32\RELEASE\PRECOMP.PCH
C:\USERS\MATTHEW MCCOMB\DOCUMENTS\GITHUB\POVRAY\WINDOWS\VS2015\BUILD\POVMS\WIN32\RELEASE\POVMS.PDB
C:\USERS\MATTHEW MCCOMB\DOCUMENTS\GITHUB\POVRAY\WINDOWS\VS2015\BUILD\POVMS\WIN32\RELEASE\PRECOMP.SBR
C:\USERS\MATTHEW MCCOMB\DOCUMENTS\GITHUB\POVRAY\WINDOWS\VS2015\BUILD\POVMS\WIN32\RELEASE\PRECOMP.OBJ
^C:\USERS\MATTHEW MCCOMB\DOCUMENTS\GITHUB\POVRAY\SOURCE\POVMS\POVMS.CPP|C:\USERS\MATTHEW MCCOMB\DOCUMENTS\GITHUB\POVRAY\SOURCE\POVMS\POVMSCPP.CPP|C:\USERS\MATTHEW MCCOMB\DOCUMENTS\GITHUB\POVRAY\SOURCE\POVMS\POVMSUTIL.CPP
C:\USERS\MATTHEW MCCOMB\DOCUMENTS\GITHUB\POVRAY\WINDOWS\VS2015\BUILD\POVMS\WIN32\RELEASE\POVMS.PDB
C:\USERS\MATTHEW MCCOMB\DOCUMENTS\GITHUB\POVRAY\WINDOWS\VS2015\BUILD\POVMS\WIN32\RELEASE\POVMS.SBR
C:\USERS\MATTHEW MCCOMB\DOCUMENTS\GITHUB\POVRAY\WINDOWS\VS2015\BUILD\POVMS\WIN32\RELEASE\POVMSCPP.SBR
C:\USERS\MATTHEW MCCOMB\DOCUMENTS\GITHUB\POVRAY\WINDOWS\VS2015\BUILD\POVMS\WIN32\RELEASE\POVMSUTIL.SBR
C:\USERS\MATTHEW MCCOMB\DOCUMENTS\GITHUB\POVRAY\WINDOWS\VS2015\BUILD\POVMS\WIN32\RELEASE\POVMSUTIL.OBJ
C:\USERS\MATTHEW MCCOMB\DOCUMENTS\GITHUB\POVRAY\WINDOWS\VS2015\BUILD\POVMS\WIN32\RELEASE\POVMSCPP.OBJ
C:\USERS\MATTHEW MCCOMB\DOCUMENTS\GITHUB\POVRAY\WINDOWS\VS2015\BUILD\POVMS\WIN32\RELEASE\POVMS.OBJ
^C:\USERS\MATTHEW MCCOMB\DOCUMENTS\GITHUB\POVRAY\SOURCE\POVMS\POVMS.CPP
C:\USERS\MATTHEW MCCOMB\DOCUMENTS\GITHUB\POVRAY\WINDOWS\VS2015\BUILD\POVMS\WIN32\RELEASE\POVMS.PDB
^C:\USERS\MATTHEW MCCOMB\DOCUMENTS\GITHUB\POVRAY\SOURCE\POVMS\POVMSCPP.CPP
C:\USERS\MATTHEW MCCOMB\DOCUMENTS\GITHUB\POVRAY\WINDOWS\VS2015\BUILD\POVMS\WIN32\RELEASE\POVMS.PDB
^C:\USERS\MATTHEW MCCOMB\DOCUMENTS\GITHUB\POVRAY\SOURCE\POVMS\POVMSUTIL.CPP
C:\USERS\MATTHEW MCCOMB\DOCUMENTS\GITHUB\POVRAY\WINDOWS\VS2015\BUILD\POVMS\WIN32\RELEASE\POVMS.PDB
^D:\POV-RAY\POV-RAY SOURCES\PLUSMINUS\POVRAY\SOURCE\POVMS\PRECOMP.CPP
D:\POV-RAY\POV-RAY SOURCES\PLUSMINUS\POVRAY\WINDOWS\VS2015\BUILD\POVMS\WIN32\RELEASE\PRECOMP.PCH
D:\POV-RAY\POV-RAY SOURCES\PLUSMINUS\POVRAY\WINDOWS\VS2015\BUILD\POVMS\WIN32\RELEASE\POVMS.PDB
D:\POV-RAY\POV-RAY SOURCES\PLUSMINUS\POVRAY\WINDOWS\VS2015\BUILD\POVMS\WIN32\RELEASE\PRECOMP.SBR
D:\POV-RAY\POV-RAY SOURCES\PLUSMINUS\POVRAY\WINDOWS\VS2015\BUILD\POVMS\WIN32\RELEASE\PRECOMP.OBJ
^D:\POV-RAY\POV-RAY SOURCES\PLUSMINUS\POVRAY\SOURCE\POVMS\POVMS.CPP|D:\POV-RAY\POV-RAY SOURCES\PLUSMINUS\POVRAY\SOURCE\POVMS\POVMSCPP.CPP|D:\POV-RAY\POV-RAY SOURCES\PLUSMINUS\POVRAY\SOURCE\POVMS\POVMSUTIL.CPP
D:\POV-RAY\POV-RAY SOURCES\PLUSMINUS\POVRAY\WINDOWS\VS2015\BUILD\POVMS\WIN32\RELEASE\POVMS.PDB
D:\POV-RAY\POV-RAY SOURCES\PLUSMINUS\POVRAY\WINDOWS\VS2015\BUILD\POVMS\WIN32\RELEASE\POVMS.SBR
D:\POV-RAY\POV-RAY SOURCES\PLUSMINUS\POVRAY\WINDOWS\VS2015\BUILD\POVMS\WIN32\RELEASE\POVMSCPP.SBR
D:\POV-RAY\POV-RAY SOURCES\PLUSMINUS\POVRAY\WINDOWS\VS2015\BUILD\POVMS\WIN32\RELEASE\POVMSUTIL.SBR
D:\POV-RAY\POV-RAY SOURCES\PLUSMINUS\POVRAY\WINDOWS\VS2015\BUILD\POVMS\WIN32\RELEASE\POVMSUTIL.OBJ
D:\POV-RAY\POV-RAY SOURCES\PLUSMINUS\POVRAY\WINDOWS\VS2015\BUILD\POVMS\WIN32\RELEASE\POVMSCPP.OBJ
D:\POV-RAY\POV-RAY SOURCES\PLUSMINUS\POVRAY\WINDOWS\VS2015\BUILD\POVMS\WIN32\RELEASE\POVMS.OBJ
^D:\POV-RAY\POV-RAY SOURCES\PLUSMINUS\POVRAY\SOURCE\POVMS\POVMS.CPP
D:\POV-RAY\POV-RAY SOURCES\PLUSMINUS\POVRAY\WINDOWS\VS2015\BUILD\POVMS\WIN32\RELEASE\POVMS.PDB
^D:\POV-RAY\POV-RAY SOURCES\PLUSMINUS\POVRAY\SOURCE\POVMS\POVMSCPP.CPP
D:\POV-RAY\POV-RAY SOURCES\PLUSMINUS\POVRAY\WINDOWS\VS2015\BUILD\POVMS\WIN32\RELEASE\POVMS.PDB
^D:\POV-RAY\POV-RAY SOURCES\PLUSMINUS\POVRAY\SOURCE\POVMS\POVMSUTIL.CPP
D:\POV-RAY\POV-RAY SOURCES\PLUSMINUS\POVRAY\WINDOWS\VS2015\BUILD\POVMS\WIN32\RELEASE\POVMS.PDB
