﻿  winprecomp.cpp
  Unknown compiler version - please run the configure tests and report the results
  pvbitmap.cpp
  pvdialog.cpp
  pvdisplay.cpp
  pvedit.cpp
  pvengine.cpp
c:\users\matthew mccomb\documents\github\povray\windows\pvengine.cpp(498): warning C4838: conversion from 'int' to 'WORD' requires a narrowing conversion
c:\users\matthew mccomb\documents\github\povray\windows\pvengine.cpp(1721): warning C4477: 'sprintf' : format string '%p' requires an argument of type 'void *', but variadic argument 2 has type 'DWORD'
c:\users\matthew mccomb\documents\github\povray\windows\pvengine.cpp(5152): warning C4996: 'GetVersionExA': was declared deprecated
  c:\program files (x86)\windows kits\10\include\10.0.16299.0\um\sysinfoapi.h(436): note: see declaration of 'GetVersionExA'
c:\users\matthew mccomb\documents\github\povray\windows\pvengine.cpp(5719): warning C4996: 'GetVersionExA': was declared deprecated
  c:\program files (x86)\windows kits\10\include\10.0.16299.0\um\sysinfoapi.h(436): note: see declaration of 'GetVersionExA'
  pvfiles.cpp
  pvfrontend.cpp
  pvguiext.cpp
  pvmem.cpp
  pvmenu.cpp
  pvmisc.cpp
c:\users\matthew mccomb\documents\github\povray\windows\pvmisc.cpp(223): warning C4838: conversion from 'int' to 'unsigned int' requires a narrowing conversion
  pvtext.cpp
  pvupdate.cpp
c:\users\matthew mccomb\documents\github\povray\windows\pvupdate.cpp(166): warning C4996: 'GetVersionExA': was declared deprecated
  c:\program files (x86)\windows kits\10\include\10.0.16299.0\um\sysinfoapi.h(436): note: see declaration of 'GetVersionExA'
  Generating Code...
  povray.vcxproj -> C:\Users\Matthew McComb\Documents\GitHub\povray\windows\vs2015\bin32\pvengine32d.exe
