^C:\USERS\MATTHEW MCCOMB\DOCUMENTS\GITHUB\POVRAY\LIBRARIES\BOOST\LIBS\SYSTEM\SRC\ERROR_CODE.CPP
C:\USERS\MATTHEW MCCOMB\DOCUMENTS\GITHUB\POVRAY\WINDOWS\VS2015\BUILD\BOOST_SYSTEM\WIN32\DEBUG\BOOST_SYSTEM.PDB
C:\USERS\MATTHEW MCCOMB\DOCUMENTS\GITHUB\POVRAY\WINDOWS\VS2015\BUILD\BOOST_SYSTEM\WIN32\DEBUG\ERROR_CODE.SBR
C:\USERS\MATTHEW MCCOMB\DOCUMENTS\GITHUB\POVRAY\WINDOWS\VS2015\BUILD\BOOST_SYSTEM\WIN32\DEBUG\ERROR_CODE.OBJ
