^C:\USERS\MATTHEW MCCOMB\DOCUMENTS\GITHUB\POVRAY\WINDOWS\VS2015\BUILD\RTRSUPPORT\WIN32\DEBUG\RTRSUPPORT.OBJ|C:\USERS\MATTHEW MCCOMB\DOCUMENTS\GITHUB\POVRAY\WINDOWS\VS2015\BUILD\RTRSUPPORT\WIN32\DEBUG\VIDCAP.OBJ|C:\USERS\MATTHEW MCCOMB\DOCUMENTS\GITHUB\POVRAY\WINDOWS\VS2015\BUILD\RTRSUPPORT\WIN32\DEBUG\VIDCAPIMPL.OBJ
C:\USERS\MATTHEW MCCOMB\DOCUMENTS\GITHUB\POVRAY\WINDOWS\VS2015\BUILD\RTRSUPPORT\WIN32\DEBUG\RTRSUPPORT.OBJ
C:\WINDOWS\SYSTEM32\TZRES.DLL
C:\USERS\MATTHEW MCCOMB\DOCUMENTS\GITHUB\POVRAY\WINDOWS\VS2015\BUILD\RTRSUPPORT\WIN32\DEBUG\VIDCAP.OBJ
C:\USERS\MATTHEW MCCOMB\DOCUMENTS\GITHUB\POVRAY\WINDOWS\VS2015\BUILD\RTRSUPPORT\WIN32\DEBUG\VIDCAPIMPL.OBJ
C:\WINDOWS\GLOBALIZATION\SORTING\SORTDEFAULT.NLS
C:\PROGRAM FILES (X86)\MICROSOFT VISUAL STUDIO\2017\COMMUNITY\VC\TOOLS\MSVC\14.13.26128\BIN\HOSTX86\X86\1033\LINKUI.DLL
