^C:\USERS\MATTHEW MCCOMB\DOCUMENTS\GITHUB\POVRAY\LIBRARIES\JPEG\JARICOM.C
/c /Zi /nologo /W2 /WX- /O2 /Ob1 /Oy- /GL /D WIN32 /D WIN32_LEAN_AND_MEAN /D NDEBUG /D _LIB /D _CRT_SECURE_NO_DEPRECATE /D _MBCS /GF /Gm- /EHsc /MT /GS- /Gy- /fp:precise /Zc:wchar_t /Zc:forScope /Zc:inline /Fo"BUILD\JPEG\WIN32\RELEASE\\" /Fd"BUILD\JPEG\WIN32\RELEASE\JPEG.PDB" /FR"build\jpeg\Win32\Release\\" /Gd /TC /analyze- C:\USERS\MATTHEW MCCOMB\DOCUMENTS\GITHUB\POVRAY\LIBRARIES\JPEG\JARICOM.C
^C:\USERS\MATTHEW MCCOMB\DOCUMENTS\GITHUB\POVRAY\LIBRARIES\JPEG\JCAPIMIN.C
/c /Zi /nologo /W2 /WX- /O2 /Ob1 /Oy- /GL /D WIN32 /D WIN32_LEAN_AND_MEAN /D NDEBUG /D _LIB /D _CRT_SECURE_NO_DEPRECATE /D _MBCS /GF /Gm- /EHsc /MT /GS- /Gy- /fp:precise /Zc:wchar_t /Zc:forScope /Zc:inline /Fo"BUILD\JPEG\WIN32\RELEASE\\" /Fd"BUILD\JPEG\WIN32\RELEASE\JPEG.PDB" /FR"build\jpeg\Win32\Release\\" /Gd /TC /analyze- C:\USERS\MATTHEW MCCOMB\DOCUMENTS\GITHUB\POVRAY\LIBRARIES\JPEG\JCAPIMIN.C
^C:\USERS\MATTHEW MCCOMB\DOCUMENTS\GITHUB\POVRAY\LIBRARIES\JPEG\JCAPISTD.C
/c /Zi /nologo /W2 /WX- /O2 /Ob1 /Oy- /GL /D WIN32 /D WIN32_LEAN_AND_MEAN /D NDEBUG /D _LIB /D _CRT_SECURE_NO_DEPRECATE /D _MBCS /GF /Gm- /EHsc /MT /GS- /Gy- /fp:precise /Zc:wchar_t /Zc:forScope /Zc:inline /Fo"BUILD\JPEG\WIN32\RELEASE\\" /Fd"BUILD\JPEG\WIN32\RELEASE\JPEG.PDB" /FR"build\jpeg\Win32\Release\\" /Gd /TC /analyze- C:\USERS\MATTHEW MCCOMB\DOCUMENTS\GITHUB\POVRAY\LIBRARIES\JPEG\JCAPISTD.C
^C:\USERS\MATTHEW MCCOMB\DOCUMENTS\GITHUB\POVRAY\LIBRARIES\JPEG\JCARITH.C
/c /Zi /nologo /W2 /WX- /O2 /Ob1 /Oy- /GL /D WIN32 /D WIN32_LEAN_AND_MEAN /D NDEBUG /D _LIB /D _CRT_SECURE_NO_DEPRECATE /D _MBCS /GF /Gm- /EHsc /MT /GS- /Gy- /fp:precise /Zc:wchar_t /Zc:forScope /Zc:inline /Fo"BUILD\JPEG\WIN32\RELEASE\\" /Fd"BUILD\JPEG\WIN32\RELEASE\JPEG.PDB" /FR"build\jpeg\Win32\Release\\" /Gd /TC /analyze- C:\USERS\MATTHEW MCCOMB\DOCUMENTS\GITHUB\POVRAY\LIBRARIES\JPEG\JCARITH.C
^C:\USERS\MATTHEW MCCOMB\DOCUMENTS\GITHUB\POVRAY\LIBRARIES\JPEG\JCCOEFCT.C
/c /Zi /nologo /W2 /WX- /O2 /Ob1 /Oy- /GL /D WIN32 /D WIN32_LEAN_AND_MEAN /D NDEBUG /D _LIB /D _CRT_SECURE_NO_DEPRECATE /D _MBCS /GF /Gm- /EHsc /MT /GS- /Gy- /fp:precise /Zc:wchar_t /Zc:forScope /Zc:inline /Fo"BUILD\JPEG\WIN32\RELEASE\\" /Fd"BUILD\JPEG\WIN32\RELEASE\JPEG.PDB" /FR"build\jpeg\Win32\Release\\" /Gd /TC /analyze- C:\USERS\MATTHEW MCCOMB\DOCUMENTS\GITHUB\POVRAY\LIBRARIES\JPEG\JCCOEFCT.C
^C:\USERS\MATTHEW MCCOMB\DOCUMENTS\GITHUB\POVRAY\LIBRARIES\JPEG\JCCOLOR.C
/c /Zi /nologo /W2 /WX- /O2 /Ob1 /Oy- /GL /D WIN32 /D WIN32_LEAN_AND_MEAN /D NDEBUG /D _LIB /D _CRT_SECURE_NO_DEPRECATE /D _MBCS /GF /Gm- /EHsc /MT /GS- /Gy- /fp:precise /Zc:wchar_t /Zc:forScope /Zc:inline /Fo"BUILD\JPEG\WIN32\RELEASE\\" /Fd"BUILD\JPEG\WIN32\RELEASE\JPEG.PDB" /FR"build\jpeg\Win32\Release\\" /Gd /TC /analyze- C:\USERS\MATTHEW MCCOMB\DOCUMENTS\GITHUB\POVRAY\LIBRARIES\JPEG\JCCOLOR.C
^C:\USERS\MATTHEW MCCOMB\DOCUMENTS\GITHUB\POVRAY\LIBRARIES\JPEG\JCDCTMGR.C
/c /Zi /nologo /W2 /WX- /O2 /Ob1 /Oy- /GL /D WIN32 /D WIN32_LEAN_AND_MEAN /D NDEBUG /D _LIB /D _CRT_SECURE_NO_DEPRECATE /D _MBCS /GF /Gm- /EHsc /MT /GS- /Gy- /fp:precise /Zc:wchar_t /Zc:forScope /Zc:inline /Fo"BUILD\JPEG\WIN32\RELEASE\\" /Fd"BUILD\JPEG\WIN32\RELEASE\JPEG.PDB" /FR"build\jpeg\Win32\Release\\" /Gd /TC /analyze- C:\USERS\MATTHEW MCCOMB\DOCUMENTS\GITHUB\POVRAY\LIBRARIES\JPEG\JCDCTMGR.C
^C:\USERS\MATTHEW MCCOMB\DOCUMENTS\GITHUB\POVRAY\LIBRARIES\JPEG\JCHUFF.C
/c /Zi /nologo /W2 /WX- /O2 /Ob1 /Oy- /GL /D WIN32 /D WIN32_LEAN_AND_MEAN /D NDEBUG /D _LIB /D _CRT_SECURE_NO_DEPRECATE /D _MBCS /GF /Gm- /EHsc /MT /GS- /Gy- /fp:precise /Zc:wchar_t /Zc:forScope /Zc:inline /Fo"BUILD\JPEG\WIN32\RELEASE\\" /Fd"BUILD\JPEG\WIN32\RELEASE\JPEG.PDB" /FR"build\jpeg\Win32\Release\\" /Gd /TC /analyze- C:\USERS\MATTHEW MCCOMB\DOCUMENTS\GITHUB\POVRAY\LIBRARIES\JPEG\JCHUFF.C
^C:\USERS\MATTHEW MCCOMB\DOCUMENTS\GITHUB\POVRAY\LIBRARIES\JPEG\JCINIT.C
/c /Zi /nologo /W2 /WX- /O2 /Ob1 /Oy- /GL /D WIN32 /D WIN32_LEAN_AND_MEAN /D NDEBUG /D _LIB /D _CRT_SECURE_NO_DEPRECATE /D _MBCS /GF /Gm- /EHsc /MT /GS- /Gy- /fp:precise /Zc:wchar_t /Zc:forScope /Zc:inline /Fo"BUILD\JPEG\WIN32\RELEASE\\" /Fd"BUILD\JPEG\WIN32\RELEASE\JPEG.PDB" /FR"build\jpeg\Win32\Release\\" /Gd /TC /analyze- C:\USERS\MATTHEW MCCOMB\DOCUMENTS\GITHUB\POVRAY\LIBRARIES\JPEG\JCINIT.C
^C:\USERS\MATTHEW MCCOMB\DOCUMENTS\GITHUB\POVRAY\LIBRARIES\JPEG\JCMAINCT.C
/c /Zi /nologo /W2 /WX- /O2 /Ob1 /Oy- /GL /D WIN32 /D WIN32_LEAN_AND_MEAN /D NDEBUG /D _LIB /D _CRT_SECURE_NO_DEPRECATE /D _MBCS /GF /Gm- /EHsc /MT /GS- /Gy- /fp:precise /Zc:wchar_t /Zc:forScope /Zc:inline /Fo"BUILD\JPEG\WIN32\RELEASE\\" /Fd"BUILD\JPEG\WIN32\RELEASE\JPEG.PDB" /FR"build\jpeg\Win32\Release\\" /Gd /TC /analyze- C:\USERS\MATTHEW MCCOMB\DOCUMENTS\GITHUB\POVRAY\LIBRARIES\JPEG\JCMAINCT.C
^C:\USERS\MATTHEW MCCOMB\DOCUMENTS\GITHUB\POVRAY\LIBRARIES\JPEG\JCMARKER.C
/c /Zi /nologo /W2 /WX- /O2 /Ob1 /Oy- /GL /D WIN32 /D WIN32_LEAN_AND_MEAN /D NDEBUG /D _LIB /D _CRT_SECURE_NO_DEPRECATE /D _MBCS /GF /Gm- /EHsc /MT /GS- /Gy- /fp:precise /Zc:wchar_t /Zc:forScope /Zc:inline /Fo"BUILD\JPEG\WIN32\RELEASE\\" /Fd"BUILD\JPEG\WIN32\RELEASE\JPEG.PDB" /FR"build\jpeg\Win32\Release\\" /Gd /TC /analyze- C:\USERS\MATTHEW MCCOMB\DOCUMENTS\GITHUB\POVRAY\LIBRARIES\JPEG\JCMARKER.C
^C:\USERS\MATTHEW MCCOMB\DOCUMENTS\GITHUB\POVRAY\LIBRARIES\JPEG\JCMASTER.C
/c /Zi /nologo /W2 /WX- /O2 /Ob1 /Oy- /GL /D WIN32 /D WIN32_LEAN_AND_MEAN /D NDEBUG /D _LIB /D _CRT_SECURE_NO_DEPRECATE /D _MBCS /GF /Gm- /EHsc /MT /GS- /Gy- /fp:precise /Zc:wchar_t /Zc:forScope /Zc:inline /Fo"BUILD\JPEG\WIN32\RELEASE\\" /Fd"BUILD\JPEG\WIN32\RELEASE\JPEG.PDB" /FR"build\jpeg\Win32\Release\\" /Gd /TC /analyze- C:\USERS\MATTHEW MCCOMB\DOCUMENTS\GITHUB\POVRAY\LIBRARIES\JPEG\JCMASTER.C
^C:\USERS\MATTHEW MCCOMB\DOCUMENTS\GITHUB\POVRAY\LIBRARIES\JPEG\JCOMAPI.C
/c /Zi /nologo /W2 /WX- /O2 /Ob1 /Oy- /GL /D WIN32 /D WIN32_LEAN_AND_MEAN /D NDEBUG /D _LIB /D _CRT_SECURE_NO_DEPRECATE /D _MBCS /GF /Gm- /EHsc /MT /GS- /Gy- /fp:precise /Zc:wchar_t /Zc:forScope /Zc:inline /Fo"BUILD\JPEG\WIN32\RELEASE\\" /Fd"BUILD\JPEG\WIN32\RELEASE\JPEG.PDB" /FR"build\jpeg\Win32\Release\\" /Gd /TC /analyze- C:\USERS\MATTHEW MCCOMB\DOCUMENTS\GITHUB\POVRAY\LIBRARIES\JPEG\JCOMAPI.C
^C:\USERS\MATTHEW MCCOMB\DOCUMENTS\GITHUB\POVRAY\LIBRARIES\JPEG\JCPARAM.C
/c /Zi /nologo /W2 /WX- /O2 /Ob1 /Oy- /GL /D WIN32 /D WIN32_LEAN_AND_MEAN /D NDEBUG /D _LIB /D _CRT_SECURE_NO_DEPRECATE /D _MBCS /GF /Gm- /EHsc /MT /GS- /Gy- /fp:precise /Zc:wchar_t /Zc:forScope /Zc:inline /Fo"BUILD\JPEG\WIN32\RELEASE\\" /Fd"BUILD\JPEG\WIN32\RELEASE\JPEG.PDB" /FR"build\jpeg\Win32\Release\\" /Gd /TC /analyze- C:\USERS\MATTHEW MCCOMB\DOCUMENTS\GITHUB\POVRAY\LIBRARIES\JPEG\JCPARAM.C
^C:\USERS\MATTHEW MCCOMB\DOCUMENTS\GITHUB\POVRAY\LIBRARIES\JPEG\JCPREPCT.C
/c /Zi /nologo /W2 /WX- /O2 /Ob1 /Oy- /GL /D WIN32 /D WIN32_LEAN_AND_MEAN /D NDEBUG /D _LIB /D _CRT_SECURE_NO_DEPRECATE /D _MBCS /GF /Gm- /EHsc /MT /GS- /Gy- /fp:precise /Zc:wchar_t /Zc:forScope /Zc:inline /Fo"BUILD\JPEG\WIN32\RELEASE\\" /Fd"BUILD\JPEG\WIN32\RELEASE\JPEG.PDB" /FR"build\jpeg\Win32\Release\\" /Gd /TC /analyze- C:\USERS\MATTHEW MCCOMB\DOCUMENTS\GITHUB\POVRAY\LIBRARIES\JPEG\JCPREPCT.C
^C:\USERS\MATTHEW MCCOMB\DOCUMENTS\GITHUB\POVRAY\LIBRARIES\JPEG\JCSAMPLE.C
/c /Zi /nologo /W2 /WX- /O2 /Ob1 /Oy- /GL /D WIN32 /D WIN32_LEAN_AND_MEAN /D NDEBUG /D _LIB /D _CRT_SECURE_NO_DEPRECATE /D _MBCS /GF /Gm- /EHsc /MT /GS- /Gy- /fp:precise /Zc:wchar_t /Zc:forScope /Zc:inline /Fo"BUILD\JPEG\WIN32\RELEASE\\" /Fd"BUILD\JPEG\WIN32\RELEASE\JPEG.PDB" /FR"build\jpeg\Win32\Release\\" /Gd /TC /analyze- C:\USERS\MATTHEW MCCOMB\DOCUMENTS\GITHUB\POVRAY\LIBRARIES\JPEG\JCSAMPLE.C
^C:\USERS\MATTHEW MCCOMB\DOCUMENTS\GITHUB\POVRAY\LIBRARIES\JPEG\JCTRANS.C
/c /Zi /nologo /W2 /WX- /O2 /Ob1 /Oy- /GL /D WIN32 /D WIN32_LEAN_AND_MEAN /D NDEBUG /D _LIB /D _CRT_SECURE_NO_DEPRECATE /D _MBCS /GF /Gm- /EHsc /MT /GS- /Gy- /fp:precise /Zc:wchar_t /Zc:forScope /Zc:inline /Fo"BUILD\JPEG\WIN32\RELEASE\\" /Fd"BUILD\JPEG\WIN32\RELEASE\JPEG.PDB" /FR"build\jpeg\Win32\Release\\" /Gd /TC /analyze- C:\USERS\MATTHEW MCCOMB\DOCUMENTS\GITHUB\POVRAY\LIBRARIES\JPEG\JCTRANS.C
^C:\USERS\MATTHEW MCCOMB\DOCUMENTS\GITHUB\POVRAY\LIBRARIES\JPEG\JDAPIMIN.C
/c /Zi /nologo /W2 /WX- /O2 /Ob1 /Oy- /GL /D WIN32 /D WIN32_LEAN_AND_MEAN /D NDEBUG /D _LIB /D _CRT_SECURE_NO_DEPRECATE /D _MBCS /GF /Gm- /EHsc /MT /GS- /Gy- /fp:precise /Zc:wchar_t /Zc:forScope /Zc:inline /Fo"BUILD\JPEG\WIN32\RELEASE\\" /Fd"BUILD\JPEG\WIN32\RELEASE\JPEG.PDB" /FR"build\jpeg\Win32\Release\\" /Gd /TC /analyze- C:\USERS\MATTHEW MCCOMB\DOCUMENTS\GITHUB\POVRAY\LIBRARIES\JPEG\JDAPIMIN.C
^C:\USERS\MATTHEW MCCOMB\DOCUMENTS\GITHUB\POVRAY\LIBRARIES\JPEG\JDAPISTD.C
/c /Zi /nologo /W2 /WX- /O2 /Ob1 /Oy- /GL /D WIN32 /D WIN32_LEAN_AND_MEAN /D NDEBUG /D _LIB /D _CRT_SECURE_NO_DEPRECATE /D _MBCS /GF /Gm- /EHsc /MT /GS- /Gy- /fp:precise /Zc:wchar_t /Zc:forScope /Zc:inline /Fo"BUILD\JPEG\WIN32\RELEASE\\" /Fd"BUILD\JPEG\WIN32\RELEASE\JPEG.PDB" /FR"build\jpeg\Win32\Release\\" /Gd /TC /analyze- C:\USERS\MATTHEW MCCOMB\DOCUMENTS\GITHUB\POVRAY\LIBRARIES\JPEG\JDAPISTD.C
^C:\USERS\MATTHEW MCCOMB\DOCUMENTS\GITHUB\POVRAY\LIBRARIES\JPEG\JDARITH.C
/c /Zi /nologo /W2 /WX- /O2 /Ob1 /Oy- /GL /D WIN32 /D WIN32_LEAN_AND_MEAN /D NDEBUG /D _LIB /D _CRT_SECURE_NO_DEPRECATE /D _MBCS /GF /Gm- /EHsc /MT /GS- /Gy- /fp:precise /Zc:wchar_t /Zc:forScope /Zc:inline /Fo"BUILD\JPEG\WIN32\RELEASE\\" /Fd"BUILD\JPEG\WIN32\RELEASE\JPEG.PDB" /FR"build\jpeg\Win32\Release\\" /Gd /TC /analyze- C:\USERS\MATTHEW MCCOMB\DOCUMENTS\GITHUB\POVRAY\LIBRARIES\JPEG\JDARITH.C
^C:\USERS\MATTHEW MCCOMB\DOCUMENTS\GITHUB\POVRAY\LIBRARIES\JPEG\JDATADST.C
/c /Zi /nologo /W2 /WX- /O2 /Ob1 /Oy- /GL /D WIN32 /D WIN32_LEAN_AND_MEAN /D NDEBUG /D _LIB /D _CRT_SECURE_NO_DEPRECATE /D _MBCS /GF /Gm- /EHsc /MT /GS- /Gy- /fp:precise /Zc:wchar_t /Zc:forScope /Zc:inline /Fo"BUILD\JPEG\WIN32\RELEASE\\" /Fd"BUILD\JPEG\WIN32\RELEASE\JPEG.PDB" /FR"build\jpeg\Win32\Release\\" /Gd /TC /analyze- C:\USERS\MATTHEW MCCOMB\DOCUMENTS\GITHUB\POVRAY\LIBRARIES\JPEG\JDATADST.C
^C:\USERS\MATTHEW MCCOMB\DOCUMENTS\GITHUB\POVRAY\LIBRARIES\JPEG\JDATASRC.C
/c /Zi /nologo /W2 /WX- /O2 /Ob1 /Oy- /GL /D WIN32 /D WIN32_LEAN_AND_MEAN /D NDEBUG /D _LIB /D _CRT_SECURE_NO_DEPRECATE /D _MBCS /GF /Gm- /EHsc /MT /GS- /Gy- /fp:precise /Zc:wchar_t /Zc:forScope /Zc:inline /Fo"BUILD\JPEG\WIN32\RELEASE\\" /Fd"BUILD\JPEG\WIN32\RELEASE\JPEG.PDB" /FR"build\jpeg\Win32\Release\\" /Gd /TC /analyze- C:\USERS\MATTHEW MCCOMB\DOCUMENTS\GITHUB\POVRAY\LIBRARIES\JPEG\JDATASRC.C
^C:\USERS\MATTHEW MCCOMB\DOCUMENTS\GITHUB\POVRAY\LIBRARIES\JPEG\JDCOEFCT.C
/c /Zi /nologo /W2 /WX- /O2 /Ob1 /Oy- /GL /D WIN32 /D WIN32_LEAN_AND_MEAN /D NDEBUG /D _LIB /D _CRT_SECURE_NO_DEPRECATE /D _MBCS /GF /Gm- /EHsc /MT /GS- /Gy- /fp:precise /Zc:wchar_t /Zc:forScope /Zc:inline /Fo"BUILD\JPEG\WIN32\RELEASE\\" /Fd"BUILD\JPEG\WIN32\RELEASE\JPEG.PDB" /FR"build\jpeg\Win32\Release\\" /Gd /TC /analyze- C:\USERS\MATTHEW MCCOMB\DOCUMENTS\GITHUB\POVRAY\LIBRARIES\JPEG\JDCOEFCT.C
^C:\USERS\MATTHEW MCCOMB\DOCUMENTS\GITHUB\POVRAY\LIBRARIES\JPEG\JDCOLOR.C
/c /Zi /nologo /W2 /WX- /O2 /Ob1 /Oy- /GL /D WIN32 /D WIN32_LEAN_AND_MEAN /D NDEBUG /D _LIB /D _CRT_SECURE_NO_DEPRECATE /D _MBCS /GF /Gm- /EHsc /MT /GS- /Gy- /fp:precise /Zc:wchar_t /Zc:forScope /Zc:inline /Fo"BUILD\JPEG\WIN32\RELEASE\\" /Fd"BUILD\JPEG\WIN32\RELEASE\JPEG.PDB" /FR"build\jpeg\Win32\Release\\" /Gd /TC /analyze- C:\USERS\MATTHEW MCCOMB\DOCUMENTS\GITHUB\POVRAY\LIBRARIES\JPEG\JDCOLOR.C
^C:\USERS\MATTHEW MCCOMB\DOCUMENTS\GITHUB\POVRAY\LIBRARIES\JPEG\JDDCTMGR.C
/c /Zi /nologo /W2 /WX- /O2 /Ob1 /Oy- /GL /D WIN32 /D WIN32_LEAN_AND_MEAN /D NDEBUG /D _LIB /D _CRT_SECURE_NO_DEPRECATE /D _MBCS /GF /Gm- /EHsc /MT /GS- /Gy- /fp:precise /Zc:wchar_t /Zc:forScope /Zc:inline /Fo"BUILD\JPEG\WIN32\RELEASE\\" /Fd"BUILD\JPEG\WIN32\RELEASE\JPEG.PDB" /FR"build\jpeg\Win32\Release\\" /Gd /TC /analyze- C:\USERS\MATTHEW MCCOMB\DOCUMENTS\GITHUB\POVRAY\LIBRARIES\JPEG\JDDCTMGR.C
^C:\USERS\MATTHEW MCCOMB\DOCUMENTS\GITHUB\POVRAY\LIBRARIES\JPEG\JDHUFF.C
/c /Zi /nologo /W2 /WX- /O2 /Ob1 /Oy- /GL /D WIN32 /D WIN32_LEAN_AND_MEAN /D NDEBUG /D _LIB /D _CRT_SECURE_NO_DEPRECATE /D _MBCS /GF /Gm- /EHsc /MT /GS- /Gy- /fp:precise /Zc:wchar_t /Zc:forScope /Zc:inline /Fo"BUILD\JPEG\WIN32\RELEASE\\" /Fd"BUILD\JPEG\WIN32\RELEASE\JPEG.PDB" /FR"build\jpeg\Win32\Release\\" /Gd /TC /analyze- C:\USERS\MATTHEW MCCOMB\DOCUMENTS\GITHUB\POVRAY\LIBRARIES\JPEG\JDHUFF.C
^C:\USERS\MATTHEW MCCOMB\DOCUMENTS\GITHUB\POVRAY\LIBRARIES\JPEG\JDINPUT.C
/c /Zi /nologo /W2 /WX- /O2 /Ob1 /Oy- /GL /D WIN32 /D WIN32_LEAN_AND_MEAN /D NDEBUG /D _LIB /D _CRT_SECURE_NO_DEPRECATE /D _MBCS /GF /Gm- /EHsc /MT /GS- /Gy- /fp:precise /Zc:wchar_t /Zc:forScope /Zc:inline /Fo"BUILD\JPEG\WIN32\RELEASE\\" /Fd"BUILD\JPEG\WIN32\RELEASE\JPEG.PDB" /FR"build\jpeg\Win32\Release\\" /Gd /TC /analyze- C:\USERS\MATTHEW MCCOMB\DOCUMENTS\GITHUB\POVRAY\LIBRARIES\JPEG\JDINPUT.C
^C:\USERS\MATTHEW MCCOMB\DOCUMENTS\GITHUB\POVRAY\LIBRARIES\JPEG\JDMAINCT.C
/c /Zi /nologo /W2 /WX- /O2 /Ob1 /Oy- /GL /D WIN32 /D WIN32_LEAN_AND_MEAN /D NDEBUG /D _LIB /D _CRT_SECURE_NO_DEPRECATE /D _MBCS /GF /Gm- /EHsc /MT /GS- /Gy- /fp:precise /Zc:wchar_t /Zc:forScope /Zc:inline /Fo"BUILD\JPEG\WIN32\RELEASE\\" /Fd"BUILD\JPEG\WIN32\RELEASE\JPEG.PDB" /FR"build\jpeg\Win32\Release\\" /Gd /TC /analyze- C:\USERS\MATTHEW MCCOMB\DOCUMENTS\GITHUB\POVRAY\LIBRARIES\JPEG\JDMAINCT.C
^C:\USERS\MATTHEW MCCOMB\DOCUMENTS\GITHUB\POVRAY\LIBRARIES\JPEG\JDMARKER.C
/c /Zi /nologo /W2 /WX- /O2 /Ob1 /Oy- /GL /D WIN32 /D WIN32_LEAN_AND_MEAN /D NDEBUG /D _LIB /D _CRT_SECURE_NO_DEPRECATE /D _MBCS /GF /Gm- /EHsc /MT /GS- /Gy- /fp:precise /Zc:wchar_t /Zc:forScope /Zc:inline /Fo"BUILD\JPEG\WIN32\RELEASE\\" /Fd"BUILD\JPEG\WIN32\RELEASE\JPEG.PDB" /FR"build\jpeg\Win32\Release\\" /Gd /TC /analyze- C:\USERS\MATTHEW MCCOMB\DOCUMENTS\GITHUB\POVRAY\LIBRARIES\JPEG\JDMARKER.C
^C:\USERS\MATTHEW MCCOMB\DOCUMENTS\GITHUB\POVRAY\LIBRARIES\JPEG\JDMASTER.C
/c /Zi /nologo /W2 /WX- /O2 /Ob1 /Oy- /GL /D WIN32 /D WIN32_LEAN_AND_MEAN /D NDEBUG /D _LIB /D _CRT_SECURE_NO_DEPRECATE /D _MBCS /GF /Gm- /EHsc /MT /GS- /Gy- /fp:precise /Zc:wchar_t /Zc:forScope /Zc:inline /Fo"BUILD\JPEG\WIN32\RELEASE\\" /Fd"BUILD\JPEG\WIN32\RELEASE\JPEG.PDB" /FR"build\jpeg\Win32\Release\\" /Gd /TC /analyze- C:\USERS\MATTHEW MCCOMB\DOCUMENTS\GITHUB\POVRAY\LIBRARIES\JPEG\JDMASTER.C
^C:\USERS\MATTHEW MCCOMB\DOCUMENTS\GITHUB\POVRAY\LIBRARIES\JPEG\JDMERGE.C
/c /Zi /nologo /W2 /WX- /O2 /Ob1 /Oy- /GL /D WIN32 /D WIN32_LEAN_AND_MEAN /D NDEBUG /D _LIB /D _CRT_SECURE_NO_DEPRECATE /D _MBCS /GF /Gm- /EHsc /MT /GS- /Gy- /fp:precise /Zc:wchar_t /Zc:forScope /Zc:inline /Fo"BUILD\JPEG\WIN32\RELEASE\\" /Fd"BUILD\JPEG\WIN32\RELEASE\JPEG.PDB" /FR"build\jpeg\Win32\Release\\" /Gd /TC /analyze- C:\USERS\MATTHEW MCCOMB\DOCUMENTS\GITHUB\POVRAY\LIBRARIES\JPEG\JDMERGE.C
^C:\USERS\MATTHEW MCCOMB\DOCUMENTS\GITHUB\POVRAY\LIBRARIES\JPEG\JDPOSTCT.C
/c /Zi /nologo /W2 /WX- /O2 /Ob1 /Oy- /GL /D WIN32 /D WIN32_LEAN_AND_MEAN /D NDEBUG /D _LIB /D _CRT_SECURE_NO_DEPRECATE /D _MBCS /GF /Gm- /EHsc /MT /GS- /Gy- /fp:precise /Zc:wchar_t /Zc:forScope /Zc:inline /Fo"BUILD\JPEG\WIN32\RELEASE\\" /Fd"BUILD\JPEG\WIN32\RELEASE\JPEG.PDB" /FR"build\jpeg\Win32\Release\\" /Gd /TC /analyze- C:\USERS\MATTHEW MCCOMB\DOCUMENTS\GITHUB\POVRAY\LIBRARIES\JPEG\JDPOSTCT.C
^C:\USERS\MATTHEW MCCOMB\DOCUMENTS\GITHUB\POVRAY\LIBRARIES\JPEG\JDSAMPLE.C
/c /Zi /nologo /W2 /WX- /O2 /Ob1 /Oy- /GL /D WIN32 /D WIN32_LEAN_AND_MEAN /D NDEBUG /D _LIB /D _CRT_SECURE_NO_DEPRECATE /D _MBCS /GF /Gm- /EHsc /MT /GS- /Gy- /fp:precise /Zc:wchar_t /Zc:forScope /Zc:inline /Fo"BUILD\JPEG\WIN32\RELEASE\\" /Fd"BUILD\JPEG\WIN32\RELEASE\JPEG.PDB" /FR"build\jpeg\Win32\Release\\" /Gd /TC /analyze- C:\USERS\MATTHEW MCCOMB\DOCUMENTS\GITHUB\POVRAY\LIBRARIES\JPEG\JDSAMPLE.C
^C:\USERS\MATTHEW MCCOMB\DOCUMENTS\GITHUB\POVRAY\LIBRARIES\JPEG\JDTRANS.C
/c /Zi /nologo /W2 /WX- /O2 /Ob1 /Oy- /GL /D WIN32 /D WIN32_LEAN_AND_MEAN /D NDEBUG /D _LIB /D _CRT_SECURE_NO_DEPRECATE /D _MBCS /GF /Gm- /EHsc /MT /GS- /Gy- /fp:precise /Zc:wchar_t /Zc:forScope /Zc:inline /Fo"BUILD\JPEG\WIN32\RELEASE\\" /Fd"BUILD\JPEG\WIN32\RELEASE\JPEG.PDB" /FR"build\jpeg\Win32\Release\\" /Gd /TC /analyze- C:\USERS\MATTHEW MCCOMB\DOCUMENTS\GITHUB\POVRAY\LIBRARIES\JPEG\JDTRANS.C
^C:\USERS\MATTHEW MCCOMB\DOCUMENTS\GITHUB\POVRAY\LIBRARIES\JPEG\JERROR.C
/c /Zi /nologo /W2 /WX- /O2 /Ob1 /Oy- /GL /D WIN32 /D WIN32_LEAN_AND_MEAN /D NDEBUG /D _LIB /D _CRT_SECURE_NO_DEPRECATE /D _MBCS /GF /Gm- /EHsc /MT /GS- /Gy- /fp:precise /Zc:wchar_t /Zc:forScope /Zc:inline /Fo"BUILD\JPEG\WIN32\RELEASE\\" /Fd"BUILD\JPEG\WIN32\RELEASE\JPEG.PDB" /FR"build\jpeg\Win32\Release\\" /Gd /TC /analyze- C:\USERS\MATTHEW MCCOMB\DOCUMENTS\GITHUB\POVRAY\LIBRARIES\JPEG\JERROR.C
^C:\USERS\MATTHEW MCCOMB\DOCUMENTS\GITHUB\POVRAY\LIBRARIES\JPEG\JFDCTFLT.C
/c /Zi /nologo /W2 /WX- /O2 /Ob1 /Oy- /GL /D WIN32 /D WIN32_LEAN_AND_MEAN /D NDEBUG /D _LIB /D _CRT_SECURE_NO_DEPRECATE /D _MBCS /GF /Gm- /EHsc /MT /GS- /Gy- /fp:precise /Zc:wchar_t /Zc:forScope /Zc:inline /Fo"BUILD\JPEG\WIN32\RELEASE\\" /Fd"BUILD\JPEG\WIN32\RELEASE\JPEG.PDB" /FR"build\jpeg\Win32\Release\\" /Gd /TC /analyze- C:\USERS\MATTHEW MCCOMB\DOCUMENTS\GITHUB\POVRAY\LIBRARIES\JPEG\JFDCTFLT.C
^C:\USERS\MATTHEW MCCOMB\DOCUMENTS\GITHUB\POVRAY\LIBRARIES\JPEG\JFDCTFST.C
/c /Zi /nologo /W2 /WX- /O2 /Ob1 /Oy- /GL /D WIN32 /D WIN32_LEAN_AND_MEAN /D NDEBUG /D _LIB /D _CRT_SECURE_NO_DEPRECATE /D _MBCS /GF /Gm- /EHsc /MT /GS- /Gy- /fp:precise /Zc:wchar_t /Zc:forScope /Zc:inline /Fo"BUILD\JPEG\WIN32\RELEASE\\" /Fd"BUILD\JPEG\WIN32\RELEASE\JPEG.PDB" /FR"build\jpeg\Win32\Release\\" /Gd /TC /analyze- C:\USERS\MATTHEW MCCOMB\DOCUMENTS\GITHUB\POVRAY\LIBRARIES\JPEG\JFDCTFST.C
^C:\USERS\MATTHEW MCCOMB\DOCUMENTS\GITHUB\POVRAY\LIBRARIES\JPEG\JFDCTINT.C
/c /Zi /nologo /W2 /WX- /O2 /Ob1 /Oy- /GL /D WIN32 /D WIN32_LEAN_AND_MEAN /D NDEBUG /D _LIB /D _CRT_SECURE_NO_DEPRECATE /D _MBCS /GF /Gm- /EHsc /MT /GS- /Gy- /fp:precise /Zc:wchar_t /Zc:forScope /Zc:inline /Fo"BUILD\JPEG\WIN32\RELEASE\\" /Fd"BUILD\JPEG\WIN32\RELEASE\JPEG.PDB" /FR"build\jpeg\Win32\Release\\" /Gd /TC /analyze- C:\USERS\MATTHEW MCCOMB\DOCUMENTS\GITHUB\POVRAY\LIBRARIES\JPEG\JFDCTINT.C
^C:\USERS\MATTHEW MCCOMB\DOCUMENTS\GITHUB\POVRAY\LIBRARIES\JPEG\JIDCTFLT.C
/c /Zi /nologo /W2 /WX- /O2 /Ob1 /Oy- /GL /D WIN32 /D WIN32_LEAN_AND_MEAN /D NDEBUG /D _LIB /D _CRT_SECURE_NO_DEPRECATE /D _MBCS /GF /Gm- /EHsc /MT /GS- /Gy- /fp:precise /Zc:wchar_t /Zc:forScope /Zc:inline /Fo"BUILD\JPEG\WIN32\RELEASE\\" /Fd"BUILD\JPEG\WIN32\RELEASE\JPEG.PDB" /FR"build\jpeg\Win32\Release\\" /Gd /TC /analyze- C:\USERS\MATTHEW MCCOMB\DOCUMENTS\GITHUB\POVRAY\LIBRARIES\JPEG\JIDCTFLT.C
^C:\USERS\MATTHEW MCCOMB\DOCUMENTS\GITHUB\POVRAY\LIBRARIES\JPEG\JIDCTFST.C
/c /Zi /nologo /W2 /WX- /O2 /Ob1 /Oy- /GL /D WIN32 /D WIN32_LEAN_AND_MEAN /D NDEBUG /D _LIB /D _CRT_SECURE_NO_DEPRECATE /D _MBCS /GF /Gm- /EHsc /MT /GS- /Gy- /fp:precise /Zc:wchar_t /Zc:forScope /Zc:inline /Fo"BUILD\JPEG\WIN32\RELEASE\\" /Fd"BUILD\JPEG\WIN32\RELEASE\JPEG.PDB" /FR"build\jpeg\Win32\Release\\" /Gd /TC /analyze- C:\USERS\MATTHEW MCCOMB\DOCUMENTS\GITHUB\POVRAY\LIBRARIES\JPEG\JIDCTFST.C
^C:\USERS\MATTHEW MCCOMB\DOCUMENTS\GITHUB\POVRAY\LIBRARIES\JPEG\JIDCTINT.C
/c /Zi /nologo /W2 /WX- /O2 /Ob1 /Oy- /GL /D WIN32 /D WIN32_LEAN_AND_MEAN /D NDEBUG /D _LIB /D _CRT_SECURE_NO_DEPRECATE /D _MBCS /GF /Gm- /EHsc /MT /GS- /Gy- /fp:precise /Zc:wchar_t /Zc:forScope /Zc:inline /Fo"BUILD\JPEG\WIN32\RELEASE\\" /Fd"BUILD\JPEG\WIN32\RELEASE\JPEG.PDB" /FR"build\jpeg\Win32\Release\\" /Gd /TC /analyze- C:\USERS\MATTHEW MCCOMB\DOCUMENTS\GITHUB\POVRAY\LIBRARIES\JPEG\JIDCTINT.C
^C:\USERS\MATTHEW MCCOMB\DOCUMENTS\GITHUB\POVRAY\LIBRARIES\JPEG\JMEMMGR.C
/c /Zi /nologo /W2 /WX- /O2 /Ob1 /Oy- /GL /D WIN32 /D WIN32_LEAN_AND_MEAN /D NDEBUG /D _LIB /D _CRT_SECURE_NO_DEPRECATE /D _MBCS /GF /Gm- /EHsc /MT /GS- /Gy- /fp:precise /Zc:wchar_t /Zc:forScope /Zc:inline /Fo"BUILD\JPEG\WIN32\RELEASE\\" /Fd"BUILD\JPEG\WIN32\RELEASE\JPEG.PDB" /FR"build\jpeg\Win32\Release\\" /Gd /TC /analyze- C:\USERS\MATTHEW MCCOMB\DOCUMENTS\GITHUB\POVRAY\LIBRARIES\JPEG\JMEMMGR.C
^C:\USERS\MATTHEW MCCOMB\DOCUMENTS\GITHUB\POVRAY\LIBRARIES\JPEG\JMEMNOBS.C
/c /Zi /nologo /W2 /WX- /O2 /Ob1 /Oy- /GL /D WIN32 /D WIN32_LEAN_AND_MEAN /D NDEBUG /D _LIB /D _CRT_SECURE_NO_DEPRECATE /D _MBCS /GF /Gm- /EHsc /MT /GS- /Gy- /fp:precise /Zc:wchar_t /Zc:forScope /Zc:inline /Fo"BUILD\JPEG\WIN32\RELEASE\\" /Fd"BUILD\JPEG\WIN32\RELEASE\JPEG.PDB" /FR"build\jpeg\Win32\Release\\" /Gd /TC /analyze- C:\USERS\MATTHEW MCCOMB\DOCUMENTS\GITHUB\POVRAY\LIBRARIES\JPEG\JMEMNOBS.C
^C:\USERS\MATTHEW MCCOMB\DOCUMENTS\GITHUB\POVRAY\LIBRARIES\JPEG\JQUANT1.C
/c /Zi /nologo /W2 /WX- /O2 /Ob1 /Oy- /GL /D WIN32 /D WIN32_LEAN_AND_MEAN /D NDEBUG /D _LIB /D _CRT_SECURE_NO_DEPRECATE /D _MBCS /GF /Gm- /EHsc /MT /GS- /Gy- /fp:precise /Zc:wchar_t /Zc:forScope /Zc:inline /Fo"BUILD\JPEG\WIN32\RELEASE\\" /Fd"BUILD\JPEG\WIN32\RELEASE\JPEG.PDB" /FR"build\jpeg\Win32\Release\\" /Gd /TC /analyze- C:\USERS\MATTHEW MCCOMB\DOCUMENTS\GITHUB\POVRAY\LIBRARIES\JPEG\JQUANT1.C
^C:\USERS\MATTHEW MCCOMB\DOCUMENTS\GITHUB\POVRAY\LIBRARIES\JPEG\JQUANT2.C
/c /Zi /nologo /W2 /WX- /O2 /Ob1 /Oy- /GL /D WIN32 /D WIN32_LEAN_AND_MEAN /D NDEBUG /D _LIB /D _CRT_SECURE_NO_DEPRECATE /D _MBCS /GF /Gm- /EHsc /MT /GS- /Gy- /fp:precise /Zc:wchar_t /Zc:forScope /Zc:inline /Fo"BUILD\JPEG\WIN32\RELEASE\\" /Fd"BUILD\JPEG\WIN32\RELEASE\JPEG.PDB" /FR"build\jpeg\Win32\Release\\" /Gd /TC /analyze- C:\USERS\MATTHEW MCCOMB\DOCUMENTS\GITHUB\POVRAY\LIBRARIES\JPEG\JQUANT2.C
^C:\USERS\MATTHEW MCCOMB\DOCUMENTS\GITHUB\POVRAY\LIBRARIES\JPEG\JUTILS.C
/c /Zi /nologo /W2 /WX- /O2 /Ob1 /Oy- /GL /D WIN32 /D WIN32_LEAN_AND_MEAN /D NDEBUG /D _LIB /D _CRT_SECURE_NO_DEPRECATE /D _MBCS /GF /Gm- /EHsc /MT /GS- /Gy- /fp:precise /Zc:wchar_t /Zc:forScope /Zc:inline /Fo"BUILD\JPEG\WIN32\RELEASE\\" /Fd"BUILD\JPEG\WIN32\RELEASE\JPEG.PDB" /FR"build\jpeg\Win32\Release\\" /Gd /TC /analyze- C:\USERS\MATTHEW MCCOMB\DOCUMENTS\GITHUB\POVRAY\LIBRARIES\JPEG\JUTILS.C
^D:\POV-RAY\POV-RAY SOURCES\PLUSMINUS\POVRAY\LIBRARIES\JPEG\JARICOM.C
/c /Zi /nologo /W2 /WX- /O2 /Ob1 /Oy- /GL /D WIN32 /D WIN32_LEAN_AND_MEAN /D NDEBUG /D _LIB /D _CRT_SECURE_NO_DEPRECATE /D _MBCS /GF /Gm- /EHsc /MT /GS- /Gy- /fp:precise /Zc:wchar_t /Zc:forScope /Zc:inline /Fo"BUILD\JPEG\WIN32\RELEASE\\" /Fd"BUILD\JPEG\WIN32\RELEASE\JPEG.PDB" /FR"build\jpeg\Win32\Release\\" /Gd /TC /analyze- D:\POV-RAY\POV-RAY SOURCES\PLUSMINUS\POVRAY\LIBRARIES\JPEG\JARICOM.C
^D:\POV-RAY\POV-RAY SOURCES\PLUSMINUS\POVRAY\LIBRARIES\JPEG\JCAPIMIN.C
/c /Zi /nologo /W2 /WX- /O2 /Ob1 /Oy- /GL /D WIN32 /D WIN32_LEAN_AND_MEAN /D NDEBUG /D _LIB /D _CRT_SECURE_NO_DEPRECATE /D _MBCS /GF /Gm- /EHsc /MT /GS- /Gy- /fp:precise /Zc:wchar_t /Zc:forScope /Zc:inline /Fo"BUILD\JPEG\WIN32\RELEASE\\" /Fd"BUILD\JPEG\WIN32\RELEASE\JPEG.PDB" /FR"build\jpeg\Win32\Release\\" /Gd /TC /analyze- D:\POV-RAY\POV-RAY SOURCES\PLUSMINUS\POVRAY\LIBRARIES\JPEG\JCAPIMIN.C
^D:\POV-RAY\POV-RAY SOURCES\PLUSMINUS\POVRAY\LIBRARIES\JPEG\JCAPISTD.C
/c /Zi /nologo /W2 /WX- /O2 /Ob1 /Oy- /GL /D WIN32 /D WIN32_LEAN_AND_MEAN /D NDEBUG /D _LIB /D _CRT_SECURE_NO_DEPRECATE /D _MBCS /GF /Gm- /EHsc /MT /GS- /Gy- /fp:precise /Zc:wchar_t /Zc:forScope /Zc:inline /Fo"BUILD\JPEG\WIN32\RELEASE\\" /Fd"BUILD\JPEG\WIN32\RELEASE\JPEG.PDB" /FR"build\jpeg\Win32\Release\\" /Gd /TC /analyze- D:\POV-RAY\POV-RAY SOURCES\PLUSMINUS\POVRAY\LIBRARIES\JPEG\JCAPISTD.C
^D:\POV-RAY\POV-RAY SOURCES\PLUSMINUS\POVRAY\LIBRARIES\JPEG\JCARITH.C
/c /Zi /nologo /W2 /WX- /O2 /Ob1 /Oy- /GL /D WIN32 /D WIN32_LEAN_AND_MEAN /D NDEBUG /D _LIB /D _CRT_SECURE_NO_DEPRECATE /D _MBCS /GF /Gm- /EHsc /MT /GS- /Gy- /fp:precise /Zc:wchar_t /Zc:forScope /Zc:inline /Fo"BUILD\JPEG\WIN32\RELEASE\\" /Fd"BUILD\JPEG\WIN32\RELEASE\JPEG.PDB" /FR"build\jpeg\Win32\Release\\" /Gd /TC /analyze- D:\POV-RAY\POV-RAY SOURCES\PLUSMINUS\POVRAY\LIBRARIES\JPEG\JCARITH.C
^D:\POV-RAY\POV-RAY SOURCES\PLUSMINUS\POVRAY\LIBRARIES\JPEG\JCCOEFCT.C
/c /Zi /nologo /W2 /WX- /O2 /Ob1 /Oy- /GL /D WIN32 /D WIN32_LEAN_AND_MEAN /D NDEBUG /D _LIB /D _CRT_SECURE_NO_DEPRECATE /D _MBCS /GF /Gm- /EHsc /MT /GS- /Gy- /fp:precise /Zc:wchar_t /Zc:forScope /Zc:inline /Fo"BUILD\JPEG\WIN32\RELEASE\\" /Fd"BUILD\JPEG\WIN32\RELEASE\JPEG.PDB" /FR"build\jpeg\Win32\Release\\" /Gd /TC /analyze- D:\POV-RAY\POV-RAY SOURCES\PLUSMINUS\POVRAY\LIBRARIES\JPEG\JCCOEFCT.C
^D:\POV-RAY\POV-RAY SOURCES\PLUSMINUS\POVRAY\LIBRARIES\JPEG\JCCOLOR.C
/c /Zi /nologo /W2 /WX- /O2 /Ob1 /Oy- /GL /D WIN32 /D WIN32_LEAN_AND_MEAN /D NDEBUG /D _LIB /D _CRT_SECURE_NO_DEPRECATE /D _MBCS /GF /Gm- /EHsc /MT /GS- /Gy- /fp:precise /Zc:wchar_t /Zc:forScope /Zc:inline /Fo"BUILD\JPEG\WIN32\RELEASE\\" /Fd"BUILD\JPEG\WIN32\RELEASE\JPEG.PDB" /FR"build\jpeg\Win32\Release\\" /Gd /TC /analyze- D:\POV-RAY\POV-RAY SOURCES\PLUSMINUS\POVRAY\LIBRARIES\JPEG\JCCOLOR.C
^D:\POV-RAY\POV-RAY SOURCES\PLUSMINUS\POVRAY\LIBRARIES\JPEG\JCDCTMGR.C
/c /Zi /nologo /W2 /WX- /O2 /Ob1 /Oy- /GL /D WIN32 /D WIN32_LEAN_AND_MEAN /D NDEBUG /D _LIB /D _CRT_SECURE_NO_DEPRECATE /D _MBCS /GF /Gm- /EHsc /MT /GS- /Gy- /fp:precise /Zc:wchar_t /Zc:forScope /Zc:inline /Fo"BUILD\JPEG\WIN32\RELEASE\\" /Fd"BUILD\JPEG\WIN32\RELEASE\JPEG.PDB" /FR"build\jpeg\Win32\Release\\" /Gd /TC /analyze- D:\POV-RAY\POV-RAY SOURCES\PLUSMINUS\POVRAY\LIBRARIES\JPEG\JCDCTMGR.C
^D:\POV-RAY\POV-RAY SOURCES\PLUSMINUS\POVRAY\LIBRARIES\JPEG\JCHUFF.C
/c /Zi /nologo /W2 /WX- /O2 /Ob1 /Oy- /GL /D WIN32 /D WIN32_LEAN_AND_MEAN /D NDEBUG /D _LIB /D _CRT_SECURE_NO_DEPRECATE /D _MBCS /GF /Gm- /EHsc /MT /GS- /Gy- /fp:precise /Zc:wchar_t /Zc:forScope /Zc:inline /Fo"BUILD\JPEG\WIN32\RELEASE\\" /Fd"BUILD\JPEG\WIN32\RELEASE\JPEG.PDB" /FR"build\jpeg\Win32\Release\\" /Gd /TC /analyze- D:\POV-RAY\POV-RAY SOURCES\PLUSMINUS\POVRAY\LIBRARIES\JPEG\JCHUFF.C
^D:\POV-RAY\POV-RAY SOURCES\PLUSMINUS\POVRAY\LIBRARIES\JPEG\JCINIT.C
/c /Zi /nologo /W2 /WX- /O2 /Ob1 /Oy- /GL /D WIN32 /D WIN32_LEAN_AND_MEAN /D NDEBUG /D _LIB /D _CRT_SECURE_NO_DEPRECATE /D _MBCS /GF /Gm- /EHsc /MT /GS- /Gy- /fp:precise /Zc:wchar_t /Zc:forScope /Zc:inline /Fo"BUILD\JPEG\WIN32\RELEASE\\" /Fd"BUILD\JPEG\WIN32\RELEASE\JPEG.PDB" /FR"build\jpeg\Win32\Release\\" /Gd /TC /analyze- D:\POV-RAY\POV-RAY SOURCES\PLUSMINUS\POVRAY\LIBRARIES\JPEG\JCINIT.C
^D:\POV-RAY\POV-RAY SOURCES\PLUSMINUS\POVRAY\LIBRARIES\JPEG\JCMAINCT.C
/c /Zi /nologo /W2 /WX- /O2 /Ob1 /Oy- /GL /D WIN32 /D WIN32_LEAN_AND_MEAN /D NDEBUG /D _LIB /D _CRT_SECURE_NO_DEPRECATE /D _MBCS /GF /Gm- /EHsc /MT /GS- /Gy- /fp:precise /Zc:wchar_t /Zc:forScope /Zc:inline /Fo"BUILD\JPEG\WIN32\RELEASE\\" /Fd"BUILD\JPEG\WIN32\RELEASE\JPEG.PDB" /FR"build\jpeg\Win32\Release\\" /Gd /TC /analyze- D:\POV-RAY\POV-RAY SOURCES\PLUSMINUS\POVRAY\LIBRARIES\JPEG\JCMAINCT.C
^D:\POV-RAY\POV-RAY SOURCES\PLUSMINUS\POVRAY\LIBRARIES\JPEG\JCMARKER.C
/c /Zi /nologo /W2 /WX- /O2 /Ob1 /Oy- /GL /D WIN32 /D WIN32_LEAN_AND_MEAN /D NDEBUG /D _LIB /D _CRT_SECURE_NO_DEPRECATE /D _MBCS /GF /Gm- /EHsc /MT /GS- /Gy- /fp:precise /Zc:wchar_t /Zc:forScope /Zc:inline /Fo"BUILD\JPEG\WIN32\RELEASE\\" /Fd"BUILD\JPEG\WIN32\RELEASE\JPEG.PDB" /FR"build\jpeg\Win32\Release\\" /Gd /TC /analyze- D:\POV-RAY\POV-RAY SOURCES\PLUSMINUS\POVRAY\LIBRARIES\JPEG\JCMARKER.C
^D:\POV-RAY\POV-RAY SOURCES\PLUSMINUS\POVRAY\LIBRARIES\JPEG\JCMASTER.C
/c /Zi /nologo /W2 /WX- /O2 /Ob1 /Oy- /GL /D WIN32 /D WIN32_LEAN_AND_MEAN /D NDEBUG /D _LIB /D _CRT_SECURE_NO_DEPRECATE /D _MBCS /GF /Gm- /EHsc /MT /GS- /Gy- /fp:precise /Zc:wchar_t /Zc:forScope /Zc:inline /Fo"BUILD\JPEG\WIN32\RELEASE\\" /Fd"BUILD\JPEG\WIN32\RELEASE\JPEG.PDB" /FR"build\jpeg\Win32\Release\\" /Gd /TC /analyze- D:\POV-RAY\POV-RAY SOURCES\PLUSMINUS\POVRAY\LIBRARIES\JPEG\JCMASTER.C
^D:\POV-RAY\POV-RAY SOURCES\PLUSMINUS\POVRAY\LIBRARIES\JPEG\JCOMAPI.C
/c /Zi /nologo /W2 /WX- /O2 /Ob1 /Oy- /GL /D WIN32 /D WIN32_LEAN_AND_MEAN /D NDEBUG /D _LIB /D _CRT_SECURE_NO_DEPRECATE /D _MBCS /GF /Gm- /EHsc /MT /GS- /Gy- /fp:precise /Zc:wchar_t /Zc:forScope /Zc:inline /Fo"BUILD\JPEG\WIN32\RELEASE\\" /Fd"BUILD\JPEG\WIN32\RELEASE\JPEG.PDB" /FR"build\jpeg\Win32\Release\\" /Gd /TC /analyze- D:\POV-RAY\POV-RAY SOURCES\PLUSMINUS\POVRAY\LIBRARIES\JPEG\JCOMAPI.C
^D:\POV-RAY\POV-RAY SOURCES\PLUSMINUS\POVRAY\LIBRARIES\JPEG\JCPARAM.C
/c /Zi /nologo /W2 /WX- /O2 /Ob1 /Oy- /GL /D WIN32 /D WIN32_LEAN_AND_MEAN /D NDEBUG /D _LIB /D _CRT_SECURE_NO_DEPRECATE /D _MBCS /GF /Gm- /EHsc /MT /GS- /Gy- /fp:precise /Zc:wchar_t /Zc:forScope /Zc:inline /Fo"BUILD\JPEG\WIN32\RELEASE\\" /Fd"BUILD\JPEG\WIN32\RELEASE\JPEG.PDB" /FR"build\jpeg\Win32\Release\\" /Gd /TC /analyze- D:\POV-RAY\POV-RAY SOURCES\PLUSMINUS\POVRAY\LIBRARIES\JPEG\JCPARAM.C
^D:\POV-RAY\POV-RAY SOURCES\PLUSMINUS\POVRAY\LIBRARIES\JPEG\JCPREPCT.C
/c /Zi /nologo /W2 /WX- /O2 /Ob1 /Oy- /GL /D WIN32 /D WIN32_LEAN_AND_MEAN /D NDEBUG /D _LIB /D _CRT_SECURE_NO_DEPRECATE /D _MBCS /GF /Gm- /EHsc /MT /GS- /Gy- /fp:precise /Zc:wchar_t /Zc:forScope /Zc:inline /Fo"BUILD\JPEG\WIN32\RELEASE\\" /Fd"BUILD\JPEG\WIN32\RELEASE\JPEG.PDB" /FR"build\jpeg\Win32\Release\\" /Gd /TC /analyze- D:\POV-RAY\POV-RAY SOURCES\PLUSMINUS\POVRAY\LIBRARIES\JPEG\JCPREPCT.C
^D:\POV-RAY\POV-RAY SOURCES\PLUSMINUS\POVRAY\LIBRARIES\JPEG\JCSAMPLE.C
/c /Zi /nologo /W2 /WX- /O2 /Ob1 /Oy- /GL /D WIN32 /D WIN32_LEAN_AND_MEAN /D NDEBUG /D _LIB /D _CRT_SECURE_NO_DEPRECATE /D _MBCS /GF /Gm- /EHsc /MT /GS- /Gy- /fp:precise /Zc:wchar_t /Zc:forScope /Zc:inline /Fo"BUILD\JPEG\WIN32\RELEASE\\" /Fd"BUILD\JPEG\WIN32\RELEASE\JPEG.PDB" /FR"build\jpeg\Win32\Release\\" /Gd /TC /analyze- D:\POV-RAY\POV-RAY SOURCES\PLUSMINUS\POVRAY\LIBRARIES\JPEG\JCSAMPLE.C
^D:\POV-RAY\POV-RAY SOURCES\PLUSMINUS\POVRAY\LIBRARIES\JPEG\JCTRANS.C
/c /Zi /nologo /W2 /WX- /O2 /Ob1 /Oy- /GL /D WIN32 /D WIN32_LEAN_AND_MEAN /D NDEBUG /D _LIB /D _CRT_SECURE_NO_DEPRECATE /D _MBCS /GF /Gm- /EHsc /MT /GS- /Gy- /fp:precise /Zc:wchar_t /Zc:forScope /Zc:inline /Fo"BUILD\JPEG\WIN32\RELEASE\\" /Fd"BUILD\JPEG\WIN32\RELEASE\JPEG.PDB" /FR"build\jpeg\Win32\Release\\" /Gd /TC /analyze- D:\POV-RAY\POV-RAY SOURCES\PLUSMINUS\POVRAY\LIBRARIES\JPEG\JCTRANS.C
^D:\POV-RAY\POV-RAY SOURCES\PLUSMINUS\POVRAY\LIBRARIES\JPEG\JDAPIMIN.C
/c /Zi /nologo /W2 /WX- /O2 /Ob1 /Oy- /GL /D WIN32 /D WIN32_LEAN_AND_MEAN /D NDEBUG /D _LIB /D _CRT_SECURE_NO_DEPRECATE /D _MBCS /GF /Gm- /EHsc /MT /GS- /Gy- /fp:precise /Zc:wchar_t /Zc:forScope /Zc:inline /Fo"BUILD\JPEG\WIN32\RELEASE\\" /Fd"BUILD\JPEG\WIN32\RELEASE\JPEG.PDB" /FR"build\jpeg\Win32\Release\\" /Gd /TC /analyze- D:\POV-RAY\POV-RAY SOURCES\PLUSMINUS\POVRAY\LIBRARIES\JPEG\JDAPIMIN.C
^D:\POV-RAY\POV-RAY SOURCES\PLUSMINUS\POVRAY\LIBRARIES\JPEG\JDAPISTD.C
/c /Zi /nologo /W2 /WX- /O2 /Ob1 /Oy- /GL /D WIN32 /D WIN32_LEAN_AND_MEAN /D NDEBUG /D _LIB /D _CRT_SECURE_NO_DEPRECATE /D _MBCS /GF /Gm- /EHsc /MT /GS- /Gy- /fp:precise /Zc:wchar_t /Zc:forScope /Zc:inline /Fo"BUILD\JPEG\WIN32\RELEASE\\" /Fd"BUILD\JPEG\WIN32\RELEASE\JPEG.PDB" /FR"build\jpeg\Win32\Release\\" /Gd /TC /analyze- D:\POV-RAY\POV-RAY SOURCES\PLUSMINUS\POVRAY\LIBRARIES\JPEG\JDAPISTD.C
^D:\POV-RAY\POV-RAY SOURCES\PLUSMINUS\POVRAY\LIBRARIES\JPEG\JDARITH.C
/c /Zi /nologo /W2 /WX- /O2 /Ob1 /Oy- /GL /D WIN32 /D WIN32_LEAN_AND_MEAN /D NDEBUG /D _LIB /D _CRT_SECURE_NO_DEPRECATE /D _MBCS /GF /Gm- /EHsc /MT /GS- /Gy- /fp:precise /Zc:wchar_t /Zc:forScope /Zc:inline /Fo"BUILD\JPEG\WIN32\RELEASE\\" /Fd"BUILD\JPEG\WIN32\RELEASE\JPEG.PDB" /FR"build\jpeg\Win32\Release\\" /Gd /TC /analyze- D:\POV-RAY\POV-RAY SOURCES\PLUSMINUS\POVRAY\LIBRARIES\JPEG\JDARITH.C
^D:\POV-RAY\POV-RAY SOURCES\PLUSMINUS\POVRAY\LIBRARIES\JPEG\JDATADST.C
/c /Zi /nologo /W2 /WX- /O2 /Ob1 /Oy- /GL /D WIN32 /D WIN32_LEAN_AND_MEAN /D NDEBUG /D _LIB /D _CRT_SECURE_NO_DEPRECATE /D _MBCS /GF /Gm- /EHsc /MT /GS- /Gy- /fp:precise /Zc:wchar_t /Zc:forScope /Zc:inline /Fo"BUILD\JPEG\WIN32\RELEASE\\" /Fd"BUILD\JPEG\WIN32\RELEASE\JPEG.PDB" /FR"build\jpeg\Win32\Release\\" /Gd /TC /analyze- D:\POV-RAY\POV-RAY SOURCES\PLUSMINUS\POVRAY\LIBRARIES\JPEG\JDATADST.C
^D:\POV-RAY\POV-RAY SOURCES\PLUSMINUS\POVRAY\LIBRARIES\JPEG\JDATASRC.C
/c /Zi /nologo /W2 /WX- /O2 /Ob1 /Oy- /GL /D WIN32 /D WIN32_LEAN_AND_MEAN /D NDEBUG /D _LIB /D _CRT_SECURE_NO_DEPRECATE /D _MBCS /GF /Gm- /EHsc /MT /GS- /Gy- /fp:precise /Zc:wchar_t /Zc:forScope /Zc:inline /Fo"BUILD\JPEG\WIN32\RELEASE\\" /Fd"BUILD\JPEG\WIN32\RELEASE\JPEG.PDB" /FR"build\jpeg\Win32\Release\\" /Gd /TC /analyze- D:\POV-RAY\POV-RAY SOURCES\PLUSMINUS\POVRAY\LIBRARIES\JPEG\JDATASRC.C
^D:\POV-RAY\POV-RAY SOURCES\PLUSMINUS\POVRAY\LIBRARIES\JPEG\JDCOEFCT.C
/c /Zi /nologo /W2 /WX- /O2 /Ob1 /Oy- /GL /D WIN32 /D WIN32_LEAN_AND_MEAN /D NDEBUG /D _LIB /D _CRT_SECURE_NO_DEPRECATE /D _MBCS /GF /Gm- /EHsc /MT /GS- /Gy- /fp:precise /Zc:wchar_t /Zc:forScope /Zc:inline /Fo"BUILD\JPEG\WIN32\RELEASE\\" /Fd"BUILD\JPEG\WIN32\RELEASE\JPEG.PDB" /FR"build\jpeg\Win32\Release\\" /Gd /TC /analyze- D:\POV-RAY\POV-RAY SOURCES\PLUSMINUS\POVRAY\LIBRARIES\JPEG\JDCOEFCT.C
^D:\POV-RAY\POV-RAY SOURCES\PLUSMINUS\POVRAY\LIBRARIES\JPEG\JDCOLOR.C
/c /Zi /nologo /W2 /WX- /O2 /Ob1 /Oy- /GL /D WIN32 /D WIN32_LEAN_AND_MEAN /D NDEBUG /D _LIB /D _CRT_SECURE_NO_DEPRECATE /D _MBCS /GF /Gm- /EHsc /MT /GS- /Gy- /fp:precise /Zc:wchar_t /Zc:forScope /Zc:inline /Fo"BUILD\JPEG\WIN32\RELEASE\\" /Fd"BUILD\JPEG\WIN32\RELEASE\JPEG.PDB" /FR"build\jpeg\Win32\Release\\" /Gd /TC /analyze- D:\POV-RAY\POV-RAY SOURCES\PLUSMINUS\POVRAY\LIBRARIES\JPEG\JDCOLOR.C
^D:\POV-RAY\POV-RAY SOURCES\PLUSMINUS\POVRAY\LIBRARIES\JPEG\JDDCTMGR.C
/c /Zi /nologo /W2 /WX- /O2 /Ob1 /Oy- /GL /D WIN32 /D WIN32_LEAN_AND_MEAN /D NDEBUG /D _LIB /D _CRT_SECURE_NO_DEPRECATE /D _MBCS /GF /Gm- /EHsc /MT /GS- /Gy- /fp:precise /Zc:wchar_t /Zc:forScope /Zc:inline /Fo"BUILD\JPEG\WIN32\RELEASE\\" /Fd"BUILD\JPEG\WIN32\RELEASE\JPEG.PDB" /FR"build\jpeg\Win32\Release\\" /Gd /TC /analyze- D:\POV-RAY\POV-RAY SOURCES\PLUSMINUS\POVRAY\LIBRARIES\JPEG\JDDCTMGR.C
^D:\POV-RAY\POV-RAY SOURCES\PLUSMINUS\POVRAY\LIBRARIES\JPEG\JDHUFF.C
/c /Zi /nologo /W2 /WX- /O2 /Ob1 /Oy- /GL /D WIN32 /D WIN32_LEAN_AND_MEAN /D NDEBUG /D _LIB /D _CRT_SECURE_NO_DEPRECATE /D _MBCS /GF /Gm- /EHsc /MT /GS- /Gy- /fp:precise /Zc:wchar_t /Zc:forScope /Zc:inline /Fo"BUILD\JPEG\WIN32\RELEASE\\" /Fd"BUILD\JPEG\WIN32\RELEASE\JPEG.PDB" /FR"build\jpeg\Win32\Release\\" /Gd /TC /analyze- D:\POV-RAY\POV-RAY SOURCES\PLUSMINUS\POVRAY\LIBRARIES\JPEG\JDHUFF.C
^D:\POV-RAY\POV-RAY SOURCES\PLUSMINUS\POVRAY\LIBRARIES\JPEG\JDINPUT.C
/c /Zi /nologo /W2 /WX- /O2 /Ob1 /Oy- /GL /D WIN32 /D WIN32_LEAN_AND_MEAN /D NDEBUG /D _LIB /D _CRT_SECURE_NO_DEPRECATE /D _MBCS /GF /Gm- /EHsc /MT /GS- /Gy- /fp:precise /Zc:wchar_t /Zc:forScope /Zc:inline /Fo"BUILD\JPEG\WIN32\RELEASE\\" /Fd"BUILD\JPEG\WIN32\RELEASE\JPEG.PDB" /FR"build\jpeg\Win32\Release\\" /Gd /TC /analyze- D:\POV-RAY\POV-RAY SOURCES\PLUSMINUS\POVRAY\LIBRARIES\JPEG\JDINPUT.C
^D:\POV-RAY\POV-RAY SOURCES\PLUSMINUS\POVRAY\LIBRARIES\JPEG\JDMAINCT.C
/c /Zi /nologo /W2 /WX- /O2 /Ob1 /Oy- /GL /D WIN32 /D WIN32_LEAN_AND_MEAN /D NDEBUG /D _LIB /D _CRT_SECURE_NO_DEPRECATE /D _MBCS /GF /Gm- /EHsc /MT /GS- /Gy- /fp:precise /Zc:wchar_t /Zc:forScope /Zc:inline /Fo"BUILD\JPEG\WIN32\RELEASE\\" /Fd"BUILD\JPEG\WIN32\RELEASE\JPEG.PDB" /FR"build\jpeg\Win32\Release\\" /Gd /TC /analyze- D:\POV-RAY\POV-RAY SOURCES\PLUSMINUS\POVRAY\LIBRARIES\JPEG\JDMAINCT.C
^D:\POV-RAY\POV-RAY SOURCES\PLUSMINUS\POVRAY\LIBRARIES\JPEG\JDMARKER.C
/c /Zi /nologo /W2 /WX- /O2 /Ob1 /Oy- /GL /D WIN32 /D WIN32_LEAN_AND_MEAN /D NDEBUG /D _LIB /D _CRT_SECURE_NO_DEPRECATE /D _MBCS /GF /Gm- /EHsc /MT /GS- /Gy- /fp:precise /Zc:wchar_t /Zc:forScope /Zc:inline /Fo"BUILD\JPEG\WIN32\RELEASE\\" /Fd"BUILD\JPEG\WIN32\RELEASE\JPEG.PDB" /FR"build\jpeg\Win32\Release\\" /Gd /TC /analyze- D:\POV-RAY\POV-RAY SOURCES\PLUSMINUS\POVRAY\LIBRARIES\JPEG\JDMARKER.C
^D:\POV-RAY\POV-RAY SOURCES\PLUSMINUS\POVRAY\LIBRARIES\JPEG\JDMASTER.C
/c /Zi /nologo /W2 /WX- /O2 /Ob1 /Oy- /GL /D WIN32 /D WIN32_LEAN_AND_MEAN /D NDEBUG /D _LIB /D _CRT_SECURE_NO_DEPRECATE /D _MBCS /GF /Gm- /EHsc /MT /GS- /Gy- /fp:precise /Zc:wchar_t /Zc:forScope /Zc:inline /Fo"BUILD\JPEG\WIN32\RELEASE\\" /Fd"BUILD\JPEG\WIN32\RELEASE\JPEG.PDB" /FR"build\jpeg\Win32\Release\\" /Gd /TC /analyze- D:\POV-RAY\POV-RAY SOURCES\PLUSMINUS\POVRAY\LIBRARIES\JPEG\JDMASTER.C
^D:\POV-RAY\POV-RAY SOURCES\PLUSMINUS\POVRAY\LIBRARIES\JPEG\JDMERGE.C
/c /Zi /nologo /W2 /WX- /O2 /Ob1 /Oy- /GL /D WIN32 /D WIN32_LEAN_AND_MEAN /D NDEBUG /D _LIB /D _CRT_SECURE_NO_DEPRECATE /D _MBCS /GF /Gm- /EHsc /MT /GS- /Gy- /fp:precise /Zc:wchar_t /Zc:forScope /Zc:inline /Fo"BUILD\JPEG\WIN32\RELEASE\\" /Fd"BUILD\JPEG\WIN32\RELEASE\JPEG.PDB" /FR"build\jpeg\Win32\Release\\" /Gd /TC /analyze- D:\POV-RAY\POV-RAY SOURCES\PLUSMINUS\POVRAY\LIBRARIES\JPEG\JDMERGE.C
^D:\POV-RAY\POV-RAY SOURCES\PLUSMINUS\POVRAY\LIBRARIES\JPEG\JDPOSTCT.C
/c /Zi /nologo /W2 /WX- /O2 /Ob1 /Oy- /GL /D WIN32 /D WIN32_LEAN_AND_MEAN /D NDEBUG /D _LIB /D _CRT_SECURE_NO_DEPRECATE /D _MBCS /GF /Gm- /EHsc /MT /GS- /Gy- /fp:precise /Zc:wchar_t /Zc:forScope /Zc:inline /Fo"BUILD\JPEG\WIN32\RELEASE\\" /Fd"BUILD\JPEG\WIN32\RELEASE\JPEG.PDB" /FR"build\jpeg\Win32\Release\\" /Gd /TC /analyze- D:\POV-RAY\POV-RAY SOURCES\PLUSMINUS\POVRAY\LIBRARIES\JPEG\JDPOSTCT.C
^D:\POV-RAY\POV-RAY SOURCES\PLUSMINUS\POVRAY\LIBRARIES\JPEG\JDSAMPLE.C
/c /Zi /nologo /W2 /WX- /O2 /Ob1 /Oy- /GL /D WIN32 /D WIN32_LEAN_AND_MEAN /D NDEBUG /D _LIB /D _CRT_SECURE_NO_DEPRECATE /D _MBCS /GF /Gm- /EHsc /MT /GS- /Gy- /fp:precise /Zc:wchar_t /Zc:forScope /Zc:inline /Fo"BUILD\JPEG\WIN32\RELEASE\\" /Fd"BUILD\JPEG\WIN32\RELEASE\JPEG.PDB" /FR"build\jpeg\Win32\Release\\" /Gd /TC /analyze- D:\POV-RAY\POV-RAY SOURCES\PLUSMINUS\POVRAY\LIBRARIES\JPEG\JDSAMPLE.C
^D:\POV-RAY\POV-RAY SOURCES\PLUSMINUS\POVRAY\LIBRARIES\JPEG\JDTRANS.C
/c /Zi /nologo /W2 /WX- /O2 /Ob1 /Oy- /GL /D WIN32 /D WIN32_LEAN_AND_MEAN /D NDEBUG /D _LIB /D _CRT_SECURE_NO_DEPRECATE /D _MBCS /GF /Gm- /EHsc /MT /GS- /Gy- /fp:precise /Zc:wchar_t /Zc:forScope /Zc:inline /Fo"BUILD\JPEG\WIN32\RELEASE\\" /Fd"BUILD\JPEG\WIN32\RELEASE\JPEG.PDB" /FR"build\jpeg\Win32\Release\\" /Gd /TC /analyze- D:\POV-RAY\POV-RAY SOURCES\PLUSMINUS\POVRAY\LIBRARIES\JPEG\JDTRANS.C
^D:\POV-RAY\POV-RAY SOURCES\PLUSMINUS\POVRAY\LIBRARIES\JPEG\JERROR.C
/c /Zi /nologo /W2 /WX- /O2 /Ob1 /Oy- /GL /D WIN32 /D WIN32_LEAN_AND_MEAN /D NDEBUG /D _LIB /D _CRT_SECURE_NO_DEPRECATE /D _MBCS /GF /Gm- /EHsc /MT /GS- /Gy- /fp:precise /Zc:wchar_t /Zc:forScope /Zc:inline /Fo"BUILD\JPEG\WIN32\RELEASE\\" /Fd"BUILD\JPEG\WIN32\RELEASE\JPEG.PDB" /FR"build\jpeg\Win32\Release\\" /Gd /TC /analyze- D:\POV-RAY\POV-RAY SOURCES\PLUSMINUS\POVRAY\LIBRARIES\JPEG\JERROR.C
^D:\POV-RAY\POV-RAY SOURCES\PLUSMINUS\POVRAY\LIBRARIES\JPEG\JFDCTFLT.C
/c /Zi /nologo /W2 /WX- /O2 /Ob1 /Oy- /GL /D WIN32 /D WIN32_LEAN_AND_MEAN /D NDEBUG /D _LIB /D _CRT_SECURE_NO_DEPRECATE /D _MBCS /GF /Gm- /EHsc /MT /GS- /Gy- /fp:precise /Zc:wchar_t /Zc:forScope /Zc:inline /Fo"BUILD\JPEG\WIN32\RELEASE\\" /Fd"BUILD\JPEG\WIN32\RELEASE\JPEG.PDB" /FR"build\jpeg\Win32\Release\\" /Gd /TC /analyze- D:\POV-RAY\POV-RAY SOURCES\PLUSMINUS\POVRAY\LIBRARIES\JPEG\JFDCTFLT.C
^D:\POV-RAY\POV-RAY SOURCES\PLUSMINUS\POVRAY\LIBRARIES\JPEG\JFDCTFST.C
/c /Zi /nologo /W2 /WX- /O2 /Ob1 /Oy- /GL /D WIN32 /D WIN32_LEAN_AND_MEAN /D NDEBUG /D _LIB /D _CRT_SECURE_NO_DEPRECATE /D _MBCS /GF /Gm- /EHsc /MT /GS- /Gy- /fp:precise /Zc:wchar_t /Zc:forScope /Zc:inline /Fo"BUILD\JPEG\WIN32\RELEASE\\" /Fd"BUILD\JPEG\WIN32\RELEASE\JPEG.PDB" /FR"build\jpeg\Win32\Release\\" /Gd /TC /analyze- D:\POV-RAY\POV-RAY SOURCES\PLUSMINUS\POVRAY\LIBRARIES\JPEG\JFDCTFST.C
^D:\POV-RAY\POV-RAY SOURCES\PLUSMINUS\POVRAY\LIBRARIES\JPEG\JFDCTINT.C
/c /Zi /nologo /W2 /WX- /O2 /Ob1 /Oy- /GL /D WIN32 /D WIN32_LEAN_AND_MEAN /D NDEBUG /D _LIB /D _CRT_SECURE_NO_DEPRECATE /D _MBCS /GF /Gm- /EHsc /MT /GS- /Gy- /fp:precise /Zc:wchar_t /Zc:forScope /Zc:inline /Fo"BUILD\JPEG\WIN32\RELEASE\\" /Fd"BUILD\JPEG\WIN32\RELEASE\JPEG.PDB" /FR"build\jpeg\Win32\Release\\" /Gd /TC /analyze- D:\POV-RAY\POV-RAY SOURCES\PLUSMINUS\POVRAY\LIBRARIES\JPEG\JFDCTINT.C
^D:\POV-RAY\POV-RAY SOURCES\PLUSMINUS\POVRAY\LIBRARIES\JPEG\JIDCTFLT.C
/c /Zi /nologo /W2 /WX- /O2 /Ob1 /Oy- /GL /D WIN32 /D WIN32_LEAN_AND_MEAN /D NDEBUG /D _LIB /D _CRT_SECURE_NO_DEPRECATE /D _MBCS /GF /Gm- /EHsc /MT /GS- /Gy- /fp:precise /Zc:wchar_t /Zc:forScope /Zc:inline /Fo"BUILD\JPEG\WIN32\RELEASE\\" /Fd"BUILD\JPEG\WIN32\RELEASE\JPEG.PDB" /FR"build\jpeg\Win32\Release\\" /Gd /TC /analyze- D:\POV-RAY\POV-RAY SOURCES\PLUSMINUS\POVRAY\LIBRARIES\JPEG\JIDCTFLT.C
^D:\POV-RAY\POV-RAY SOURCES\PLUSMINUS\POVRAY\LIBRARIES\JPEG\JIDCTFST.C
/c /Zi /nologo /W2 /WX- /O2 /Ob1 /Oy- /GL /D WIN32 /D WIN32_LEAN_AND_MEAN /D NDEBUG /D _LIB /D _CRT_SECURE_NO_DEPRECATE /D _MBCS /GF /Gm- /EHsc /MT /GS- /Gy- /fp:precise /Zc:wchar_t /Zc:forScope /Zc:inline /Fo"BUILD\JPEG\WIN32\RELEASE\\" /Fd"BUILD\JPEG\WIN32\RELEASE\JPEG.PDB" /FR"build\jpeg\Win32\Release\\" /Gd /TC /analyze- D:\POV-RAY\POV-RAY SOURCES\PLUSMINUS\POVRAY\LIBRARIES\JPEG\JIDCTFST.C
^D:\POV-RAY\POV-RAY SOURCES\PLUSMINUS\POVRAY\LIBRARIES\JPEG\JIDCTINT.C
/c /Zi /nologo /W2 /WX- /O2 /Ob1 /Oy- /GL /D WIN32 /D WIN32_LEAN_AND_MEAN /D NDEBUG /D _LIB /D _CRT_SECURE_NO_DEPRECATE /D _MBCS /GF /Gm- /EHsc /MT /GS- /Gy- /fp:precise /Zc:wchar_t /Zc:forScope /Zc:inline /Fo"BUILD\JPEG\WIN32\RELEASE\\" /Fd"BUILD\JPEG\WIN32\RELEASE\JPEG.PDB" /FR"build\jpeg\Win32\Release\\" /Gd /TC /analyze- D:\POV-RAY\POV-RAY SOURCES\PLUSMINUS\POVRAY\LIBRARIES\JPEG\JIDCTINT.C
^D:\POV-RAY\POV-RAY SOURCES\PLUSMINUS\POVRAY\LIBRARIES\JPEG\JMEMMGR.C
/c /Zi /nologo /W2 /WX- /O2 /Ob1 /Oy- /GL /D WIN32 /D WIN32_LEAN_AND_MEAN /D NDEBUG /D _LIB /D _CRT_SECURE_NO_DEPRECATE /D _MBCS /GF /Gm- /EHsc /MT /GS- /Gy- /fp:precise /Zc:wchar_t /Zc:forScope /Zc:inline /Fo"BUILD\JPEG\WIN32\RELEASE\\" /Fd"BUILD\JPEG\WIN32\RELEASE\JPEG.PDB" /FR"build\jpeg\Win32\Release\\" /Gd /TC /analyze- D:\POV-RAY\POV-RAY SOURCES\PLUSMINUS\POVRAY\LIBRARIES\JPEG\JMEMMGR.C
^D:\POV-RAY\POV-RAY SOURCES\PLUSMINUS\POVRAY\LIBRARIES\JPEG\JMEMNOBS.C
/c /Zi /nologo /W2 /WX- /O2 /Ob1 /Oy- /GL /D WIN32 /D WIN32_LEAN_AND_MEAN /D NDEBUG /D _LIB /D _CRT_SECURE_NO_DEPRECATE /D _MBCS /GF /Gm- /EHsc /MT /GS- /Gy- /fp:precise /Zc:wchar_t /Zc:forScope /Zc:inline /Fo"BUILD\JPEG\WIN32\RELEASE\\" /Fd"BUILD\JPEG\WIN32\RELEASE\JPEG.PDB" /FR"build\jpeg\Win32\Release\\" /Gd /TC /analyze- D:\POV-RAY\POV-RAY SOURCES\PLUSMINUS\POVRAY\LIBRARIES\JPEG\JMEMNOBS.C
^D:\POV-RAY\POV-RAY SOURCES\PLUSMINUS\POVRAY\LIBRARIES\JPEG\JQUANT1.C
/c /Zi /nologo /W2 /WX- /O2 /Ob1 /Oy- /GL /D WIN32 /D WIN32_LEAN_AND_MEAN /D NDEBUG /D _LIB /D _CRT_SECURE_NO_DEPRECATE /D _MBCS /GF /Gm- /EHsc /MT /GS- /Gy- /fp:precise /Zc:wchar_t /Zc:forScope /Zc:inline /Fo"BUILD\JPEG\WIN32\RELEASE\\" /Fd"BUILD\JPEG\WIN32\RELEASE\JPEG.PDB" /FR"build\jpeg\Win32\Release\\" /Gd /TC /analyze- D:\POV-RAY\POV-RAY SOURCES\PLUSMINUS\POVRAY\LIBRARIES\JPEG\JQUANT1.C
^D:\POV-RAY\POV-RAY SOURCES\PLUSMINUS\POVRAY\LIBRARIES\JPEG\JQUANT2.C
/c /Zi /nologo /W2 /WX- /O2 /Ob1 /Oy- /GL /D WIN32 /D WIN32_LEAN_AND_MEAN /D NDEBUG /D _LIB /D _CRT_SECURE_NO_DEPRECATE /D _MBCS /GF /Gm- /EHsc /MT /GS- /Gy- /fp:precise /Zc:wchar_t /Zc:forScope /Zc:inline /Fo"BUILD\JPEG\WIN32\RELEASE\\" /Fd"BUILD\JPEG\WIN32\RELEASE\JPEG.PDB" /FR"build\jpeg\Win32\Release\\" /Gd /TC /analyze- D:\POV-RAY\POV-RAY SOURCES\PLUSMINUS\POVRAY\LIBRARIES\JPEG\JQUANT2.C
^D:\POV-RAY\POV-RAY SOURCES\PLUSMINUS\POVRAY\LIBRARIES\JPEG\JUTILS.C
/c /Zi /nologo /W2 /WX- /O2 /Ob1 /Oy- /GL /D WIN32 /D WIN32_LEAN_AND_MEAN /D NDEBUG /D _LIB /D _CRT_SECURE_NO_DEPRECATE /D _MBCS /GF /Gm- /EHsc /MT /GS- /Gy- /fp:precise /Zc:wchar_t /Zc:forScope /Zc:inline /Fo"BUILD\JPEG\WIN32\RELEASE\\" /Fd"BUILD\JPEG\WIN32\RELEASE\JPEG.PDB" /FR"build\jpeg\Win32\Release\\" /Gd /TC /analyze- D:\POV-RAY\POV-RAY SOURCES\PLUSMINUS\POVRAY\LIBRARIES\JPEG\JUTILS.C
