^C:\USERS\MATTHEW MCCOMB\DOCUMENTS\GITHUB\POVRAY\WINDOWS\VS10\BUILD\BOOST_DATE_TIME\WIN32\DEBUG\DATE_GENERATORS.OBJ|C:\USERS\MATTHEW MCCOMB\DOCUMENTS\GITHUB\POVRAY\WINDOWS\VS10\BUILD\BOOST_DATE_TIME\WIN32\DEBUG\GREG_MONTH.OBJ|C:\USERS\MATTHEW MCCOMB\DOCUMENTS\GITHUB\POVRAY\WINDOWS\VS10\BUILD\BOOST_DATE_TIME\WIN32\DEBUG\GREG_WEEKDAY.OBJ
C:\USERS\MATTHEW MCCOMB\DOCUMENTS\GITHUB\POVRAY\WINDOWS\VS10\BUILD\BOOST_DATE_TIME\WIN32\DEBUG\DATE_GENERATORS.OBJ
C:\WINDOWS\SYSTEM32\TZRES.DLL
C:\USERS\MATTHEW MCCOMB\DOCUMENTS\GITHUB\POVRAY\WINDOWS\VS10\BUILD\BOOST_DATE_TIME\WIN32\DEBUG\GREG_MONTH.OBJ
C:\USERS\MATTHEW MCCOMB\DOCUMENTS\GITHUB\POVRAY\WINDOWS\VS10\BUILD\BOOST_DATE_TIME\WIN32\DEBUG\GREG_WEEKDAY.OBJ
C:\WINDOWS\GLOBALIZATION\SORTING\SORTDEFAULT.NLS
