^C:\USERS\MATTHEW MCCOMB\DOCUMENTS\GITHUB\POVRAY\LIBRARIES\PNG\PNG.C
/c /I.\ /I..\..\LIBRARIES\ZLIB /I..\..\..\SOURCE /Zi /nologo /W3 /WX- /O2 /Ob1 /Oy- /GL /D WIN32 /D WIN32_LEAN_AND_MEAN /D NDEBUG /D _WINDOWS /D _CRT_SECURE_NO_DEPRECATE /GF /Gm- /EHsc /MT /GS- /Gy- /fp:precise /Zc:wchar_t /Zc:forScope /Zc:inline /Fo"BUILD\LIBPNG\WIN32\RELEASE\\" /Fd"BUILD\LIBPNG\WIN32\RELEASE\LIBPNG.PDB" /FR"build\libpng\Win32\Release\\" /Gd /TC /analyze- C:\USERS\MATTHEW MCCOMB\DOCUMENTS\GITHUB\POVRAY\LIBRARIES\PNG\PNG.C
^C:\USERS\MATTHEW MCCOMB\DOCUMENTS\GITHUB\POVRAY\LIBRARIES\PNG\PNGERROR.C
/c /I.\ /I..\..\LIBRARIES\ZLIB /I..\..\..\SOURCE /Zi /nologo /W3 /WX- /O2 /Ob1 /Oy- /GL /D WIN32 /D WIN32_LEAN_AND_MEAN /D NDEBUG /D _WINDOWS /D _CRT_SECURE_NO_DEPRECATE /GF /Gm- /EHsc /MT /GS- /Gy- /fp:precise /Zc:wchar_t /Zc:forScope /Zc:inline /Fo"BUILD\LIBPNG\WIN32\RELEASE\\" /Fd"BUILD\LIBPNG\WIN32\RELEASE\LIBPNG.PDB" /FR"build\libpng\Win32\Release\\" /Gd /TC /analyze- C:\USERS\MATTHEW MCCOMB\DOCUMENTS\GITHUB\POVRAY\LIBRARIES\PNG\PNGERROR.C
^C:\USERS\MATTHEW MCCOMB\DOCUMENTS\GITHUB\POVRAY\LIBRARIES\PNG\PNGGET.C
/c /I.\ /I..\..\LIBRARIES\ZLIB /I..\..\..\SOURCE /Zi /nologo /W3 /WX- /O2 /Ob1 /Oy- /GL /D WIN32 /D WIN32_LEAN_AND_MEAN /D NDEBUG /D _WINDOWS /D _CRT_SECURE_NO_DEPRECATE /GF /Gm- /EHsc /MT /GS- /Gy- /fp:precise /Zc:wchar_t /Zc:forScope /Zc:inline /Fo"BUILD\LIBPNG\WIN32\RELEASE\\" /Fd"BUILD\LIBPNG\WIN32\RELEASE\LIBPNG.PDB" /FR"build\libpng\Win32\Release\\" /Gd /TC /analyze- C:\USERS\MATTHEW MCCOMB\DOCUMENTS\GITHUB\POVRAY\LIBRARIES\PNG\PNGGET.C
^C:\USERS\MATTHEW MCCOMB\DOCUMENTS\GITHUB\POVRAY\LIBRARIES\PNG\PNGMEM.C
/c /I.\ /I..\..\LIBRARIES\ZLIB /I..\..\..\SOURCE /Zi /nologo /W3 /WX- /O2 /Ob1 /Oy- /GL /D WIN32 /D WIN32_LEAN_AND_MEAN /D NDEBUG /D _WINDOWS /D _CRT_SECURE_NO_DEPRECATE /GF /Gm- /EHsc /MT /GS- /Gy- /fp:precise /Zc:wchar_t /Zc:forScope /Zc:inline /Fo"BUILD\LIBPNG\WIN32\RELEASE\\" /Fd"BUILD\LIBPNG\WIN32\RELEASE\LIBPNG.PDB" /FR"build\libpng\Win32\Release\\" /Gd /TC /analyze- C:\USERS\MATTHEW MCCOMB\DOCUMENTS\GITHUB\POVRAY\LIBRARIES\PNG\PNGMEM.C
^C:\USERS\MATTHEW MCCOMB\DOCUMENTS\GITHUB\POVRAY\LIBRARIES\PNG\PNGPREAD.C
/c /I.\ /I..\..\LIBRARIES\ZLIB /I..\..\..\SOURCE /Zi /nologo /W3 /WX- /O2 /Ob1 /Oy- /GL /D WIN32 /D WIN32_LEAN_AND_MEAN /D NDEBUG /D _WINDOWS /D _CRT_SECURE_NO_DEPRECATE /GF /Gm- /EHsc /MT /GS- /Gy- /fp:precise /Zc:wchar_t /Zc:forScope /Zc:inline /Fo"BUILD\LIBPNG\WIN32\RELEASE\\" /Fd"BUILD\LIBPNG\WIN32\RELEASE\LIBPNG.PDB" /FR"build\libpng\Win32\Release\\" /Gd /TC /analyze- C:\USERS\MATTHEW MCCOMB\DOCUMENTS\GITHUB\POVRAY\LIBRARIES\PNG\PNGPREAD.C
^C:\USERS\MATTHEW MCCOMB\DOCUMENTS\GITHUB\POVRAY\LIBRARIES\PNG\PNGREAD.C
/c /I.\ /I..\..\LIBRARIES\ZLIB /I..\..\..\SOURCE /Zi /nologo /W3 /WX- /O2 /Ob1 /Oy- /GL /D WIN32 /D WIN32_LEAN_AND_MEAN /D NDEBUG /D _WINDOWS /D _CRT_SECURE_NO_DEPRECATE /GF /Gm- /EHsc /MT /GS- /Gy- /fp:precise /Zc:wchar_t /Zc:forScope /Zc:inline /Fo"BUILD\LIBPNG\WIN32\RELEASE\\" /Fd"BUILD\LIBPNG\WIN32\RELEASE\LIBPNG.PDB" /FR"build\libpng\Win32\Release\\" /Gd /TC /analyze- C:\USERS\MATTHEW MCCOMB\DOCUMENTS\GITHUB\POVRAY\LIBRARIES\PNG\PNGREAD.C
^C:\USERS\MATTHEW MCCOMB\DOCUMENTS\GITHUB\POVRAY\LIBRARIES\PNG\PNGRIO.C
/c /I.\ /I..\..\LIBRARIES\ZLIB /I..\..\..\SOURCE /Zi /nologo /W3 /WX- /O2 /Ob1 /Oy- /GL /D WIN32 /D WIN32_LEAN_AND_MEAN /D NDEBUG /D _WINDOWS /D _CRT_SECURE_NO_DEPRECATE /GF /Gm- /EHsc /MT /GS- /Gy- /fp:precise /Zc:wchar_t /Zc:forScope /Zc:inline /Fo"BUILD\LIBPNG\WIN32\RELEASE\\" /Fd"BUILD\LIBPNG\WIN32\RELEASE\LIBPNG.PDB" /FR"build\libpng\Win32\Release\\" /Gd /TC /analyze- C:\USERS\MATTHEW MCCOMB\DOCUMENTS\GITHUB\POVRAY\LIBRARIES\PNG\PNGRIO.C
^C:\USERS\MATTHEW MCCOMB\DOCUMENTS\GITHUB\POVRAY\LIBRARIES\PNG\PNGRTRAN.C
/c /I.\ /I..\..\LIBRARIES\ZLIB /I..\..\..\SOURCE /Zi /nologo /W3 /WX- /O2 /Ob1 /Oy- /GL /D WIN32 /D WIN32_LEAN_AND_MEAN /D NDEBUG /D _WINDOWS /D _CRT_SECURE_NO_DEPRECATE /GF /Gm- /EHsc /MT /GS- /Gy- /fp:precise /Zc:wchar_t /Zc:forScope /Zc:inline /Fo"BUILD\LIBPNG\WIN32\RELEASE\\" /Fd"BUILD\LIBPNG\WIN32\RELEASE\LIBPNG.PDB" /FR"build\libpng\Win32\Release\\" /Gd /TC /analyze- C:\USERS\MATTHEW MCCOMB\DOCUMENTS\GITHUB\POVRAY\LIBRARIES\PNG\PNGRTRAN.C
^C:\USERS\MATTHEW MCCOMB\DOCUMENTS\GITHUB\POVRAY\LIBRARIES\PNG\PNGRUTIL.C
/c /I.\ /I..\..\LIBRARIES\ZLIB /I..\..\..\SOURCE /Zi /nologo /W3 /WX- /O2 /Ob1 /Oy- /GL /D WIN32 /D WIN32_LEAN_AND_MEAN /D NDEBUG /D _WINDOWS /D _CRT_SECURE_NO_DEPRECATE /GF /Gm- /EHsc /MT /GS- /Gy- /fp:precise /Zc:wchar_t /Zc:forScope /Zc:inline /Fo"BUILD\LIBPNG\WIN32\RELEASE\\" /Fd"BUILD\LIBPNG\WIN32\RELEASE\LIBPNG.PDB" /FR"build\libpng\Win32\Release\\" /Gd /TC /analyze- C:\USERS\MATTHEW MCCOMB\DOCUMENTS\GITHUB\POVRAY\LIBRARIES\PNG\PNGRUTIL.C
^C:\USERS\MATTHEW MCCOMB\DOCUMENTS\GITHUB\POVRAY\LIBRARIES\PNG\PNGSET.C
/c /I.\ /I..\..\LIBRARIES\ZLIB /I..\..\..\SOURCE /Zi /nologo /W3 /WX- /O2 /Ob1 /Oy- /GL /D WIN32 /D WIN32_LEAN_AND_MEAN /D NDEBUG /D _WINDOWS /D _CRT_SECURE_NO_DEPRECATE /GF /Gm- /EHsc /MT /GS- /Gy- /fp:precise /Zc:wchar_t /Zc:forScope /Zc:inline /Fo"BUILD\LIBPNG\WIN32\RELEASE\\" /Fd"BUILD\LIBPNG\WIN32\RELEASE\LIBPNG.PDB" /FR"build\libpng\Win32\Release\\" /Gd /TC /analyze- C:\USERS\MATTHEW MCCOMB\DOCUMENTS\GITHUB\POVRAY\LIBRARIES\PNG\PNGSET.C
^C:\USERS\MATTHEW MCCOMB\DOCUMENTS\GITHUB\POVRAY\LIBRARIES\PNG\PNGTRANS.C
/c /I.\ /I..\..\LIBRARIES\ZLIB /I..\..\..\SOURCE /Zi /nologo /W3 /WX- /O2 /Ob1 /Oy- /GL /D WIN32 /D WIN32_LEAN_AND_MEAN /D NDEBUG /D _WINDOWS /D _CRT_SECURE_NO_DEPRECATE /GF /Gm- /EHsc /MT /GS- /Gy- /fp:precise /Zc:wchar_t /Zc:forScope /Zc:inline /Fo"BUILD\LIBPNG\WIN32\RELEASE\\" /Fd"BUILD\LIBPNG\WIN32\RELEASE\LIBPNG.PDB" /FR"build\libpng\Win32\Release\\" /Gd /TC /analyze- C:\USERS\MATTHEW MCCOMB\DOCUMENTS\GITHUB\POVRAY\LIBRARIES\PNG\PNGTRANS.C
^C:\USERS\MATTHEW MCCOMB\DOCUMENTS\GITHUB\POVRAY\LIBRARIES\PNG\PNGWIO.C
/c /I.\ /I..\..\LIBRARIES\ZLIB /I..\..\..\SOURCE /Zi /nologo /W3 /WX- /O2 /Ob1 /Oy- /GL /D WIN32 /D WIN32_LEAN_AND_MEAN /D NDEBUG /D _WINDOWS /D _CRT_SECURE_NO_DEPRECATE /GF /Gm- /EHsc /MT /GS- /Gy- /fp:precise /Zc:wchar_t /Zc:forScope /Zc:inline /Fo"BUILD\LIBPNG\WIN32\RELEASE\\" /Fd"BUILD\LIBPNG\WIN32\RELEASE\LIBPNG.PDB" /FR"build\libpng\Win32\Release\\" /Gd /TC /analyze- C:\USERS\MATTHEW MCCOMB\DOCUMENTS\GITHUB\POVRAY\LIBRARIES\PNG\PNGWIO.C
^C:\USERS\MATTHEW MCCOMB\DOCUMENTS\GITHUB\POVRAY\LIBRARIES\PNG\PNGWRITE.C
/c /I.\ /I..\..\LIBRARIES\ZLIB /I..\..\..\SOURCE /Zi /nologo /W3 /WX- /O2 /Ob1 /Oy- /GL /D WIN32 /D WIN32_LEAN_AND_MEAN /D NDEBUG /D _WINDOWS /D _CRT_SECURE_NO_DEPRECATE /GF /Gm- /EHsc /MT /GS- /Gy- /fp:precise /Zc:wchar_t /Zc:forScope /Zc:inline /Fo"BUILD\LIBPNG\WIN32\RELEASE\\" /Fd"BUILD\LIBPNG\WIN32\RELEASE\LIBPNG.PDB" /FR"build\libpng\Win32\Release\\" /Gd /TC /analyze- C:\USERS\MATTHEW MCCOMB\DOCUMENTS\GITHUB\POVRAY\LIBRARIES\PNG\PNGWRITE.C
^C:\USERS\MATTHEW MCCOMB\DOCUMENTS\GITHUB\POVRAY\LIBRARIES\PNG\PNGWTRAN.C
/c /I.\ /I..\..\LIBRARIES\ZLIB /I..\..\..\SOURCE /Zi /nologo /W3 /WX- /O2 /Ob1 /Oy- /GL /D WIN32 /D WIN32_LEAN_AND_MEAN /D NDEBUG /D _WINDOWS /D _CRT_SECURE_NO_DEPRECATE /GF /Gm- /EHsc /MT /GS- /Gy- /fp:precise /Zc:wchar_t /Zc:forScope /Zc:inline /Fo"BUILD\LIBPNG\WIN32\RELEASE\\" /Fd"BUILD\LIBPNG\WIN32\RELEASE\LIBPNG.PDB" /FR"build\libpng\Win32\Release\\" /Gd /TC /analyze- C:\USERS\MATTHEW MCCOMB\DOCUMENTS\GITHUB\POVRAY\LIBRARIES\PNG\PNGWTRAN.C
^C:\USERS\MATTHEW MCCOMB\DOCUMENTS\GITHUB\POVRAY\LIBRARIES\PNG\PNGWUTIL.C
/c /I.\ /I..\..\LIBRARIES\ZLIB /I..\..\..\SOURCE /Zi /nologo /W3 /WX- /O2 /Ob1 /Oy- /GL /D WIN32 /D WIN32_LEAN_AND_MEAN /D NDEBUG /D _WINDOWS /D _CRT_SECURE_NO_DEPRECATE /GF /Gm- /EHsc /MT /GS- /Gy- /fp:precise /Zc:wchar_t /Zc:forScope /Zc:inline /Fo"BUILD\LIBPNG\WIN32\RELEASE\\" /Fd"BUILD\LIBPNG\WIN32\RELEASE\LIBPNG.PDB" /FR"build\libpng\Win32\Release\\" /Gd /TC /analyze- C:\USERS\MATTHEW MCCOMB\DOCUMENTS\GITHUB\POVRAY\LIBRARIES\PNG\PNGWUTIL.C
^D:\POV-RAY\POV-RAY SOURCES\PLUSMINUS\POVRAY\LIBRARIES\PNG\PNG.C
/c /I.\ /I..\..\LIBRARIES\ZLIB /I..\..\..\SOURCE /Zi /nologo /W3 /WX- /O2 /Ob1 /Oy- /GL /D WIN32 /D WIN32_LEAN_AND_MEAN /D NDEBUG /D _WINDOWS /D _CRT_SECURE_NO_DEPRECATE /GF /Gm- /EHsc /MT /GS- /Gy- /fp:precise /Zc:wchar_t /Zc:forScope /Zc:inline /Fo"BUILD\LIBPNG\WIN32\RELEASE\\" /Fd"BUILD\LIBPNG\WIN32\RELEASE\LIBPNG.PDB" /FR"build\libpng\Win32\Release\\" /Gd /TC /analyze- D:\POV-RAY\POV-RAY SOURCES\PLUSMINUS\POVRAY\LIBRARIES\PNG\PNG.C
^D:\POV-RAY\POV-RAY SOURCES\PLUSMINUS\POVRAY\LIBRARIES\PNG\PNGERROR.C
/c /I.\ /I..\..\LIBRARIES\ZLIB /I..\..\..\SOURCE /Zi /nologo /W3 /WX- /O2 /Ob1 /Oy- /GL /D WIN32 /D WIN32_LEAN_AND_MEAN /D NDEBUG /D _WINDOWS /D _CRT_SECURE_NO_DEPRECATE /GF /Gm- /EHsc /MT /GS- /Gy- /fp:precise /Zc:wchar_t /Zc:forScope /Zc:inline /Fo"BUILD\LIBPNG\WIN32\RELEASE\\" /Fd"BUILD\LIBPNG\WIN32\RELEASE\LIBPNG.PDB" /FR"build\libpng\Win32\Release\\" /Gd /TC /analyze- D:\POV-RAY\POV-RAY SOURCES\PLUSMINUS\POVRAY\LIBRARIES\PNG\PNGERROR.C
^D:\POV-RAY\POV-RAY SOURCES\PLUSMINUS\POVRAY\LIBRARIES\PNG\PNGGET.C
/c /I.\ /I..\..\LIBRARIES\ZLIB /I..\..\..\SOURCE /Zi /nologo /W3 /WX- /O2 /Ob1 /Oy- /GL /D WIN32 /D WIN32_LEAN_AND_MEAN /D NDEBUG /D _WINDOWS /D _CRT_SECURE_NO_DEPRECATE /GF /Gm- /EHsc /MT /GS- /Gy- /fp:precise /Zc:wchar_t /Zc:forScope /Zc:inline /Fo"BUILD\LIBPNG\WIN32\RELEASE\\" /Fd"BUILD\LIBPNG\WIN32\RELEASE\LIBPNG.PDB" /FR"build\libpng\Win32\Release\\" /Gd /TC /analyze- D:\POV-RAY\POV-RAY SOURCES\PLUSMINUS\POVRAY\LIBRARIES\PNG\PNGGET.C
^D:\POV-RAY\POV-RAY SOURCES\PLUSMINUS\POVRAY\LIBRARIES\PNG\PNGMEM.C
/c /I.\ /I..\..\LIBRARIES\ZLIB /I..\..\..\SOURCE /Zi /nologo /W3 /WX- /O2 /Ob1 /Oy- /GL /D WIN32 /D WIN32_LEAN_AND_MEAN /D NDEBUG /D _WINDOWS /D _CRT_SECURE_NO_DEPRECATE /GF /Gm- /EHsc /MT /GS- /Gy- /fp:precise /Zc:wchar_t /Zc:forScope /Zc:inline /Fo"BUILD\LIBPNG\WIN32\RELEASE\\" /Fd"BUILD\LIBPNG\WIN32\RELEASE\LIBPNG.PDB" /FR"build\libpng\Win32\Release\\" /Gd /TC /analyze- D:\POV-RAY\POV-RAY SOURCES\PLUSMINUS\POVRAY\LIBRARIES\PNG\PNGMEM.C
^D:\POV-RAY\POV-RAY SOURCES\PLUSMINUS\POVRAY\LIBRARIES\PNG\PNGPREAD.C
/c /I.\ /I..\..\LIBRARIES\ZLIB /I..\..\..\SOURCE /Zi /nologo /W3 /WX- /O2 /Ob1 /Oy- /GL /D WIN32 /D WIN32_LEAN_AND_MEAN /D NDEBUG /D _WINDOWS /D _CRT_SECURE_NO_DEPRECATE /GF /Gm- /EHsc /MT /GS- /Gy- /fp:precise /Zc:wchar_t /Zc:forScope /Zc:inline /Fo"BUILD\LIBPNG\WIN32\RELEASE\\" /Fd"BUILD\LIBPNG\WIN32\RELEASE\LIBPNG.PDB" /FR"build\libpng\Win32\Release\\" /Gd /TC /analyze- D:\POV-RAY\POV-RAY SOURCES\PLUSMINUS\POVRAY\LIBRARIES\PNG\PNGPREAD.C
^D:\POV-RAY\POV-RAY SOURCES\PLUSMINUS\POVRAY\LIBRARIES\PNG\PNGREAD.C
/c /I.\ /I..\..\LIBRARIES\ZLIB /I..\..\..\SOURCE /Zi /nologo /W3 /WX- /O2 /Ob1 /Oy- /GL /D WIN32 /D WIN32_LEAN_AND_MEAN /D NDEBUG /D _WINDOWS /D _CRT_SECURE_NO_DEPRECATE /GF /Gm- /EHsc /MT /GS- /Gy- /fp:precise /Zc:wchar_t /Zc:forScope /Zc:inline /Fo"BUILD\LIBPNG\WIN32\RELEASE\\" /Fd"BUILD\LIBPNG\WIN32\RELEASE\LIBPNG.PDB" /FR"build\libpng\Win32\Release\\" /Gd /TC /analyze- D:\POV-RAY\POV-RAY SOURCES\PLUSMINUS\POVRAY\LIBRARIES\PNG\PNGREAD.C
^D:\POV-RAY\POV-RAY SOURCES\PLUSMINUS\POVRAY\LIBRARIES\PNG\PNGRIO.C
/c /I.\ /I..\..\LIBRARIES\ZLIB /I..\..\..\SOURCE /Zi /nologo /W3 /WX- /O2 /Ob1 /Oy- /GL /D WIN32 /D WIN32_LEAN_AND_MEAN /D NDEBUG /D _WINDOWS /D _CRT_SECURE_NO_DEPRECATE /GF /Gm- /EHsc /MT /GS- /Gy- /fp:precise /Zc:wchar_t /Zc:forScope /Zc:inline /Fo"BUILD\LIBPNG\WIN32\RELEASE\\" /Fd"BUILD\LIBPNG\WIN32\RELEASE\LIBPNG.PDB" /FR"build\libpng\Win32\Release\\" /Gd /TC /analyze- D:\POV-RAY\POV-RAY SOURCES\PLUSMINUS\POVRAY\LIBRARIES\PNG\PNGRIO.C
^D:\POV-RAY\POV-RAY SOURCES\PLUSMINUS\POVRAY\LIBRARIES\PNG\PNGRTRAN.C
/c /I.\ /I..\..\LIBRARIES\ZLIB /I..\..\..\SOURCE /Zi /nologo /W3 /WX- /O2 /Ob1 /Oy- /GL /D WIN32 /D WIN32_LEAN_AND_MEAN /D NDEBUG /D _WINDOWS /D _CRT_SECURE_NO_DEPRECATE /GF /Gm- /EHsc /MT /GS- /Gy- /fp:precise /Zc:wchar_t /Zc:forScope /Zc:inline /Fo"BUILD\LIBPNG\WIN32\RELEASE\\" /Fd"BUILD\LIBPNG\WIN32\RELEASE\LIBPNG.PDB" /FR"build\libpng\Win32\Release\\" /Gd /TC /analyze- D:\POV-RAY\POV-RAY SOURCES\PLUSMINUS\POVRAY\LIBRARIES\PNG\PNGRTRAN.C
^D:\POV-RAY\POV-RAY SOURCES\PLUSMINUS\POVRAY\LIBRARIES\PNG\PNGRUTIL.C
/c /I.\ /I..\..\LIBRARIES\ZLIB /I..\..\..\SOURCE /Zi /nologo /W3 /WX- /O2 /Ob1 /Oy- /GL /D WIN32 /D WIN32_LEAN_AND_MEAN /D NDEBUG /D _WINDOWS /D _CRT_SECURE_NO_DEPRECATE /GF /Gm- /EHsc /MT /GS- /Gy- /fp:precise /Zc:wchar_t /Zc:forScope /Zc:inline /Fo"BUILD\LIBPNG\WIN32\RELEASE\\" /Fd"BUILD\LIBPNG\WIN32\RELEASE\LIBPNG.PDB" /FR"build\libpng\Win32\Release\\" /Gd /TC /analyze- D:\POV-RAY\POV-RAY SOURCES\PLUSMINUS\POVRAY\LIBRARIES\PNG\PNGRUTIL.C
^D:\POV-RAY\POV-RAY SOURCES\PLUSMINUS\POVRAY\LIBRARIES\PNG\PNGSET.C
/c /I.\ /I..\..\LIBRARIES\ZLIB /I..\..\..\SOURCE /Zi /nologo /W3 /WX- /O2 /Ob1 /Oy- /GL /D WIN32 /D WIN32_LEAN_AND_MEAN /D NDEBUG /D _WINDOWS /D _CRT_SECURE_NO_DEPRECATE /GF /Gm- /EHsc /MT /GS- /Gy- /fp:precise /Zc:wchar_t /Zc:forScope /Zc:inline /Fo"BUILD\LIBPNG\WIN32\RELEASE\\" /Fd"BUILD\LIBPNG\WIN32\RELEASE\LIBPNG.PDB" /FR"build\libpng\Win32\Release\\" /Gd /TC /analyze- D:\POV-RAY\POV-RAY SOURCES\PLUSMINUS\POVRAY\LIBRARIES\PNG\PNGSET.C
^D:\POV-RAY\POV-RAY SOURCES\PLUSMINUS\POVRAY\LIBRARIES\PNG\PNGTRANS.C
/c /I.\ /I..\..\LIBRARIES\ZLIB /I..\..\..\SOURCE /Zi /nologo /W3 /WX- /O2 /Ob1 /Oy- /GL /D WIN32 /D WIN32_LEAN_AND_MEAN /D NDEBUG /D _WINDOWS /D _CRT_SECURE_NO_DEPRECATE /GF /Gm- /EHsc /MT /GS- /Gy- /fp:precise /Zc:wchar_t /Zc:forScope /Zc:inline /Fo"BUILD\LIBPNG\WIN32\RELEASE\\" /Fd"BUILD\LIBPNG\WIN32\RELEASE\LIBPNG.PDB" /FR"build\libpng\Win32\Release\\" /Gd /TC /analyze- D:\POV-RAY\POV-RAY SOURCES\PLUSMINUS\POVRAY\LIBRARIES\PNG\PNGTRANS.C
^D:\POV-RAY\POV-RAY SOURCES\PLUSMINUS\POVRAY\LIBRARIES\PNG\PNGWIO.C
/c /I.\ /I..\..\LIBRARIES\ZLIB /I..\..\..\SOURCE /Zi /nologo /W3 /WX- /O2 /Ob1 /Oy- /GL /D WIN32 /D WIN32_LEAN_AND_MEAN /D NDEBUG /D _WINDOWS /D _CRT_SECURE_NO_DEPRECATE /GF /Gm- /EHsc /MT /GS- /Gy- /fp:precise /Zc:wchar_t /Zc:forScope /Zc:inline /Fo"BUILD\LIBPNG\WIN32\RELEASE\\" /Fd"BUILD\LIBPNG\WIN32\RELEASE\LIBPNG.PDB" /FR"build\libpng\Win32\Release\\" /Gd /TC /analyze- D:\POV-RAY\POV-RAY SOURCES\PLUSMINUS\POVRAY\LIBRARIES\PNG\PNGWIO.C
^D:\POV-RAY\POV-RAY SOURCES\PLUSMINUS\POVRAY\LIBRARIES\PNG\PNGWRITE.C
/c /I.\ /I..\..\LIBRARIES\ZLIB /I..\..\..\SOURCE /Zi /nologo /W3 /WX- /O2 /Ob1 /Oy- /GL /D WIN32 /D WIN32_LEAN_AND_MEAN /D NDEBUG /D _WINDOWS /D _CRT_SECURE_NO_DEPRECATE /GF /Gm- /EHsc /MT /GS- /Gy- /fp:precise /Zc:wchar_t /Zc:forScope /Zc:inline /Fo"BUILD\LIBPNG\WIN32\RELEASE\\" /Fd"BUILD\LIBPNG\WIN32\RELEASE\LIBPNG.PDB" /FR"build\libpng\Win32\Release\\" /Gd /TC /analyze- D:\POV-RAY\POV-RAY SOURCES\PLUSMINUS\POVRAY\LIBRARIES\PNG\PNGWRITE.C
^D:\POV-RAY\POV-RAY SOURCES\PLUSMINUS\POVRAY\LIBRARIES\PNG\PNGWTRAN.C
/c /I.\ /I..\..\LIBRARIES\ZLIB /I..\..\..\SOURCE /Zi /nologo /W3 /WX- /O2 /Ob1 /Oy- /GL /D WIN32 /D WIN32_LEAN_AND_MEAN /D NDEBUG /D _WINDOWS /D _CRT_SECURE_NO_DEPRECATE /GF /Gm- /EHsc /MT /GS- /Gy- /fp:precise /Zc:wchar_t /Zc:forScope /Zc:inline /Fo"BUILD\LIBPNG\WIN32\RELEASE\\" /Fd"BUILD\LIBPNG\WIN32\RELEASE\LIBPNG.PDB" /FR"build\libpng\Win32\Release\\" /Gd /TC /analyze- D:\POV-RAY\POV-RAY SOURCES\PLUSMINUS\POVRAY\LIBRARIES\PNG\PNGWTRAN.C
^D:\POV-RAY\POV-RAY SOURCES\PLUSMINUS\POVRAY\LIBRARIES\PNG\PNGWUTIL.C
/c /I.\ /I..\..\LIBRARIES\ZLIB /I..\..\..\SOURCE /Zi /nologo /W3 /WX- /O2 /Ob1 /Oy- /GL /D WIN32 /D WIN32_LEAN_AND_MEAN /D NDEBUG /D _WINDOWS /D _CRT_SECURE_NO_DEPRECATE /GF /Gm- /EHsc /MT /GS- /Gy- /fp:precise /Zc:wchar_t /Zc:forScope /Zc:inline /Fo"BUILD\LIBPNG\WIN32\RELEASE\\" /Fd"BUILD\LIBPNG\WIN32\RELEASE\LIBPNG.PDB" /FR"build\libpng\Win32\Release\\" /Gd /TC /analyze- D:\POV-RAY\POV-RAY SOURCES\PLUSMINUS\POVRAY\LIBRARIES\PNG\PNGWUTIL.C
