^C:\USERS\MATTHEW MCCOMB\DOCUMENTS\GITHUB\POVRAY\LIBRARIES\OPENEXR\ILMIMF\IMFACESFILE.CPP
C:\USERS\MATTHEW MCCOMB\DOCUMENTS\GITHUB\POVRAY\WINDOWS\VS2015\BUILD\OPENEXR ILMIMF\WIN32\RELEASE\OPENEXR ILMIMF.PDB
^C:\USERS\MATTHEW MCCOMB\DOCUMENTS\GITHUB\POVRAY\LIBRARIES\OPENEXR\ILMIMF\IMFATTRIBUTE.CPP
C:\USERS\MATTHEW MCCOMB\DOCUMENTS\GITHUB\POVRAY\WINDOWS\VS2015\BUILD\OPENEXR ILMIMF\WIN32\RELEASE\OPENEXR ILMIMF.PDB
^C:\USERS\MATTHEW MCCOMB\DOCUMENTS\GITHUB\POVRAY\LIBRARIES\OPENEXR\ILMIMF\IMFB44COMPRESSOR.CPP
C:\USERS\MATTHEW MCCOMB\DOCUMENTS\GITHUB\POVRAY\WINDOWS\VS2015\BUILD\OPENEXR ILMIMF\WIN32\RELEASE\OPENEXR ILMIMF.PDB
^C:\USERS\MATTHEW MCCOMB\DOCUMENTS\GITHUB\POVRAY\LIBRARIES\OPENEXR\ILMIMF\IMFBOXATTRIBUTE.CPP
C:\USERS\MATTHEW MCCOMB\DOCUMENTS\GITHUB\POVRAY\WINDOWS\VS2015\BUILD\OPENEXR ILMIMF\WIN32\RELEASE\OPENEXR ILMIMF.PDB
^C:\USERS\MATTHEW MCCOMB\DOCUMENTS\GITHUB\POVRAY\LIBRARIES\OPENEXR\ILMIMF\IMFCHANNELLIST.CPP
C:\USERS\MATTHEW MCCOMB\DOCUMENTS\GITHUB\POVRAY\WINDOWS\VS2015\BUILD\OPENEXR ILMIMF\WIN32\RELEASE\OPENEXR ILMIMF.PDB
^C:\USERS\MATTHEW MCCOMB\DOCUMENTS\GITHUB\POVRAY\LIBRARIES\OPENEXR\ILMIMF\IMFCHANNELLISTATTRIBUTE.CPP
C:\USERS\MATTHEW MCCOMB\DOCUMENTS\GITHUB\POVRAY\WINDOWS\VS2015\BUILD\OPENEXR ILMIMF\WIN32\RELEASE\OPENEXR ILMIMF.PDB
^C:\USERS\MATTHEW MCCOMB\DOCUMENTS\GITHUB\POVRAY\LIBRARIES\OPENEXR\ILMIMF\IMFCHROMATICITIES.CPP
C:\USERS\MATTHEW MCCOMB\DOCUMENTS\GITHUB\POVRAY\WINDOWS\VS2015\BUILD\OPENEXR ILMIMF\WIN32\RELEASE\OPENEXR ILMIMF.PDB
^C:\USERS\MATTHEW MCCOMB\DOCUMENTS\GITHUB\POVRAY\LIBRARIES\OPENEXR\ILMIMF\IMFCHROMATICITIESATTRIBUTE.CPP
C:\USERS\MATTHEW MCCOMB\DOCUMENTS\GITHUB\POVRAY\WINDOWS\VS2015\BUILD\OPENEXR ILMIMF\WIN32\RELEASE\OPENEXR ILMIMF.PDB
^C:\USERS\MATTHEW MCCOMB\DOCUMENTS\GITHUB\POVRAY\LIBRARIES\OPENEXR\ILMIMF\IMFCOMPOSITEDEEPSCANLINE.CPP
C:\USERS\MATTHEW MCCOMB\DOCUMENTS\GITHUB\POVRAY\WINDOWS\VS2015\BUILD\OPENEXR ILMIMF\WIN32\RELEASE\OPENEXR ILMIMF.PDB
^C:\USERS\MATTHEW MCCOMB\DOCUMENTS\GITHUB\POVRAY\LIBRARIES\OPENEXR\ILMIMF\IMFCOMPRESSIONATTRIBUTE.CPP
C:\USERS\MATTHEW MCCOMB\DOCUMENTS\GITHUB\POVRAY\WINDOWS\VS2015\BUILD\OPENEXR ILMIMF\WIN32\RELEASE\OPENEXR ILMIMF.PDB
^C:\USERS\MATTHEW MCCOMB\DOCUMENTS\GITHUB\POVRAY\LIBRARIES\OPENEXR\ILMIMF\IMFCOMPRESSOR.CPP
C:\USERS\MATTHEW MCCOMB\DOCUMENTS\GITHUB\POVRAY\WINDOWS\VS2015\BUILD\OPENEXR ILMIMF\WIN32\RELEASE\OPENEXR ILMIMF.PDB
^C:\USERS\MATTHEW MCCOMB\DOCUMENTS\GITHUB\POVRAY\LIBRARIES\OPENEXR\ILMIMF\IMFCONVERT.CPP
C:\USERS\MATTHEW MCCOMB\DOCUMENTS\GITHUB\POVRAY\WINDOWS\VS2015\BUILD\OPENEXR ILMIMF\WIN32\RELEASE\OPENEXR ILMIMF.PDB
^C:\USERS\MATTHEW MCCOMB\DOCUMENTS\GITHUB\POVRAY\LIBRARIES\OPENEXR\ILMIMF\IMFCRGBAFILE.CPP
C:\USERS\MATTHEW MCCOMB\DOCUMENTS\GITHUB\POVRAY\WINDOWS\VS2015\BUILD\OPENEXR ILMIMF\WIN32\RELEASE\OPENEXR ILMIMF.PDB
^C:\USERS\MATTHEW MCCOMB\DOCUMENTS\GITHUB\POVRAY\LIBRARIES\OPENEXR\ILMIMF\IMFDEEPCOMPOSITING.CPP
C:\USERS\MATTHEW MCCOMB\DOCUMENTS\GITHUB\POVRAY\WINDOWS\VS2015\BUILD\OPENEXR ILMIMF\WIN32\RELEASE\OPENEXR ILMIMF.PDB
^C:\USERS\MATTHEW MCCOMB\DOCUMENTS\GITHUB\POVRAY\LIBRARIES\OPENEXR\ILMIMF\IMFDEEPFRAMEBUFFER.CPP
C:\USERS\MATTHEW MCCOMB\DOCUMENTS\GITHUB\POVRAY\WINDOWS\VS2015\BUILD\OPENEXR ILMIMF\WIN32\RELEASE\OPENEXR ILMIMF.PDB
^C:\USERS\MATTHEW MCCOMB\DOCUMENTS\GITHUB\POVRAY\LIBRARIES\OPENEXR\ILMIMF\IMFDEEPIMAGESTATEATTRIBUTE.CPP
C:\USERS\MATTHEW MCCOMB\DOCUMENTS\GITHUB\POVRAY\WINDOWS\VS2015\BUILD\OPENEXR ILMIMF\WIN32\RELEASE\OPENEXR ILMIMF.PDB
^C:\USERS\MATTHEW MCCOMB\DOCUMENTS\GITHUB\POVRAY\LIBRARIES\OPENEXR\ILMIMF\IMFDEEPSCANLINEINPUTFILE.CPP
C:\USERS\MATTHEW MCCOMB\DOCUMENTS\GITHUB\POVRAY\WINDOWS\VS2015\BUILD\OPENEXR ILMIMF\WIN32\RELEASE\OPENEXR ILMIMF.PDB
^C:\USERS\MATTHEW MCCOMB\DOCUMENTS\GITHUB\POVRAY\LIBRARIES\OPENEXR\ILMIMF\IMFDEEPSCANLINEINPUTPART.CPP
C:\USERS\MATTHEW MCCOMB\DOCUMENTS\GITHUB\POVRAY\WINDOWS\VS2015\BUILD\OPENEXR ILMIMF\WIN32\RELEASE\OPENEXR ILMIMF.PDB
^C:\USERS\MATTHEW MCCOMB\DOCUMENTS\GITHUB\POVRAY\LIBRARIES\OPENEXR\ILMIMF\IMFDEEPSCANLINEOUTPUTFILE.CPP
C:\USERS\MATTHEW MCCOMB\DOCUMENTS\GITHUB\POVRAY\WINDOWS\VS2015\BUILD\OPENEXR ILMIMF\WIN32\RELEASE\OPENEXR ILMIMF.PDB
^C:\USERS\MATTHEW MCCOMB\DOCUMENTS\GITHUB\POVRAY\LIBRARIES\OPENEXR\ILMIMF\IMFDEEPSCANLINEOUTPUTPART.CPP
C:\USERS\MATTHEW MCCOMB\DOCUMENTS\GITHUB\POVRAY\WINDOWS\VS2015\BUILD\OPENEXR ILMIMF\WIN32\RELEASE\OPENEXR ILMIMF.PDB
^C:\USERS\MATTHEW MCCOMB\DOCUMENTS\GITHUB\POVRAY\LIBRARIES\OPENEXR\ILMIMF\IMFDEEPTILEDINPUTFILE.CPP
C:\USERS\MATTHEW MCCOMB\DOCUMENTS\GITHUB\POVRAY\WINDOWS\VS2015\BUILD\OPENEXR ILMIMF\WIN32\RELEASE\OPENEXR ILMIMF.PDB
^C:\USERS\MATTHEW MCCOMB\DOCUMENTS\GITHUB\POVRAY\LIBRARIES\OPENEXR\ILMIMF\IMFDEEPTILEDINPUTPART.CPP
C:\USERS\MATTHEW MCCOMB\DOCUMENTS\GITHUB\POVRAY\WINDOWS\VS2015\BUILD\OPENEXR ILMIMF\WIN32\RELEASE\OPENEXR ILMIMF.PDB
^C:\USERS\MATTHEW MCCOMB\DOCUMENTS\GITHUB\POVRAY\LIBRARIES\OPENEXR\ILMIMF\IMFDEEPTILEDOUTPUTFILE.CPP
C:\USERS\MATTHEW MCCOMB\DOCUMENTS\GITHUB\POVRAY\WINDOWS\VS2015\BUILD\OPENEXR ILMIMF\WIN32\RELEASE\OPENEXR ILMIMF.PDB
^C:\USERS\MATTHEW MCCOMB\DOCUMENTS\GITHUB\POVRAY\LIBRARIES\OPENEXR\ILMIMF\IMFDEEPTILEDOUTPUTPART.CPP
C:\USERS\MATTHEW MCCOMB\DOCUMENTS\GITHUB\POVRAY\WINDOWS\VS2015\BUILD\OPENEXR ILMIMF\WIN32\RELEASE\OPENEXR ILMIMF.PDB
^C:\USERS\MATTHEW MCCOMB\DOCUMENTS\GITHUB\POVRAY\LIBRARIES\OPENEXR\ILMIMF\IMFDOUBLEATTRIBUTE.CPP
C:\USERS\MATTHEW MCCOMB\DOCUMENTS\GITHUB\POVRAY\WINDOWS\VS2015\BUILD\OPENEXR ILMIMF\WIN32\RELEASE\OPENEXR ILMIMF.PDB
^C:\USERS\MATTHEW MCCOMB\DOCUMENTS\GITHUB\POVRAY\LIBRARIES\OPENEXR\ILMIMF\IMFDWACOMPRESSOR.CPP
C:\USERS\MATTHEW MCCOMB\DOCUMENTS\GITHUB\POVRAY\WINDOWS\VS2015\BUILD\OPENEXR ILMIMF\WIN32\RELEASE\OPENEXR ILMIMF.PDB
^C:\USERS\MATTHEW MCCOMB\DOCUMENTS\GITHUB\POVRAY\LIBRARIES\OPENEXR\ILMIMF\IMFENVMAP.CPP
C:\USERS\MATTHEW MCCOMB\DOCUMENTS\GITHUB\POVRAY\WINDOWS\VS2015\BUILD\OPENEXR ILMIMF\WIN32\RELEASE\OPENEXR ILMIMF.PDB
^C:\USERS\MATTHEW MCCOMB\DOCUMENTS\GITHUB\POVRAY\LIBRARIES\OPENEXR\ILMIMF\IMFENVMAPATTRIBUTE.CPP
C:\USERS\MATTHEW MCCOMB\DOCUMENTS\GITHUB\POVRAY\WINDOWS\VS2015\BUILD\OPENEXR ILMIMF\WIN32\RELEASE\OPENEXR ILMIMF.PDB
^C:\USERS\MATTHEW MCCOMB\DOCUMENTS\GITHUB\POVRAY\LIBRARIES\OPENEXR\ILMIMF\IMFFASTHUF.CPP
C:\USERS\MATTHEW MCCOMB\DOCUMENTS\GITHUB\POVRAY\WINDOWS\VS2015\BUILD\OPENEXR ILMIMF\WIN32\RELEASE\OPENEXR ILMIMF.PDB
^C:\USERS\MATTHEW MCCOMB\DOCUMENTS\GITHUB\POVRAY\LIBRARIES\OPENEXR\ILMIMF\IMFFLOATATTRIBUTE.CPP
C:\USERS\MATTHEW MCCOMB\DOCUMENTS\GITHUB\POVRAY\WINDOWS\VS2015\BUILD\OPENEXR ILMIMF\WIN32\RELEASE\OPENEXR ILMIMF.PDB
^C:\USERS\MATTHEW MCCOMB\DOCUMENTS\GITHUB\POVRAY\LIBRARIES\OPENEXR\ILMIMF\IMFFLOATVECTORATTRIBUTE.CPP
C:\USERS\MATTHEW MCCOMB\DOCUMENTS\GITHUB\POVRAY\WINDOWS\VS2015\BUILD\OPENEXR ILMIMF\WIN32\RELEASE\OPENEXR ILMIMF.PDB
^C:\USERS\MATTHEW MCCOMB\DOCUMENTS\GITHUB\POVRAY\LIBRARIES\OPENEXR\ILMIMF\IMFFRAMEBUFFER.CPP
C:\USERS\MATTHEW MCCOMB\DOCUMENTS\GITHUB\POVRAY\WINDOWS\VS2015\BUILD\OPENEXR ILMIMF\WIN32\RELEASE\OPENEXR ILMIMF.PDB
^C:\USERS\MATTHEW MCCOMB\DOCUMENTS\GITHUB\POVRAY\LIBRARIES\OPENEXR\ILMIMF\IMFFRAMESPERSECOND.CPP
C:\USERS\MATTHEW MCCOMB\DOCUMENTS\GITHUB\POVRAY\WINDOWS\VS2015\BUILD\OPENEXR ILMIMF\WIN32\RELEASE\OPENEXR ILMIMF.PDB
^C:\USERS\MATTHEW MCCOMB\DOCUMENTS\GITHUB\POVRAY\LIBRARIES\OPENEXR\ILMIMF\IMFGENERICINPUTFILE.CPP
C:\USERS\MATTHEW MCCOMB\DOCUMENTS\GITHUB\POVRAY\WINDOWS\VS2015\BUILD\OPENEXR ILMIMF\WIN32\RELEASE\OPENEXR ILMIMF.PDB
^C:\USERS\MATTHEW MCCOMB\DOCUMENTS\GITHUB\POVRAY\LIBRARIES\OPENEXR\ILMIMF\IMFGENERICOUTPUTFILE.CPP
C:\USERS\MATTHEW MCCOMB\DOCUMENTS\GITHUB\POVRAY\WINDOWS\VS2015\BUILD\OPENEXR ILMIMF\WIN32\RELEASE\OPENEXR ILMIMF.PDB
^C:\USERS\MATTHEW MCCOMB\DOCUMENTS\GITHUB\POVRAY\LIBRARIES\OPENEXR\ILMIMF\IMFHEADER.CPP
C:\USERS\MATTHEW MCCOMB\DOCUMENTS\GITHUB\POVRAY\WINDOWS\VS2015\BUILD\OPENEXR ILMIMF\WIN32\RELEASE\OPENEXR ILMIMF.PDB
^C:\USERS\MATTHEW MCCOMB\DOCUMENTS\GITHUB\POVRAY\LIBRARIES\OPENEXR\ILMIMF\IMFHUF.CPP
C:\USERS\MATTHEW MCCOMB\DOCUMENTS\GITHUB\POVRAY\WINDOWS\VS2015\BUILD\OPENEXR ILMIMF\WIN32\RELEASE\OPENEXR ILMIMF.PDB
^C:\USERS\MATTHEW MCCOMB\DOCUMENTS\GITHUB\POVRAY\LIBRARIES\OPENEXR\ILMIMF\IMFINPUTFILE.CPP
C:\USERS\MATTHEW MCCOMB\DOCUMENTS\GITHUB\POVRAY\WINDOWS\VS2015\BUILD\OPENEXR ILMIMF\WIN32\RELEASE\OPENEXR ILMIMF.PDB
^C:\USERS\MATTHEW MCCOMB\DOCUMENTS\GITHUB\POVRAY\LIBRARIES\OPENEXR\ILMIMF\IMFINPUTPART.CPP
C:\USERS\MATTHEW MCCOMB\DOCUMENTS\GITHUB\POVRAY\WINDOWS\VS2015\BUILD\OPENEXR ILMIMF\WIN32\RELEASE\OPENEXR ILMIMF.PDB
^C:\USERS\MATTHEW MCCOMB\DOCUMENTS\GITHUB\POVRAY\LIBRARIES\OPENEXR\ILMIMF\IMFINPUTPARTDATA.CPP
C:\USERS\MATTHEW MCCOMB\DOCUMENTS\GITHUB\POVRAY\WINDOWS\VS2015\BUILD\OPENEXR ILMIMF\WIN32\RELEASE\OPENEXR ILMIMF.PDB
^C:\USERS\MATTHEW MCCOMB\DOCUMENTS\GITHUB\POVRAY\LIBRARIES\OPENEXR\ILMIMF\IMFINTATTRIBUTE.CPP
C:\USERS\MATTHEW MCCOMB\DOCUMENTS\GITHUB\POVRAY\WINDOWS\VS2015\BUILD\OPENEXR ILMIMF\WIN32\RELEASE\OPENEXR ILMIMF.PDB
^C:\USERS\MATTHEW MCCOMB\DOCUMENTS\GITHUB\POVRAY\LIBRARIES\OPENEXR\ILMIMF\IMFIO.CPP
C:\USERS\MATTHEW MCCOMB\DOCUMENTS\GITHUB\POVRAY\WINDOWS\VS2015\BUILD\OPENEXR ILMIMF\WIN32\RELEASE\OPENEXR ILMIMF.PDB
^C:\USERS\MATTHEW MCCOMB\DOCUMENTS\GITHUB\POVRAY\LIBRARIES\OPENEXR\ILMIMF\IMFKEYCODE.CPP
C:\USERS\MATTHEW MCCOMB\DOCUMENTS\GITHUB\POVRAY\WINDOWS\VS2015\BUILD\OPENEXR ILMIMF\WIN32\RELEASE\OPENEXR ILMIMF.PDB
^C:\USERS\MATTHEW MCCOMB\DOCUMENTS\GITHUB\POVRAY\LIBRARIES\OPENEXR\ILMIMF\IMFKEYCODEATTRIBUTE.CPP
C:\USERS\MATTHEW MCCOMB\DOCUMENTS\GITHUB\POVRAY\WINDOWS\VS2015\BUILD\OPENEXR ILMIMF\WIN32\RELEASE\OPENEXR ILMIMF.PDB
^C:\USERS\MATTHEW MCCOMB\DOCUMENTS\GITHUB\POVRAY\LIBRARIES\OPENEXR\ILMIMF\IMFLINEORDERATTRIBUTE.CPP
C:\USERS\MATTHEW MCCOMB\DOCUMENTS\GITHUB\POVRAY\WINDOWS\VS2015\BUILD\OPENEXR ILMIMF\WIN32\RELEASE\OPENEXR ILMIMF.PDB
^C:\USERS\MATTHEW MCCOMB\DOCUMENTS\GITHUB\POVRAY\LIBRARIES\OPENEXR\ILMIMF\IMFLUT.CPP
C:\USERS\MATTHEW MCCOMB\DOCUMENTS\GITHUB\POVRAY\WINDOWS\VS2015\BUILD\OPENEXR ILMIMF\WIN32\RELEASE\OPENEXR ILMIMF.PDB
^C:\USERS\MATTHEW MCCOMB\DOCUMENTS\GITHUB\POVRAY\LIBRARIES\OPENEXR\ILMIMF\IMFMATRIXATTRIBUTE.CPP
C:\USERS\MATTHEW MCCOMB\DOCUMENTS\GITHUB\POVRAY\WINDOWS\VS2015\BUILD\OPENEXR ILMIMF\WIN32\RELEASE\OPENEXR ILMIMF.PDB
^C:\USERS\MATTHEW MCCOMB\DOCUMENTS\GITHUB\POVRAY\LIBRARIES\OPENEXR\ILMIMF\IMFMISC.CPP
C:\USERS\MATTHEW MCCOMB\DOCUMENTS\GITHUB\POVRAY\WINDOWS\VS2015\BUILD\OPENEXR ILMIMF\WIN32\RELEASE\OPENEXR ILMIMF.PDB
^C:\USERS\MATTHEW MCCOMB\DOCUMENTS\GITHUB\POVRAY\LIBRARIES\OPENEXR\ILMIMF\IMFMULTIPARTINPUTFILE.CPP
C:\USERS\MATTHEW MCCOMB\DOCUMENTS\GITHUB\POVRAY\WINDOWS\VS2015\BUILD\OPENEXR ILMIMF\WIN32\RELEASE\OPENEXR ILMIMF.PDB
^C:\USERS\MATTHEW MCCOMB\DOCUMENTS\GITHUB\POVRAY\LIBRARIES\OPENEXR\ILMIMF\IMFMULTIPARTOUTPUTFILE.CPP
C:\USERS\MATTHEW MCCOMB\DOCUMENTS\GITHUB\POVRAY\WINDOWS\VS2015\BUILD\OPENEXR ILMIMF\WIN32\RELEASE\OPENEXR ILMIMF.PDB
^C:\USERS\MATTHEW MCCOMB\DOCUMENTS\GITHUB\POVRAY\LIBRARIES\OPENEXR\ILMIMF\IMFMULTIVIEW.CPP
C:\USERS\MATTHEW MCCOMB\DOCUMENTS\GITHUB\POVRAY\WINDOWS\VS2015\BUILD\OPENEXR ILMIMF\WIN32\RELEASE\OPENEXR ILMIMF.PDB
^C:\USERS\MATTHEW MCCOMB\DOCUMENTS\GITHUB\POVRAY\LIBRARIES\OPENEXR\ILMIMF\IMFOPAQUEATTRIBUTE.CPP
C:\USERS\MATTHEW MCCOMB\DOCUMENTS\GITHUB\POVRAY\WINDOWS\VS2015\BUILD\OPENEXR ILMIMF\WIN32\RELEASE\OPENEXR ILMIMF.PDB
^C:\USERS\MATTHEW MCCOMB\DOCUMENTS\GITHUB\POVRAY\LIBRARIES\OPENEXR\ILMIMF\IMFOUTPUTFILE.CPP
C:\USERS\MATTHEW MCCOMB\DOCUMENTS\GITHUB\POVRAY\WINDOWS\VS2015\BUILD\OPENEXR ILMIMF\WIN32\RELEASE\OPENEXR ILMIMF.PDB
^C:\USERS\MATTHEW MCCOMB\DOCUMENTS\GITHUB\POVRAY\LIBRARIES\OPENEXR\ILMIMF\IMFOUTPUTPART.CPP
C:\USERS\MATTHEW MCCOMB\DOCUMENTS\GITHUB\POVRAY\WINDOWS\VS2015\BUILD\OPENEXR ILMIMF\WIN32\RELEASE\OPENEXR ILMIMF.PDB
^C:\USERS\MATTHEW MCCOMB\DOCUMENTS\GITHUB\POVRAY\LIBRARIES\OPENEXR\ILMIMF\IMFOUTPUTPARTDATA.CPP
C:\USERS\MATTHEW MCCOMB\DOCUMENTS\GITHUB\POVRAY\WINDOWS\VS2015\BUILD\OPENEXR ILMIMF\WIN32\RELEASE\OPENEXR ILMIMF.PDB
^C:\USERS\MATTHEW MCCOMB\DOCUMENTS\GITHUB\POVRAY\LIBRARIES\OPENEXR\ILMIMF\IMFPARTTYPE.CPP
C:\USERS\MATTHEW MCCOMB\DOCUMENTS\GITHUB\POVRAY\WINDOWS\VS2015\BUILD\OPENEXR ILMIMF\WIN32\RELEASE\OPENEXR ILMIMF.PDB
^C:\USERS\MATTHEW MCCOMB\DOCUMENTS\GITHUB\POVRAY\LIBRARIES\OPENEXR\ILMIMF\IMFPIZCOMPRESSOR.CPP
C:\USERS\MATTHEW MCCOMB\DOCUMENTS\GITHUB\POVRAY\WINDOWS\VS2015\BUILD\OPENEXR ILMIMF\WIN32\RELEASE\OPENEXR ILMIMF.PDB
^C:\USERS\MATTHEW MCCOMB\DOCUMENTS\GITHUB\POVRAY\LIBRARIES\OPENEXR\ILMIMF\IMFPREVIEWIMAGE.CPP
C:\USERS\MATTHEW MCCOMB\DOCUMENTS\GITHUB\POVRAY\WINDOWS\VS2015\BUILD\OPENEXR ILMIMF\WIN32\RELEASE\OPENEXR ILMIMF.PDB
^C:\USERS\MATTHEW MCCOMB\DOCUMENTS\GITHUB\POVRAY\LIBRARIES\OPENEXR\ILMIMF\IMFPREVIEWIMAGEATTRIBUTE.CPP
C:\USERS\MATTHEW MCCOMB\DOCUMENTS\GITHUB\POVRAY\WINDOWS\VS2015\BUILD\OPENEXR ILMIMF\WIN32\RELEASE\OPENEXR ILMIMF.PDB
^C:\USERS\MATTHEW MCCOMB\DOCUMENTS\GITHUB\POVRAY\LIBRARIES\OPENEXR\ILMIMF\IMFPXR24COMPRESSOR.CPP
C:\USERS\MATTHEW MCCOMB\DOCUMENTS\GITHUB\POVRAY\WINDOWS\VS2015\BUILD\OPENEXR ILMIMF\WIN32\RELEASE\OPENEXR ILMIMF.PDB
^C:\USERS\MATTHEW MCCOMB\DOCUMENTS\GITHUB\POVRAY\LIBRARIES\OPENEXR\ILMIMF\IMFRATIONAL.CPP
C:\USERS\MATTHEW MCCOMB\DOCUMENTS\GITHUB\POVRAY\WINDOWS\VS2015\BUILD\OPENEXR ILMIMF\WIN32\RELEASE\OPENEXR ILMIMF.PDB
^C:\USERS\MATTHEW MCCOMB\DOCUMENTS\GITHUB\POVRAY\LIBRARIES\OPENEXR\ILMIMF\IMFRATIONALATTRIBUTE.CPP
C:\USERS\MATTHEW MCCOMB\DOCUMENTS\GITHUB\POVRAY\WINDOWS\VS2015\BUILD\OPENEXR ILMIMF\WIN32\RELEASE\OPENEXR ILMIMF.PDB
^C:\USERS\MATTHEW MCCOMB\DOCUMENTS\GITHUB\POVRAY\LIBRARIES\OPENEXR\ILMIMF\IMFRGBAFILE.CPP
C:\USERS\MATTHEW MCCOMB\DOCUMENTS\GITHUB\POVRAY\WINDOWS\VS2015\BUILD\OPENEXR ILMIMF\WIN32\RELEASE\OPENEXR ILMIMF.PDB
^C:\USERS\MATTHEW MCCOMB\DOCUMENTS\GITHUB\POVRAY\LIBRARIES\OPENEXR\ILMIMF\IMFRGBAYCA.CPP
C:\USERS\MATTHEW MCCOMB\DOCUMENTS\GITHUB\POVRAY\WINDOWS\VS2015\BUILD\OPENEXR ILMIMF\WIN32\RELEASE\OPENEXR ILMIMF.PDB
^C:\USERS\MATTHEW MCCOMB\DOCUMENTS\GITHUB\POVRAY\LIBRARIES\OPENEXR\ILMIMF\IMFRLE.CPP
C:\USERS\MATTHEW MCCOMB\DOCUMENTS\GITHUB\POVRAY\WINDOWS\VS2015\BUILD\OPENEXR ILMIMF\WIN32\RELEASE\OPENEXR ILMIMF.PDB
^C:\USERS\MATTHEW MCCOMB\DOCUMENTS\GITHUB\POVRAY\LIBRARIES\OPENEXR\ILMIMF\IMFRLECOMPRESSOR.CPP
C:\USERS\MATTHEW MCCOMB\DOCUMENTS\GITHUB\POVRAY\WINDOWS\VS2015\BUILD\OPENEXR ILMIMF\WIN32\RELEASE\OPENEXR ILMIMF.PDB
^C:\USERS\MATTHEW MCCOMB\DOCUMENTS\GITHUB\POVRAY\LIBRARIES\OPENEXR\ILMIMF\IMFSCANLINEINPUTFILE.CPP
C:\USERS\MATTHEW MCCOMB\DOCUMENTS\GITHUB\POVRAY\WINDOWS\VS2015\BUILD\OPENEXR ILMIMF\WIN32\RELEASE\OPENEXR ILMIMF.PDB
^C:\USERS\MATTHEW MCCOMB\DOCUMENTS\GITHUB\POVRAY\LIBRARIES\OPENEXR\ILMIMF\IMFSTANDARDATTRIBUTES.CPP
C:\USERS\MATTHEW MCCOMB\DOCUMENTS\GITHUB\POVRAY\WINDOWS\VS2015\BUILD\OPENEXR ILMIMF\WIN32\RELEASE\OPENEXR ILMIMF.PDB
^C:\USERS\MATTHEW MCCOMB\DOCUMENTS\GITHUB\POVRAY\LIBRARIES\OPENEXR\ILMIMF\IMFSTDIO.CPP
C:\USERS\MATTHEW MCCOMB\DOCUMENTS\GITHUB\POVRAY\WINDOWS\VS2015\BUILD\OPENEXR ILMIMF\WIN32\RELEASE\OPENEXR ILMIMF.PDB
^C:\USERS\MATTHEW MCCOMB\DOCUMENTS\GITHUB\POVRAY\LIBRARIES\OPENEXR\ILMIMF\IMFSTRINGATTRIBUTE.CPP
C:\USERS\MATTHEW MCCOMB\DOCUMENTS\GITHUB\POVRAY\WINDOWS\VS2015\BUILD\OPENEXR ILMIMF\WIN32\RELEASE\OPENEXR ILMIMF.PDB
^C:\USERS\MATTHEW MCCOMB\DOCUMENTS\GITHUB\POVRAY\LIBRARIES\OPENEXR\ILMIMF\IMFSTRINGVECTORATTRIBUTE.CPP
C:\USERS\MATTHEW MCCOMB\DOCUMENTS\GITHUB\POVRAY\WINDOWS\VS2015\BUILD\OPENEXR ILMIMF\WIN32\RELEASE\OPENEXR ILMIMF.PDB
^C:\USERS\MATTHEW MCCOMB\DOCUMENTS\GITHUB\POVRAY\LIBRARIES\OPENEXR\ILMIMF\IMFSYSTEMSPECIFIC.CPP
C:\USERS\MATTHEW MCCOMB\DOCUMENTS\GITHUB\POVRAY\WINDOWS\VS2015\BUILD\OPENEXR ILMIMF\WIN32\RELEASE\OPENEXR ILMIMF.PDB
^C:\USERS\MATTHEW MCCOMB\DOCUMENTS\GITHUB\POVRAY\LIBRARIES\OPENEXR\ILMIMF\IMFTESTFILE.CPP
C:\USERS\MATTHEW MCCOMB\DOCUMENTS\GITHUB\POVRAY\WINDOWS\VS2015\BUILD\OPENEXR ILMIMF\WIN32\RELEASE\OPENEXR ILMIMF.PDB
^C:\USERS\MATTHEW MCCOMB\DOCUMENTS\GITHUB\POVRAY\LIBRARIES\OPENEXR\ILMIMF\IMFTHREADING.CPP
C:\USERS\MATTHEW MCCOMB\DOCUMENTS\GITHUB\POVRAY\WINDOWS\VS2015\BUILD\OPENEXR ILMIMF\WIN32\RELEASE\OPENEXR ILMIMF.PDB
^C:\USERS\MATTHEW MCCOMB\DOCUMENTS\GITHUB\POVRAY\LIBRARIES\OPENEXR\ILMIMF\IMFTILEDESCRIPTIONATTRIBUTE.CPP
C:\USERS\MATTHEW MCCOMB\DOCUMENTS\GITHUB\POVRAY\WINDOWS\VS2015\BUILD\OPENEXR ILMIMF\WIN32\RELEASE\OPENEXR ILMIMF.PDB
^C:\USERS\MATTHEW MCCOMB\DOCUMENTS\GITHUB\POVRAY\LIBRARIES\OPENEXR\ILMIMF\IMFTILEDINPUTFILE.CPP
C:\USERS\MATTHEW MCCOMB\DOCUMENTS\GITHUB\POVRAY\WINDOWS\VS2015\BUILD\OPENEXR ILMIMF\WIN32\RELEASE\OPENEXR ILMIMF.PDB
^C:\USERS\MATTHEW MCCOMB\DOCUMENTS\GITHUB\POVRAY\LIBRARIES\OPENEXR\ILMIMF\IMFTILEDINPUTPART.CPP
C:\USERS\MATTHEW MCCOMB\DOCUMENTS\GITHUB\POVRAY\WINDOWS\VS2015\BUILD\OPENEXR ILMIMF\WIN32\RELEASE\OPENEXR ILMIMF.PDB
^C:\USERS\MATTHEW MCCOMB\DOCUMENTS\GITHUB\POVRAY\LIBRARIES\OPENEXR\ILMIMF\IMFTILEDMISC.CPP
C:\USERS\MATTHEW MCCOMB\DOCUMENTS\GITHUB\POVRAY\WINDOWS\VS2015\BUILD\OPENEXR ILMIMF\WIN32\RELEASE\OPENEXR ILMIMF.PDB
^C:\USERS\MATTHEW MCCOMB\DOCUMENTS\GITHUB\POVRAY\LIBRARIES\OPENEXR\ILMIMF\IMFTILEDOUTPUTFILE.CPP
C:\USERS\MATTHEW MCCOMB\DOCUMENTS\GITHUB\POVRAY\WINDOWS\VS2015\BUILD\OPENEXR ILMIMF\WIN32\RELEASE\OPENEXR ILMIMF.PDB
^C:\USERS\MATTHEW MCCOMB\DOCUMENTS\GITHUB\POVRAY\LIBRARIES\OPENEXR\ILMIMF\IMFTILEDOUTPUTPART.CPP
C:\USERS\MATTHEW MCCOMB\DOCUMENTS\GITHUB\POVRAY\WINDOWS\VS2015\BUILD\OPENEXR ILMIMF\WIN32\RELEASE\OPENEXR ILMIMF.PDB
^C:\USERS\MATTHEW MCCOMB\DOCUMENTS\GITHUB\POVRAY\LIBRARIES\OPENEXR\ILMIMF\IMFTILEDRGBAFILE.CPP
C:\USERS\MATTHEW MCCOMB\DOCUMENTS\GITHUB\POVRAY\WINDOWS\VS2015\BUILD\OPENEXR ILMIMF\WIN32\RELEASE\OPENEXR ILMIMF.PDB
^C:\USERS\MATTHEW MCCOMB\DOCUMENTS\GITHUB\POVRAY\LIBRARIES\OPENEXR\ILMIMF\IMFTILEOFFSETS.CPP
C:\USERS\MATTHEW MCCOMB\DOCUMENTS\GITHUB\POVRAY\WINDOWS\VS2015\BUILD\OPENEXR ILMIMF\WIN32\RELEASE\OPENEXR ILMIMF.PDB
^C:\USERS\MATTHEW MCCOMB\DOCUMENTS\GITHUB\POVRAY\LIBRARIES\OPENEXR\ILMIMF\IMFTIMECODE.CPP
C:\USERS\MATTHEW MCCOMB\DOCUMENTS\GITHUB\POVRAY\WINDOWS\VS2015\BUILD\OPENEXR ILMIMF\WIN32\RELEASE\OPENEXR ILMIMF.PDB
^C:\USERS\MATTHEW MCCOMB\DOCUMENTS\GITHUB\POVRAY\LIBRARIES\OPENEXR\ILMIMF\IMFTIMECODEATTRIBUTE.CPP
C:\USERS\MATTHEW MCCOMB\DOCUMENTS\GITHUB\POVRAY\WINDOWS\VS2015\BUILD\OPENEXR ILMIMF\WIN32\RELEASE\OPENEXR ILMIMF.PDB
^C:\USERS\MATTHEW MCCOMB\DOCUMENTS\GITHUB\POVRAY\LIBRARIES\OPENEXR\ILMIMF\IMFVECATTRIBUTE.CPP
C:\USERS\MATTHEW MCCOMB\DOCUMENTS\GITHUB\POVRAY\WINDOWS\VS2015\BUILD\OPENEXR ILMIMF\WIN32\RELEASE\OPENEXR ILMIMF.PDB
^C:\USERS\MATTHEW MCCOMB\DOCUMENTS\GITHUB\POVRAY\LIBRARIES\OPENEXR\ILMIMF\IMFVERSION.CPP
C:\USERS\MATTHEW MCCOMB\DOCUMENTS\GITHUB\POVRAY\WINDOWS\VS2015\BUILD\OPENEXR ILMIMF\WIN32\RELEASE\OPENEXR ILMIMF.PDB
^C:\USERS\MATTHEW MCCOMB\DOCUMENTS\GITHUB\POVRAY\LIBRARIES\OPENEXR\ILMIMF\IMFWAV.CPP
C:\USERS\MATTHEW MCCOMB\DOCUMENTS\GITHUB\POVRAY\WINDOWS\VS2015\BUILD\OPENEXR ILMIMF\WIN32\RELEASE\OPENEXR ILMIMF.PDB
^C:\USERS\MATTHEW MCCOMB\DOCUMENTS\GITHUB\POVRAY\LIBRARIES\OPENEXR\ILMIMF\IMFZIP.CPP
C:\USERS\MATTHEW MCCOMB\DOCUMENTS\GITHUB\POVRAY\WINDOWS\VS2015\BUILD\OPENEXR ILMIMF\WIN32\RELEASE\OPENEXR ILMIMF.PDB
^C:\USERS\MATTHEW MCCOMB\DOCUMENTS\GITHUB\POVRAY\LIBRARIES\OPENEXR\ILMIMF\IMFZIPCOMPRESSOR.CPP
C:\USERS\MATTHEW MCCOMB\DOCUMENTS\GITHUB\POVRAY\WINDOWS\VS2015\BUILD\OPENEXR ILMIMF\WIN32\RELEASE\OPENEXR ILMIMF.PDB
^C:\USERS\MATTHEW MCCOMB\DOCUMENTS\GITHUB\POVRAY\LIBRARIES\OPENEXR\ILMIMF\IMFACESFILE.CPP|C:\USERS\MATTHEW MCCOMB\DOCUMENTS\GITHUB\POVRAY\LIBRARIES\OPENEXR\ILMIMF\IMFATTRIBUTE.CPP|C:\USERS\MATTHEW MCCOMB\DOCUMENTS\GITHUB\POVRAY\LIBRARIES\OPENEXR\ILMIMF\IMFB44COMPRESSOR.CPP|C:\USERS\MATTHEW MCCOMB\DOCUMENTS\GITHUB\POVRAY\LIBRARIES\OPENEXR\ILMIMF\IMFBOXATTRIBUTE.CPP|C:\USERS\MATTHEW MCCOMB\DOCUMENTS\GITHUB\POVRAY\LIBRARIES\OPENEXR\ILMIMF\IMFCHANNELLIST.CPP|C:\USERS\MATTHEW MCCOMB\DOCUMENTS\GITHUB\POVRAY\LIBRARIES\OPENEXR\ILMIMF\IMFCHANNELLISTATTRIBUTE.CPP|C:\USERS\MATTHEW MCCOMB\DOCUMENTS\GITHUB\POVRAY\LIBRARIES\OPENEXR\ILMIMF\IMFCHROMATICITIES.CPP|C:\USERS\MATTHEW MCCOMB\DOCUMENTS\GITHUB\POVRAY\LIBRARIES\OPENEXR\ILMIMF\IMFCHROMATICITIESATTRIBUTE.CPP|C:\USERS\MATTHEW MCCOMB\DOCUMENTS\GITHUB\POVRAY\LIBRARIES\OPENEXR\ILMIMF\IMFCOMPOSITEDEEPSCANLINE.CPP|C:\USERS\MATTHEW MCCOMB\DOCUMENTS\GITHUB\POVRAY\LIBRARIES\OPENEXR\ILMIMF\IMFCOMPRESSIONATTRIBUTE.CPP|C:\USERS\MATTHEW MCCOMB\DOCUMENTS\GITHUB\POVRAY\LIBRARIES\OPENEXR\ILMIMF\IMFCOMPRESSOR.CPP|C:\USERS\MATTHEW MCCOMB\DOCUMENTS\GITHUB\POVRAY\LIBRARIES\OPENEXR\ILMIMF\IMFCONVERT.CPP|C:\USERS\MATTHEW MCCOMB\DOCUMENTS\GITHUB\POVRAY\LIBRARIES\OPENEXR\ILMIMF\IMFCRGBAFILE.CPP|C:\USERS\MATTHEW MCCOMB\DOCUMENTS\GITHUB\POVRAY\LIBRARIES\OPENEXR\ILMIMF\IMFDEEPCOMPOSITING.CPP|C:\USERS\MATTHEW MCCOMB\DOCUMENTS\GITHUB\POVRAY\LIBRARIES\OPENEXR\ILMIMF\IMFDEEPFRAMEBUFFER.CPP|C:\USERS\MATTHEW MCCOMB\DOCUMENTS\GITHUB\POVRAY\LIBRARIES\OPENEXR\ILMIMF\IMFDEEPIMAGESTATEATTRIBUTE.CPP|C:\USERS\MATTHEW MCCOMB\DOCUMENTS\GITHUB\POVRAY\LIBRARIES\OPENEXR\ILMIMF\IMFDEEPSCANLINEINPUTFILE.CPP|C:\USERS\MATTHEW MCCOMB\DOCUMENTS\GITHUB\POVRAY\LIBRARIES\OPENEXR\ILMIMF\IMFDEEPSCANLINEINPUTPART.CPP|C:\USERS\MATTHEW MCCOMB\DOCUMENTS\GITHUB\POVRAY\LIBRARIES\OPENEXR\ILMIMF\IMFDEEPSCANLINEOUTPUTFILE.CPP|C:\USERS\MATTHEW MCCOMB\DOCUMENTS\GITHUB\POVRAY\LIBRARIES\OPENEXR\ILMIMF\IMFDEEPSCANLINEOUTPUTPART.CPP|C:\USERS\MATTHEW MCCOMB\DOCUMENTS\GITHUB\POVRAY\LIBRARIES\OPENEXR\ILMIMF\IMFDEEPTILEDINPUTFILE.CPP|C:\USERS\MATTHEW MCCOMB\DOCUMENTS\GITHUB\POVRAY\LIBRARIES\OPENEXR\ILMIMF\IMFDEEPTILEDINPUTPART.CPP|C:\USERS\MATTHEW MCCOMB\DOCUMENTS\GITHUB\POVRAY\LIBRARIES\OPENEXR\ILMIMF\IMFDEEPTILEDOUTPUTFILE.CPP|C:\USERS\MATTHEW MCCOMB\DOCUMENTS\GITHUB\POVRAY\LIBRARIES\OPENEXR\ILMIMF\IMFDEEPTILEDOUTPUTPART.CPP|C:\USERS\MATTHEW MCCOMB\DOCUMENTS\GITHUB\POVRAY\LIBRARIES\OPENEXR\ILMIMF\IMFDOUBLEATTRIBUTE.CPP|C:\USERS\MATTHEW MCCOMB\DOCUMENTS\GITHUB\POVRAY\LIBRARIES\OPENEXR\ILMIMF\IMFDWACOMPRESSOR.CPP|C:\USERS\MATTHEW MCCOMB\DOCUMENTS\GITHUB\POVRAY\LIBRARIES\OPENEXR\ILMIMF\IMFENVMAP.CPP|C:\USERS\MATTHEW MCCOMB\DOCUMENTS\GITHUB\POVRAY\LIBRARIES\OPENEXR\ILMIMF\IMFENVMAPATTRIBUTE.CPP|C:\USERS\MATTHEW MCCOMB\DOCUMENTS\GITHUB\POVRAY\LIBRARIES\OPENEXR\ILMIMF\IMFFASTHUF.CPP|C:\USERS\MATTHEW MCCOMB\DOCUMENTS\GITHUB\POVRAY\LIBRARIES\OPENEXR\ILMIMF\IMFFLOATATTRIBUTE.CPP|C:\USERS\MATTHEW MCCOMB\DOCUMENTS\GITHUB\POVRAY\LIBRARIES\OPENEXR\ILMIMF\IMFFLOATVECTORATTRIBUTE.CPP|C:\USERS\MATTHEW MCCOMB\DOCUMENTS\GITHUB\POVRAY\LIBRARIES\OPENEXR\ILMIMF\IMFFRAMEBUFFER.CPP|C:\USERS\MATTHEW MCCOMB\DOCUMENTS\GITHUB\POVRAY\LIBRARIES\OPENEXR\ILMIMF\IMFFRAMESPERSECOND.CPP|C:\USERS\MATTHEW MCCOMB\DOCUMENTS\GITHUB\POVRAY\LIBRARIES\OPENEXR\ILMIMF\IMFGENERICINPUTFILE.CPP|C:\USERS\MATTHEW MCCOMB\DOCUMENTS\GITHUB\POVRAY\LIBRARIES\OPENEXR\ILMIMF\IMFGENERICOUTPUTFILE.CPP|C:\USERS\MATTHEW MCCOMB\DOCUMENTS\GITHUB\POVRAY\LIBRARIES\OPENEXR\ILMIMF\IMFHEADER.CPP|C:\USERS\MATTHEW MCCOMB\DOCUMENTS\GITHUB\POVRAY\LIBRARIES\OPENEXR\ILMIMF\IMFHUF.CPP|C:\USERS\MATTHEW MCCOMB\DOCUMENTS\GITHUB\POVRAY\LIBRARIES\OPENEXR\ILMIMF\IMFINPUTFILE.CPP|C:\USERS\MATTHEW MCCOMB\DOCUMENTS\GITHUB\POVRAY\LIBRARIES\OPENEXR\ILMIMF\IMFINPUTPART.CPP|C:\USERS\MATTHEW MCCOMB\DOCUMENTS\GITHUB\POVRAY\LIBRARIES\OPENEXR\ILMIMF\IMFINPUTPARTDATA.CPP|C:\USERS\MATTHEW MCCOMB\DOCUMENTS\GITHUB\POVRAY\LIBRARIES\OPENEXR\ILMIMF\IMFINTATTRIBUTE.CPP|C:\USERS\MATTHEW MCCOMB\DOCUMENTS\GITHUB\POVRAY\LIBRARIES\OPENEXR\ILMIMF\IMFIO.CPP|C:\USERS\MATTHEW MCCOMB\DOCUMENTS\GITHUB\POVRAY\LIBRARIES\OPENEXR\ILMIMF\IMFKEYCODE.CPP|C:\USERS\MATTHEW MCCOMB\DOCUMENTS\GITHUB\POVRAY\LIBRARIES\OPENEXR\ILMIMF\IMFKEYCODEATTRIBUTE.CPP|C:\USERS\MATTHEW MCCOMB\DOCUMENTS\GITHUB\POVRAY\LIBRARIES\OPENEXR\ILMIMF\IMFLINEORDERATTRIBUTE.CPP|C:\USERS\MATTHEW MCCOMB\DOCUMENTS\GITHUB\POVRAY\LIBRARIES\OPENEXR\ILMIMF\IMFLUT.CPP|C:\USERS\MATTHEW MCCOMB\DOCUMENTS\GITHUB\POVRAY\LIBRARIES\OPENEXR\ILMIMF\IMFMATRIXATTRIBUTE.CPP|C:\USERS\MATTHEW MCCOMB\DOCUMENTS\GITHUB\POVRAY\LIBRARIES\OPENEXR\ILMIMF\IMFMISC.CPP|C:\USERS\MATTHEW MCCOMB\DOCUMENTS\GITHUB\POVRAY\LIBRARIES\OPENEXR\ILMIMF\IMFMULTIPARTINPUTFILE.CPP|C:\USERS\MATTHEW MCCOMB\DOCUMENTS\GITHUB\POVRAY\LIBRARIES\OPENEXR\ILMIMF\IMFMULTIPARTOUTPUTFILE.CPP|C:\USERS\MATTHEW MCCOMB\DOCUMENTS\GITHUB\POVRAY\LIBRARIES\OPENEXR\ILMIMF\IMFMULTIVIEW.CPP|C:\USERS\MATTHEW MCCOMB\DOCUMENTS\GITHUB\POVRAY\LIBRARIES\OPENEXR\ILMIMF\IMFOPAQUEATTRIBUTE.CPP|C:\USERS\MATTHEW MCCOMB\DOCUMENTS\GITHUB\POVRAY\LIBRARIES\OPENEXR\ILMIMF\IMFOUTPUTFILE.CPP|C:\USERS\MATTHEW MCCOMB\DOCUMENTS\GITHUB\POVRAY\LIBRARIES\OPENEXR\ILMIMF\IMFOUTPUTPART.CPP|C:\USERS\MATTHEW MCCOMB\DOCUMENTS\GITHUB\POVRAY\LIBRARIES\OPENEXR\ILMIMF\IMFOUTPUTPARTDATA.CPP|C:\USERS\MATTHEW MCCOMB\DOCUMENTS\GITHUB\POVRAY\LIBRARIES\OPENEXR\ILMIMF\IMFPARTTYPE.CPP|C:\USERS\MATTHEW MCCOMB\DOCUMENTS\GITHUB\POVRAY\LIBRARIES\OPENEXR\ILMIMF\IMFPIZCOMPRESSOR.CPP|C:\USERS\MATTHEW MCCOMB\DOCUMENTS\GITHUB\POVRAY\LIBRARIES\OPENEXR\ILMIMF\IMFPREVIEWIMAGE.CPP|C:\USERS\MATTHEW MCCOMB\DOCUMENTS\GITHUB\POVRAY\LIBRARIES\OPENEXR\ILMIMF\IMFPREVIEWIMAGEATTRIBUTE.CPP|C:\USERS\MATTHEW MCCOMB\DOCUMENTS\GITHUB\POVRAY\LIBRARIES\OPENEXR\ILMIMF\IMFPXR24COMPRESSOR.CPP|C:\USERS\MATTHEW MCCOMB\DOCUMENTS\GITHUB\POVRAY\LIBRARIES\OPENEXR\ILMIMF\IMFRATIONAL.CPP|C:\USERS\MATTHEW MCCOMB\DOCUMENTS\GITHUB\POVRAY\LIBRARIES\OPENEXR\ILMIMF\IMFRATIONALATTRIBUTE.CPP|C:\USERS\MATTHEW MCCOMB\DOCUMENTS\GITHUB\POVRAY\LIBRARIES\OPENEXR\ILMIMF\IMFRGBAFILE.CPP|C:\USERS\MATTHEW MCCOMB\DOCUMENTS\GITHUB\POVRAY\LIBRARIES\OPENEXR\ILMIMF\IMFRGBAYCA.CPP|C:\USERS\MATTHEW MCCOMB\DOCUMENTS\GITHUB\POVRAY\LIBRARIES\OPENEXR\ILMIMF\IMFRLE.CPP|C:\USERS\MATTHEW MCCOMB\DOCUMENTS\GITHUB\POVRAY\LIBRARIES\OPENEXR\ILMIMF\IMFRLECOMPRESSOR.CPP|C:\USERS\MATTHEW MCCOMB\DOCUMENTS\GITHUB\POVRAY\LIBRARIES\OPENEXR\ILMIMF\IMFSCANLINEINPUTFILE.CPP|C:\USERS\MATTHEW MCCOMB\DOCUMENTS\GITHUB\POVRAY\LIBRARIES\OPENEXR\ILMIMF\IMFSTANDARDATTRIBUTES.CPP|C:\USERS\MATTHEW MCCOMB\DOCUMENTS\GITHUB\POVRAY\LIBRARIES\OPENEXR\ILMIMF\IMFSTDIO.CPP|C:\USERS\MATTHEW MCCOMB\DOCUMENTS\GITHUB\POVRAY\LIBRARIES\OPENEXR\ILMIMF\IMFSTRINGATTRIBUTE.CPP|C:\USERS\MATTHEW MCCOMB\DOCUMENTS\GITHUB\POVRAY\LIBRARIES\OPENEXR\ILMIMF\IMFSTRINGVECTORATTRIBUTE.CPP|C:\USERS\MATTHEW MCCOMB\DOCUMENTS\GITHUB\POVRAY\LIBRARIES\OPENEXR\ILMIMF\IMFSYSTEMSPECIFIC.CPP|C:\USERS\MATTHEW MCCOMB\DOCUMENTS\GITHUB\POVRAY\LIBRARIES\OPENEXR\ILMIMF\IMFTESTFILE.CPP|C:\USERS\MATTHEW MCCOMB\DOCUMENTS\GITHUB\POVRAY\LIBRARIES\OPENEXR\ILMIMF\IMFTHREADING.CPP|C:\USERS\MATTHEW MCCOMB\DOCUMENTS\GITHUB\POVRAY\LIBRARIES\OPENEXR\ILMIMF\IMFTILEDESCRIPTIONATTRIBUTE.CPP|C:\USERS\MATTHEW MCCOMB\DOCUMENTS\GITHUB\POVRAY\LIBRARIES\OPENEXR\ILMIMF\IMFTILEDINPUTFILE.CPP|C:\USERS\MATTHEW MCCOMB\DOCUMENTS\GITHUB\POVRAY\LIBRARIES\OPENEXR\ILMIMF\IMFTILEDINPUTPART.CPP|C:\USERS\MATTHEW MCCOMB\DOCUMENTS\GITHUB\POVRAY\LIBRARIES\OPENEXR\ILMIMF\IMFTILEDMISC.CPP|C:\USERS\MATTHEW MCCOMB\DOCUMENTS\GITHUB\POVRAY\LIBRARIES\OPENEXR\ILMIMF\IMFTILEDOUTPUTFILE.CPP|C:\USERS\MATTHEW MCCOMB\DOCUMENTS\GITHUB\POVRAY\LIBRARIES\OPENEXR\ILMIMF\IMFTILEDOUTPUTPART.CPP|C:\USERS\MATTHEW MCCOMB\DOCUMENTS\GITHUB\POVRAY\LIBRARIES\OPENEXR\ILMIMF\IMFTILEDRGBAFILE.CPP|C:\USERS\MATTHEW MCCOMB\DOCUMENTS\GITHUB\POVRAY\LIBRARIES\OPENEXR\ILMIMF\IMFTILEOFFSETS.CPP|C:\USERS\MATTHEW MCCOMB\DOCUMENTS\GITHUB\POVRAY\LIBRARIES\OPENEXR\ILMIMF\IMFTIMECODE.CPP|C:\USERS\MATTHEW MCCOMB\DOCUMENTS\GITHUB\POVRAY\LIBRARIES\OPENEXR\ILMIMF\IMFTIMECODEATTRIBUTE.CPP|C:\USERS\MATTHEW MCCOMB\DOCUMENTS\GITHUB\POVRAY\LIBRARIES\OPENEXR\ILMIMF\IMFVECATTRIBUTE.CPP|C:\USERS\MATTHEW MCCOMB\DOCUMENTS\GITHUB\POVRAY\LIBRARIES\OPENEXR\ILMIMF\IMFVERSION.CPP|C:\USERS\MATTHEW MCCOMB\DOCUMENTS\GITHUB\POVRAY\LIBRARIES\OPENEXR\ILMIMF\IMFWAV.CPP|C:\USERS\MATTHEW MCCOMB\DOCUMENTS\GITHUB\POVRAY\LIBRARIES\OPENEXR\ILMIMF\IMFZIP.CPP|C:\USERS\MATTHEW MCCOMB\DOCUMENTS\GITHUB\POVRAY\LIBRARIES\OPENEXR\ILMIMF\IMFZIPCOMPRESSOR.CPP
C:\USERS\MATTHEW MCCOMB\DOCUMENTS\GITHUB\POVRAY\WINDOWS\VS2015\BUILD\OPENEXR ILMIMF\WIN32\RELEASE\OPENEXR ILMIMF.PDB
C:\USERS\MATTHEW MCCOMB\DOCUMENTS\GITHUB\POVRAY\WINDOWS\VS2015\BUILD\OPENEXR ILMIMF\WIN32\RELEASE\IMFACESFILE.SBR
C:\USERS\MATTHEW MCCOMB\DOCUMENTS\GITHUB\POVRAY\WINDOWS\VS2015\BUILD\OPENEXR ILMIMF\WIN32\RELEASE\IMFATTRIBUTE.SBR
C:\USERS\MATTHEW MCCOMB\DOCUMENTS\GITHUB\POVRAY\WINDOWS\VS2015\BUILD\OPENEXR ILMIMF\WIN32\RELEASE\IMFB44COMPRESSOR.SBR
C:\USERS\MATTHEW MCCOMB\DOCUMENTS\GITHUB\POVRAY\WINDOWS\VS2015\BUILD\OPENEXR ILMIMF\WIN32\RELEASE\IMFBOXATTRIBUTE.SBR
C:\USERS\MATTHEW MCCOMB\DOCUMENTS\GITHUB\POVRAY\WINDOWS\VS2015\BUILD\OPENEXR ILMIMF\WIN32\RELEASE\IMFCHANNELLIST.SBR
C:\USERS\MATTHEW MCCOMB\DOCUMENTS\GITHUB\POVRAY\WINDOWS\VS2015\BUILD\OPENEXR ILMIMF\WIN32\RELEASE\IMFCHANNELLISTATTRIBUTE.SBR
C:\USERS\MATTHEW MCCOMB\DOCUMENTS\GITHUB\POVRAY\WINDOWS\VS2015\BUILD\OPENEXR ILMIMF\WIN32\RELEASE\IMFCHROMATICITIES.SBR
C:\USERS\MATTHEW MCCOMB\DOCUMENTS\GITHUB\POVRAY\WINDOWS\VS2015\BUILD\OPENEXR ILMIMF\WIN32\RELEASE\IMFCHROMATICITIESATTRIBUTE.SBR
C:\USERS\MATTHEW MCCOMB\DOCUMENTS\GITHUB\POVRAY\WINDOWS\VS2015\BUILD\OPENEXR ILMIMF\WIN32\RELEASE\IMFCOMPOSITEDEEPSCANLINE.SBR
C:\USERS\MATTHEW MCCOMB\DOCUMENTS\GITHUB\POVRAY\WINDOWS\VS2015\BUILD\OPENEXR ILMIMF\WIN32\RELEASE\IMFCOMPRESSIONATTRIBUTE.SBR
C:\USERS\MATTHEW MCCOMB\DOCUMENTS\GITHUB\POVRAY\WINDOWS\VS2015\BUILD\OPENEXR ILMIMF\WIN32\RELEASE\IMFCOMPRESSOR.SBR
C:\USERS\MATTHEW MCCOMB\DOCUMENTS\GITHUB\POVRAY\WINDOWS\VS2015\BUILD\OPENEXR ILMIMF\WIN32\RELEASE\IMFCONVERT.SBR
C:\USERS\MATTHEW MCCOMB\DOCUMENTS\GITHUB\POVRAY\WINDOWS\VS2015\BUILD\OPENEXR ILMIMF\WIN32\RELEASE\IMFCRGBAFILE.SBR
C:\USERS\MATTHEW MCCOMB\DOCUMENTS\GITHUB\POVRAY\WINDOWS\VS2015\BUILD\OPENEXR ILMIMF\WIN32\RELEASE\IMFDEEPCOMPOSITING.SBR
C:\USERS\MATTHEW MCCOMB\DOCUMENTS\GITHUB\POVRAY\WINDOWS\VS2015\BUILD\OPENEXR ILMIMF\WIN32\RELEASE\IMFDEEPFRAMEBUFFER.SBR
C:\USERS\MATTHEW MCCOMB\DOCUMENTS\GITHUB\POVRAY\WINDOWS\VS2015\BUILD\OPENEXR ILMIMF\WIN32\RELEASE\IMFDEEPIMAGESTATEATTRIBUTE.SBR
C:\USERS\MATTHEW MCCOMB\DOCUMENTS\GITHUB\POVRAY\WINDOWS\VS2015\BUILD\OPENEXR ILMIMF\WIN32\RELEASE\IMFDEEPSCANLINEINPUTFILE.SBR
C:\USERS\MATTHEW MCCOMB\DOCUMENTS\GITHUB\POVRAY\WINDOWS\VS2015\BUILD\OPENEXR ILMIMF\WIN32\RELEASE\IMFDEEPSCANLINEINPUTPART.SBR
C:\USERS\MATTHEW MCCOMB\DOCUMENTS\GITHUB\POVRAY\WINDOWS\VS2015\BUILD\OPENEXR ILMIMF\WIN32\RELEASE\IMFDEEPSCANLINEOUTPUTFILE.SBR
C:\USERS\MATTHEW MCCOMB\DOCUMENTS\GITHUB\POVRAY\WINDOWS\VS2015\BUILD\OPENEXR ILMIMF\WIN32\RELEASE\IMFDEEPSCANLINEOUTPUTPART.SBR
C:\USERS\MATTHEW MCCOMB\DOCUMENTS\GITHUB\POVRAY\WINDOWS\VS2015\BUILD\OPENEXR ILMIMF\WIN32\RELEASE\IMFDEEPSCANLINEOUTPUTPART.OBJ
C:\USERS\MATTHEW MCCOMB\DOCUMENTS\GITHUB\POVRAY\WINDOWS\VS2015\BUILD\OPENEXR ILMIMF\WIN32\RELEASE\IMFDEEPSCANLINEOUTPUTFILE.OBJ
C:\USERS\MATTHEW MCCOMB\DOCUMENTS\GITHUB\POVRAY\WINDOWS\VS2015\BUILD\OPENEXR ILMIMF\WIN32\RELEASE\IMFDEEPSCANLINEINPUTPART.OBJ
C:\USERS\MATTHEW MCCOMB\DOCUMENTS\GITHUB\POVRAY\WINDOWS\VS2015\BUILD\OPENEXR ILMIMF\WIN32\RELEASE\IMFDEEPSCANLINEINPUTFILE.OBJ
C:\USERS\MATTHEW MCCOMB\DOCUMENTS\GITHUB\POVRAY\WINDOWS\VS2015\BUILD\OPENEXR ILMIMF\WIN32\RELEASE\IMFDEEPIMAGESTATEATTRIBUTE.OBJ
C:\USERS\MATTHEW MCCOMB\DOCUMENTS\GITHUB\POVRAY\WINDOWS\VS2015\BUILD\OPENEXR ILMIMF\WIN32\RELEASE\IMFDEEPFRAMEBUFFER.OBJ
C:\USERS\MATTHEW MCCOMB\DOCUMENTS\GITHUB\POVRAY\WINDOWS\VS2015\BUILD\OPENEXR ILMIMF\WIN32\RELEASE\IMFDEEPCOMPOSITING.OBJ
C:\USERS\MATTHEW MCCOMB\DOCUMENTS\GITHUB\POVRAY\WINDOWS\VS2015\BUILD\OPENEXR ILMIMF\WIN32\RELEASE\IMFCRGBAFILE.OBJ
C:\USERS\MATTHEW MCCOMB\DOCUMENTS\GITHUB\POVRAY\WINDOWS\VS2015\BUILD\OPENEXR ILMIMF\WIN32\RELEASE\IMFCONVERT.OBJ
C:\USERS\MATTHEW MCCOMB\DOCUMENTS\GITHUB\POVRAY\WINDOWS\VS2015\BUILD\OPENEXR ILMIMF\WIN32\RELEASE\IMFCOMPRESSOR.OBJ
C:\USERS\MATTHEW MCCOMB\DOCUMENTS\GITHUB\POVRAY\WINDOWS\VS2015\BUILD\OPENEXR ILMIMF\WIN32\RELEASE\IMFCOMPRESSIONATTRIBUTE.OBJ
C:\USERS\MATTHEW MCCOMB\DOCUMENTS\GITHUB\POVRAY\WINDOWS\VS2015\BUILD\OPENEXR ILMIMF\WIN32\RELEASE\IMFCOMPOSITEDEEPSCANLINE.OBJ
C:\USERS\MATTHEW MCCOMB\DOCUMENTS\GITHUB\POVRAY\WINDOWS\VS2015\BUILD\OPENEXR ILMIMF\WIN32\RELEASE\IMFCHROMATICITIESATTRIBUTE.OBJ
C:\USERS\MATTHEW MCCOMB\DOCUMENTS\GITHUB\POVRAY\WINDOWS\VS2015\BUILD\OPENEXR ILMIMF\WIN32\RELEASE\IMFCHROMATICITIES.OBJ
C:\USERS\MATTHEW MCCOMB\DOCUMENTS\GITHUB\POVRAY\WINDOWS\VS2015\BUILD\OPENEXR ILMIMF\WIN32\RELEASE\IMFCHANNELLISTATTRIBUTE.OBJ
C:\USERS\MATTHEW MCCOMB\DOCUMENTS\GITHUB\POVRAY\WINDOWS\VS2015\BUILD\OPENEXR ILMIMF\WIN32\RELEASE\IMFCHANNELLIST.OBJ
C:\USERS\MATTHEW MCCOMB\DOCUMENTS\GITHUB\POVRAY\WINDOWS\VS2015\BUILD\OPENEXR ILMIMF\WIN32\RELEASE\IMFBOXATTRIBUTE.OBJ
C:\USERS\MATTHEW MCCOMB\DOCUMENTS\GITHUB\POVRAY\WINDOWS\VS2015\BUILD\OPENEXR ILMIMF\WIN32\RELEASE\IMFB44COMPRESSOR.OBJ
C:\USERS\MATTHEW MCCOMB\DOCUMENTS\GITHUB\POVRAY\WINDOWS\VS2015\BUILD\OPENEXR ILMIMF\WIN32\RELEASE\IMFATTRIBUTE.OBJ
C:\USERS\MATTHEW MCCOMB\DOCUMENTS\GITHUB\POVRAY\WINDOWS\VS2015\BUILD\OPENEXR ILMIMF\WIN32\RELEASE\IMFACESFILE.OBJ
C:\USERS\MATTHEW MCCOMB\DOCUMENTS\GITHUB\POVRAY\WINDOWS\VS2015\BUILD\OPENEXR ILMIMF\WIN32\RELEASE\IMFDEEPTILEDINPUTFILE.SBR
C:\USERS\MATTHEW MCCOMB\DOCUMENTS\GITHUB\POVRAY\WINDOWS\VS2015\BUILD\OPENEXR ILMIMF\WIN32\RELEASE\IMFDEEPTILEDINPUTPART.SBR
C:\USERS\MATTHEW MCCOMB\DOCUMENTS\GITHUB\POVRAY\WINDOWS\VS2015\BUILD\OPENEXR ILMIMF\WIN32\RELEASE\IMFDEEPTILEDOUTPUTFILE.SBR
C:\USERS\MATTHEW MCCOMB\DOCUMENTS\GITHUB\POVRAY\WINDOWS\VS2015\BUILD\OPENEXR ILMIMF\WIN32\RELEASE\IMFDEEPTILEDOUTPUTPART.SBR
C:\USERS\MATTHEW MCCOMB\DOCUMENTS\GITHUB\POVRAY\WINDOWS\VS2015\BUILD\OPENEXR ILMIMF\WIN32\RELEASE\IMFDOUBLEATTRIBUTE.SBR
C:\USERS\MATTHEW MCCOMB\DOCUMENTS\GITHUB\POVRAY\WINDOWS\VS2015\BUILD\OPENEXR ILMIMF\WIN32\RELEASE\IMFDWACOMPRESSOR.SBR
C:\USERS\MATTHEW MCCOMB\DOCUMENTS\GITHUB\POVRAY\WINDOWS\VS2015\BUILD\OPENEXR ILMIMF\WIN32\RELEASE\IMFENVMAP.SBR
C:\USERS\MATTHEW MCCOMB\DOCUMENTS\GITHUB\POVRAY\WINDOWS\VS2015\BUILD\OPENEXR ILMIMF\WIN32\RELEASE\IMFENVMAPATTRIBUTE.SBR
C:\USERS\MATTHEW MCCOMB\DOCUMENTS\GITHUB\POVRAY\WINDOWS\VS2015\BUILD\OPENEXR ILMIMF\WIN32\RELEASE\IMFFASTHUF.SBR
C:\USERS\MATTHEW MCCOMB\DOCUMENTS\GITHUB\POVRAY\WINDOWS\VS2015\BUILD\OPENEXR ILMIMF\WIN32\RELEASE\IMFFLOATATTRIBUTE.SBR
C:\USERS\MATTHEW MCCOMB\DOCUMENTS\GITHUB\POVRAY\WINDOWS\VS2015\BUILD\OPENEXR ILMIMF\WIN32\RELEASE\IMFFLOATVECTORATTRIBUTE.SBR
C:\USERS\MATTHEW MCCOMB\DOCUMENTS\GITHUB\POVRAY\WINDOWS\VS2015\BUILD\OPENEXR ILMIMF\WIN32\RELEASE\IMFFRAMEBUFFER.SBR
C:\USERS\MATTHEW MCCOMB\DOCUMENTS\GITHUB\POVRAY\WINDOWS\VS2015\BUILD\OPENEXR ILMIMF\WIN32\RELEASE\IMFFRAMESPERSECOND.SBR
C:\USERS\MATTHEW MCCOMB\DOCUMENTS\GITHUB\POVRAY\WINDOWS\VS2015\BUILD\OPENEXR ILMIMF\WIN32\RELEASE\IMFGENERICINPUTFILE.SBR
C:\USERS\MATTHEW MCCOMB\DOCUMENTS\GITHUB\POVRAY\WINDOWS\VS2015\BUILD\OPENEXR ILMIMF\WIN32\RELEASE\IMFGENERICOUTPUTFILE.SBR
C:\USERS\MATTHEW MCCOMB\DOCUMENTS\GITHUB\POVRAY\WINDOWS\VS2015\BUILD\OPENEXR ILMIMF\WIN32\RELEASE\IMFHEADER.SBR
C:\USERS\MATTHEW MCCOMB\DOCUMENTS\GITHUB\POVRAY\WINDOWS\VS2015\BUILD\OPENEXR ILMIMF\WIN32\RELEASE\IMFHUF.SBR
C:\USERS\MATTHEW MCCOMB\DOCUMENTS\GITHUB\POVRAY\WINDOWS\VS2015\BUILD\OPENEXR ILMIMF\WIN32\RELEASE\IMFINPUTFILE.SBR
C:\USERS\MATTHEW MCCOMB\DOCUMENTS\GITHUB\POVRAY\WINDOWS\VS2015\BUILD\OPENEXR ILMIMF\WIN32\RELEASE\IMFINPUTPART.SBR
C:\USERS\MATTHEW MCCOMB\DOCUMENTS\GITHUB\POVRAY\WINDOWS\VS2015\BUILD\OPENEXR ILMIMF\WIN32\RELEASE\IMFINPUTPARTDATA.SBR
C:\USERS\MATTHEW MCCOMB\DOCUMENTS\GITHUB\POVRAY\WINDOWS\VS2015\BUILD\OPENEXR ILMIMF\WIN32\RELEASE\IMFINPUTPARTDATA.OBJ
C:\USERS\MATTHEW MCCOMB\DOCUMENTS\GITHUB\POVRAY\WINDOWS\VS2015\BUILD\OPENEXR ILMIMF\WIN32\RELEASE\IMFINPUTPART.OBJ
C:\USERS\MATTHEW MCCOMB\DOCUMENTS\GITHUB\POVRAY\WINDOWS\VS2015\BUILD\OPENEXR ILMIMF\WIN32\RELEASE\IMFINPUTFILE.OBJ
C:\USERS\MATTHEW MCCOMB\DOCUMENTS\GITHUB\POVRAY\WINDOWS\VS2015\BUILD\OPENEXR ILMIMF\WIN32\RELEASE\IMFHUF.OBJ
C:\USERS\MATTHEW MCCOMB\DOCUMENTS\GITHUB\POVRAY\WINDOWS\VS2015\BUILD\OPENEXR ILMIMF\WIN32\RELEASE\IMFHEADER.OBJ
C:\USERS\MATTHEW MCCOMB\DOCUMENTS\GITHUB\POVRAY\WINDOWS\VS2015\BUILD\OPENEXR ILMIMF\WIN32\RELEASE\IMFGENERICOUTPUTFILE.OBJ
C:\USERS\MATTHEW MCCOMB\DOCUMENTS\GITHUB\POVRAY\WINDOWS\VS2015\BUILD\OPENEXR ILMIMF\WIN32\RELEASE\IMFGENERICINPUTFILE.OBJ
C:\USERS\MATTHEW MCCOMB\DOCUMENTS\GITHUB\POVRAY\WINDOWS\VS2015\BUILD\OPENEXR ILMIMF\WIN32\RELEASE\IMFFRAMESPERSECOND.OBJ
C:\USERS\MATTHEW MCCOMB\DOCUMENTS\GITHUB\POVRAY\WINDOWS\VS2015\BUILD\OPENEXR ILMIMF\WIN32\RELEASE\IMFFRAMEBUFFER.OBJ
C:\USERS\MATTHEW MCCOMB\DOCUMENTS\GITHUB\POVRAY\WINDOWS\VS2015\BUILD\OPENEXR ILMIMF\WIN32\RELEASE\IMFFLOATVECTORATTRIBUTE.OBJ
C:\USERS\MATTHEW MCCOMB\DOCUMENTS\GITHUB\POVRAY\WINDOWS\VS2015\BUILD\OPENEXR ILMIMF\WIN32\RELEASE\IMFFLOATATTRIBUTE.OBJ
C:\USERS\MATTHEW MCCOMB\DOCUMENTS\GITHUB\POVRAY\WINDOWS\VS2015\BUILD\OPENEXR ILMIMF\WIN32\RELEASE\IMFFASTHUF.OBJ
C:\USERS\MATTHEW MCCOMB\DOCUMENTS\GITHUB\POVRAY\WINDOWS\VS2015\BUILD\OPENEXR ILMIMF\WIN32\RELEASE\IMFENVMAPATTRIBUTE.OBJ
C:\USERS\MATTHEW MCCOMB\DOCUMENTS\GITHUB\POVRAY\WINDOWS\VS2015\BUILD\OPENEXR ILMIMF\WIN32\RELEASE\IMFENVMAP.OBJ
C:\USERS\MATTHEW MCCOMB\DOCUMENTS\GITHUB\POVRAY\WINDOWS\VS2015\BUILD\OPENEXR ILMIMF\WIN32\RELEASE\IMFDWACOMPRESSOR.OBJ
C:\USERS\MATTHEW MCCOMB\DOCUMENTS\GITHUB\POVRAY\WINDOWS\VS2015\BUILD\OPENEXR ILMIMF\WIN32\RELEASE\IMFDOUBLEATTRIBUTE.OBJ
C:\USERS\MATTHEW MCCOMB\DOCUMENTS\GITHUB\POVRAY\WINDOWS\VS2015\BUILD\OPENEXR ILMIMF\WIN32\RELEASE\IMFDEEPTILEDOUTPUTPART.OBJ
C:\USERS\MATTHEW MCCOMB\DOCUMENTS\GITHUB\POVRAY\WINDOWS\VS2015\BUILD\OPENEXR ILMIMF\WIN32\RELEASE\IMFDEEPTILEDOUTPUTFILE.OBJ
C:\USERS\MATTHEW MCCOMB\DOCUMENTS\GITHUB\POVRAY\WINDOWS\VS2015\BUILD\OPENEXR ILMIMF\WIN32\RELEASE\IMFDEEPTILEDINPUTPART.OBJ
C:\USERS\MATTHEW MCCOMB\DOCUMENTS\GITHUB\POVRAY\WINDOWS\VS2015\BUILD\OPENEXR ILMIMF\WIN32\RELEASE\IMFDEEPTILEDINPUTFILE.OBJ
C:\USERS\MATTHEW MCCOMB\DOCUMENTS\GITHUB\POVRAY\WINDOWS\VS2015\BUILD\OPENEXR ILMIMF\WIN32\RELEASE\IMFINTATTRIBUTE.SBR
C:\USERS\MATTHEW MCCOMB\DOCUMENTS\GITHUB\POVRAY\WINDOWS\VS2015\BUILD\OPENEXR ILMIMF\WIN32\RELEASE\IMFIO.SBR
C:\USERS\MATTHEW MCCOMB\DOCUMENTS\GITHUB\POVRAY\WINDOWS\VS2015\BUILD\OPENEXR ILMIMF\WIN32\RELEASE\IMFKEYCODE.SBR
C:\USERS\MATTHEW MCCOMB\DOCUMENTS\GITHUB\POVRAY\WINDOWS\VS2015\BUILD\OPENEXR ILMIMF\WIN32\RELEASE\IMFKEYCODEATTRIBUTE.SBR
C:\USERS\MATTHEW MCCOMB\DOCUMENTS\GITHUB\POVRAY\WINDOWS\VS2015\BUILD\OPENEXR ILMIMF\WIN32\RELEASE\IMFLINEORDERATTRIBUTE.SBR
C:\USERS\MATTHEW MCCOMB\DOCUMENTS\GITHUB\POVRAY\WINDOWS\VS2015\BUILD\OPENEXR ILMIMF\WIN32\RELEASE\IMFLUT.SBR
C:\USERS\MATTHEW MCCOMB\DOCUMENTS\GITHUB\POVRAY\WINDOWS\VS2015\BUILD\OPENEXR ILMIMF\WIN32\RELEASE\IMFMATRIXATTRIBUTE.SBR
C:\USERS\MATTHEW MCCOMB\DOCUMENTS\GITHUB\POVRAY\WINDOWS\VS2015\BUILD\OPENEXR ILMIMF\WIN32\RELEASE\IMFMISC.SBR
C:\USERS\MATTHEW MCCOMB\DOCUMENTS\GITHUB\POVRAY\WINDOWS\VS2015\BUILD\OPENEXR ILMIMF\WIN32\RELEASE\IMFMULTIPARTINPUTFILE.SBR
C:\USERS\MATTHEW MCCOMB\DOCUMENTS\GITHUB\POVRAY\WINDOWS\VS2015\BUILD\OPENEXR ILMIMF\WIN32\RELEASE\IMFMULTIPARTOUTPUTFILE.SBR
C:\USERS\MATTHEW MCCOMB\DOCUMENTS\GITHUB\POVRAY\WINDOWS\VS2015\BUILD\OPENEXR ILMIMF\WIN32\RELEASE\IMFMULTIVIEW.SBR
C:\USERS\MATTHEW MCCOMB\DOCUMENTS\GITHUB\POVRAY\WINDOWS\VS2015\BUILD\OPENEXR ILMIMF\WIN32\RELEASE\IMFOPAQUEATTRIBUTE.SBR
C:\USERS\MATTHEW MCCOMB\DOCUMENTS\GITHUB\POVRAY\WINDOWS\VS2015\BUILD\OPENEXR ILMIMF\WIN32\RELEASE\IMFOUTPUTFILE.SBR
C:\USERS\MATTHEW MCCOMB\DOCUMENTS\GITHUB\POVRAY\WINDOWS\VS2015\BUILD\OPENEXR ILMIMF\WIN32\RELEASE\IMFOUTPUTPART.SBR
C:\USERS\MATTHEW MCCOMB\DOCUMENTS\GITHUB\POVRAY\WINDOWS\VS2015\BUILD\OPENEXR ILMIMF\WIN32\RELEASE\IMFOUTPUTPARTDATA.SBR
C:\USERS\MATTHEW MCCOMB\DOCUMENTS\GITHUB\POVRAY\WINDOWS\VS2015\BUILD\OPENEXR ILMIMF\WIN32\RELEASE\IMFPARTTYPE.SBR
C:\USERS\MATTHEW MCCOMB\DOCUMENTS\GITHUB\POVRAY\WINDOWS\VS2015\BUILD\OPENEXR ILMIMF\WIN32\RELEASE\IMFPIZCOMPRESSOR.SBR
C:\USERS\MATTHEW MCCOMB\DOCUMENTS\GITHUB\POVRAY\WINDOWS\VS2015\BUILD\OPENEXR ILMIMF\WIN32\RELEASE\IMFPREVIEWIMAGE.SBR
C:\USERS\MATTHEW MCCOMB\DOCUMENTS\GITHUB\POVRAY\WINDOWS\VS2015\BUILD\OPENEXR ILMIMF\WIN32\RELEASE\IMFPREVIEWIMAGEATTRIBUTE.SBR
C:\USERS\MATTHEW MCCOMB\DOCUMENTS\GITHUB\POVRAY\WINDOWS\VS2015\BUILD\OPENEXR ILMIMF\WIN32\RELEASE\IMFPXR24COMPRESSOR.SBR
C:\USERS\MATTHEW MCCOMB\DOCUMENTS\GITHUB\POVRAY\WINDOWS\VS2015\BUILD\OPENEXR ILMIMF\WIN32\RELEASE\IMFPXR24COMPRESSOR.OBJ
C:\USERS\MATTHEW MCCOMB\DOCUMENTS\GITHUB\POVRAY\WINDOWS\VS2015\BUILD\OPENEXR ILMIMF\WIN32\RELEASE\IMFPREVIEWIMAGEATTRIBUTE.OBJ
C:\USERS\MATTHEW MCCOMB\DOCUMENTS\GITHUB\POVRAY\WINDOWS\VS2015\BUILD\OPENEXR ILMIMF\WIN32\RELEASE\IMFPREVIEWIMAGE.OBJ
C:\USERS\MATTHEW MCCOMB\DOCUMENTS\GITHUB\POVRAY\WINDOWS\VS2015\BUILD\OPENEXR ILMIMF\WIN32\RELEASE\IMFPIZCOMPRESSOR.OBJ
C:\USERS\MATTHEW MCCOMB\DOCUMENTS\GITHUB\POVRAY\WINDOWS\VS2015\BUILD\OPENEXR ILMIMF\WIN32\RELEASE\IMFPARTTYPE.OBJ
C:\USERS\MATTHEW MCCOMB\DOCUMENTS\GITHUB\POVRAY\WINDOWS\VS2015\BUILD\OPENEXR ILMIMF\WIN32\RELEASE\IMFOUTPUTPARTDATA.OBJ
C:\USERS\MATTHEW MCCOMB\DOCUMENTS\GITHUB\POVRAY\WINDOWS\VS2015\BUILD\OPENEXR ILMIMF\WIN32\RELEASE\IMFOUTPUTPART.OBJ
C:\USERS\MATTHEW MCCOMB\DOCUMENTS\GITHUB\POVRAY\WINDOWS\VS2015\BUILD\OPENEXR ILMIMF\WIN32\RELEASE\IMFOUTPUTFILE.OBJ
C:\USERS\MATTHEW MCCOMB\DOCUMENTS\GITHUB\POVRAY\WINDOWS\VS2015\BUILD\OPENEXR ILMIMF\WIN32\RELEASE\IMFOPAQUEATTRIBUTE.OBJ
C:\USERS\MATTHEW MCCOMB\DOCUMENTS\GITHUB\POVRAY\WINDOWS\VS2015\BUILD\OPENEXR ILMIMF\WIN32\RELEASE\IMFMULTIVIEW.OBJ
C:\USERS\MATTHEW MCCOMB\DOCUMENTS\GITHUB\POVRAY\WINDOWS\VS2015\BUILD\OPENEXR ILMIMF\WIN32\RELEASE\IMFMULTIPARTOUTPUTFILE.OBJ
C:\USERS\MATTHEW MCCOMB\DOCUMENTS\GITHUB\POVRAY\WINDOWS\VS2015\BUILD\OPENEXR ILMIMF\WIN32\RELEASE\IMFMULTIPARTINPUTFILE.OBJ
C:\USERS\MATTHEW MCCOMB\DOCUMENTS\GITHUB\POVRAY\WINDOWS\VS2015\BUILD\OPENEXR ILMIMF\WIN32\RELEASE\IMFMISC.OBJ
C:\USERS\MATTHEW MCCOMB\DOCUMENTS\GITHUB\POVRAY\WINDOWS\VS2015\BUILD\OPENEXR ILMIMF\WIN32\RELEASE\IMFMATRIXATTRIBUTE.OBJ
C:\USERS\MATTHEW MCCOMB\DOCUMENTS\GITHUB\POVRAY\WINDOWS\VS2015\BUILD\OPENEXR ILMIMF\WIN32\RELEASE\IMFLUT.OBJ
C:\USERS\MATTHEW MCCOMB\DOCUMENTS\GITHUB\POVRAY\WINDOWS\VS2015\BUILD\OPENEXR ILMIMF\WIN32\RELEASE\IMFLINEORDERATTRIBUTE.OBJ
C:\USERS\MATTHEW MCCOMB\DOCUMENTS\GITHUB\POVRAY\WINDOWS\VS2015\BUILD\OPENEXR ILMIMF\WIN32\RELEASE\IMFKEYCODEATTRIBUTE.OBJ
C:\USERS\MATTHEW MCCOMB\DOCUMENTS\GITHUB\POVRAY\WINDOWS\VS2015\BUILD\OPENEXR ILMIMF\WIN32\RELEASE\IMFKEYCODE.OBJ
C:\USERS\MATTHEW MCCOMB\DOCUMENTS\GITHUB\POVRAY\WINDOWS\VS2015\BUILD\OPENEXR ILMIMF\WIN32\RELEASE\IMFIO.OBJ
C:\USERS\MATTHEW MCCOMB\DOCUMENTS\GITHUB\POVRAY\WINDOWS\VS2015\BUILD\OPENEXR ILMIMF\WIN32\RELEASE\IMFINTATTRIBUTE.OBJ
C:\USERS\MATTHEW MCCOMB\DOCUMENTS\GITHUB\POVRAY\WINDOWS\VS2015\BUILD\OPENEXR ILMIMF\WIN32\RELEASE\IMFRATIONAL.SBR
C:\USERS\MATTHEW MCCOMB\DOCUMENTS\GITHUB\POVRAY\WINDOWS\VS2015\BUILD\OPENEXR ILMIMF\WIN32\RELEASE\IMFRATIONALATTRIBUTE.SBR
C:\USERS\MATTHEW MCCOMB\DOCUMENTS\GITHUB\POVRAY\WINDOWS\VS2015\BUILD\OPENEXR ILMIMF\WIN32\RELEASE\IMFRGBAFILE.SBR
C:\USERS\MATTHEW MCCOMB\DOCUMENTS\GITHUB\POVRAY\WINDOWS\VS2015\BUILD\OPENEXR ILMIMF\WIN32\RELEASE\IMFRGBAYCA.SBR
C:\USERS\MATTHEW MCCOMB\DOCUMENTS\GITHUB\POVRAY\WINDOWS\VS2015\BUILD\OPENEXR ILMIMF\WIN32\RELEASE\IMFRLE.SBR
C:\USERS\MATTHEW MCCOMB\DOCUMENTS\GITHUB\POVRAY\WINDOWS\VS2015\BUILD\OPENEXR ILMIMF\WIN32\RELEASE\IMFRLECOMPRESSOR.SBR
C:\USERS\MATTHEW MCCOMB\DOCUMENTS\GITHUB\POVRAY\WINDOWS\VS2015\BUILD\OPENEXR ILMIMF\WIN32\RELEASE\IMFSCANLINEINPUTFILE.SBR
C:\USERS\MATTHEW MCCOMB\DOCUMENTS\GITHUB\POVRAY\WINDOWS\VS2015\BUILD\OPENEXR ILMIMF\WIN32\RELEASE\IMFSTANDARDATTRIBUTES.SBR
C:\USERS\MATTHEW MCCOMB\DOCUMENTS\GITHUB\POVRAY\WINDOWS\VS2015\BUILD\OPENEXR ILMIMF\WIN32\RELEASE\IMFSTDIO.SBR
C:\USERS\MATTHEW MCCOMB\DOCUMENTS\GITHUB\POVRAY\WINDOWS\VS2015\BUILD\OPENEXR ILMIMF\WIN32\RELEASE\IMFSTRINGATTRIBUTE.SBR
C:\USERS\MATTHEW MCCOMB\DOCUMENTS\GITHUB\POVRAY\WINDOWS\VS2015\BUILD\OPENEXR ILMIMF\WIN32\RELEASE\IMFSTRINGVECTORATTRIBUTE.SBR
C:\USERS\MATTHEW MCCOMB\DOCUMENTS\GITHUB\POVRAY\WINDOWS\VS2015\BUILD\OPENEXR ILMIMF\WIN32\RELEASE\IMFSYSTEMSPECIFIC.SBR
C:\USERS\MATTHEW MCCOMB\DOCUMENTS\GITHUB\POVRAY\WINDOWS\VS2015\BUILD\OPENEXR ILMIMF\WIN32\RELEASE\IMFTESTFILE.SBR
C:\USERS\MATTHEW MCCOMB\DOCUMENTS\GITHUB\POVRAY\WINDOWS\VS2015\BUILD\OPENEXR ILMIMF\WIN32\RELEASE\IMFTHREADING.SBR
C:\USERS\MATTHEW MCCOMB\DOCUMENTS\GITHUB\POVRAY\WINDOWS\VS2015\BUILD\OPENEXR ILMIMF\WIN32\RELEASE\IMFTILEDESCRIPTIONATTRIBUTE.SBR
C:\USERS\MATTHEW MCCOMB\DOCUMENTS\GITHUB\POVRAY\WINDOWS\VS2015\BUILD\OPENEXR ILMIMF\WIN32\RELEASE\IMFTILEDINPUTFILE.SBR
C:\USERS\MATTHEW MCCOMB\DOCUMENTS\GITHUB\POVRAY\WINDOWS\VS2015\BUILD\OPENEXR ILMIMF\WIN32\RELEASE\IMFTILEDINPUTPART.SBR
C:\USERS\MATTHEW MCCOMB\DOCUMENTS\GITHUB\POVRAY\WINDOWS\VS2015\BUILD\OPENEXR ILMIMF\WIN32\RELEASE\IMFTILEDMISC.SBR
C:\USERS\MATTHEW MCCOMB\DOCUMENTS\GITHUB\POVRAY\WINDOWS\VS2015\BUILD\OPENEXR ILMIMF\WIN32\RELEASE\IMFTILEDOUTPUTFILE.SBR
C:\USERS\MATTHEW MCCOMB\DOCUMENTS\GITHUB\POVRAY\WINDOWS\VS2015\BUILD\OPENEXR ILMIMF\WIN32\RELEASE\IMFTILEDOUTPUTPART.SBR
C:\USERS\MATTHEW MCCOMB\DOCUMENTS\GITHUB\POVRAY\WINDOWS\VS2015\BUILD\OPENEXR ILMIMF\WIN32\RELEASE\IMFTILEDOUTPUTPART.OBJ
C:\USERS\MATTHEW MCCOMB\DOCUMENTS\GITHUB\POVRAY\WINDOWS\VS2015\BUILD\OPENEXR ILMIMF\WIN32\RELEASE\IMFTILEDOUTPUTFILE.OBJ
C:\USERS\MATTHEW MCCOMB\DOCUMENTS\GITHUB\POVRAY\WINDOWS\VS2015\BUILD\OPENEXR ILMIMF\WIN32\RELEASE\IMFTILEDMISC.OBJ
C:\USERS\MATTHEW MCCOMB\DOCUMENTS\GITHUB\POVRAY\WINDOWS\VS2015\BUILD\OPENEXR ILMIMF\WIN32\RELEASE\IMFTILEDINPUTPART.OBJ
C:\USERS\MATTHEW MCCOMB\DOCUMENTS\GITHUB\POVRAY\WINDOWS\VS2015\BUILD\OPENEXR ILMIMF\WIN32\RELEASE\IMFTILEDINPUTFILE.OBJ
C:\USERS\MATTHEW MCCOMB\DOCUMENTS\GITHUB\POVRAY\WINDOWS\VS2015\BUILD\OPENEXR ILMIMF\WIN32\RELEASE\IMFTILEDESCRIPTIONATTRIBUTE.OBJ
C:\USERS\MATTHEW MCCOMB\DOCUMENTS\GITHUB\POVRAY\WINDOWS\VS2015\BUILD\OPENEXR ILMIMF\WIN32\RELEASE\IMFTHREADING.OBJ
C:\USERS\MATTHEW MCCOMB\DOCUMENTS\GITHUB\POVRAY\WINDOWS\VS2015\BUILD\OPENEXR ILMIMF\WIN32\RELEASE\IMFTESTFILE.OBJ
C:\USERS\MATTHEW MCCOMB\DOCUMENTS\GITHUB\POVRAY\WINDOWS\VS2015\BUILD\OPENEXR ILMIMF\WIN32\RELEASE\IMFSYSTEMSPECIFIC.OBJ
C:\USERS\MATTHEW MCCOMB\DOCUMENTS\GITHUB\POVRAY\WINDOWS\VS2015\BUILD\OPENEXR ILMIMF\WIN32\RELEASE\IMFSTRINGVECTORATTRIBUTE.OBJ
C:\USERS\MATTHEW MCCOMB\DOCUMENTS\GITHUB\POVRAY\WINDOWS\VS2015\BUILD\OPENEXR ILMIMF\WIN32\RELEASE\IMFSTRINGATTRIBUTE.OBJ
C:\USERS\MATTHEW MCCOMB\DOCUMENTS\GITHUB\POVRAY\WINDOWS\VS2015\BUILD\OPENEXR ILMIMF\WIN32\RELEASE\IMFSTDIO.OBJ
C:\USERS\MATTHEW MCCOMB\DOCUMENTS\GITHUB\POVRAY\WINDOWS\VS2015\BUILD\OPENEXR ILMIMF\WIN32\RELEASE\IMFSTANDARDATTRIBUTES.OBJ
C:\USERS\MATTHEW MCCOMB\DOCUMENTS\GITHUB\POVRAY\WINDOWS\VS2015\BUILD\OPENEXR ILMIMF\WIN32\RELEASE\IMFSCANLINEINPUTFILE.OBJ
C:\USERS\MATTHEW MCCOMB\DOCUMENTS\GITHUB\POVRAY\WINDOWS\VS2015\BUILD\OPENEXR ILMIMF\WIN32\RELEASE\IMFRLECOMPRESSOR.OBJ
C:\USERS\MATTHEW MCCOMB\DOCUMENTS\GITHUB\POVRAY\WINDOWS\VS2015\BUILD\OPENEXR ILMIMF\WIN32\RELEASE\IMFRLE.OBJ
C:\USERS\MATTHEW MCCOMB\DOCUMENTS\GITHUB\POVRAY\WINDOWS\VS2015\BUILD\OPENEXR ILMIMF\WIN32\RELEASE\IMFRGBAYCA.OBJ
C:\USERS\MATTHEW MCCOMB\DOCUMENTS\GITHUB\POVRAY\WINDOWS\VS2015\BUILD\OPENEXR ILMIMF\WIN32\RELEASE\IMFRGBAFILE.OBJ
C:\USERS\MATTHEW MCCOMB\DOCUMENTS\GITHUB\POVRAY\WINDOWS\VS2015\BUILD\OPENEXR ILMIMF\WIN32\RELEASE\IMFRATIONALATTRIBUTE.OBJ
C:\USERS\MATTHEW MCCOMB\DOCUMENTS\GITHUB\POVRAY\WINDOWS\VS2015\BUILD\OPENEXR ILMIMF\WIN32\RELEASE\IMFRATIONAL.OBJ
C:\USERS\MATTHEW MCCOMB\DOCUMENTS\GITHUB\POVRAY\WINDOWS\VS2015\BUILD\OPENEXR ILMIMF\WIN32\RELEASE\IMFTILEDRGBAFILE.SBR
C:\USERS\MATTHEW MCCOMB\DOCUMENTS\GITHUB\POVRAY\WINDOWS\VS2015\BUILD\OPENEXR ILMIMF\WIN32\RELEASE\IMFTILEOFFSETS.SBR
C:\USERS\MATTHEW MCCOMB\DOCUMENTS\GITHUB\POVRAY\WINDOWS\VS2015\BUILD\OPENEXR ILMIMF\WIN32\RELEASE\IMFTIMECODE.SBR
C:\USERS\MATTHEW MCCOMB\DOCUMENTS\GITHUB\POVRAY\WINDOWS\VS2015\BUILD\OPENEXR ILMIMF\WIN32\RELEASE\IMFTIMECODEATTRIBUTE.SBR
C:\USERS\MATTHEW MCCOMB\DOCUMENTS\GITHUB\POVRAY\WINDOWS\VS2015\BUILD\OPENEXR ILMIMF\WIN32\RELEASE\IMFVECATTRIBUTE.SBR
C:\USERS\MATTHEW MCCOMB\DOCUMENTS\GITHUB\POVRAY\WINDOWS\VS2015\BUILD\OPENEXR ILMIMF\WIN32\RELEASE\IMFVERSION.SBR
C:\USERS\MATTHEW MCCOMB\DOCUMENTS\GITHUB\POVRAY\WINDOWS\VS2015\BUILD\OPENEXR ILMIMF\WIN32\RELEASE\IMFWAV.SBR
C:\USERS\MATTHEW MCCOMB\DOCUMENTS\GITHUB\POVRAY\WINDOWS\VS2015\BUILD\OPENEXR ILMIMF\WIN32\RELEASE\IMFZIP.SBR
C:\USERS\MATTHEW MCCOMB\DOCUMENTS\GITHUB\POVRAY\WINDOWS\VS2015\BUILD\OPENEXR ILMIMF\WIN32\RELEASE\IMFZIPCOMPRESSOR.SBR
C:\USERS\MATTHEW MCCOMB\DOCUMENTS\GITHUB\POVRAY\WINDOWS\VS2015\BUILD\OPENEXR ILMIMF\WIN32\RELEASE\IMFZIPCOMPRESSOR.OBJ
C:\USERS\MATTHEW MCCOMB\DOCUMENTS\GITHUB\POVRAY\WINDOWS\VS2015\BUILD\OPENEXR ILMIMF\WIN32\RELEASE\IMFZIP.OBJ
C:\USERS\MATTHEW MCCOMB\DOCUMENTS\GITHUB\POVRAY\WINDOWS\VS2015\BUILD\OPENEXR ILMIMF\WIN32\RELEASE\IMFWAV.OBJ
C:\USERS\MATTHEW MCCOMB\DOCUMENTS\GITHUB\POVRAY\WINDOWS\VS2015\BUILD\OPENEXR ILMIMF\WIN32\RELEASE\IMFVERSION.OBJ
C:\USERS\MATTHEW MCCOMB\DOCUMENTS\GITHUB\POVRAY\WINDOWS\VS2015\BUILD\OPENEXR ILMIMF\WIN32\RELEASE\IMFVECATTRIBUTE.OBJ
C:\USERS\MATTHEW MCCOMB\DOCUMENTS\GITHUB\POVRAY\WINDOWS\VS2015\BUILD\OPENEXR ILMIMF\WIN32\RELEASE\IMFTIMECODEATTRIBUTE.OBJ
C:\USERS\MATTHEW MCCOMB\DOCUMENTS\GITHUB\POVRAY\WINDOWS\VS2015\BUILD\OPENEXR ILMIMF\WIN32\RELEASE\IMFTIMECODE.OBJ
C:\USERS\MATTHEW MCCOMB\DOCUMENTS\GITHUB\POVRAY\WINDOWS\VS2015\BUILD\OPENEXR ILMIMF\WIN32\RELEASE\IMFTILEOFFSETS.OBJ
C:\USERS\MATTHEW MCCOMB\DOCUMENTS\GITHUB\POVRAY\WINDOWS\VS2015\BUILD\OPENEXR ILMIMF\WIN32\RELEASE\IMFTILEDRGBAFILE.OBJ
^D:\POV-RAY\POV-RAY SOURCES\MIDDLE\POVRAY\LIBRARIES\OPENEXR\ILMIMF\IMFACESFILE.CPP|D:\POV-RAY\POV-RAY SOURCES\MIDDLE\POVRAY\LIBRARIES\OPENEXR\ILMIMF\IMFATTRIBUTE.CPP|D:\POV-RAY\POV-RAY SOURCES\MIDDLE\POVRAY\LIBRARIES\OPENEXR\ILMIMF\IMFB44COMPRESSOR.CPP|D:\POV-RAY\POV-RAY SOURCES\MIDDLE\POVRAY\LIBRARIES\OPENEXR\ILMIMF\IMFBOXATTRIBUTE.CPP|D:\POV-RAY\POV-RAY SOURCES\MIDDLE\POVRAY\LIBRARIES\OPENEXR\ILMIMF\IMFCHANNELLIST.CPP|D:\POV-RAY\POV-RAY SOURCES\MIDDLE\POVRAY\LIBRARIES\OPENEXR\ILMIMF\IMFCHANNELLISTATTRIBUTE.CPP|D:\POV-RAY\POV-RAY SOURCES\MIDDLE\POVRAY\LIBRARIES\OPENEXR\ILMIMF\IMFCHROMATICITIES.CPP|D:\POV-RAY\POV-RAY SOURCES\MIDDLE\POVRAY\LIBRARIES\OPENEXR\ILMIMF\IMFCHROMATICITIESATTRIBUTE.CPP|D:\POV-RAY\POV-RAY SOURCES\MIDDLE\POVRAY\LIBRARIES\OPENEXR\ILMIMF\IMFCOMPOSITEDEEPSCANLINE.CPP|D:\POV-RAY\POV-RAY SOURCES\MIDDLE\POVRAY\LIBRARIES\OPENEXR\ILMIMF\IMFCOMPRESSIONATTRIBUTE.CPP|D:\POV-RAY\POV-RAY SOURCES\MIDDLE\POVRAY\LIBRARIES\OPENEXR\ILMIMF\IMFCOMPRESSOR.CPP|D:\POV-RAY\POV-RAY SOURCES\MIDDLE\POVRAY\LIBRARIES\OPENEXR\ILMIMF\IMFCONVERT.CPP|D:\POV-RAY\POV-RAY SOURCES\MIDDLE\POVRAY\LIBRARIES\OPENEXR\ILMIMF\IMFCRGBAFILE.CPP|D:\POV-RAY\POV-RAY SOURCES\MIDDLE\POVRAY\LIBRARIES\OPENEXR\ILMIMF\IMFDEEPCOMPOSITING.CPP|D:\POV-RAY\POV-RAY SOURCES\MIDDLE\POVRAY\LIBRARIES\OPENEXR\ILMIMF\IMFDEEPFRAMEBUFFER.CPP|D:\POV-RAY\POV-RAY SOURCES\MIDDLE\POVRAY\LIBRARIES\OPENEXR\ILMIMF\IMFDEEPIMAGESTATEATTRIBUTE.CPP|D:\POV-RAY\POV-RAY SOURCES\MIDDLE\POVRAY\LIBRARIES\OPENEXR\ILMIMF\IMFDEEPSCANLINEINPUTFILE.CPP|D:\POV-RAY\POV-RAY SOURCES\MIDDLE\POVRAY\LIBRARIES\OPENEXR\ILMIMF\IMFDEEPSCANLINEINPUTPART.CPP|D:\POV-RAY\POV-RAY SOURCES\MIDDLE\POVRAY\LIBRARIES\OPENEXR\ILMIMF\IMFDEEPSCANLINEOUTPUTFILE.CPP|D:\POV-RAY\POV-RAY SOURCES\MIDDLE\POVRAY\LIBRARIES\OPENEXR\ILMIMF\IMFDEEPSCANLINEOUTPUTPART.CPP|D:\POV-RAY\POV-RAY SOURCES\MIDDLE\POVRAY\LIBRARIES\OPENEXR\ILMIMF\IMFDEEPTILEDINPUTFILE.CPP|D:\POV-RAY\POV-RAY SOURCES\MIDDLE\POVRAY\LIBRARIES\OPENEXR\ILMIMF\IMFDEEPTILEDINPUTPART.CPP|D:\POV-RAY\POV-RAY SOURCES\MIDDLE\POVRAY\LIBRARIES\OPENEXR\ILMIMF\IMFDEEPTILEDOUTPUTFILE.CPP|D:\POV-RAY\POV-RAY SOURCES\MIDDLE\POVRAY\LIBRARIES\OPENEXR\ILMIMF\IMFDEEPTILEDOUTPUTPART.CPP|D:\POV-RAY\POV-RAY SOURCES\MIDDLE\POVRAY\LIBRARIES\OPENEXR\ILMIMF\IMFDOUBLEATTRIBUTE.CPP|D:\POV-RAY\POV-RAY SOURCES\MIDDLE\POVRAY\LIBRARIES\OPENEXR\ILMIMF\IMFDWACOMPRESSOR.CPP|D:\POV-RAY\POV-RAY SOURCES\MIDDLE\POVRAY\LIBRARIES\OPENEXR\ILMIMF\IMFENVMAP.CPP|D:\POV-RAY\POV-RAY SOURCES\MIDDLE\POVRAY\LIBRARIES\OPENEXR\ILMIMF\IMFENVMAPATTRIBUTE.CPP|D:\POV-RAY\POV-RAY SOURCES\MIDDLE\POVRAY\LIBRARIES\OPENEXR\ILMIMF\IMFFASTHUF.CPP|D:\POV-RAY\POV-RAY SOURCES\MIDDLE\POVRAY\LIBRARIES\OPENEXR\ILMIMF\IMFFLOATATTRIBUTE.CPP|D:\POV-RAY\POV-RAY SOURCES\MIDDLE\POVRAY\LIBRARIES\OPENEXR\ILMIMF\IMFFLOATVECTORATTRIBUTE.CPP|D:\POV-RAY\POV-RAY SOURCES\MIDDLE\POVRAY\LIBRARIES\OPENEXR\ILMIMF\IMFFRAMEBUFFER.CPP|D:\POV-RAY\POV-RAY SOURCES\MIDDLE\POVRAY\LIBRARIES\OPENEXR\ILMIMF\IMFFRAMESPERSECOND.CPP|D:\POV-RAY\POV-RAY SOURCES\MIDDLE\POVRAY\LIBRARIES\OPENEXR\ILMIMF\IMFGENERICINPUTFILE.CPP|D:\POV-RAY\POV-RAY SOURCES\MIDDLE\POVRAY\LIBRARIES\OPENEXR\ILMIMF\IMFGENERICOUTPUTFILE.CPP|D:\POV-RAY\POV-RAY SOURCES\MIDDLE\POVRAY\LIBRARIES\OPENEXR\ILMIMF\IMFHEADER.CPP|D:\POV-RAY\POV-RAY SOURCES\MIDDLE\POVRAY\LIBRARIES\OPENEXR\ILMIMF\IMFHUF.CPP|D:\POV-RAY\POV-RAY SOURCES\MIDDLE\POVRAY\LIBRARIES\OPENEXR\ILMIMF\IMFINPUTFILE.CPP|D:\POV-RAY\POV-RAY SOURCES\MIDDLE\POVRAY\LIBRARIES\OPENEXR\ILMIMF\IMFINPUTPART.CPP|D:\POV-RAY\POV-RAY SOURCES\MIDDLE\POVRAY\LIBRARIES\OPENEXR\ILMIMF\IMFINPUTPARTDATA.CPP|D:\POV-RAY\POV-RAY SOURCES\MIDDLE\POVRAY\LIBRARIES\OPENEXR\ILMIMF\IMFINTATTRIBUTE.CPP|D:\POV-RAY\POV-RAY SOURCES\MIDDLE\POVRAY\LIBRARIES\OPENEXR\ILMIMF\IMFIO.CPP|D:\POV-RAY\POV-RAY SOURCES\MIDDLE\POVRAY\LIBRARIES\OPENEXR\ILMIMF\IMFKEYCODE.CPP|D:\POV-RAY\POV-RAY SOURCES\MIDDLE\POVRAY\LIBRARIES\OPENEXR\ILMIMF\IMFKEYCODEATTRIBUTE.CPP|D:\POV-RAY\POV-RAY SOURCES\MIDDLE\POVRAY\LIBRARIES\OPENEXR\ILMIMF\IMFLINEORDERATTRIBUTE.CPP|D:\POV-RAY\POV-RAY SOURCES\MIDDLE\POVRAY\LIBRARIES\OPENEXR\ILMIMF\IMFLUT.CPP|D:\POV-RAY\POV-RAY SOURCES\MIDDLE\POVRAY\LIBRARIES\OPENEXR\ILMIMF\IMFMATRIXATTRIBUTE.CPP|D:\POV-RAY\POV-RAY SOURCES\MIDDLE\POVRAY\LIBRARIES\OPENEXR\ILMIMF\IMFMISC.CPP|D:\POV-RAY\POV-RAY SOURCES\MIDDLE\POVRAY\LIBRARIES\OPENEXR\ILMIMF\IMFMULTIPARTINPUTFILE.CPP|D:\POV-RAY\POV-RAY SOURCES\MIDDLE\POVRAY\LIBRARIES\OPENEXR\ILMIMF\IMFMULTIPARTOUTPUTFILE.CPP|D:\POV-RAY\POV-RAY SOURCES\MIDDLE\POVRAY\LIBRARIES\OPENEXR\ILMIMF\IMFMULTIVIEW.CPP|D:\POV-RAY\POV-RAY SOURCES\MIDDLE\POVRAY\LIBRARIES\OPENEXR\ILMIMF\IMFOPAQUEATTRIBUTE.CPP|D:\POV-RAY\POV-RAY SOURCES\MIDDLE\POVRAY\LIBRARIES\OPENEXR\ILMIMF\IMFOUTPUTFILE.CPP|D:\POV-RAY\POV-RAY SOURCES\MIDDLE\POVRAY\LIBRARIES\OPENEXR\ILMIMF\IMFOUTPUTPART.CPP|D:\POV-RAY\POV-RAY SOURCES\MIDDLE\POVRAY\LIBRARIES\OPENEXR\ILMIMF\IMFOUTPUTPARTDATA.CPP|D:\POV-RAY\POV-RAY SOURCES\MIDDLE\POVRAY\LIBRARIES\OPENEXR\ILMIMF\IMFPARTTYPE.CPP|D:\POV-RAY\POV-RAY SOURCES\MIDDLE\POVRAY\LIBRARIES\OPENEXR\ILMIMF\IMFPIZCOMPRESSOR.CPP|D:\POV-RAY\POV-RAY SOURCES\MIDDLE\POVRAY\LIBRARIES\OPENEXR\ILMIMF\IMFPREVIEWIMAGE.CPP|D:\POV-RAY\POV-RAY SOURCES\MIDDLE\POVRAY\LIBRARIES\OPENEXR\ILMIMF\IMFPREVIEWIMAGEATTRIBUTE.CPP|D:\POV-RAY\POV-RAY SOURCES\MIDDLE\POVRAY\LIBRARIES\OPENEXR\ILMIMF\IMFPXR24COMPRESSOR.CPP|D:\POV-RAY\POV-RAY SOURCES\MIDDLE\POVRAY\LIBRARIES\OPENEXR\ILMIMF\IMFRATIONAL.CPP|D:\POV-RAY\POV-RAY SOURCES\MIDDLE\POVRAY\LIBRARIES\OPENEXR\ILMIMF\IMFRATIONALATTRIBUTE.CPP|D:\POV-RAY\POV-RAY SOURCES\MIDDLE\POVRAY\LIBRARIES\OPENEXR\ILMIMF\IMFRGBAFILE.CPP|D:\POV-RAY\POV-RAY SOURCES\MIDDLE\POVRAY\LIBRARIES\OPENEXR\ILMIMF\IMFRGBAYCA.CPP|D:\POV-RAY\POV-RAY SOURCES\MIDDLE\POVRAY\LIBRARIES\OPENEXR\ILMIMF\IMFRLE.CPP|D:\POV-RAY\POV-RAY SOURCES\MIDDLE\POVRAY\LIBRARIES\OPENEXR\ILMIMF\IMFRLECOMPRESSOR.CPP|D:\POV-RAY\POV-RAY SOURCES\MIDDLE\POVRAY\LIBRARIES\OPENEXR\ILMIMF\IMFSCANLINEINPUTFILE.CPP|D:\POV-RAY\POV-RAY SOURCES\MIDDLE\POVRAY\LIBRARIES\OPENEXR\ILMIMF\IMFSTANDARDATTRIBUTES.CPP|D:\POV-RAY\POV-RAY SOURCES\MIDDLE\POVRAY\LIBRARIES\OPENEXR\ILMIMF\IMFSTDIO.CPP|D:\POV-RAY\POV-RAY SOURCES\MIDDLE\POVRAY\LIBRARIES\OPENEXR\ILMIMF\IMFSTRINGATTRIBUTE.CPP|D:\POV-RAY\POV-RAY SOURCES\MIDDLE\POVRAY\LIBRARIES\OPENEXR\ILMIMF\IMFSTRINGVECTORATTRIBUTE.CPP|D:\POV-RAY\POV-RAY SOURCES\MIDDLE\POVRAY\LIBRARIES\OPENEXR\ILMIMF\IMFSYSTEMSPECIFIC.CPP|D:\POV-RAY\POV-RAY SOURCES\MIDDLE\POVRAY\LIBRARIES\OPENEXR\ILMIMF\IMFTESTFILE.CPP|D:\POV-RAY\POV-RAY SOURCES\MIDDLE\POVRAY\LIBRARIES\OPENEXR\ILMIMF\IMFTHREADING.CPP|D:\POV-RAY\POV-RAY SOURCES\MIDDLE\POVRAY\LIBRARIES\OPENEXR\ILMIMF\IMFTILEDESCRIPTIONATTRIBUTE.CPP|D:\POV-RAY\POV-RAY SOURCES\MIDDLE\POVRAY\LIBRARIES\OPENEXR\ILMIMF\IMFTILEDINPUTFILE.CPP|D:\POV-RAY\POV-RAY SOURCES\MIDDLE\POVRAY\LIBRARIES\OPENEXR\ILMIMF\IMFTILEDINPUTPART.CPP|D:\POV-RAY\POV-RAY SOURCES\MIDDLE\POVRAY\LIBRARIES\OPENEXR\ILMIMF\IMFTILEDMISC.CPP|D:\POV-RAY\POV-RAY SOURCES\MIDDLE\POVRAY\LIBRARIES\OPENEXR\ILMIMF\IMFTILEDOUTPUTFILE.CPP|D:\POV-RAY\POV-RAY SOURCES\MIDDLE\POVRAY\LIBRARIES\OPENEXR\ILMIMF\IMFTILEDOUTPUTPART.CPP|D:\POV-RAY\POV-RAY SOURCES\MIDDLE\POVRAY\LIBRARIES\OPENEXR\ILMIMF\IMFTILEDRGBAFILE.CPP|D:\POV-RAY\POV-RAY SOURCES\MIDDLE\POVRAY\LIBRARIES\OPENEXR\ILMIMF\IMFTILEOFFSETS.CPP|D:\POV-RAY\POV-RAY SOURCES\MIDDLE\POVRAY\LIBRARIES\OPENEXR\ILMIMF\IMFTIMECODE.CPP|D:\POV-RAY\POV-RAY SOURCES\MIDDLE\POVRAY\LIBRARIES\OPENEXR\ILMIMF\IMFTIMECODEATTRIBUTE.CPP|D:\POV-RAY\POV-RAY SOURCES\MIDDLE\POVRAY\LIBRARIES\OPENEXR\ILMIMF\IMFVECATTRIBUTE.CPP|D:\POV-RAY\POV-RAY SOURCES\MIDDLE\POVRAY\LIBRARIES\OPENEXR\ILMIMF\IMFVERSION.CPP|D:\POV-RAY\POV-RAY SOURCES\MIDDLE\POVRAY\LIBRARIES\OPENEXR\ILMIMF\IMFWAV.CPP|D:\POV-RAY\POV-RAY SOURCES\MIDDLE\POVRAY\LIBRARIES\OPENEXR\ILMIMF\IMFZIP.CPP|D:\POV-RAY\POV-RAY SOURCES\MIDDLE\POVRAY\LIBRARIES\OPENEXR\ILMIMF\IMFZIPCOMPRESSOR.CPP
D:\POV-RAY\POV-RAY SOURCES\MIDDLE\POVRAY\WINDOWS\VS2015\BUILD\OPENEXR ILMIMF\WIN32\RELEASE\OPENEXR ILMIMF.PDB
D:\POV-RAY\POV-RAY SOURCES\MIDDLE\POVRAY\WINDOWS\VS2015\BUILD\OPENEXR ILMIMF\WIN32\RELEASE\IMFACESFILE.SBR
D:\POV-RAY\POV-RAY SOURCES\MIDDLE\POVRAY\WINDOWS\VS2015\BUILD\OPENEXR ILMIMF\WIN32\RELEASE\IMFATTRIBUTE.SBR
D:\POV-RAY\POV-RAY SOURCES\MIDDLE\POVRAY\WINDOWS\VS2015\BUILD\OPENEXR ILMIMF\WIN32\RELEASE\IMFB44COMPRESSOR.SBR
D:\POV-RAY\POV-RAY SOURCES\MIDDLE\POVRAY\WINDOWS\VS2015\BUILD\OPENEXR ILMIMF\WIN32\RELEASE\IMFBOXATTRIBUTE.SBR
D:\POV-RAY\POV-RAY SOURCES\MIDDLE\POVRAY\WINDOWS\VS2015\BUILD\OPENEXR ILMIMF\WIN32\RELEASE\IMFCHANNELLIST.SBR
D:\POV-RAY\POV-RAY SOURCES\MIDDLE\POVRAY\WINDOWS\VS2015\BUILD\OPENEXR ILMIMF\WIN32\RELEASE\IMFCHANNELLISTATTRIBUTE.SBR
D:\POV-RAY\POV-RAY SOURCES\MIDDLE\POVRAY\WINDOWS\VS2015\BUILD\OPENEXR ILMIMF\WIN32\RELEASE\IMFCHROMATICITIES.SBR
D:\POV-RAY\POV-RAY SOURCES\MIDDLE\POVRAY\WINDOWS\VS2015\BUILD\OPENEXR ILMIMF\WIN32\RELEASE\IMFCHROMATICITIESATTRIBUTE.SBR
D:\POV-RAY\POV-RAY SOURCES\MIDDLE\POVRAY\WINDOWS\VS2015\BUILD\OPENEXR ILMIMF\WIN32\RELEASE\IMFCOMPOSITEDEEPSCANLINE.SBR
D:\POV-RAY\POV-RAY SOURCES\MIDDLE\POVRAY\WINDOWS\VS2015\BUILD\OPENEXR ILMIMF\WIN32\RELEASE\IMFCOMPRESSIONATTRIBUTE.SBR
D:\POV-RAY\POV-RAY SOURCES\MIDDLE\POVRAY\WINDOWS\VS2015\BUILD\OPENEXR ILMIMF\WIN32\RELEASE\IMFCOMPRESSOR.SBR
D:\POV-RAY\POV-RAY SOURCES\MIDDLE\POVRAY\WINDOWS\VS2015\BUILD\OPENEXR ILMIMF\WIN32\RELEASE\IMFCONVERT.SBR
D:\POV-RAY\POV-RAY SOURCES\MIDDLE\POVRAY\WINDOWS\VS2015\BUILD\OPENEXR ILMIMF\WIN32\RELEASE\IMFCRGBAFILE.SBR
D:\POV-RAY\POV-RAY SOURCES\MIDDLE\POVRAY\WINDOWS\VS2015\BUILD\OPENEXR ILMIMF\WIN32\RELEASE\IMFDEEPCOMPOSITING.SBR
D:\POV-RAY\POV-RAY SOURCES\MIDDLE\POVRAY\WINDOWS\VS2015\BUILD\OPENEXR ILMIMF\WIN32\RELEASE\IMFDEEPFRAMEBUFFER.SBR
D:\POV-RAY\POV-RAY SOURCES\MIDDLE\POVRAY\WINDOWS\VS2015\BUILD\OPENEXR ILMIMF\WIN32\RELEASE\IMFDEEPIMAGESTATEATTRIBUTE.SBR
D:\POV-RAY\POV-RAY SOURCES\MIDDLE\POVRAY\WINDOWS\VS2015\BUILD\OPENEXR ILMIMF\WIN32\RELEASE\IMFDEEPSCANLINEINPUTFILE.SBR
D:\POV-RAY\POV-RAY SOURCES\MIDDLE\POVRAY\WINDOWS\VS2015\BUILD\OPENEXR ILMIMF\WIN32\RELEASE\IMFDEEPSCANLINEINPUTPART.SBR
D:\POV-RAY\POV-RAY SOURCES\MIDDLE\POVRAY\WINDOWS\VS2015\BUILD\OPENEXR ILMIMF\WIN32\RELEASE\IMFDEEPSCANLINEOUTPUTFILE.SBR
D:\POV-RAY\POV-RAY SOURCES\MIDDLE\POVRAY\WINDOWS\VS2015\BUILD\OPENEXR ILMIMF\WIN32\RELEASE\IMFDEEPSCANLINEOUTPUTPART.SBR
D:\POV-RAY\POV-RAY SOURCES\MIDDLE\POVRAY\WINDOWS\VS2015\BUILD\OPENEXR ILMIMF\WIN32\RELEASE\IMFDEEPSCANLINEOUTPUTPART.OBJ
D:\POV-RAY\POV-RAY SOURCES\MIDDLE\POVRAY\WINDOWS\VS2015\BUILD\OPENEXR ILMIMF\WIN32\RELEASE\IMFDEEPSCANLINEOUTPUTFILE.OBJ
D:\POV-RAY\POV-RAY SOURCES\MIDDLE\POVRAY\WINDOWS\VS2015\BUILD\OPENEXR ILMIMF\WIN32\RELEASE\IMFDEEPSCANLINEINPUTPART.OBJ
D:\POV-RAY\POV-RAY SOURCES\MIDDLE\POVRAY\WINDOWS\VS2015\BUILD\OPENEXR ILMIMF\WIN32\RELEASE\IMFDEEPSCANLINEINPUTFILE.OBJ
D:\POV-RAY\POV-RAY SOURCES\MIDDLE\POVRAY\WINDOWS\VS2015\BUILD\OPENEXR ILMIMF\WIN32\RELEASE\IMFDEEPIMAGESTATEATTRIBUTE.OBJ
D:\POV-RAY\POV-RAY SOURCES\MIDDLE\POVRAY\WINDOWS\VS2015\BUILD\OPENEXR ILMIMF\WIN32\RELEASE\IMFDEEPFRAMEBUFFER.OBJ
D:\POV-RAY\POV-RAY SOURCES\MIDDLE\POVRAY\WINDOWS\VS2015\BUILD\OPENEXR ILMIMF\WIN32\RELEASE\IMFDEEPCOMPOSITING.OBJ
D:\POV-RAY\POV-RAY SOURCES\MIDDLE\POVRAY\WINDOWS\VS2015\BUILD\OPENEXR ILMIMF\WIN32\RELEASE\IMFCRGBAFILE.OBJ
D:\POV-RAY\POV-RAY SOURCES\MIDDLE\POVRAY\WINDOWS\VS2015\BUILD\OPENEXR ILMIMF\WIN32\RELEASE\IMFCONVERT.OBJ
D:\POV-RAY\POV-RAY SOURCES\MIDDLE\POVRAY\WINDOWS\VS2015\BUILD\OPENEXR ILMIMF\WIN32\RELEASE\IMFCOMPRESSOR.OBJ
D:\POV-RAY\POV-RAY SOURCES\MIDDLE\POVRAY\WINDOWS\VS2015\BUILD\OPENEXR ILMIMF\WIN32\RELEASE\IMFCOMPRESSIONATTRIBUTE.OBJ
D:\POV-RAY\POV-RAY SOURCES\MIDDLE\POVRAY\WINDOWS\VS2015\BUILD\OPENEXR ILMIMF\WIN32\RELEASE\IMFCOMPOSITEDEEPSCANLINE.OBJ
D:\POV-RAY\POV-RAY SOURCES\MIDDLE\POVRAY\WINDOWS\VS2015\BUILD\OPENEXR ILMIMF\WIN32\RELEASE\IMFCHROMATICITIESATTRIBUTE.OBJ
D:\POV-RAY\POV-RAY SOURCES\MIDDLE\POVRAY\WINDOWS\VS2015\BUILD\OPENEXR ILMIMF\WIN32\RELEASE\IMFCHROMATICITIES.OBJ
D:\POV-RAY\POV-RAY SOURCES\MIDDLE\POVRAY\WINDOWS\VS2015\BUILD\OPENEXR ILMIMF\WIN32\RELEASE\IMFCHANNELLISTATTRIBUTE.OBJ
D:\POV-RAY\POV-RAY SOURCES\MIDDLE\POVRAY\WINDOWS\VS2015\BUILD\OPENEXR ILMIMF\WIN32\RELEASE\IMFCHANNELLIST.OBJ
D:\POV-RAY\POV-RAY SOURCES\MIDDLE\POVRAY\WINDOWS\VS2015\BUILD\OPENEXR ILMIMF\WIN32\RELEASE\IMFBOXATTRIBUTE.OBJ
D:\POV-RAY\POV-RAY SOURCES\MIDDLE\POVRAY\WINDOWS\VS2015\BUILD\OPENEXR ILMIMF\WIN32\RELEASE\IMFB44COMPRESSOR.OBJ
D:\POV-RAY\POV-RAY SOURCES\MIDDLE\POVRAY\WINDOWS\VS2015\BUILD\OPENEXR ILMIMF\WIN32\RELEASE\IMFATTRIBUTE.OBJ
D:\POV-RAY\POV-RAY SOURCES\MIDDLE\POVRAY\WINDOWS\VS2015\BUILD\OPENEXR ILMIMF\WIN32\RELEASE\IMFACESFILE.OBJ
D:\POV-RAY\POV-RAY SOURCES\MIDDLE\POVRAY\WINDOWS\VS2015\BUILD\OPENEXR ILMIMF\WIN32\RELEASE\IMFDEEPTILEDINPUTFILE.SBR
D:\POV-RAY\POV-RAY SOURCES\MIDDLE\POVRAY\WINDOWS\VS2015\BUILD\OPENEXR ILMIMF\WIN32\RELEASE\IMFDEEPTILEDINPUTPART.SBR
D:\POV-RAY\POV-RAY SOURCES\MIDDLE\POVRAY\WINDOWS\VS2015\BUILD\OPENEXR ILMIMF\WIN32\RELEASE\IMFDEEPTILEDOUTPUTFILE.SBR
D:\POV-RAY\POV-RAY SOURCES\MIDDLE\POVRAY\WINDOWS\VS2015\BUILD\OPENEXR ILMIMF\WIN32\RELEASE\IMFDEEPTILEDOUTPUTPART.SBR
D:\POV-RAY\POV-RAY SOURCES\MIDDLE\POVRAY\WINDOWS\VS2015\BUILD\OPENEXR ILMIMF\WIN32\RELEASE\IMFDOUBLEATTRIBUTE.SBR
D:\POV-RAY\POV-RAY SOURCES\MIDDLE\POVRAY\WINDOWS\VS2015\BUILD\OPENEXR ILMIMF\WIN32\RELEASE\IMFDWACOMPRESSOR.SBR
D:\POV-RAY\POV-RAY SOURCES\MIDDLE\POVRAY\WINDOWS\VS2015\BUILD\OPENEXR ILMIMF\WIN32\RELEASE\IMFENVMAP.SBR
D:\POV-RAY\POV-RAY SOURCES\MIDDLE\POVRAY\WINDOWS\VS2015\BUILD\OPENEXR ILMIMF\WIN32\RELEASE\IMFENVMAPATTRIBUTE.SBR
D:\POV-RAY\POV-RAY SOURCES\MIDDLE\POVRAY\WINDOWS\VS2015\BUILD\OPENEXR ILMIMF\WIN32\RELEASE\IMFFASTHUF.SBR
D:\POV-RAY\POV-RAY SOURCES\MIDDLE\POVRAY\WINDOWS\VS2015\BUILD\OPENEXR ILMIMF\WIN32\RELEASE\IMFFLOATATTRIBUTE.SBR
D:\POV-RAY\POV-RAY SOURCES\MIDDLE\POVRAY\WINDOWS\VS2015\BUILD\OPENEXR ILMIMF\WIN32\RELEASE\IMFFLOATVECTORATTRIBUTE.SBR
D:\POV-RAY\POV-RAY SOURCES\MIDDLE\POVRAY\WINDOWS\VS2015\BUILD\OPENEXR ILMIMF\WIN32\RELEASE\IMFFRAMEBUFFER.SBR
D:\POV-RAY\POV-RAY SOURCES\MIDDLE\POVRAY\WINDOWS\VS2015\BUILD\OPENEXR ILMIMF\WIN32\RELEASE\IMFFRAMESPERSECOND.SBR
D:\POV-RAY\POV-RAY SOURCES\MIDDLE\POVRAY\WINDOWS\VS2015\BUILD\OPENEXR ILMIMF\WIN32\RELEASE\IMFGENERICINPUTFILE.SBR
D:\POV-RAY\POV-RAY SOURCES\MIDDLE\POVRAY\WINDOWS\VS2015\BUILD\OPENEXR ILMIMF\WIN32\RELEASE\IMFGENERICOUTPUTFILE.SBR
D:\POV-RAY\POV-RAY SOURCES\MIDDLE\POVRAY\WINDOWS\VS2015\BUILD\OPENEXR ILMIMF\WIN32\RELEASE\IMFHEADER.SBR
D:\POV-RAY\POV-RAY SOURCES\MIDDLE\POVRAY\WINDOWS\VS2015\BUILD\OPENEXR ILMIMF\WIN32\RELEASE\IMFHUF.SBR
D:\POV-RAY\POV-RAY SOURCES\MIDDLE\POVRAY\WINDOWS\VS2015\BUILD\OPENEXR ILMIMF\WIN32\RELEASE\IMFINPUTFILE.SBR
D:\POV-RAY\POV-RAY SOURCES\MIDDLE\POVRAY\WINDOWS\VS2015\BUILD\OPENEXR ILMIMF\WIN32\RELEASE\IMFINPUTPART.SBR
D:\POV-RAY\POV-RAY SOURCES\MIDDLE\POVRAY\WINDOWS\VS2015\BUILD\OPENEXR ILMIMF\WIN32\RELEASE\IMFINPUTPARTDATA.SBR
D:\POV-RAY\POV-RAY SOURCES\MIDDLE\POVRAY\WINDOWS\VS2015\BUILD\OPENEXR ILMIMF\WIN32\RELEASE\IMFINPUTPARTDATA.OBJ
D:\POV-RAY\POV-RAY SOURCES\MIDDLE\POVRAY\WINDOWS\VS2015\BUILD\OPENEXR ILMIMF\WIN32\RELEASE\IMFINPUTPART.OBJ
D:\POV-RAY\POV-RAY SOURCES\MIDDLE\POVRAY\WINDOWS\VS2015\BUILD\OPENEXR ILMIMF\WIN32\RELEASE\IMFINPUTFILE.OBJ
D:\POV-RAY\POV-RAY SOURCES\MIDDLE\POVRAY\WINDOWS\VS2015\BUILD\OPENEXR ILMIMF\WIN32\RELEASE\IMFHUF.OBJ
D:\POV-RAY\POV-RAY SOURCES\MIDDLE\POVRAY\WINDOWS\VS2015\BUILD\OPENEXR ILMIMF\WIN32\RELEASE\IMFHEADER.OBJ
D:\POV-RAY\POV-RAY SOURCES\MIDDLE\POVRAY\WINDOWS\VS2015\BUILD\OPENEXR ILMIMF\WIN32\RELEASE\IMFGENERICOUTPUTFILE.OBJ
D:\POV-RAY\POV-RAY SOURCES\MIDDLE\POVRAY\WINDOWS\VS2015\BUILD\OPENEXR ILMIMF\WIN32\RELEASE\IMFGENERICINPUTFILE.OBJ
D:\POV-RAY\POV-RAY SOURCES\MIDDLE\POVRAY\WINDOWS\VS2015\BUILD\OPENEXR ILMIMF\WIN32\RELEASE\IMFFRAMESPERSECOND.OBJ
D:\POV-RAY\POV-RAY SOURCES\MIDDLE\POVRAY\WINDOWS\VS2015\BUILD\OPENEXR ILMIMF\WIN32\RELEASE\IMFFRAMEBUFFER.OBJ
D:\POV-RAY\POV-RAY SOURCES\MIDDLE\POVRAY\WINDOWS\VS2015\BUILD\OPENEXR ILMIMF\WIN32\RELEASE\IMFFLOATVECTORATTRIBUTE.OBJ
D:\POV-RAY\POV-RAY SOURCES\MIDDLE\POVRAY\WINDOWS\VS2015\BUILD\OPENEXR ILMIMF\WIN32\RELEASE\IMFFLOATATTRIBUTE.OBJ
D:\POV-RAY\POV-RAY SOURCES\MIDDLE\POVRAY\WINDOWS\VS2015\BUILD\OPENEXR ILMIMF\WIN32\RELEASE\IMFFASTHUF.OBJ
D:\POV-RAY\POV-RAY SOURCES\MIDDLE\POVRAY\WINDOWS\VS2015\BUILD\OPENEXR ILMIMF\WIN32\RELEASE\IMFENVMAPATTRIBUTE.OBJ
D:\POV-RAY\POV-RAY SOURCES\MIDDLE\POVRAY\WINDOWS\VS2015\BUILD\OPENEXR ILMIMF\WIN32\RELEASE\IMFENVMAP.OBJ
D:\POV-RAY\POV-RAY SOURCES\MIDDLE\POVRAY\WINDOWS\VS2015\BUILD\OPENEXR ILMIMF\WIN32\RELEASE\IMFDWACOMPRESSOR.OBJ
D:\POV-RAY\POV-RAY SOURCES\MIDDLE\POVRAY\WINDOWS\VS2015\BUILD\OPENEXR ILMIMF\WIN32\RELEASE\IMFDOUBLEATTRIBUTE.OBJ
D:\POV-RAY\POV-RAY SOURCES\MIDDLE\POVRAY\WINDOWS\VS2015\BUILD\OPENEXR ILMIMF\WIN32\RELEASE\IMFDEEPTILEDOUTPUTPART.OBJ
D:\POV-RAY\POV-RAY SOURCES\MIDDLE\POVRAY\WINDOWS\VS2015\BUILD\OPENEXR ILMIMF\WIN32\RELEASE\IMFDEEPTILEDOUTPUTFILE.OBJ
D:\POV-RAY\POV-RAY SOURCES\MIDDLE\POVRAY\WINDOWS\VS2015\BUILD\OPENEXR ILMIMF\WIN32\RELEASE\IMFDEEPTILEDINPUTPART.OBJ
D:\POV-RAY\POV-RAY SOURCES\MIDDLE\POVRAY\WINDOWS\VS2015\BUILD\OPENEXR ILMIMF\WIN32\RELEASE\IMFDEEPTILEDINPUTFILE.OBJ
D:\POV-RAY\POV-RAY SOURCES\MIDDLE\POVRAY\WINDOWS\VS2015\BUILD\OPENEXR ILMIMF\WIN32\RELEASE\IMFINTATTRIBUTE.SBR
D:\POV-RAY\POV-RAY SOURCES\MIDDLE\POVRAY\WINDOWS\VS2015\BUILD\OPENEXR ILMIMF\WIN32\RELEASE\IMFIO.SBR
D:\POV-RAY\POV-RAY SOURCES\MIDDLE\POVRAY\WINDOWS\VS2015\BUILD\OPENEXR ILMIMF\WIN32\RELEASE\IMFKEYCODE.SBR
D:\POV-RAY\POV-RAY SOURCES\MIDDLE\POVRAY\WINDOWS\VS2015\BUILD\OPENEXR ILMIMF\WIN32\RELEASE\IMFKEYCODEATTRIBUTE.SBR
D:\POV-RAY\POV-RAY SOURCES\MIDDLE\POVRAY\WINDOWS\VS2015\BUILD\OPENEXR ILMIMF\WIN32\RELEASE\IMFLINEORDERATTRIBUTE.SBR
D:\POV-RAY\POV-RAY SOURCES\MIDDLE\POVRAY\WINDOWS\VS2015\BUILD\OPENEXR ILMIMF\WIN32\RELEASE\IMFLUT.SBR
D:\POV-RAY\POV-RAY SOURCES\MIDDLE\POVRAY\WINDOWS\VS2015\BUILD\OPENEXR ILMIMF\WIN32\RELEASE\IMFMATRIXATTRIBUTE.SBR
D:\POV-RAY\POV-RAY SOURCES\MIDDLE\POVRAY\WINDOWS\VS2015\BUILD\OPENEXR ILMIMF\WIN32\RELEASE\IMFMISC.SBR
D:\POV-RAY\POV-RAY SOURCES\MIDDLE\POVRAY\WINDOWS\VS2015\BUILD\OPENEXR ILMIMF\WIN32\RELEASE\IMFMULTIPARTINPUTFILE.SBR
D:\POV-RAY\POV-RAY SOURCES\MIDDLE\POVRAY\WINDOWS\VS2015\BUILD\OPENEXR ILMIMF\WIN32\RELEASE\IMFMULTIPARTOUTPUTFILE.SBR
D:\POV-RAY\POV-RAY SOURCES\MIDDLE\POVRAY\WINDOWS\VS2015\BUILD\OPENEXR ILMIMF\WIN32\RELEASE\IMFMULTIVIEW.SBR
D:\POV-RAY\POV-RAY SOURCES\MIDDLE\POVRAY\WINDOWS\VS2015\BUILD\OPENEXR ILMIMF\WIN32\RELEASE\IMFOPAQUEATTRIBUTE.SBR
D:\POV-RAY\POV-RAY SOURCES\MIDDLE\POVRAY\WINDOWS\VS2015\BUILD\OPENEXR ILMIMF\WIN32\RELEASE\IMFOUTPUTFILE.SBR
D:\POV-RAY\POV-RAY SOURCES\MIDDLE\POVRAY\WINDOWS\VS2015\BUILD\OPENEXR ILMIMF\WIN32\RELEASE\IMFOUTPUTPART.SBR
D:\POV-RAY\POV-RAY SOURCES\MIDDLE\POVRAY\WINDOWS\VS2015\BUILD\OPENEXR ILMIMF\WIN32\RELEASE\IMFOUTPUTPARTDATA.SBR
D:\POV-RAY\POV-RAY SOURCES\MIDDLE\POVRAY\WINDOWS\VS2015\BUILD\OPENEXR ILMIMF\WIN32\RELEASE\IMFPARTTYPE.SBR
D:\POV-RAY\POV-RAY SOURCES\MIDDLE\POVRAY\WINDOWS\VS2015\BUILD\OPENEXR ILMIMF\WIN32\RELEASE\IMFPIZCOMPRESSOR.SBR
D:\POV-RAY\POV-RAY SOURCES\MIDDLE\POVRAY\WINDOWS\VS2015\BUILD\OPENEXR ILMIMF\WIN32\RELEASE\IMFPREVIEWIMAGE.SBR
D:\POV-RAY\POV-RAY SOURCES\MIDDLE\POVRAY\WINDOWS\VS2015\BUILD\OPENEXR ILMIMF\WIN32\RELEASE\IMFPREVIEWIMAGEATTRIBUTE.SBR
D:\POV-RAY\POV-RAY SOURCES\MIDDLE\POVRAY\WINDOWS\VS2015\BUILD\OPENEXR ILMIMF\WIN32\RELEASE\IMFPXR24COMPRESSOR.SBR
D:\POV-RAY\POV-RAY SOURCES\MIDDLE\POVRAY\WINDOWS\VS2015\BUILD\OPENEXR ILMIMF\WIN32\RELEASE\IMFPXR24COMPRESSOR.OBJ
D:\POV-RAY\POV-RAY SOURCES\MIDDLE\POVRAY\WINDOWS\VS2015\BUILD\OPENEXR ILMIMF\WIN32\RELEASE\IMFPREVIEWIMAGEATTRIBUTE.OBJ
D:\POV-RAY\POV-RAY SOURCES\MIDDLE\POVRAY\WINDOWS\VS2015\BUILD\OPENEXR ILMIMF\WIN32\RELEASE\IMFPREVIEWIMAGE.OBJ
D:\POV-RAY\POV-RAY SOURCES\MIDDLE\POVRAY\WINDOWS\VS2015\BUILD\OPENEXR ILMIMF\WIN32\RELEASE\IMFPIZCOMPRESSOR.OBJ
D:\POV-RAY\POV-RAY SOURCES\MIDDLE\POVRAY\WINDOWS\VS2015\BUILD\OPENEXR ILMIMF\WIN32\RELEASE\IMFPARTTYPE.OBJ
D:\POV-RAY\POV-RAY SOURCES\MIDDLE\POVRAY\WINDOWS\VS2015\BUILD\OPENEXR ILMIMF\WIN32\RELEASE\IMFOUTPUTPARTDATA.OBJ
D:\POV-RAY\POV-RAY SOURCES\MIDDLE\POVRAY\WINDOWS\VS2015\BUILD\OPENEXR ILMIMF\WIN32\RELEASE\IMFOUTPUTPART.OBJ
D:\POV-RAY\POV-RAY SOURCES\MIDDLE\POVRAY\WINDOWS\VS2015\BUILD\OPENEXR ILMIMF\WIN32\RELEASE\IMFOUTPUTFILE.OBJ
D:\POV-RAY\POV-RAY SOURCES\MIDDLE\POVRAY\WINDOWS\VS2015\BUILD\OPENEXR ILMIMF\WIN32\RELEASE\IMFOPAQUEATTRIBUTE.OBJ
D:\POV-RAY\POV-RAY SOURCES\MIDDLE\POVRAY\WINDOWS\VS2015\BUILD\OPENEXR ILMIMF\WIN32\RELEASE\IMFMULTIVIEW.OBJ
D:\POV-RAY\POV-RAY SOURCES\MIDDLE\POVRAY\WINDOWS\VS2015\BUILD\OPENEXR ILMIMF\WIN32\RELEASE\IMFMULTIPARTOUTPUTFILE.OBJ
D:\POV-RAY\POV-RAY SOURCES\MIDDLE\POVRAY\WINDOWS\VS2015\BUILD\OPENEXR ILMIMF\WIN32\RELEASE\IMFMULTIPARTINPUTFILE.OBJ
D:\POV-RAY\POV-RAY SOURCES\MIDDLE\POVRAY\WINDOWS\VS2015\BUILD\OPENEXR ILMIMF\WIN32\RELEASE\IMFMISC.OBJ
D:\POV-RAY\POV-RAY SOURCES\MIDDLE\POVRAY\WINDOWS\VS2015\BUILD\OPENEXR ILMIMF\WIN32\RELEASE\IMFMATRIXATTRIBUTE.OBJ
D:\POV-RAY\POV-RAY SOURCES\MIDDLE\POVRAY\WINDOWS\VS2015\BUILD\OPENEXR ILMIMF\WIN32\RELEASE\IMFLUT.OBJ
D:\POV-RAY\POV-RAY SOURCES\MIDDLE\POVRAY\WINDOWS\VS2015\BUILD\OPENEXR ILMIMF\WIN32\RELEASE\IMFLINEORDERATTRIBUTE.OBJ
D:\POV-RAY\POV-RAY SOURCES\MIDDLE\POVRAY\WINDOWS\VS2015\BUILD\OPENEXR ILMIMF\WIN32\RELEASE\IMFKEYCODEATTRIBUTE.OBJ
D:\POV-RAY\POV-RAY SOURCES\MIDDLE\POVRAY\WINDOWS\VS2015\BUILD\OPENEXR ILMIMF\WIN32\RELEASE\IMFKEYCODE.OBJ
D:\POV-RAY\POV-RAY SOURCES\MIDDLE\POVRAY\WINDOWS\VS2015\BUILD\OPENEXR ILMIMF\WIN32\RELEASE\IMFIO.OBJ
D:\POV-RAY\POV-RAY SOURCES\MIDDLE\POVRAY\WINDOWS\VS2015\BUILD\OPENEXR ILMIMF\WIN32\RELEASE\IMFINTATTRIBUTE.OBJ
D:\POV-RAY\POV-RAY SOURCES\MIDDLE\POVRAY\WINDOWS\VS2015\BUILD\OPENEXR ILMIMF\WIN32\RELEASE\IMFRATIONAL.SBR
D:\POV-RAY\POV-RAY SOURCES\MIDDLE\POVRAY\WINDOWS\VS2015\BUILD\OPENEXR ILMIMF\WIN32\RELEASE\IMFRATIONALATTRIBUTE.SBR
D:\POV-RAY\POV-RAY SOURCES\MIDDLE\POVRAY\WINDOWS\VS2015\BUILD\OPENEXR ILMIMF\WIN32\RELEASE\IMFRGBAFILE.SBR
D:\POV-RAY\POV-RAY SOURCES\MIDDLE\POVRAY\WINDOWS\VS2015\BUILD\OPENEXR ILMIMF\WIN32\RELEASE\IMFRGBAYCA.SBR
D:\POV-RAY\POV-RAY SOURCES\MIDDLE\POVRAY\WINDOWS\VS2015\BUILD\OPENEXR ILMIMF\WIN32\RELEASE\IMFRLE.SBR
D:\POV-RAY\POV-RAY SOURCES\MIDDLE\POVRAY\WINDOWS\VS2015\BUILD\OPENEXR ILMIMF\WIN32\RELEASE\IMFRLECOMPRESSOR.SBR
D:\POV-RAY\POV-RAY SOURCES\MIDDLE\POVRAY\WINDOWS\VS2015\BUILD\OPENEXR ILMIMF\WIN32\RELEASE\IMFSCANLINEINPUTFILE.SBR
D:\POV-RAY\POV-RAY SOURCES\MIDDLE\POVRAY\WINDOWS\VS2015\BUILD\OPENEXR ILMIMF\WIN32\RELEASE\IMFSTANDARDATTRIBUTES.SBR
D:\POV-RAY\POV-RAY SOURCES\MIDDLE\POVRAY\WINDOWS\VS2015\BUILD\OPENEXR ILMIMF\WIN32\RELEASE\IMFSTDIO.SBR
D:\POV-RAY\POV-RAY SOURCES\MIDDLE\POVRAY\WINDOWS\VS2015\BUILD\OPENEXR ILMIMF\WIN32\RELEASE\IMFSTRINGATTRIBUTE.SBR
D:\POV-RAY\POV-RAY SOURCES\MIDDLE\POVRAY\WINDOWS\VS2015\BUILD\OPENEXR ILMIMF\WIN32\RELEASE\IMFSTRINGVECTORATTRIBUTE.SBR
D:\POV-RAY\POV-RAY SOURCES\MIDDLE\POVRAY\WINDOWS\VS2015\BUILD\OPENEXR ILMIMF\WIN32\RELEASE\IMFSYSTEMSPECIFIC.SBR
D:\POV-RAY\POV-RAY SOURCES\MIDDLE\POVRAY\WINDOWS\VS2015\BUILD\OPENEXR ILMIMF\WIN32\RELEASE\IMFTESTFILE.SBR
D:\POV-RAY\POV-RAY SOURCES\MIDDLE\POVRAY\WINDOWS\VS2015\BUILD\OPENEXR ILMIMF\WIN32\RELEASE\IMFTHREADING.SBR
D:\POV-RAY\POV-RAY SOURCES\MIDDLE\POVRAY\WINDOWS\VS2015\BUILD\OPENEXR ILMIMF\WIN32\RELEASE\IMFTILEDESCRIPTIONATTRIBUTE.SBR
D:\POV-RAY\POV-RAY SOURCES\MIDDLE\POVRAY\WINDOWS\VS2015\BUILD\OPENEXR ILMIMF\WIN32\RELEASE\IMFTILEDINPUTFILE.SBR
D:\POV-RAY\POV-RAY SOURCES\MIDDLE\POVRAY\WINDOWS\VS2015\BUILD\OPENEXR ILMIMF\WIN32\RELEASE\IMFTILEDINPUTPART.SBR
D:\POV-RAY\POV-RAY SOURCES\MIDDLE\POVRAY\WINDOWS\VS2015\BUILD\OPENEXR ILMIMF\WIN32\RELEASE\IMFTILEDMISC.SBR
D:\POV-RAY\POV-RAY SOURCES\MIDDLE\POVRAY\WINDOWS\VS2015\BUILD\OPENEXR ILMIMF\WIN32\RELEASE\IMFTILEDOUTPUTFILE.SBR
D:\POV-RAY\POV-RAY SOURCES\MIDDLE\POVRAY\WINDOWS\VS2015\BUILD\OPENEXR ILMIMF\WIN32\RELEASE\IMFTILEDOUTPUTPART.SBR
D:\POV-RAY\POV-RAY SOURCES\MIDDLE\POVRAY\WINDOWS\VS2015\BUILD\OPENEXR ILMIMF\WIN32\RELEASE\IMFTILEDOUTPUTPART.OBJ
D:\POV-RAY\POV-RAY SOURCES\MIDDLE\POVRAY\WINDOWS\VS2015\BUILD\OPENEXR ILMIMF\WIN32\RELEASE\IMFTILEDOUTPUTFILE.OBJ
D:\POV-RAY\POV-RAY SOURCES\MIDDLE\POVRAY\WINDOWS\VS2015\BUILD\OPENEXR ILMIMF\WIN32\RELEASE\IMFTILEDMISC.OBJ
D:\POV-RAY\POV-RAY SOURCES\MIDDLE\POVRAY\WINDOWS\VS2015\BUILD\OPENEXR ILMIMF\WIN32\RELEASE\IMFTILEDINPUTPART.OBJ
D:\POV-RAY\POV-RAY SOURCES\MIDDLE\POVRAY\WINDOWS\VS2015\BUILD\OPENEXR ILMIMF\WIN32\RELEASE\IMFTILEDINPUTFILE.OBJ
D:\POV-RAY\POV-RAY SOURCES\MIDDLE\POVRAY\WINDOWS\VS2015\BUILD\OPENEXR ILMIMF\WIN32\RELEASE\IMFTILEDESCRIPTIONATTRIBUTE.OBJ
D:\POV-RAY\POV-RAY SOURCES\MIDDLE\POVRAY\WINDOWS\VS2015\BUILD\OPENEXR ILMIMF\WIN32\RELEASE\IMFTHREADING.OBJ
D:\POV-RAY\POV-RAY SOURCES\MIDDLE\POVRAY\WINDOWS\VS2015\BUILD\OPENEXR ILMIMF\WIN32\RELEASE\IMFTESTFILE.OBJ
D:\POV-RAY\POV-RAY SOURCES\MIDDLE\POVRAY\WINDOWS\VS2015\BUILD\OPENEXR ILMIMF\WIN32\RELEASE\IMFSYSTEMSPECIFIC.OBJ
D:\POV-RAY\POV-RAY SOURCES\MIDDLE\POVRAY\WINDOWS\VS2015\BUILD\OPENEXR ILMIMF\WIN32\RELEASE\IMFSTRINGVECTORATTRIBUTE.OBJ
D:\POV-RAY\POV-RAY SOURCES\MIDDLE\POVRAY\WINDOWS\VS2015\BUILD\OPENEXR ILMIMF\WIN32\RELEASE\IMFSTRINGATTRIBUTE.OBJ
D:\POV-RAY\POV-RAY SOURCES\MIDDLE\POVRAY\WINDOWS\VS2015\BUILD\OPENEXR ILMIMF\WIN32\RELEASE\IMFSTDIO.OBJ
D:\POV-RAY\POV-RAY SOURCES\MIDDLE\POVRAY\WINDOWS\VS2015\BUILD\OPENEXR ILMIMF\WIN32\RELEASE\IMFSTANDARDATTRIBUTES.OBJ
D:\POV-RAY\POV-RAY SOURCES\MIDDLE\POVRAY\WINDOWS\VS2015\BUILD\OPENEXR ILMIMF\WIN32\RELEASE\IMFSCANLINEINPUTFILE.OBJ
D:\POV-RAY\POV-RAY SOURCES\MIDDLE\POVRAY\WINDOWS\VS2015\BUILD\OPENEXR ILMIMF\WIN32\RELEASE\IMFRLECOMPRESSOR.OBJ
D:\POV-RAY\POV-RAY SOURCES\MIDDLE\POVRAY\WINDOWS\VS2015\BUILD\OPENEXR ILMIMF\WIN32\RELEASE\IMFRLE.OBJ
D:\POV-RAY\POV-RAY SOURCES\MIDDLE\POVRAY\WINDOWS\VS2015\BUILD\OPENEXR ILMIMF\WIN32\RELEASE\IMFRGBAYCA.OBJ
D:\POV-RAY\POV-RAY SOURCES\MIDDLE\POVRAY\WINDOWS\VS2015\BUILD\OPENEXR ILMIMF\WIN32\RELEASE\IMFRGBAFILE.OBJ
D:\POV-RAY\POV-RAY SOURCES\MIDDLE\POVRAY\WINDOWS\VS2015\BUILD\OPENEXR ILMIMF\WIN32\RELEASE\IMFRATIONALATTRIBUTE.OBJ
D:\POV-RAY\POV-RAY SOURCES\MIDDLE\POVRAY\WINDOWS\VS2015\BUILD\OPENEXR ILMIMF\WIN32\RELEASE\IMFRATIONAL.OBJ
D:\POV-RAY\POV-RAY SOURCES\MIDDLE\POVRAY\WINDOWS\VS2015\BUILD\OPENEXR ILMIMF\WIN32\RELEASE\IMFTILEDRGBAFILE.SBR
D:\POV-RAY\POV-RAY SOURCES\MIDDLE\POVRAY\WINDOWS\VS2015\BUILD\OPENEXR ILMIMF\WIN32\RELEASE\IMFTILEOFFSETS.SBR
D:\POV-RAY\POV-RAY SOURCES\MIDDLE\POVRAY\WINDOWS\VS2015\BUILD\OPENEXR ILMIMF\WIN32\RELEASE\IMFTIMECODE.SBR
D:\POV-RAY\POV-RAY SOURCES\MIDDLE\POVRAY\WINDOWS\VS2015\BUILD\OPENEXR ILMIMF\WIN32\RELEASE\IMFTIMECODEATTRIBUTE.SBR
D:\POV-RAY\POV-RAY SOURCES\MIDDLE\POVRAY\WINDOWS\VS2015\BUILD\OPENEXR ILMIMF\WIN32\RELEASE\IMFVECATTRIBUTE.SBR
D:\POV-RAY\POV-RAY SOURCES\MIDDLE\POVRAY\WINDOWS\VS2015\BUILD\OPENEXR ILMIMF\WIN32\RELEASE\IMFVERSION.SBR
D:\POV-RAY\POV-RAY SOURCES\MIDDLE\POVRAY\WINDOWS\VS2015\BUILD\OPENEXR ILMIMF\WIN32\RELEASE\IMFWAV.SBR
D:\POV-RAY\POV-RAY SOURCES\MIDDLE\POVRAY\WINDOWS\VS2015\BUILD\OPENEXR ILMIMF\WIN32\RELEASE\IMFZIP.SBR
D:\POV-RAY\POV-RAY SOURCES\MIDDLE\POVRAY\WINDOWS\VS2015\BUILD\OPENEXR ILMIMF\WIN32\RELEASE\IMFZIPCOMPRESSOR.SBR
D:\POV-RAY\POV-RAY SOURCES\MIDDLE\POVRAY\WINDOWS\VS2015\BUILD\OPENEXR ILMIMF\WIN32\RELEASE\IMFZIPCOMPRESSOR.OBJ
D:\POV-RAY\POV-RAY SOURCES\MIDDLE\POVRAY\WINDOWS\VS2015\BUILD\OPENEXR ILMIMF\WIN32\RELEASE\IMFZIP.OBJ
D:\POV-RAY\POV-RAY SOURCES\MIDDLE\POVRAY\WINDOWS\VS2015\BUILD\OPENEXR ILMIMF\WIN32\RELEASE\IMFWAV.OBJ
D:\POV-RAY\POV-RAY SOURCES\MIDDLE\POVRAY\WINDOWS\VS2015\BUILD\OPENEXR ILMIMF\WIN32\RELEASE\IMFVERSION.OBJ
D:\POV-RAY\POV-RAY SOURCES\MIDDLE\POVRAY\WINDOWS\VS2015\BUILD\OPENEXR ILMIMF\WIN32\RELEASE\IMFVECATTRIBUTE.OBJ
D:\POV-RAY\POV-RAY SOURCES\MIDDLE\POVRAY\WINDOWS\VS2015\BUILD\OPENEXR ILMIMF\WIN32\RELEASE\IMFTIMECODEATTRIBUTE.OBJ
D:\POV-RAY\POV-RAY SOURCES\MIDDLE\POVRAY\WINDOWS\VS2015\BUILD\OPENEXR ILMIMF\WIN32\RELEASE\IMFTIMECODE.OBJ
D:\POV-RAY\POV-RAY SOURCES\MIDDLE\POVRAY\WINDOWS\VS2015\BUILD\OPENEXR ILMIMF\WIN32\RELEASE\IMFTILEOFFSETS.OBJ
D:\POV-RAY\POV-RAY SOURCES\MIDDLE\POVRAY\WINDOWS\VS2015\BUILD\OPENEXR ILMIMF\WIN32\RELEASE\IMFTILEDRGBAFILE.OBJ
^D:\POV-RAY\POV-RAY SOURCES\MIDDLE\POVRAY\LIBRARIES\OPENEXR\ILMIMF\IMFACESFILE.CPP
D:\POV-RAY\POV-RAY SOURCES\MIDDLE\POVRAY\WINDOWS\VS2015\BUILD\OPENEXR ILMIMF\WIN32\RELEASE\OPENEXR ILMIMF.PDB
^D:\POV-RAY\POV-RAY SOURCES\MIDDLE\POVRAY\LIBRARIES\OPENEXR\ILMIMF\IMFATTRIBUTE.CPP
D:\POV-RAY\POV-RAY SOURCES\MIDDLE\POVRAY\WINDOWS\VS2015\BUILD\OPENEXR ILMIMF\WIN32\RELEASE\OPENEXR ILMIMF.PDB
^D:\POV-RAY\POV-RAY SOURCES\MIDDLE\POVRAY\LIBRARIES\OPENEXR\ILMIMF\IMFB44COMPRESSOR.CPP
D:\POV-RAY\POV-RAY SOURCES\MIDDLE\POVRAY\WINDOWS\VS2015\BUILD\OPENEXR ILMIMF\WIN32\RELEASE\OPENEXR ILMIMF.PDB
^D:\POV-RAY\POV-RAY SOURCES\MIDDLE\POVRAY\LIBRARIES\OPENEXR\ILMIMF\IMFBOXATTRIBUTE.CPP
D:\POV-RAY\POV-RAY SOURCES\MIDDLE\POVRAY\WINDOWS\VS2015\BUILD\OPENEXR ILMIMF\WIN32\RELEASE\OPENEXR ILMIMF.PDB
^D:\POV-RAY\POV-RAY SOURCES\MIDDLE\POVRAY\LIBRARIES\OPENEXR\ILMIMF\IMFCHANNELLIST.CPP
D:\POV-RAY\POV-RAY SOURCES\MIDDLE\POVRAY\WINDOWS\VS2015\BUILD\OPENEXR ILMIMF\WIN32\RELEASE\OPENEXR ILMIMF.PDB
^D:\POV-RAY\POV-RAY SOURCES\MIDDLE\POVRAY\LIBRARIES\OPENEXR\ILMIMF\IMFCHANNELLISTATTRIBUTE.CPP
D:\POV-RAY\POV-RAY SOURCES\MIDDLE\POVRAY\WINDOWS\VS2015\BUILD\OPENEXR ILMIMF\WIN32\RELEASE\OPENEXR ILMIMF.PDB
^D:\POV-RAY\POV-RAY SOURCES\MIDDLE\POVRAY\LIBRARIES\OPENEXR\ILMIMF\IMFCHROMATICITIES.CPP
D:\POV-RAY\POV-RAY SOURCES\MIDDLE\POVRAY\WINDOWS\VS2015\BUILD\OPENEXR ILMIMF\WIN32\RELEASE\OPENEXR ILMIMF.PDB
^D:\POV-RAY\POV-RAY SOURCES\MIDDLE\POVRAY\LIBRARIES\OPENEXR\ILMIMF\IMFCHROMATICITIESATTRIBUTE.CPP
D:\POV-RAY\POV-RAY SOURCES\MIDDLE\POVRAY\WINDOWS\VS2015\BUILD\OPENEXR ILMIMF\WIN32\RELEASE\OPENEXR ILMIMF.PDB
^D:\POV-RAY\POV-RAY SOURCES\MIDDLE\POVRAY\LIBRARIES\OPENEXR\ILMIMF\IMFCOMPOSITEDEEPSCANLINE.CPP
D:\POV-RAY\POV-RAY SOURCES\MIDDLE\POVRAY\WINDOWS\VS2015\BUILD\OPENEXR ILMIMF\WIN32\RELEASE\OPENEXR ILMIMF.PDB
^D:\POV-RAY\POV-RAY SOURCES\MIDDLE\POVRAY\LIBRARIES\OPENEXR\ILMIMF\IMFCOMPRESSIONATTRIBUTE.CPP
D:\POV-RAY\POV-RAY SOURCES\MIDDLE\POVRAY\WINDOWS\VS2015\BUILD\OPENEXR ILMIMF\WIN32\RELEASE\OPENEXR ILMIMF.PDB
^D:\POV-RAY\POV-RAY SOURCES\MIDDLE\POVRAY\LIBRARIES\OPENEXR\ILMIMF\IMFCOMPRESSOR.CPP
D:\POV-RAY\POV-RAY SOURCES\MIDDLE\POVRAY\WINDOWS\VS2015\BUILD\OPENEXR ILMIMF\WIN32\RELEASE\OPENEXR ILMIMF.PDB
^D:\POV-RAY\POV-RAY SOURCES\MIDDLE\POVRAY\LIBRARIES\OPENEXR\ILMIMF\IMFCONVERT.CPP
D:\POV-RAY\POV-RAY SOURCES\MIDDLE\POVRAY\WINDOWS\VS2015\BUILD\OPENEXR ILMIMF\WIN32\RELEASE\OPENEXR ILMIMF.PDB
^D:\POV-RAY\POV-RAY SOURCES\MIDDLE\POVRAY\LIBRARIES\OPENEXR\ILMIMF\IMFCRGBAFILE.CPP
D:\POV-RAY\POV-RAY SOURCES\MIDDLE\POVRAY\WINDOWS\VS2015\BUILD\OPENEXR ILMIMF\WIN32\RELEASE\OPENEXR ILMIMF.PDB
^D:\POV-RAY\POV-RAY SOURCES\MIDDLE\POVRAY\LIBRARIES\OPENEXR\ILMIMF\IMFDEEPCOMPOSITING.CPP
D:\POV-RAY\POV-RAY SOURCES\MIDDLE\POVRAY\WINDOWS\VS2015\BUILD\OPENEXR ILMIMF\WIN32\RELEASE\OPENEXR ILMIMF.PDB
^D:\POV-RAY\POV-RAY SOURCES\MIDDLE\POVRAY\LIBRARIES\OPENEXR\ILMIMF\IMFDEEPFRAMEBUFFER.CPP
D:\POV-RAY\POV-RAY SOURCES\MIDDLE\POVRAY\WINDOWS\VS2015\BUILD\OPENEXR ILMIMF\WIN32\RELEASE\OPENEXR ILMIMF.PDB
^D:\POV-RAY\POV-RAY SOURCES\MIDDLE\POVRAY\LIBRARIES\OPENEXR\ILMIMF\IMFDEEPIMAGESTATEATTRIBUTE.CPP
D:\POV-RAY\POV-RAY SOURCES\MIDDLE\POVRAY\WINDOWS\VS2015\BUILD\OPENEXR ILMIMF\WIN32\RELEASE\OPENEXR ILMIMF.PDB
^D:\POV-RAY\POV-RAY SOURCES\MIDDLE\POVRAY\LIBRARIES\OPENEXR\ILMIMF\IMFDEEPSCANLINEINPUTFILE.CPP
D:\POV-RAY\POV-RAY SOURCES\MIDDLE\POVRAY\WINDOWS\VS2015\BUILD\OPENEXR ILMIMF\WIN32\RELEASE\OPENEXR ILMIMF.PDB
^D:\POV-RAY\POV-RAY SOURCES\MIDDLE\POVRAY\LIBRARIES\OPENEXR\ILMIMF\IMFDEEPSCANLINEINPUTPART.CPP
D:\POV-RAY\POV-RAY SOURCES\MIDDLE\POVRAY\WINDOWS\VS2015\BUILD\OPENEXR ILMIMF\WIN32\RELEASE\OPENEXR ILMIMF.PDB
^D:\POV-RAY\POV-RAY SOURCES\MIDDLE\POVRAY\LIBRARIES\OPENEXR\ILMIMF\IMFDEEPSCANLINEOUTPUTFILE.CPP
D:\POV-RAY\POV-RAY SOURCES\MIDDLE\POVRAY\WINDOWS\VS2015\BUILD\OPENEXR ILMIMF\WIN32\RELEASE\OPENEXR ILMIMF.PDB
^D:\POV-RAY\POV-RAY SOURCES\MIDDLE\POVRAY\LIBRARIES\OPENEXR\ILMIMF\IMFDEEPSCANLINEOUTPUTPART.CPP
D:\POV-RAY\POV-RAY SOURCES\MIDDLE\POVRAY\WINDOWS\VS2015\BUILD\OPENEXR ILMIMF\WIN32\RELEASE\OPENEXR ILMIMF.PDB
^D:\POV-RAY\POV-RAY SOURCES\MIDDLE\POVRAY\LIBRARIES\OPENEXR\ILMIMF\IMFDEEPTILEDINPUTFILE.CPP
D:\POV-RAY\POV-RAY SOURCES\MIDDLE\POVRAY\WINDOWS\VS2015\BUILD\OPENEXR ILMIMF\WIN32\RELEASE\OPENEXR ILMIMF.PDB
^D:\POV-RAY\POV-RAY SOURCES\MIDDLE\POVRAY\LIBRARIES\OPENEXR\ILMIMF\IMFDEEPTILEDINPUTPART.CPP
D:\POV-RAY\POV-RAY SOURCES\MIDDLE\POVRAY\WINDOWS\VS2015\BUILD\OPENEXR ILMIMF\WIN32\RELEASE\OPENEXR ILMIMF.PDB
^D:\POV-RAY\POV-RAY SOURCES\MIDDLE\POVRAY\LIBRARIES\OPENEXR\ILMIMF\IMFDEEPTILEDOUTPUTFILE.CPP
D:\POV-RAY\POV-RAY SOURCES\MIDDLE\POVRAY\WINDOWS\VS2015\BUILD\OPENEXR ILMIMF\WIN32\RELEASE\OPENEXR ILMIMF.PDB
^D:\POV-RAY\POV-RAY SOURCES\MIDDLE\POVRAY\LIBRARIES\OPENEXR\ILMIMF\IMFDEEPTILEDOUTPUTPART.CPP
D:\POV-RAY\POV-RAY SOURCES\MIDDLE\POVRAY\WINDOWS\VS2015\BUILD\OPENEXR ILMIMF\WIN32\RELEASE\OPENEXR ILMIMF.PDB
^D:\POV-RAY\POV-RAY SOURCES\MIDDLE\POVRAY\LIBRARIES\OPENEXR\ILMIMF\IMFDOUBLEATTRIBUTE.CPP
D:\POV-RAY\POV-RAY SOURCES\MIDDLE\POVRAY\WINDOWS\VS2015\BUILD\OPENEXR ILMIMF\WIN32\RELEASE\OPENEXR ILMIMF.PDB
^D:\POV-RAY\POV-RAY SOURCES\MIDDLE\POVRAY\LIBRARIES\OPENEXR\ILMIMF\IMFDWACOMPRESSOR.CPP
D:\POV-RAY\POV-RAY SOURCES\MIDDLE\POVRAY\WINDOWS\VS2015\BUILD\OPENEXR ILMIMF\WIN32\RELEASE\OPENEXR ILMIMF.PDB
^D:\POV-RAY\POV-RAY SOURCES\MIDDLE\POVRAY\LIBRARIES\OPENEXR\ILMIMF\IMFENVMAP.CPP
D:\POV-RAY\POV-RAY SOURCES\MIDDLE\POVRAY\WINDOWS\VS2015\BUILD\OPENEXR ILMIMF\WIN32\RELEASE\OPENEXR ILMIMF.PDB
^D:\POV-RAY\POV-RAY SOURCES\MIDDLE\POVRAY\LIBRARIES\OPENEXR\ILMIMF\IMFENVMAPATTRIBUTE.CPP
D:\POV-RAY\POV-RAY SOURCES\MIDDLE\POVRAY\WINDOWS\VS2015\BUILD\OPENEXR ILMIMF\WIN32\RELEASE\OPENEXR ILMIMF.PDB
^D:\POV-RAY\POV-RAY SOURCES\MIDDLE\POVRAY\LIBRARIES\OPENEXR\ILMIMF\IMFFASTHUF.CPP
D:\POV-RAY\POV-RAY SOURCES\MIDDLE\POVRAY\WINDOWS\VS2015\BUILD\OPENEXR ILMIMF\WIN32\RELEASE\OPENEXR ILMIMF.PDB
^D:\POV-RAY\POV-RAY SOURCES\MIDDLE\POVRAY\LIBRARIES\OPENEXR\ILMIMF\IMFFLOATATTRIBUTE.CPP
D:\POV-RAY\POV-RAY SOURCES\MIDDLE\POVRAY\WINDOWS\VS2015\BUILD\OPENEXR ILMIMF\WIN32\RELEASE\OPENEXR ILMIMF.PDB
^D:\POV-RAY\POV-RAY SOURCES\MIDDLE\POVRAY\LIBRARIES\OPENEXR\ILMIMF\IMFFLOATVECTORATTRIBUTE.CPP
D:\POV-RAY\POV-RAY SOURCES\MIDDLE\POVRAY\WINDOWS\VS2015\BUILD\OPENEXR ILMIMF\WIN32\RELEASE\OPENEXR ILMIMF.PDB
^D:\POV-RAY\POV-RAY SOURCES\MIDDLE\POVRAY\LIBRARIES\OPENEXR\ILMIMF\IMFFRAMEBUFFER.CPP
D:\POV-RAY\POV-RAY SOURCES\MIDDLE\POVRAY\WINDOWS\VS2015\BUILD\OPENEXR ILMIMF\WIN32\RELEASE\OPENEXR ILMIMF.PDB
^D:\POV-RAY\POV-RAY SOURCES\MIDDLE\POVRAY\LIBRARIES\OPENEXR\ILMIMF\IMFFRAMESPERSECOND.CPP
D:\POV-RAY\POV-RAY SOURCES\MIDDLE\POVRAY\WINDOWS\VS2015\BUILD\OPENEXR ILMIMF\WIN32\RELEASE\OPENEXR ILMIMF.PDB
^D:\POV-RAY\POV-RAY SOURCES\MIDDLE\POVRAY\LIBRARIES\OPENEXR\ILMIMF\IMFGENERICINPUTFILE.CPP
D:\POV-RAY\POV-RAY SOURCES\MIDDLE\POVRAY\WINDOWS\VS2015\BUILD\OPENEXR ILMIMF\WIN32\RELEASE\OPENEXR ILMIMF.PDB
^D:\POV-RAY\POV-RAY SOURCES\MIDDLE\POVRAY\LIBRARIES\OPENEXR\ILMIMF\IMFGENERICOUTPUTFILE.CPP
D:\POV-RAY\POV-RAY SOURCES\MIDDLE\POVRAY\WINDOWS\VS2015\BUILD\OPENEXR ILMIMF\WIN32\RELEASE\OPENEXR ILMIMF.PDB
^D:\POV-RAY\POV-RAY SOURCES\MIDDLE\POVRAY\LIBRARIES\OPENEXR\ILMIMF\IMFHEADER.CPP
D:\POV-RAY\POV-RAY SOURCES\MIDDLE\POVRAY\WINDOWS\VS2015\BUILD\OPENEXR ILMIMF\WIN32\RELEASE\OPENEXR ILMIMF.PDB
^D:\POV-RAY\POV-RAY SOURCES\MIDDLE\POVRAY\LIBRARIES\OPENEXR\ILMIMF\IMFHUF.CPP
D:\POV-RAY\POV-RAY SOURCES\MIDDLE\POVRAY\WINDOWS\VS2015\BUILD\OPENEXR ILMIMF\WIN32\RELEASE\OPENEXR ILMIMF.PDB
^D:\POV-RAY\POV-RAY SOURCES\MIDDLE\POVRAY\LIBRARIES\OPENEXR\ILMIMF\IMFINPUTFILE.CPP
D:\POV-RAY\POV-RAY SOURCES\MIDDLE\POVRAY\WINDOWS\VS2015\BUILD\OPENEXR ILMIMF\WIN32\RELEASE\OPENEXR ILMIMF.PDB
^D:\POV-RAY\POV-RAY SOURCES\MIDDLE\POVRAY\LIBRARIES\OPENEXR\ILMIMF\IMFINPUTPART.CPP
D:\POV-RAY\POV-RAY SOURCES\MIDDLE\POVRAY\WINDOWS\VS2015\BUILD\OPENEXR ILMIMF\WIN32\RELEASE\OPENEXR ILMIMF.PDB
^D:\POV-RAY\POV-RAY SOURCES\MIDDLE\POVRAY\LIBRARIES\OPENEXR\ILMIMF\IMFINPUTPARTDATA.CPP
D:\POV-RAY\POV-RAY SOURCES\MIDDLE\POVRAY\WINDOWS\VS2015\BUILD\OPENEXR ILMIMF\WIN32\RELEASE\OPENEXR ILMIMF.PDB
^D:\POV-RAY\POV-RAY SOURCES\MIDDLE\POVRAY\LIBRARIES\OPENEXR\ILMIMF\IMFINTATTRIBUTE.CPP
D:\POV-RAY\POV-RAY SOURCES\MIDDLE\POVRAY\WINDOWS\VS2015\BUILD\OPENEXR ILMIMF\WIN32\RELEASE\OPENEXR ILMIMF.PDB
^D:\POV-RAY\POV-RAY SOURCES\MIDDLE\POVRAY\LIBRARIES\OPENEXR\ILMIMF\IMFIO.CPP
D:\POV-RAY\POV-RAY SOURCES\MIDDLE\POVRAY\WINDOWS\VS2015\BUILD\OPENEXR ILMIMF\WIN32\RELEASE\OPENEXR ILMIMF.PDB
^D:\POV-RAY\POV-RAY SOURCES\MIDDLE\POVRAY\LIBRARIES\OPENEXR\ILMIMF\IMFKEYCODE.CPP
D:\POV-RAY\POV-RAY SOURCES\MIDDLE\POVRAY\WINDOWS\VS2015\BUILD\OPENEXR ILMIMF\WIN32\RELEASE\OPENEXR ILMIMF.PDB
^D:\POV-RAY\POV-RAY SOURCES\MIDDLE\POVRAY\LIBRARIES\OPENEXR\ILMIMF\IMFKEYCODEATTRIBUTE.CPP
D:\POV-RAY\POV-RAY SOURCES\MIDDLE\POVRAY\WINDOWS\VS2015\BUILD\OPENEXR ILMIMF\WIN32\RELEASE\OPENEXR ILMIMF.PDB
^D:\POV-RAY\POV-RAY SOURCES\MIDDLE\POVRAY\LIBRARIES\OPENEXR\ILMIMF\IMFLINEORDERATTRIBUTE.CPP
D:\POV-RAY\POV-RAY SOURCES\MIDDLE\POVRAY\WINDOWS\VS2015\BUILD\OPENEXR ILMIMF\WIN32\RELEASE\OPENEXR ILMIMF.PDB
^D:\POV-RAY\POV-RAY SOURCES\MIDDLE\POVRAY\LIBRARIES\OPENEXR\ILMIMF\IMFLUT.CPP
D:\POV-RAY\POV-RAY SOURCES\MIDDLE\POVRAY\WINDOWS\VS2015\BUILD\OPENEXR ILMIMF\WIN32\RELEASE\OPENEXR ILMIMF.PDB
^D:\POV-RAY\POV-RAY SOURCES\MIDDLE\POVRAY\LIBRARIES\OPENEXR\ILMIMF\IMFMATRIXATTRIBUTE.CPP
D:\POV-RAY\POV-RAY SOURCES\MIDDLE\POVRAY\WINDOWS\VS2015\BUILD\OPENEXR ILMIMF\WIN32\RELEASE\OPENEXR ILMIMF.PDB
^D:\POV-RAY\POV-RAY SOURCES\MIDDLE\POVRAY\LIBRARIES\OPENEXR\ILMIMF\IMFMISC.CPP
D:\POV-RAY\POV-RAY SOURCES\MIDDLE\POVRAY\WINDOWS\VS2015\BUILD\OPENEXR ILMIMF\WIN32\RELEASE\OPENEXR ILMIMF.PDB
^D:\POV-RAY\POV-RAY SOURCES\MIDDLE\POVRAY\LIBRARIES\OPENEXR\ILMIMF\IMFMULTIPARTINPUTFILE.CPP
D:\POV-RAY\POV-RAY SOURCES\MIDDLE\POVRAY\WINDOWS\VS2015\BUILD\OPENEXR ILMIMF\WIN32\RELEASE\OPENEXR ILMIMF.PDB
^D:\POV-RAY\POV-RAY SOURCES\MIDDLE\POVRAY\LIBRARIES\OPENEXR\ILMIMF\IMFMULTIPARTOUTPUTFILE.CPP
D:\POV-RAY\POV-RAY SOURCES\MIDDLE\POVRAY\WINDOWS\VS2015\BUILD\OPENEXR ILMIMF\WIN32\RELEASE\OPENEXR ILMIMF.PDB
^D:\POV-RAY\POV-RAY SOURCES\MIDDLE\POVRAY\LIBRARIES\OPENEXR\ILMIMF\IMFMULTIVIEW.CPP
D:\POV-RAY\POV-RAY SOURCES\MIDDLE\POVRAY\WINDOWS\VS2015\BUILD\OPENEXR ILMIMF\WIN32\RELEASE\OPENEXR ILMIMF.PDB
^D:\POV-RAY\POV-RAY SOURCES\MIDDLE\POVRAY\LIBRARIES\OPENEXR\ILMIMF\IMFOPAQUEATTRIBUTE.CPP
D:\POV-RAY\POV-RAY SOURCES\MIDDLE\POVRAY\WINDOWS\VS2015\BUILD\OPENEXR ILMIMF\WIN32\RELEASE\OPENEXR ILMIMF.PDB
^D:\POV-RAY\POV-RAY SOURCES\MIDDLE\POVRAY\LIBRARIES\OPENEXR\ILMIMF\IMFOUTPUTFILE.CPP
D:\POV-RAY\POV-RAY SOURCES\MIDDLE\POVRAY\WINDOWS\VS2015\BUILD\OPENEXR ILMIMF\WIN32\RELEASE\OPENEXR ILMIMF.PDB
^D:\POV-RAY\POV-RAY SOURCES\MIDDLE\POVRAY\LIBRARIES\OPENEXR\ILMIMF\IMFOUTPUTPART.CPP
D:\POV-RAY\POV-RAY SOURCES\MIDDLE\POVRAY\WINDOWS\VS2015\BUILD\OPENEXR ILMIMF\WIN32\RELEASE\OPENEXR ILMIMF.PDB
^D:\POV-RAY\POV-RAY SOURCES\MIDDLE\POVRAY\LIBRARIES\OPENEXR\ILMIMF\IMFOUTPUTPARTDATA.CPP
D:\POV-RAY\POV-RAY SOURCES\MIDDLE\POVRAY\WINDOWS\VS2015\BUILD\OPENEXR ILMIMF\WIN32\RELEASE\OPENEXR ILMIMF.PDB
^D:\POV-RAY\POV-RAY SOURCES\MIDDLE\POVRAY\LIBRARIES\OPENEXR\ILMIMF\IMFPARTTYPE.CPP
D:\POV-RAY\POV-RAY SOURCES\MIDDLE\POVRAY\WINDOWS\VS2015\BUILD\OPENEXR ILMIMF\WIN32\RELEASE\OPENEXR ILMIMF.PDB
^D:\POV-RAY\POV-RAY SOURCES\MIDDLE\POVRAY\LIBRARIES\OPENEXR\ILMIMF\IMFPIZCOMPRESSOR.CPP
D:\POV-RAY\POV-RAY SOURCES\MIDDLE\POVRAY\WINDOWS\VS2015\BUILD\OPENEXR ILMIMF\WIN32\RELEASE\OPENEXR ILMIMF.PDB
^D:\POV-RAY\POV-RAY SOURCES\MIDDLE\POVRAY\LIBRARIES\OPENEXR\ILMIMF\IMFPREVIEWIMAGE.CPP
D:\POV-RAY\POV-RAY SOURCES\MIDDLE\POVRAY\WINDOWS\VS2015\BUILD\OPENEXR ILMIMF\WIN32\RELEASE\OPENEXR ILMIMF.PDB
^D:\POV-RAY\POV-RAY SOURCES\MIDDLE\POVRAY\LIBRARIES\OPENEXR\ILMIMF\IMFPREVIEWIMAGEATTRIBUTE.CPP
D:\POV-RAY\POV-RAY SOURCES\MIDDLE\POVRAY\WINDOWS\VS2015\BUILD\OPENEXR ILMIMF\WIN32\RELEASE\OPENEXR ILMIMF.PDB
^D:\POV-RAY\POV-RAY SOURCES\MIDDLE\POVRAY\LIBRARIES\OPENEXR\ILMIMF\IMFPXR24COMPRESSOR.CPP
D:\POV-RAY\POV-RAY SOURCES\MIDDLE\POVRAY\WINDOWS\VS2015\BUILD\OPENEXR ILMIMF\WIN32\RELEASE\OPENEXR ILMIMF.PDB
^D:\POV-RAY\POV-RAY SOURCES\MIDDLE\POVRAY\LIBRARIES\OPENEXR\ILMIMF\IMFRATIONAL.CPP
D:\POV-RAY\POV-RAY SOURCES\MIDDLE\POVRAY\WINDOWS\VS2015\BUILD\OPENEXR ILMIMF\WIN32\RELEASE\OPENEXR ILMIMF.PDB
^D:\POV-RAY\POV-RAY SOURCES\MIDDLE\POVRAY\LIBRARIES\OPENEXR\ILMIMF\IMFRATIONALATTRIBUTE.CPP
D:\POV-RAY\POV-RAY SOURCES\MIDDLE\POVRAY\WINDOWS\VS2015\BUILD\OPENEXR ILMIMF\WIN32\RELEASE\OPENEXR ILMIMF.PDB
^D:\POV-RAY\POV-RAY SOURCES\MIDDLE\POVRAY\LIBRARIES\OPENEXR\ILMIMF\IMFRGBAFILE.CPP
D:\POV-RAY\POV-RAY SOURCES\MIDDLE\POVRAY\WINDOWS\VS2015\BUILD\OPENEXR ILMIMF\WIN32\RELEASE\OPENEXR ILMIMF.PDB
^D:\POV-RAY\POV-RAY SOURCES\MIDDLE\POVRAY\LIBRARIES\OPENEXR\ILMIMF\IMFRGBAYCA.CPP
D:\POV-RAY\POV-RAY SOURCES\MIDDLE\POVRAY\WINDOWS\VS2015\BUILD\OPENEXR ILMIMF\WIN32\RELEASE\OPENEXR ILMIMF.PDB
^D:\POV-RAY\POV-RAY SOURCES\MIDDLE\POVRAY\LIBRARIES\OPENEXR\ILMIMF\IMFRLE.CPP
D:\POV-RAY\POV-RAY SOURCES\MIDDLE\POVRAY\WINDOWS\VS2015\BUILD\OPENEXR ILMIMF\WIN32\RELEASE\OPENEXR ILMIMF.PDB
^D:\POV-RAY\POV-RAY SOURCES\MIDDLE\POVRAY\LIBRARIES\OPENEXR\ILMIMF\IMFRLECOMPRESSOR.CPP
D:\POV-RAY\POV-RAY SOURCES\MIDDLE\POVRAY\WINDOWS\VS2015\BUILD\OPENEXR ILMIMF\WIN32\RELEASE\OPENEXR ILMIMF.PDB
^D:\POV-RAY\POV-RAY SOURCES\MIDDLE\POVRAY\LIBRARIES\OPENEXR\ILMIMF\IMFSCANLINEINPUTFILE.CPP
D:\POV-RAY\POV-RAY SOURCES\MIDDLE\POVRAY\WINDOWS\VS2015\BUILD\OPENEXR ILMIMF\WIN32\RELEASE\OPENEXR ILMIMF.PDB
^D:\POV-RAY\POV-RAY SOURCES\MIDDLE\POVRAY\LIBRARIES\OPENEXR\ILMIMF\IMFSTANDARDATTRIBUTES.CPP
D:\POV-RAY\POV-RAY SOURCES\MIDDLE\POVRAY\WINDOWS\VS2015\BUILD\OPENEXR ILMIMF\WIN32\RELEASE\OPENEXR ILMIMF.PDB
^D:\POV-RAY\POV-RAY SOURCES\MIDDLE\POVRAY\LIBRARIES\OPENEXR\ILMIMF\IMFSTDIO.CPP
D:\POV-RAY\POV-RAY SOURCES\MIDDLE\POVRAY\WINDOWS\VS2015\BUILD\OPENEXR ILMIMF\WIN32\RELEASE\OPENEXR ILMIMF.PDB
^D:\POV-RAY\POV-RAY SOURCES\MIDDLE\POVRAY\LIBRARIES\OPENEXR\ILMIMF\IMFSTRINGATTRIBUTE.CPP
D:\POV-RAY\POV-RAY SOURCES\MIDDLE\POVRAY\WINDOWS\VS2015\BUILD\OPENEXR ILMIMF\WIN32\RELEASE\OPENEXR ILMIMF.PDB
^D:\POV-RAY\POV-RAY SOURCES\MIDDLE\POVRAY\LIBRARIES\OPENEXR\ILMIMF\IMFSTRINGVECTORATTRIBUTE.CPP
D:\POV-RAY\POV-RAY SOURCES\MIDDLE\POVRAY\WINDOWS\VS2015\BUILD\OPENEXR ILMIMF\WIN32\RELEASE\OPENEXR ILMIMF.PDB
^D:\POV-RAY\POV-RAY SOURCES\MIDDLE\POVRAY\LIBRARIES\OPENEXR\ILMIMF\IMFSYSTEMSPECIFIC.CPP
D:\POV-RAY\POV-RAY SOURCES\MIDDLE\POVRAY\WINDOWS\VS2015\BUILD\OPENEXR ILMIMF\WIN32\RELEASE\OPENEXR ILMIMF.PDB
^D:\POV-RAY\POV-RAY SOURCES\MIDDLE\POVRAY\LIBRARIES\OPENEXR\ILMIMF\IMFTESTFILE.CPP
D:\POV-RAY\POV-RAY SOURCES\MIDDLE\POVRAY\WINDOWS\VS2015\BUILD\OPENEXR ILMIMF\WIN32\RELEASE\OPENEXR ILMIMF.PDB
^D:\POV-RAY\POV-RAY SOURCES\MIDDLE\POVRAY\LIBRARIES\OPENEXR\ILMIMF\IMFTHREADING.CPP
D:\POV-RAY\POV-RAY SOURCES\MIDDLE\POVRAY\WINDOWS\VS2015\BUILD\OPENEXR ILMIMF\WIN32\RELEASE\OPENEXR ILMIMF.PDB
^D:\POV-RAY\POV-RAY SOURCES\MIDDLE\POVRAY\LIBRARIES\OPENEXR\ILMIMF\IMFTILEDESCRIPTIONATTRIBUTE.CPP
D:\POV-RAY\POV-RAY SOURCES\MIDDLE\POVRAY\WINDOWS\VS2015\BUILD\OPENEXR ILMIMF\WIN32\RELEASE\OPENEXR ILMIMF.PDB
^D:\POV-RAY\POV-RAY SOURCES\MIDDLE\POVRAY\LIBRARIES\OPENEXR\ILMIMF\IMFTILEDINPUTFILE.CPP
D:\POV-RAY\POV-RAY SOURCES\MIDDLE\POVRAY\WINDOWS\VS2015\BUILD\OPENEXR ILMIMF\WIN32\RELEASE\OPENEXR ILMIMF.PDB
^D:\POV-RAY\POV-RAY SOURCES\MIDDLE\POVRAY\LIBRARIES\OPENEXR\ILMIMF\IMFTILEDINPUTPART.CPP
D:\POV-RAY\POV-RAY SOURCES\MIDDLE\POVRAY\WINDOWS\VS2015\BUILD\OPENEXR ILMIMF\WIN32\RELEASE\OPENEXR ILMIMF.PDB
^D:\POV-RAY\POV-RAY SOURCES\MIDDLE\POVRAY\LIBRARIES\OPENEXR\ILMIMF\IMFTILEDMISC.CPP
D:\POV-RAY\POV-RAY SOURCES\MIDDLE\POVRAY\WINDOWS\VS2015\BUILD\OPENEXR ILMIMF\WIN32\RELEASE\OPENEXR ILMIMF.PDB
^D:\POV-RAY\POV-RAY SOURCES\MIDDLE\POVRAY\LIBRARIES\OPENEXR\ILMIMF\IMFTILEDOUTPUTFILE.CPP
D:\POV-RAY\POV-RAY SOURCES\MIDDLE\POVRAY\WINDOWS\VS2015\BUILD\OPENEXR ILMIMF\WIN32\RELEASE\OPENEXR ILMIMF.PDB
^D:\POV-RAY\POV-RAY SOURCES\MIDDLE\POVRAY\LIBRARIES\OPENEXR\ILMIMF\IMFTILEDOUTPUTPART.CPP
D:\POV-RAY\POV-RAY SOURCES\MIDDLE\POVRAY\WINDOWS\VS2015\BUILD\OPENEXR ILMIMF\WIN32\RELEASE\OPENEXR ILMIMF.PDB
^D:\POV-RAY\POV-RAY SOURCES\MIDDLE\POVRAY\LIBRARIES\OPENEXR\ILMIMF\IMFTILEDRGBAFILE.CPP
D:\POV-RAY\POV-RAY SOURCES\MIDDLE\POVRAY\WINDOWS\VS2015\BUILD\OPENEXR ILMIMF\WIN32\RELEASE\OPENEXR ILMIMF.PDB
^D:\POV-RAY\POV-RAY SOURCES\MIDDLE\POVRAY\LIBRARIES\OPENEXR\ILMIMF\IMFTILEOFFSETS.CPP
D:\POV-RAY\POV-RAY SOURCES\MIDDLE\POVRAY\WINDOWS\VS2015\BUILD\OPENEXR ILMIMF\WIN32\RELEASE\OPENEXR ILMIMF.PDB
^D:\POV-RAY\POV-RAY SOURCES\MIDDLE\POVRAY\LIBRARIES\OPENEXR\ILMIMF\IMFTIMECODE.CPP
D:\POV-RAY\POV-RAY SOURCES\MIDDLE\POVRAY\WINDOWS\VS2015\BUILD\OPENEXR ILMIMF\WIN32\RELEASE\OPENEXR ILMIMF.PDB
^D:\POV-RAY\POV-RAY SOURCES\MIDDLE\POVRAY\LIBRARIES\OPENEXR\ILMIMF\IMFTIMECODEATTRIBUTE.CPP
D:\POV-RAY\POV-RAY SOURCES\MIDDLE\POVRAY\WINDOWS\VS2015\BUILD\OPENEXR ILMIMF\WIN32\RELEASE\OPENEXR ILMIMF.PDB
^D:\POV-RAY\POV-RAY SOURCES\MIDDLE\POVRAY\LIBRARIES\OPENEXR\ILMIMF\IMFVECATTRIBUTE.CPP
D:\POV-RAY\POV-RAY SOURCES\MIDDLE\POVRAY\WINDOWS\VS2015\BUILD\OPENEXR ILMIMF\WIN32\RELEASE\OPENEXR ILMIMF.PDB
^D:\POV-RAY\POV-RAY SOURCES\MIDDLE\POVRAY\LIBRARIES\OPENEXR\ILMIMF\IMFVERSION.CPP
D:\POV-RAY\POV-RAY SOURCES\MIDDLE\POVRAY\WINDOWS\VS2015\BUILD\OPENEXR ILMIMF\WIN32\RELEASE\OPENEXR ILMIMF.PDB
^D:\POV-RAY\POV-RAY SOURCES\MIDDLE\POVRAY\LIBRARIES\OPENEXR\ILMIMF\IMFWAV.CPP
D:\POV-RAY\POV-RAY SOURCES\MIDDLE\POVRAY\WINDOWS\VS2015\BUILD\OPENEXR ILMIMF\WIN32\RELEASE\OPENEXR ILMIMF.PDB
^D:\POV-RAY\POV-RAY SOURCES\MIDDLE\POVRAY\LIBRARIES\OPENEXR\ILMIMF\IMFZIP.CPP
D:\POV-RAY\POV-RAY SOURCES\MIDDLE\POVRAY\WINDOWS\VS2015\BUILD\OPENEXR ILMIMF\WIN32\RELEASE\OPENEXR ILMIMF.PDB
^D:\POV-RAY\POV-RAY SOURCES\MIDDLE\POVRAY\LIBRARIES\OPENEXR\ILMIMF\IMFZIPCOMPRESSOR.CPP
D:\POV-RAY\POV-RAY SOURCES\MIDDLE\POVRAY\WINDOWS\VS2015\BUILD\OPENEXR ILMIMF\WIN32\RELEASE\OPENEXR ILMIMF.PDB
