^C:\USERS\MATTHEW MCCOMB\DOCUMENTS\GITHUB\POVRAY\LIBRARIES\BOOST\LIBS\SYSTEM\SRC\ERROR_CODE.CPP
C:\USERS\MATTHEW MCCOMB\DOCUMENTS\GITHUB\POVRAY\WINDOWS\VS2015\BUILD\BOOST_SYSTEM\WIN32\RELEASE\BOOST_SYSTEM.PDB
C:\USERS\MATTHEW MCCOMB\DOCUMENTS\GITHUB\POVRAY\WINDOWS\VS2015\BUILD\BOOST_SYSTEM\WIN32\RELEASE\ERROR_CODE.SBR
C:\USERS\MATTHEW MCCOMB\DOCUMENTS\GITHUB\POVRAY\WINDOWS\VS2015\BUILD\BOOST_SYSTEM\WIN32\RELEASE\ERROR_CODE.OBJ
^D:\POV-RAY\POV-RAY SOURCES\PLUSMINUS\POVRAY\LIBRARIES\BOOST\LIBS\SYSTEM\SRC\ERROR_CODE.CPP
D:\POV-RAY\POV-RAY SOURCES\PLUSMINUS\POVRAY\WINDOWS\VS2015\BUILD\BOOST_SYSTEM\WIN32\RELEASE\BOOST_SYSTEM.PDB
D:\POV-RAY\POV-RAY SOURCES\PLUSMINUS\POVRAY\WINDOWS\VS2015\BUILD\BOOST_SYSTEM\WIN32\RELEASE\ERROR_CODE.SBR
D:\POV-RAY\POV-RAY SOURCES\PLUSMINUS\POVRAY\WINDOWS\VS2015\BUILD\BOOST_SYSTEM\WIN32\RELEASE\ERROR_CODE.OBJ
