^C:\USERS\MATTHEW MCCOMB\DOCUMENTS\GITHUB\POVRAYONLYSPHERE\WINDOWS\VS2015\BUILD\OPENEXR ILMBASE HALF ELUT\WIN32\RELEASE\ELUT.OBJ
/OUT:"BUILD\OPENEXR ILMBASE HALF ELUT\WIN32\RELEASE\ELUT.EXE" /NOLOGO KERNEL32.LIB USER32.LIB GDI32.LIB WINSPOOL.LIB COMDLG32.LIB ADVAPI32.LIB SHELL32.LIB OLE32.LIB OLEAUT32.LIB UUID.LIB ODBC32.LIB ODBCCP32.LIB /MANIFEST /MANIFESTUAC:"level='asInvoker' uiAccess='false'" /manifest:embed /DEBUG /PDB:"BUILD\OPENEXR ILMBASE HALF ELUT\WIN32\RELEASE\ELUT.PDB" /SUBSYSTEM:CONSOLE /TLBID:1 /DYNAMICBASE /NXCOMPAT /IMPLIB:"BUILD\OPENEXR ILMBASE HALF ELUT\WIN32\RELEASE\ELUT.LIB" /MACHINE:X86 /SAFESEH "BUILD\OPENEXR ILMBASE HALF ELUT\WIN32\RELEASE\ELUT.OBJ"
^D:\POV-RAY\POV-RAY SOURCES\FLOAT\POVRAYFLOAT\WINDOWS\VS2015\BUILD\OPENEXR ILMBASE HALF ELUT\WIN32\RELEASE\ELUT.OBJ
/OUT:"BUILD\OPENEXR ILMBASE HALF ELUT\WIN32\RELEASE\ELUT.EXE" /NOLOGO KERNEL32.LIB USER32.LIB GDI32.LIB WINSPOOL.LIB COMDLG32.LIB ADVAPI32.LIB SHELL32.LIB OLE32.LIB OLEAUT32.LIB UUID.LIB ODBC32.LIB ODBCCP32.LIB /MANIFEST /MANIFESTUAC:"level='asInvoker' uiAccess='false'" /manifest:embed /DEBUG /PDB:"BUILD\OPENEXR ILMBASE HALF ELUT\WIN32\RELEASE\ELUT.PDB" /SUBSYSTEM:CONSOLE /TLBID:1 /DYNAMICBASE /NXCOMPAT /IMPLIB:"BUILD\OPENEXR ILMBASE HALF ELUT\WIN32\RELEASE\ELUT.LIB" /MACHINE:X86 /SAFESEH "BUILD\OPENEXR ILMBASE HALF ELUT\WIN32\RELEASE\ELUT.OBJ"
