c:\users\matthew mccomb\documents\github\povray\windows\vs2015\bin32\lib\libboost_thread32d.bsc
c:\users\matthew mccomb\documents\github\povray\windows\vs2015\build\boost_thread\win32\debug\boost_thread.pdb
c:\users\matthew mccomb\documents\github\povray\windows\vs2015\build\boost_thread\win32\debug\future.sbr
c:\users\matthew mccomb\documents\github\povray\windows\vs2015\build\boost_thread\win32\debug\thread.sbr
c:\users\matthew mccomb\documents\github\povray\windows\vs2015\build\boost_thread\win32\debug\tss_dll.sbr
c:\users\matthew mccomb\documents\github\povray\windows\vs2015\build\boost_thread\win32\debug\tss_pe.sbr
c:\users\matthew mccomb\documents\github\povray\windows\vs2015\build\boost_thread\win32\debug\tss_pe.obj
c:\users\matthew mccomb\documents\github\povray\windows\vs2015\build\boost_thread\win32\debug\tss_dll.obj
c:\users\matthew mccomb\documents\github\povray\windows\vs2015\build\boost_thread\win32\debug\thread.obj
c:\users\matthew mccomb\documents\github\povray\windows\vs2015\build\boost_thread\win32\debug\future.obj
c:\users\matthew mccomb\documents\github\povray\windows\vs2015\bin32\lib\libboost_thread32d.lib
c:\users\matthew mccomb\documents\github\povray\windows\vs2015\build\boost_thread\win32\debug\boost_thread.tlog\bscmake.command.1.tlog
c:\users\matthew mccomb\documents\github\povray\windows\vs2015\build\boost_thread\win32\debug\boost_thread.tlog\bscmake.read.1.tlog
c:\users\matthew mccomb\documents\github\povray\windows\vs2015\build\boost_thread\win32\debug\boost_thread.tlog\bscmake.write.1.tlog
c:\users\matthew mccomb\documents\github\povray\windows\vs2015\build\boost_thread\win32\debug\boost_thread.tlog\cl.command.1.tlog
c:\users\matthew mccomb\documents\github\povray\windows\vs2015\build\boost_thread\win32\debug\boost_thread.tlog\cl.read.1.tlog
c:\users\matthew mccomb\documents\github\povray\windows\vs2015\build\boost_thread\win32\debug\boost_thread.tlog\cl.write.1.tlog
c:\users\matthew mccomb\documents\github\povray\windows\vs2015\build\boost_thread\win32\debug\boost_thread.tlog\lib-link.read.1.tlog
c:\users\matthew mccomb\documents\github\povray\windows\vs2015\build\boost_thread\win32\debug\boost_thread.tlog\lib-link.write.1.tlog
c:\users\matthew mccomb\documents\github\povray\windows\vs2015\build\boost_thread\win32\debug\boost_thread.tlog\lib.command.1.tlog
