^C:\USERS\MATTHEW MCCOMB\DOCUMENTS\GITHUB\POVRAYONLYSPHERE\VFE\VFEPRECOMP.CPP
/c /I..\..\INTERNAL\WINDOWS /I..\..\PLATFORM\X86 /I..\..\PLATFORM\WINDOWS /I..\..\WINDOWS\POVCONFIG /I..\..\LIBRARIES\BOOST /I..\..\VFE\WIN\ /I..\..\VFE /I..\..\SOURCE /I..\..\SOURCE\BASE /I..\..\SOURCE\BACKEND /I..\..\SOURCE\FRONTEND /I..\..\LIBRARIES\JPEG /I..\..\LIBRARIES\ZLIB /I..\..\LIBRARIES\PNG /I..\..\LIBRARIES\TIFF\LIBTIFF /Zi /nologo /W3 /WX- /Ox /Ob2 /Oi /Ot /Oy- /GL /D BOOST_ALL_NO_LIB /D NDEBUG /D WIN32 /D WIN32_LEAN_AND_MEAN /D _WINDOWS /D COMMONCTRL_VERSION=0x500 /D CLASSLIB_DEFS_H /D WINVER=0x0500 /D _WIN32_WINNT=0x0500 /D NOMINMAX /D ISOLATION_AWARE_ENABLED /D _CRT_SECURE_NO_DEPRECATE /D _SCL_SECURE_NO_DEPRECATE /D _SECURE_SCL=0 /GF /Gm /EHsc /MT /GS- /Gy- /fp:precise /Zc:wchar_t /Zc:forScope /Zc:inline /GR /Yc"vfeprecomp.h" /Fp"BUILD\VFEWIN\WIN32\RELEASE\VFEPRECOMP.PCH" /Fo"BUILD\VFEWIN\WIN32\RELEASE\\" /Fd"BUILD\VFEWIN\WIN32\RELEASE\VFEWIN.PDB" /FR"build\vfewin\Win32\Release\\" /Gd /TP /wd4800 /FIVFEPRECOMP.H /analyze- C:\USERS\MATTHEW MCCOMB\DOCUMENTS\GITHUB\POVRAYONLYSPHERE\VFE\VFEPRECOMP.CPP
^C:\USERS\MATTHEW MCCOMB\DOCUMENTS\GITHUB\POVRAYONLYSPHERE\VFE\VFE.CPP
/c /I..\..\INTERNAL\WINDOWS /I..\..\PLATFORM\X86 /I..\..\PLATFORM\WINDOWS /I..\..\WINDOWS\POVCONFIG /I..\..\LIBRARIES\BOOST /I..\..\VFE\WIN\ /I..\..\VFE /I..\..\SOURCE /I..\..\SOURCE\BASE /I..\..\SOURCE\BACKEND /I..\..\SOURCE\FRONTEND /I..\..\LIBRARIES\JPEG /I..\..\LIBRARIES\ZLIB /I..\..\LIBRARIES\PNG /I..\..\LIBRARIES\TIFF\LIBTIFF /Zi /nologo /W3 /WX- /Ox /Ob2 /Oi /Ot /Oy- /GL /D BOOST_ALL_NO_LIB /D NDEBUG /D WIN32 /D WIN32_LEAN_AND_MEAN /D _WINDOWS /D COMMONCTRL_VERSION=0x500 /D CLASSLIB_DEFS_H /D WINVER=0x0500 /D _WIN32_WINNT=0x0500 /D NOMINMAX /D ISOLATION_AWARE_ENABLED /D _CRT_SECURE_NO_DEPRECATE /D _SCL_SECURE_NO_DEPRECATE /D _SECURE_SCL=0 /GF /Gm /EHsc /MT /GS- /Gy- /fp:precise /Zc:wchar_t /Zc:forScope /Zc:inline /GR /Yu"vfeprecomp.h" /Fp"BUILD\VFEWIN\WIN32\RELEASE\VFEPRECOMP.PCH" /Fo"BUILD\VFEWIN\WIN32\RELEASE\\" /Fd"BUILD\VFEWIN\WIN32\RELEASE\VFEWIN.PDB" /FR"build\vfewin\Win32\Release\\" /Gd /TP /wd4800 /FIVFEPRECOMP.H /analyze- C:\USERS\MATTHEW MCCOMB\DOCUMENTS\GITHUB\POVRAYONLYSPHERE\VFE\VFE.CPP
^C:\USERS\MATTHEW MCCOMB\DOCUMENTS\GITHUB\POVRAYONLYSPHERE\VFE\VFECONTROL.CPP
/c /I..\..\INTERNAL\WINDOWS /I..\..\PLATFORM\X86 /I..\..\PLATFORM\WINDOWS /I..\..\WINDOWS\POVCONFIG /I..\..\LIBRARIES\BOOST /I..\..\VFE\WIN\ /I..\..\VFE /I..\..\SOURCE /I..\..\SOURCE\BASE /I..\..\SOURCE\BACKEND /I..\..\SOURCE\FRONTEND /I..\..\LIBRARIES\JPEG /I..\..\LIBRARIES\ZLIB /I..\..\LIBRARIES\PNG /I..\..\LIBRARIES\TIFF\LIBTIFF /Zi /nologo /W3 /WX- /Ox /Ob2 /Oi /Ot /Oy- /GL /D BOOST_ALL_NO_LIB /D NDEBUG /D WIN32 /D WIN32_LEAN_AND_MEAN /D _WINDOWS /D COMMONCTRL_VERSION=0x500 /D CLASSLIB_DEFS_H /D WINVER=0x0500 /D _WIN32_WINNT=0x0500 /D NOMINMAX /D ISOLATION_AWARE_ENABLED /D _CRT_SECURE_NO_DEPRECATE /D _SCL_SECURE_NO_DEPRECATE /D _SECURE_SCL=0 /GF /Gm /EHsc /MT /GS- /Gy- /fp:precise /Zc:wchar_t /Zc:forScope /Zc:inline /GR /Yu"vfeprecomp.h" /Fp"BUILD\VFEWIN\WIN32\RELEASE\VFEPRECOMP.PCH" /Fo"BUILD\VFEWIN\WIN32\RELEASE\\" /Fd"BUILD\VFEWIN\WIN32\RELEASE\VFEWIN.PDB" /FR"build\vfewin\Win32\Release\\" /Gd /TP /wd4800 /FIVFEPRECOMP.H /analyze- C:\USERS\MATTHEW MCCOMB\DOCUMENTS\GITHUB\POVRAYONLYSPHERE\VFE\VFECONTROL.CPP
^C:\USERS\MATTHEW MCCOMB\DOCUMENTS\GITHUB\POVRAYONLYSPHERE\VFE\VFEDISPLAY.CPP
/c /I..\..\INTERNAL\WINDOWS /I..\..\PLATFORM\X86 /I..\..\PLATFORM\WINDOWS /I..\..\WINDOWS\POVCONFIG /I..\..\LIBRARIES\BOOST /I..\..\VFE\WIN\ /I..\..\VFE /I..\..\SOURCE /I..\..\SOURCE\BASE /I..\..\SOURCE\BACKEND /I..\..\SOURCE\FRONTEND /I..\..\LIBRARIES\JPEG /I..\..\LIBRARIES\ZLIB /I..\..\LIBRARIES\PNG /I..\..\LIBRARIES\TIFF\LIBTIFF /Zi /nologo /W3 /WX- /Ox /Ob2 /Oi /Ot /Oy- /GL /D BOOST_ALL_NO_LIB /D NDEBUG /D WIN32 /D WIN32_LEAN_AND_MEAN /D _WINDOWS /D COMMONCTRL_VERSION=0x500 /D CLASSLIB_DEFS_H /D WINVER=0x0500 /D _WIN32_WINNT=0x0500 /D NOMINMAX /D ISOLATION_AWARE_ENABLED /D _CRT_SECURE_NO_DEPRECATE /D _SCL_SECURE_NO_DEPRECATE /D _SECURE_SCL=0 /GF /Gm /EHsc /MT /GS- /Gy- /fp:precise /Zc:wchar_t /Zc:forScope /Zc:inline /GR /Yu"vfeprecomp.h" /Fp"BUILD\VFEWIN\WIN32\RELEASE\VFEPRECOMP.PCH" /Fo"BUILD\VFEWIN\WIN32\RELEASE\\" /Fd"BUILD\VFEWIN\WIN32\RELEASE\VFEWIN.PDB" /FR"build\vfewin\Win32\Release\\" /Gd /TP /wd4800 /FIVFEPRECOMP.H /analyze- C:\USERS\MATTHEW MCCOMB\DOCUMENTS\GITHUB\POVRAYONLYSPHERE\VFE\VFEDISPLAY.CPP
^C:\USERS\MATTHEW MCCOMB\DOCUMENTS\GITHUB\POVRAYONLYSPHERE\VFE\VFEPOVMS.CPP
/c /I..\..\INTERNAL\WINDOWS /I..\..\PLATFORM\X86 /I..\..\PLATFORM\WINDOWS /I..\..\WINDOWS\POVCONFIG /I..\..\LIBRARIES\BOOST /I..\..\VFE\WIN\ /I..\..\VFE /I..\..\SOURCE /I..\..\SOURCE\BASE /I..\..\SOURCE\BACKEND /I..\..\SOURCE\FRONTEND /I..\..\LIBRARIES\JPEG /I..\..\LIBRARIES\ZLIB /I..\..\LIBRARIES\PNG /I..\..\LIBRARIES\TIFF\LIBTIFF /Zi /nologo /W3 /WX- /Ox /Ob2 /Oi /Ot /Oy- /GL /D BOOST_ALL_NO_LIB /D NDEBUG /D WIN32 /D WIN32_LEAN_AND_MEAN /D _WINDOWS /D COMMONCTRL_VERSION=0x500 /D CLASSLIB_DEFS_H /D WINVER=0x0500 /D _WIN32_WINNT=0x0500 /D NOMINMAX /D ISOLATION_AWARE_ENABLED /D _CRT_SECURE_NO_DEPRECATE /D _SCL_SECURE_NO_DEPRECATE /D _SECURE_SCL=0 /GF /Gm /EHsc /MT /GS- /Gy- /fp:precise /Zc:wchar_t /Zc:forScope /Zc:inline /GR /Yu"vfeprecomp.h" /Fp"BUILD\VFEWIN\WIN32\RELEASE\VFEPRECOMP.PCH" /Fo"BUILD\VFEWIN\WIN32\RELEASE\\" /Fd"BUILD\VFEWIN\WIN32\RELEASE\VFEWIN.PDB" /FR"build\vfewin\Win32\Release\\" /Gd /TP /wd4800 /FIVFEPRECOMP.H /analyze- C:\USERS\MATTHEW MCCOMB\DOCUMENTS\GITHUB\POVRAYONLYSPHERE\VFE\VFEPOVMS.CPP
^C:\USERS\MATTHEW MCCOMB\DOCUMENTS\GITHUB\POVRAYONLYSPHERE\VFE\VFESESSION.CPP
/c /I..\..\INTERNAL\WINDOWS /I..\..\PLATFORM\X86 /I..\..\PLATFORM\WINDOWS /I..\..\WINDOWS\POVCONFIG /I..\..\LIBRARIES\BOOST /I..\..\VFE\WIN\ /I..\..\VFE /I..\..\SOURCE /I..\..\SOURCE\BASE /I..\..\SOURCE\BACKEND /I..\..\SOURCE\FRONTEND /I..\..\LIBRARIES\JPEG /I..\..\LIBRARIES\ZLIB /I..\..\LIBRARIES\PNG /I..\..\LIBRARIES\TIFF\LIBTIFF /Zi /nologo /W3 /WX- /Ox /Ob2 /Oi /Ot /Oy- /GL /D BOOST_ALL_NO_LIB /D NDEBUG /D WIN32 /D WIN32_LEAN_AND_MEAN /D _WINDOWS /D COMMONCTRL_VERSION=0x500 /D CLASSLIB_DEFS_H /D WINVER=0x0500 /D _WIN32_WINNT=0x0500 /D NOMINMAX /D ISOLATION_AWARE_ENABLED /D _CRT_SECURE_NO_DEPRECATE /D _SCL_SECURE_NO_DEPRECATE /D _SECURE_SCL=0 /GF /Gm /EHsc /MT /GS- /Gy- /fp:precise /Zc:wchar_t /Zc:forScope /Zc:inline /GR /Yu"vfeprecomp.h" /Fp"BUILD\VFEWIN\WIN32\RELEASE\VFEPRECOMP.PCH" /Fo"BUILD\VFEWIN\WIN32\RELEASE\\" /Fd"BUILD\VFEWIN\WIN32\RELEASE\VFEWIN.PDB" /FR"build\vfewin\Win32\Release\\" /Gd /TP /wd4800 /FIVFEPRECOMP.H /analyze- C:\USERS\MATTHEW MCCOMB\DOCUMENTS\GITHUB\POVRAYONLYSPHERE\VFE\VFESESSION.CPP
^C:\USERS\MATTHEW MCCOMB\DOCUMENTS\GITHUB\POVRAYONLYSPHERE\VFE\WIN\VFEPLATFORM.CPP
/c /I..\..\INTERNAL\WINDOWS /I..\..\PLATFORM\X86 /I..\..\PLATFORM\WINDOWS /I..\..\WINDOWS\POVCONFIG /I..\..\LIBRARIES\BOOST /I..\..\VFE\WIN\ /I..\..\VFE /I..\..\SOURCE /I..\..\SOURCE\BASE /I..\..\SOURCE\BACKEND /I..\..\SOURCE\FRONTEND /I..\..\LIBRARIES\JPEG /I..\..\LIBRARIES\ZLIB /I..\..\LIBRARIES\PNG /I..\..\LIBRARIES\TIFF\LIBTIFF /Zi /nologo /W3 /WX- /Ox /Ob2 /Oi /Ot /Oy- /GL /D BOOST_ALL_NO_LIB /D NDEBUG /D WIN32 /D WIN32_LEAN_AND_MEAN /D _WINDOWS /D COMMONCTRL_VERSION=0x500 /D CLASSLIB_DEFS_H /D WINVER=0x0500 /D _WIN32_WINNT=0x0500 /D NOMINMAX /D ISOLATION_AWARE_ENABLED /D _CRT_SECURE_NO_DEPRECATE /D _SCL_SECURE_NO_DEPRECATE /D _SECURE_SCL=0 /GF /Gm /EHsc /MT /GS- /Gy- /fp:precise /Zc:wchar_t /Zc:forScope /Zc:inline /GR /Yu"vfeprecomp.h" /Fp"BUILD\VFEWIN\WIN32\RELEASE\VFEPRECOMP.PCH" /Fo"BUILD\VFEWIN\WIN32\RELEASE\\" /Fd"BUILD\VFEWIN\WIN32\RELEASE\VFEWIN.PDB" /FR"build\vfewin\Win32\Release\\" /Gd /TP /wd4800 /FIVFEPRECOMP.H /analyze- C:\USERS\MATTHEW MCCOMB\DOCUMENTS\GITHUB\POVRAYONLYSPHERE\VFE\WIN\VFEPLATFORM.CPP
^D:\POV-RAY\POV-RAY SOURCES\FLOAT\POVRAYFLOAT\VFE\VFEPRECOMP.CPP
/c /I..\..\INTERNAL\WINDOWS /I..\..\PLATFORM\X86 /I..\..\PLATFORM\WINDOWS /I..\..\WINDOWS\POVCONFIG /I..\..\LIBRARIES\BOOST /I..\..\VFE\WIN\ /I..\..\VFE /I..\..\SOURCE /I..\..\SOURCE\BASE /I..\..\SOURCE\BACKEND /I..\..\SOURCE\FRONTEND /I..\..\LIBRARIES\JPEG /I..\..\LIBRARIES\ZLIB /I..\..\LIBRARIES\PNG /I..\..\LIBRARIES\TIFF\LIBTIFF /Zi /nologo /W3 /WX- /Ox /Ob2 /Oi /Ot /Oy- /GL /D BOOST_ALL_NO_LIB /D NDEBUG /D WIN32 /D WIN32_LEAN_AND_MEAN /D _WINDOWS /D COMMONCTRL_VERSION=0x500 /D CLASSLIB_DEFS_H /D WINVER=0x0500 /D _WIN32_WINNT=0x0500 /D NOMINMAX /D ISOLATION_AWARE_ENABLED /D _CRT_SECURE_NO_DEPRECATE /D _SCL_SECURE_NO_DEPRECATE /D _SECURE_SCL=0 /GF /Gm /EHsc /MT /GS- /Gy- /fp:precise /Zc:wchar_t /Zc:forScope /Zc:inline /GR /Yc"vfeprecomp.h" /Fp"BUILD\VFEWIN\WIN32\RELEASE\VFEPRECOMP.PCH" /Fo"BUILD\VFEWIN\WIN32\RELEASE\\" /Fd"BUILD\VFEWIN\WIN32\RELEASE\VFEWIN.PDB" /FR"build\vfewin\Win32\Release\\" /Gd /TP /wd4800 /FIVFEPRECOMP.H /analyze- D:\POV-RAY\POV-RAY SOURCES\FLOAT\POVRAYFLOAT\VFE\VFEPRECOMP.CPP
^D:\POV-RAY\POV-RAY SOURCES\FLOAT\POVRAYFLOAT\VFE\VFE.CPP
/c /I..\..\INTERNAL\WINDOWS /I..\..\PLATFORM\X86 /I..\..\PLATFORM\WINDOWS /I..\..\WINDOWS\POVCONFIG /I..\..\LIBRARIES\BOOST /I..\..\VFE\WIN\ /I..\..\VFE /I..\..\SOURCE /I..\..\SOURCE\BASE /I..\..\SOURCE\BACKEND /I..\..\SOURCE\FRONTEND /I..\..\LIBRARIES\JPEG /I..\..\LIBRARIES\ZLIB /I..\..\LIBRARIES\PNG /I..\..\LIBRARIES\TIFF\LIBTIFF /Zi /nologo /W3 /WX- /Ox /Ob2 /Oi /Ot /Oy- /GL /D BOOST_ALL_NO_LIB /D NDEBUG /D WIN32 /D WIN32_LEAN_AND_MEAN /D _WINDOWS /D COMMONCTRL_VERSION=0x500 /D CLASSLIB_DEFS_H /D WINVER=0x0500 /D _WIN32_WINNT=0x0500 /D NOMINMAX /D ISOLATION_AWARE_ENABLED /D _CRT_SECURE_NO_DEPRECATE /D _SCL_SECURE_NO_DEPRECATE /D _SECURE_SCL=0 /GF /Gm /EHsc /MT /GS- /Gy- /fp:precise /Zc:wchar_t /Zc:forScope /Zc:inline /GR /Yu"vfeprecomp.h" /Fp"BUILD\VFEWIN\WIN32\RELEASE\VFEPRECOMP.PCH" /Fo"BUILD\VFEWIN\WIN32\RELEASE\\" /Fd"BUILD\VFEWIN\WIN32\RELEASE\VFEWIN.PDB" /FR"build\vfewin\Win32\Release\\" /Gd /TP /wd4800 /FIVFEPRECOMP.H /analyze- D:\POV-RAY\POV-RAY SOURCES\FLOAT\POVRAYFLOAT\VFE\VFE.CPP
^D:\POV-RAY\POV-RAY SOURCES\FLOAT\POVRAYFLOAT\VFE\VFECONTROL.CPP
/c /I..\..\INTERNAL\WINDOWS /I..\..\PLATFORM\X86 /I..\..\PLATFORM\WINDOWS /I..\..\WINDOWS\POVCONFIG /I..\..\LIBRARIES\BOOST /I..\..\VFE\WIN\ /I..\..\VFE /I..\..\SOURCE /I..\..\SOURCE\BASE /I..\..\SOURCE\BACKEND /I..\..\SOURCE\FRONTEND /I..\..\LIBRARIES\JPEG /I..\..\LIBRARIES\ZLIB /I..\..\LIBRARIES\PNG /I..\..\LIBRARIES\TIFF\LIBTIFF /Zi /nologo /W3 /WX- /Ox /Ob2 /Oi /Ot /Oy- /GL /D BOOST_ALL_NO_LIB /D NDEBUG /D WIN32 /D WIN32_LEAN_AND_MEAN /D _WINDOWS /D COMMONCTRL_VERSION=0x500 /D CLASSLIB_DEFS_H /D WINVER=0x0500 /D _WIN32_WINNT=0x0500 /D NOMINMAX /D ISOLATION_AWARE_ENABLED /D _CRT_SECURE_NO_DEPRECATE /D _SCL_SECURE_NO_DEPRECATE /D _SECURE_SCL=0 /GF /Gm /EHsc /MT /GS- /Gy- /fp:precise /Zc:wchar_t /Zc:forScope /Zc:inline /GR /Yu"vfeprecomp.h" /Fp"BUILD\VFEWIN\WIN32\RELEASE\VFEPRECOMP.PCH" /Fo"BUILD\VFEWIN\WIN32\RELEASE\\" /Fd"BUILD\VFEWIN\WIN32\RELEASE\VFEWIN.PDB" /FR"build\vfewin\Win32\Release\\" /Gd /TP /wd4800 /FIVFEPRECOMP.H /analyze- D:\POV-RAY\POV-RAY SOURCES\FLOAT\POVRAYFLOAT\VFE\VFECONTROL.CPP
^D:\POV-RAY\POV-RAY SOURCES\FLOAT\POVRAYFLOAT\VFE\VFEDISPLAY.CPP
/c /I..\..\INTERNAL\WINDOWS /I..\..\PLATFORM\X86 /I..\..\PLATFORM\WINDOWS /I..\..\WINDOWS\POVCONFIG /I..\..\LIBRARIES\BOOST /I..\..\VFE\WIN\ /I..\..\VFE /I..\..\SOURCE /I..\..\SOURCE\BASE /I..\..\SOURCE\BACKEND /I..\..\SOURCE\FRONTEND /I..\..\LIBRARIES\JPEG /I..\..\LIBRARIES\ZLIB /I..\..\LIBRARIES\PNG /I..\..\LIBRARIES\TIFF\LIBTIFF /Zi /nologo /W3 /WX- /Ox /Ob2 /Oi /Ot /Oy- /GL /D BOOST_ALL_NO_LIB /D NDEBUG /D WIN32 /D WIN32_LEAN_AND_MEAN /D _WINDOWS /D COMMONCTRL_VERSION=0x500 /D CLASSLIB_DEFS_H /D WINVER=0x0500 /D _WIN32_WINNT=0x0500 /D NOMINMAX /D ISOLATION_AWARE_ENABLED /D _CRT_SECURE_NO_DEPRECATE /D _SCL_SECURE_NO_DEPRECATE /D _SECURE_SCL=0 /GF /Gm /EHsc /MT /GS- /Gy- /fp:precise /Zc:wchar_t /Zc:forScope /Zc:inline /GR /Yu"vfeprecomp.h" /Fp"BUILD\VFEWIN\WIN32\RELEASE\VFEPRECOMP.PCH" /Fo"BUILD\VFEWIN\WIN32\RELEASE\\" /Fd"BUILD\VFEWIN\WIN32\RELEASE\VFEWIN.PDB" /FR"build\vfewin\Win32\Release\\" /Gd /TP /wd4800 /FIVFEPRECOMP.H /analyze- D:\POV-RAY\POV-RAY SOURCES\FLOAT\POVRAYFLOAT\VFE\VFEDISPLAY.CPP
^D:\POV-RAY\POV-RAY SOURCES\FLOAT\POVRAYFLOAT\VFE\VFEPOVMS.CPP
/c /I..\..\INTERNAL\WINDOWS /I..\..\PLATFORM\X86 /I..\..\PLATFORM\WINDOWS /I..\..\WINDOWS\POVCONFIG /I..\..\LIBRARIES\BOOST /I..\..\VFE\WIN\ /I..\..\VFE /I..\..\SOURCE /I..\..\SOURCE\BASE /I..\..\SOURCE\BACKEND /I..\..\SOURCE\FRONTEND /I..\..\LIBRARIES\JPEG /I..\..\LIBRARIES\ZLIB /I..\..\LIBRARIES\PNG /I..\..\LIBRARIES\TIFF\LIBTIFF /Zi /nologo /W3 /WX- /Ox /Ob2 /Oi /Ot /Oy- /GL /D BOOST_ALL_NO_LIB /D NDEBUG /D WIN32 /D WIN32_LEAN_AND_MEAN /D _WINDOWS /D COMMONCTRL_VERSION=0x500 /D CLASSLIB_DEFS_H /D WINVER=0x0500 /D _WIN32_WINNT=0x0500 /D NOMINMAX /D ISOLATION_AWARE_ENABLED /D _CRT_SECURE_NO_DEPRECATE /D _SCL_SECURE_NO_DEPRECATE /D _SECURE_SCL=0 /GF /Gm /EHsc /MT /GS- /Gy- /fp:precise /Zc:wchar_t /Zc:forScope /Zc:inline /GR /Yu"vfeprecomp.h" /Fp"BUILD\VFEWIN\WIN32\RELEASE\VFEPRECOMP.PCH" /Fo"BUILD\VFEWIN\WIN32\RELEASE\\" /Fd"BUILD\VFEWIN\WIN32\RELEASE\VFEWIN.PDB" /FR"build\vfewin\Win32\Release\\" /Gd /TP /wd4800 /FIVFEPRECOMP.H /analyze- D:\POV-RAY\POV-RAY SOURCES\FLOAT\POVRAYFLOAT\VFE\VFEPOVMS.CPP
^D:\POV-RAY\POV-RAY SOURCES\FLOAT\POVRAYFLOAT\VFE\VFESESSION.CPP
/c /I..\..\INTERNAL\WINDOWS /I..\..\PLATFORM\X86 /I..\..\PLATFORM\WINDOWS /I..\..\WINDOWS\POVCONFIG /I..\..\LIBRARIES\BOOST /I..\..\VFE\WIN\ /I..\..\VFE /I..\..\SOURCE /I..\..\SOURCE\BASE /I..\..\SOURCE\BACKEND /I..\..\SOURCE\FRONTEND /I..\..\LIBRARIES\JPEG /I..\..\LIBRARIES\ZLIB /I..\..\LIBRARIES\PNG /I..\..\LIBRARIES\TIFF\LIBTIFF /Zi /nologo /W3 /WX- /Ox /Ob2 /Oi /Ot /Oy- /GL /D BOOST_ALL_NO_LIB /D NDEBUG /D WIN32 /D WIN32_LEAN_AND_MEAN /D _WINDOWS /D COMMONCTRL_VERSION=0x500 /D CLASSLIB_DEFS_H /D WINVER=0x0500 /D _WIN32_WINNT=0x0500 /D NOMINMAX /D ISOLATION_AWARE_ENABLED /D _CRT_SECURE_NO_DEPRECATE /D _SCL_SECURE_NO_DEPRECATE /D _SECURE_SCL=0 /GF /Gm /EHsc /MT /GS- /Gy- /fp:precise /Zc:wchar_t /Zc:forScope /Zc:inline /GR /Yu"vfeprecomp.h" /Fp"BUILD\VFEWIN\WIN32\RELEASE\VFEPRECOMP.PCH" /Fo"BUILD\VFEWIN\WIN32\RELEASE\\" /Fd"BUILD\VFEWIN\WIN32\RELEASE\VFEWIN.PDB" /FR"build\vfewin\Win32\Release\\" /Gd /TP /wd4800 /FIVFEPRECOMP.H /analyze- D:\POV-RAY\POV-RAY SOURCES\FLOAT\POVRAYFLOAT\VFE\VFESESSION.CPP
^D:\POV-RAY\POV-RAY SOURCES\FLOAT\POVRAYFLOAT\VFE\WIN\VFEPLATFORM.CPP
/c /I..\..\INTERNAL\WINDOWS /I..\..\PLATFORM\X86 /I..\..\PLATFORM\WINDOWS /I..\..\WINDOWS\POVCONFIG /I..\..\LIBRARIES\BOOST /I..\..\VFE\WIN\ /I..\..\VFE /I..\..\SOURCE /I..\..\SOURCE\BASE /I..\..\SOURCE\BACKEND /I..\..\SOURCE\FRONTEND /I..\..\LIBRARIES\JPEG /I..\..\LIBRARIES\ZLIB /I..\..\LIBRARIES\PNG /I..\..\LIBRARIES\TIFF\LIBTIFF /Zi /nologo /W3 /WX- /Ox /Ob2 /Oi /Ot /Oy- /GL /D BOOST_ALL_NO_LIB /D NDEBUG /D WIN32 /D WIN32_LEAN_AND_MEAN /D _WINDOWS /D COMMONCTRL_VERSION=0x500 /D CLASSLIB_DEFS_H /D WINVER=0x0500 /D _WIN32_WINNT=0x0500 /D NOMINMAX /D ISOLATION_AWARE_ENABLED /D _CRT_SECURE_NO_DEPRECATE /D _SCL_SECURE_NO_DEPRECATE /D _SECURE_SCL=0 /GF /Gm /EHsc /MT /GS- /Gy- /fp:precise /Zc:wchar_t /Zc:forScope /Zc:inline /GR /Yu"vfeprecomp.h" /Fp"BUILD\VFEWIN\WIN32\RELEASE\VFEPRECOMP.PCH" /Fo"BUILD\VFEWIN\WIN32\RELEASE\\" /Fd"BUILD\VFEWIN\WIN32\RELEASE\VFEWIN.PDB" /FR"build\vfewin\Win32\Release\\" /Gd /TP /wd4800 /FIVFEPRECOMP.H /analyze- D:\POV-RAY\POV-RAY SOURCES\FLOAT\POVRAYFLOAT\VFE\WIN\VFEPLATFORM.CPP
