^C:\USERS\MATTHEW MCCOMB\DOCUMENTS\GITHUB\POVRAY\LIBRARIES\TIFF\LIBTIFF\TIF_AUX.C
/c /I..\..\LIBRARIES\JPEG /I..\..\LIBRARIES\ZLIB /Zi /nologo /W2 /WX- /O2 /Ob1 /Oy- /GL /D WIN32 /D WIN32_LEAN_AND_MEAN /D NDEBUG /D _LIB /D USE_WIN32_FILEIO /D _CRT_SECURE_NO_DEPRECATE /D _MBCS /GF /Gm- /EHsc /MT /GS- /Gy- /fp:precise /Zc:wchar_t /Zc:forScope /Zc:inline /Fo"BUILD\TIFF\WIN32\RELEASE\\" /Fd"BUILD\TIFF\WIN32\RELEASE\TIFF.PDB" /FR"build\tiff\Win32\Release\\" /Gd /TC /wd4133 /wd4005 /analyze- C:\USERS\MATTHEW MCCOMB\DOCUMENTS\GITHUB\POVRAY\LIBRARIES\TIFF\LIBTIFF\TIF_AUX.C
^C:\USERS\MATTHEW MCCOMB\DOCUMENTS\GITHUB\POVRAY\LIBRARIES\TIFF\LIBTIFF\TIF_CLOSE.C
/c /I..\..\LIBRARIES\JPEG /I..\..\LIBRARIES\ZLIB /Zi /nologo /W2 /WX- /O2 /Ob1 /Oy- /GL /D WIN32 /D WIN32_LEAN_AND_MEAN /D NDEBUG /D _LIB /D USE_WIN32_FILEIO /D _CRT_SECURE_NO_DEPRECATE /D _MBCS /GF /Gm- /EHsc /MT /GS- /Gy- /fp:precise /Zc:wchar_t /Zc:forScope /Zc:inline /Fo"BUILD\TIFF\WIN32\RELEASE\\" /Fd"BUILD\TIFF\WIN32\RELEASE\TIFF.PDB" /FR"build\tiff\Win32\Release\\" /Gd /TC /wd4133 /wd4005 /analyze- C:\USERS\MATTHEW MCCOMB\DOCUMENTS\GITHUB\POVRAY\LIBRARIES\TIFF\LIBTIFF\TIF_CLOSE.C
^C:\USERS\MATTHEW MCCOMB\DOCUMENTS\GITHUB\POVRAY\LIBRARIES\TIFF\LIBTIFF\TIF_CODEC.C
/c /I..\..\LIBRARIES\JPEG /I..\..\LIBRARIES\ZLIB /Zi /nologo /W2 /WX- /O2 /Ob1 /Oy- /GL /D WIN32 /D WIN32_LEAN_AND_MEAN /D NDEBUG /D _LIB /D USE_WIN32_FILEIO /D _CRT_SECURE_NO_DEPRECATE /D _MBCS /GF /Gm- /EHsc /MT /GS- /Gy- /fp:precise /Zc:wchar_t /Zc:forScope /Zc:inline /Fo"BUILD\TIFF\WIN32\RELEASE\\" /Fd"BUILD\TIFF\WIN32\RELEASE\TIFF.PDB" /FR"build\tiff\Win32\Release\\" /Gd /TC /wd4133 /wd4005 /analyze- C:\USERS\MATTHEW MCCOMB\DOCUMENTS\GITHUB\POVRAY\LIBRARIES\TIFF\LIBTIFF\TIF_CODEC.C
^C:\USERS\MATTHEW MCCOMB\DOCUMENTS\GITHUB\POVRAY\LIBRARIES\TIFF\LIBTIFF\TIF_COLOR.C
/c /I..\..\LIBRARIES\JPEG /I..\..\LIBRARIES\ZLIB /Zi /nologo /W2 /WX- /O2 /Ob1 /Oy- /GL /D WIN32 /D WIN32_LEAN_AND_MEAN /D NDEBUG /D _LIB /D USE_WIN32_FILEIO /D _CRT_SECURE_NO_DEPRECATE /D _MBCS /GF /Gm- /EHsc /MT /GS- /Gy- /fp:precise /Zc:wchar_t /Zc:forScope /Zc:inline /Fo"BUILD\TIFF\WIN32\RELEASE\\" /Fd"BUILD\TIFF\WIN32\RELEASE\TIFF.PDB" /FR"build\tiff\Win32\Release\\" /Gd /TC /wd4133 /wd4005 /analyze- C:\USERS\MATTHEW MCCOMB\DOCUMENTS\GITHUB\POVRAY\LIBRARIES\TIFF\LIBTIFF\TIF_COLOR.C
^C:\USERS\MATTHEW MCCOMB\DOCUMENTS\GITHUB\POVRAY\LIBRARIES\TIFF\LIBTIFF\TIF_COMPRESS.C
/c /I..\..\LIBRARIES\JPEG /I..\..\LIBRARIES\ZLIB /Zi /nologo /W2 /WX- /O2 /Ob1 /Oy- /GL /D WIN32 /D WIN32_LEAN_AND_MEAN /D NDEBUG /D _LIB /D USE_WIN32_FILEIO /D _CRT_SECURE_NO_DEPRECATE /D _MBCS /GF /Gm- /EHsc /MT /GS- /Gy- /fp:precise /Zc:wchar_t /Zc:forScope /Zc:inline /Fo"BUILD\TIFF\WIN32\RELEASE\\" /Fd"BUILD\TIFF\WIN32\RELEASE\TIFF.PDB" /FR"build\tiff\Win32\Release\\" /Gd /TC /wd4133 /wd4005 /analyze- C:\USERS\MATTHEW MCCOMB\DOCUMENTS\GITHUB\POVRAY\LIBRARIES\TIFF\LIBTIFF\TIF_COMPRESS.C
^C:\USERS\MATTHEW MCCOMB\DOCUMENTS\GITHUB\POVRAY\LIBRARIES\TIFF\LIBTIFF\TIF_DIR.C
/c /I..\..\LIBRARIES\JPEG /I..\..\LIBRARIES\ZLIB /Zi /nologo /W2 /WX- /O2 /Ob1 /Oy- /GL /D WIN32 /D WIN32_LEAN_AND_MEAN /D NDEBUG /D _LIB /D USE_WIN32_FILEIO /D _CRT_SECURE_NO_DEPRECATE /D _MBCS /GF /Gm- /EHsc /MT /GS- /Gy- /fp:precise /Zc:wchar_t /Zc:forScope /Zc:inline /Fo"BUILD\TIFF\WIN32\RELEASE\\" /Fd"BUILD\TIFF\WIN32\RELEASE\TIFF.PDB" /FR"build\tiff\Win32\Release\\" /Gd /TC /wd4133 /wd4005 /analyze- C:\USERS\MATTHEW MCCOMB\DOCUMENTS\GITHUB\POVRAY\LIBRARIES\TIFF\LIBTIFF\TIF_DIR.C
^C:\USERS\MATTHEW MCCOMB\DOCUMENTS\GITHUB\POVRAY\LIBRARIES\TIFF\LIBTIFF\TIF_DIRINFO.C
/c /I..\..\LIBRARIES\JPEG /I..\..\LIBRARIES\ZLIB /Zi /nologo /W2 /WX- /O2 /Ob1 /Oy- /GL /D WIN32 /D WIN32_LEAN_AND_MEAN /D NDEBUG /D _LIB /D USE_WIN32_FILEIO /D _CRT_SECURE_NO_DEPRECATE /D _MBCS /GF /Gm- /EHsc /MT /GS- /Gy- /fp:precise /Zc:wchar_t /Zc:forScope /Zc:inline /Fo"BUILD\TIFF\WIN32\RELEASE\\" /Fd"BUILD\TIFF\WIN32\RELEASE\TIFF.PDB" /FR"build\tiff\Win32\Release\\" /Gd /TC /wd4133 /wd4005 /analyze- C:\USERS\MATTHEW MCCOMB\DOCUMENTS\GITHUB\POVRAY\LIBRARIES\TIFF\LIBTIFF\TIF_DIRINFO.C
^C:\USERS\MATTHEW MCCOMB\DOCUMENTS\GITHUB\POVRAY\LIBRARIES\TIFF\LIBTIFF\TIF_DIRREAD.C
/c /I..\..\LIBRARIES\JPEG /I..\..\LIBRARIES\ZLIB /Zi /nologo /W2 /WX- /O2 /Ob1 /Oy- /GL /D WIN32 /D WIN32_LEAN_AND_MEAN /D NDEBUG /D _LIB /D USE_WIN32_FILEIO /D _CRT_SECURE_NO_DEPRECATE /D _MBCS /GF /Gm- /EHsc /MT /GS- /Gy- /fp:precise /Zc:wchar_t /Zc:forScope /Zc:inline /Fo"BUILD\TIFF\WIN32\RELEASE\\" /Fd"BUILD\TIFF\WIN32\RELEASE\TIFF.PDB" /FR"build\tiff\Win32\Release\\" /Gd /TC /wd4133 /wd4005 /analyze- C:\USERS\MATTHEW MCCOMB\DOCUMENTS\GITHUB\POVRAY\LIBRARIES\TIFF\LIBTIFF\TIF_DIRREAD.C
^C:\USERS\MATTHEW MCCOMB\DOCUMENTS\GITHUB\POVRAY\LIBRARIES\TIFF\LIBTIFF\TIF_DIRWRITE.C
/c /I..\..\LIBRARIES\JPEG /I..\..\LIBRARIES\ZLIB /Zi /nologo /W2 /WX- /O2 /Ob1 /Oy- /GL /D WIN32 /D WIN32_LEAN_AND_MEAN /D NDEBUG /D _LIB /D USE_WIN32_FILEIO /D _CRT_SECURE_NO_DEPRECATE /D _MBCS /GF /Gm- /EHsc /MT /GS- /Gy- /fp:precise /Zc:wchar_t /Zc:forScope /Zc:inline /Fo"BUILD\TIFF\WIN32\RELEASE\\" /Fd"BUILD\TIFF\WIN32\RELEASE\TIFF.PDB" /FR"build\tiff\Win32\Release\\" /Gd /TC /wd4133 /wd4005 /analyze- C:\USERS\MATTHEW MCCOMB\DOCUMENTS\GITHUB\POVRAY\LIBRARIES\TIFF\LIBTIFF\TIF_DIRWRITE.C
^C:\USERS\MATTHEW MCCOMB\DOCUMENTS\GITHUB\POVRAY\LIBRARIES\TIFF\LIBTIFF\TIF_DUMPMODE.C
/c /I..\..\LIBRARIES\JPEG /I..\..\LIBRARIES\ZLIB /Zi /nologo /W2 /WX- /O2 /Ob1 /Oy- /GL /D WIN32 /D WIN32_LEAN_AND_MEAN /D NDEBUG /D _LIB /D USE_WIN32_FILEIO /D _CRT_SECURE_NO_DEPRECATE /D _MBCS /GF /Gm- /EHsc /MT /GS- /Gy- /fp:precise /Zc:wchar_t /Zc:forScope /Zc:inline /Fo"BUILD\TIFF\WIN32\RELEASE\\" /Fd"BUILD\TIFF\WIN32\RELEASE\TIFF.PDB" /FR"build\tiff\Win32\Release\\" /Gd /TC /wd4133 /wd4005 /analyze- C:\USERS\MATTHEW MCCOMB\DOCUMENTS\GITHUB\POVRAY\LIBRARIES\TIFF\LIBTIFF\TIF_DUMPMODE.C
^C:\USERS\MATTHEW MCCOMB\DOCUMENTS\GITHUB\POVRAY\LIBRARIES\TIFF\LIBTIFF\TIF_ERROR.C
/c /I..\..\LIBRARIES\JPEG /I..\..\LIBRARIES\ZLIB /Zi /nologo /W2 /WX- /O2 /Ob1 /Oy- /GL /D WIN32 /D WIN32_LEAN_AND_MEAN /D NDEBUG /D _LIB /D USE_WIN32_FILEIO /D _CRT_SECURE_NO_DEPRECATE /D _MBCS /GF /Gm- /EHsc /MT /GS- /Gy- /fp:precise /Zc:wchar_t /Zc:forScope /Zc:inline /Fo"BUILD\TIFF\WIN32\RELEASE\\" /Fd"BUILD\TIFF\WIN32\RELEASE\TIFF.PDB" /FR"build\tiff\Win32\Release\\" /Gd /TC /wd4133 /wd4005 /analyze- C:\USERS\MATTHEW MCCOMB\DOCUMENTS\GITHUB\POVRAY\LIBRARIES\TIFF\LIBTIFF\TIF_ERROR.C
^C:\USERS\MATTHEW MCCOMB\DOCUMENTS\GITHUB\POVRAY\LIBRARIES\TIFF\LIBTIFF\TIF_FAX3.C
/c /I..\..\LIBRARIES\JPEG /I..\..\LIBRARIES\ZLIB /Zi /nologo /W2 /WX- /O2 /Ob1 /Oy- /GL /D WIN32 /D WIN32_LEAN_AND_MEAN /D NDEBUG /D _LIB /D USE_WIN32_FILEIO /D _CRT_SECURE_NO_DEPRECATE /D _MBCS /GF /Gm- /EHsc /MT /GS- /Gy- /fp:precise /Zc:wchar_t /Zc:forScope /Zc:inline /Fo"BUILD\TIFF\WIN32\RELEASE\\" /Fd"BUILD\TIFF\WIN32\RELEASE\TIFF.PDB" /FR"build\tiff\Win32\Release\\" /Gd /TC /wd4133 /wd4005 /analyze- C:\USERS\MATTHEW MCCOMB\DOCUMENTS\GITHUB\POVRAY\LIBRARIES\TIFF\LIBTIFF\TIF_FAX3.C
^C:\USERS\MATTHEW MCCOMB\DOCUMENTS\GITHUB\POVRAY\LIBRARIES\TIFF\LIBTIFF\TIF_FAX3SM.C
/c /I..\..\LIBRARIES\JPEG /I..\..\LIBRARIES\ZLIB /Zi /nologo /W2 /WX- /O2 /Ob1 /Oy- /GL /D WIN32 /D WIN32_LEAN_AND_MEAN /D NDEBUG /D _LIB /D USE_WIN32_FILEIO /D _CRT_SECURE_NO_DEPRECATE /D _MBCS /GF /Gm- /EHsc /MT /GS- /Gy- /fp:precise /Zc:wchar_t /Zc:forScope /Zc:inline /Fo"BUILD\TIFF\WIN32\RELEASE\\" /Fd"BUILD\TIFF\WIN32\RELEASE\TIFF.PDB" /FR"build\tiff\Win32\Release\\" /Gd /TC /wd4133 /wd4005 /analyze- C:\USERS\MATTHEW MCCOMB\DOCUMENTS\GITHUB\POVRAY\LIBRARIES\TIFF\LIBTIFF\TIF_FAX3SM.C
^C:\USERS\MATTHEW MCCOMB\DOCUMENTS\GITHUB\POVRAY\LIBRARIES\TIFF\LIBTIFF\TIF_FLUSH.C
/c /I..\..\LIBRARIES\JPEG /I..\..\LIBRARIES\ZLIB /Zi /nologo /W2 /WX- /O2 /Ob1 /Oy- /GL /D WIN32 /D WIN32_LEAN_AND_MEAN /D NDEBUG /D _LIB /D USE_WIN32_FILEIO /D _CRT_SECURE_NO_DEPRECATE /D _MBCS /GF /Gm- /EHsc /MT /GS- /Gy- /fp:precise /Zc:wchar_t /Zc:forScope /Zc:inline /Fo"BUILD\TIFF\WIN32\RELEASE\\" /Fd"BUILD\TIFF\WIN32\RELEASE\TIFF.PDB" /FR"build\tiff\Win32\Release\\" /Gd /TC /wd4133 /wd4005 /analyze- C:\USERS\MATTHEW MCCOMB\DOCUMENTS\GITHUB\POVRAY\LIBRARIES\TIFF\LIBTIFF\TIF_FLUSH.C
^C:\USERS\MATTHEW MCCOMB\DOCUMENTS\GITHUB\POVRAY\LIBRARIES\TIFF\LIBTIFF\TIF_GETIMAGE.C
/c /I..\..\LIBRARIES\JPEG /I..\..\LIBRARIES\ZLIB /Zi /nologo /W2 /WX- /O2 /Ob1 /Oy- /GL /D WIN32 /D WIN32_LEAN_AND_MEAN /D NDEBUG /D _LIB /D USE_WIN32_FILEIO /D _CRT_SECURE_NO_DEPRECATE /D _MBCS /GF /Gm- /EHsc /MT /GS- /Gy- /fp:precise /Zc:wchar_t /Zc:forScope /Zc:inline /Fo"BUILD\TIFF\WIN32\RELEASE\\" /Fd"BUILD\TIFF\WIN32\RELEASE\TIFF.PDB" /FR"build\tiff\Win32\Release\\" /Gd /TC /wd4133 /wd4005 /analyze- C:\USERS\MATTHEW MCCOMB\DOCUMENTS\GITHUB\POVRAY\LIBRARIES\TIFF\LIBTIFF\TIF_GETIMAGE.C
^C:\USERS\MATTHEW MCCOMB\DOCUMENTS\GITHUB\POVRAY\LIBRARIES\TIFF\LIBTIFF\TIF_JPEG.C
/c /I..\..\LIBRARIES\JPEG /I..\..\LIBRARIES\ZLIB /Zi /nologo /W2 /WX- /O2 /Ob1 /Oy- /GL /D WIN32 /D WIN32_LEAN_AND_MEAN /D NDEBUG /D _LIB /D USE_WIN32_FILEIO /D _CRT_SECURE_NO_DEPRECATE /D _MBCS /GF /Gm- /EHsc /MT /GS- /Gy- /fp:precise /Zc:wchar_t /Zc:forScope /Zc:inline /Fo"BUILD\TIFF\WIN32\RELEASE\\" /Fd"BUILD\TIFF\WIN32\RELEASE\TIFF.PDB" /FR"build\tiff\Win32\Release\\" /Gd /TC /wd4133 /wd4005 /analyze- C:\USERS\MATTHEW MCCOMB\DOCUMENTS\GITHUB\POVRAY\LIBRARIES\TIFF\LIBTIFF\TIF_JPEG.C
^C:\USERS\MATTHEW MCCOMB\DOCUMENTS\GITHUB\POVRAY\LIBRARIES\TIFF\LIBTIFF\TIF_LUV.C
/c /I..\..\LIBRARIES\JPEG /I..\..\LIBRARIES\ZLIB /Zi /nologo /W2 /WX- /O2 /Ob1 /Oy- /GL /D WIN32 /D WIN32_LEAN_AND_MEAN /D NDEBUG /D _LIB /D USE_WIN32_FILEIO /D _CRT_SECURE_NO_DEPRECATE /D _MBCS /GF /Gm- /EHsc /MT /GS- /Gy- /fp:precise /Zc:wchar_t /Zc:forScope /Zc:inline /Fo"BUILD\TIFF\WIN32\RELEASE\\" /Fd"BUILD\TIFF\WIN32\RELEASE\TIFF.PDB" /FR"build\tiff\Win32\Release\\" /Gd /TC /wd4133 /wd4005 /analyze- C:\USERS\MATTHEW MCCOMB\DOCUMENTS\GITHUB\POVRAY\LIBRARIES\TIFF\LIBTIFF\TIF_LUV.C
^C:\USERS\MATTHEW MCCOMB\DOCUMENTS\GITHUB\POVRAY\LIBRARIES\TIFF\LIBTIFF\TIF_LZW.C
/c /I..\..\LIBRARIES\JPEG /I..\..\LIBRARIES\ZLIB /Zi /nologo /W2 /WX- /O2 /Ob1 /Oy- /GL /D WIN32 /D WIN32_LEAN_AND_MEAN /D NDEBUG /D _LIB /D USE_WIN32_FILEIO /D _CRT_SECURE_NO_DEPRECATE /D _MBCS /GF /Gm- /EHsc /MT /GS- /Gy- /fp:precise /Zc:wchar_t /Zc:forScope /Zc:inline /Fo"BUILD\TIFF\WIN32\RELEASE\\" /Fd"BUILD\TIFF\WIN32\RELEASE\TIFF.PDB" /FR"build\tiff\Win32\Release\\" /Gd /TC /wd4133 /wd4005 /analyze- C:\USERS\MATTHEW MCCOMB\DOCUMENTS\GITHUB\POVRAY\LIBRARIES\TIFF\LIBTIFF\TIF_LZW.C
^C:\USERS\MATTHEW MCCOMB\DOCUMENTS\GITHUB\POVRAY\LIBRARIES\TIFF\LIBTIFF\TIF_NEXT.C
/c /I..\..\LIBRARIES\JPEG /I..\..\LIBRARIES\ZLIB /Zi /nologo /W2 /WX- /O2 /Ob1 /Oy- /GL /D WIN32 /D WIN32_LEAN_AND_MEAN /D NDEBUG /D _LIB /D USE_WIN32_FILEIO /D _CRT_SECURE_NO_DEPRECATE /D _MBCS /GF /Gm- /EHsc /MT /GS- /Gy- /fp:precise /Zc:wchar_t /Zc:forScope /Zc:inline /Fo"BUILD\TIFF\WIN32\RELEASE\\" /Fd"BUILD\TIFF\WIN32\RELEASE\TIFF.PDB" /FR"build\tiff\Win32\Release\\" /Gd /TC /wd4133 /wd4005 /analyze- C:\USERS\MATTHEW MCCOMB\DOCUMENTS\GITHUB\POVRAY\LIBRARIES\TIFF\LIBTIFF\TIF_NEXT.C
^C:\USERS\MATTHEW MCCOMB\DOCUMENTS\GITHUB\POVRAY\LIBRARIES\TIFF\LIBTIFF\TIF_OPEN.C
/c /I..\..\LIBRARIES\JPEG /I..\..\LIBRARIES\ZLIB /Zi /nologo /W2 /WX- /O2 /Ob1 /Oy- /GL /D WIN32 /D WIN32_LEAN_AND_MEAN /D NDEBUG /D _LIB /D USE_WIN32_FILEIO /D _CRT_SECURE_NO_DEPRECATE /D _MBCS /GF /Gm- /EHsc /MT /GS- /Gy- /fp:precise /Zc:wchar_t /Zc:forScope /Zc:inline /Fo"BUILD\TIFF\WIN32\RELEASE\\" /Fd"BUILD\TIFF\WIN32\RELEASE\TIFF.PDB" /FR"build\tiff\Win32\Release\\" /Gd /TC /wd4133 /wd4005 /analyze- C:\USERS\MATTHEW MCCOMB\DOCUMENTS\GITHUB\POVRAY\LIBRARIES\TIFF\LIBTIFF\TIF_OPEN.C
^C:\USERS\MATTHEW MCCOMB\DOCUMENTS\GITHUB\POVRAY\LIBRARIES\TIFF\LIBTIFF\TIF_PACKBITS.C
/c /I..\..\LIBRARIES\JPEG /I..\..\LIBRARIES\ZLIB /Zi /nologo /W2 /WX- /O2 /Ob1 /Oy- /GL /D WIN32 /D WIN32_LEAN_AND_MEAN /D NDEBUG /D _LIB /D USE_WIN32_FILEIO /D _CRT_SECURE_NO_DEPRECATE /D _MBCS /GF /Gm- /EHsc /MT /GS- /Gy- /fp:precise /Zc:wchar_t /Zc:forScope /Zc:inline /Fo"BUILD\TIFF\WIN32\RELEASE\\" /Fd"BUILD\TIFF\WIN32\RELEASE\TIFF.PDB" /FR"build\tiff\Win32\Release\\" /Gd /TC /wd4133 /wd4005 /analyze- C:\USERS\MATTHEW MCCOMB\DOCUMENTS\GITHUB\POVRAY\LIBRARIES\TIFF\LIBTIFF\TIF_PACKBITS.C
^C:\USERS\MATTHEW MCCOMB\DOCUMENTS\GITHUB\POVRAY\LIBRARIES\TIFF\LIBTIFF\TIF_PIXARLOG.C
/c /I..\..\LIBRARIES\JPEG /I..\..\LIBRARIES\ZLIB /Zi /nologo /W2 /WX- /O2 /Ob1 /Oy- /GL /D WIN32 /D WIN32_LEAN_AND_MEAN /D NDEBUG /D _LIB /D USE_WIN32_FILEIO /D _CRT_SECURE_NO_DEPRECATE /D _MBCS /GF /Gm- /EHsc /MT /GS- /Gy- /fp:precise /Zc:wchar_t /Zc:forScope /Zc:inline /Fo"BUILD\TIFF\WIN32\RELEASE\\" /Fd"BUILD\TIFF\WIN32\RELEASE\TIFF.PDB" /FR"build\tiff\Win32\Release\\" /Gd /TC /wd4133 /wd4005 /analyze- C:\USERS\MATTHEW MCCOMB\DOCUMENTS\GITHUB\POVRAY\LIBRARIES\TIFF\LIBTIFF\TIF_PIXARLOG.C
^C:\USERS\MATTHEW MCCOMB\DOCUMENTS\GITHUB\POVRAY\LIBRARIES\TIFF\LIBTIFF\TIF_PREDICT.C
/c /I..\..\LIBRARIES\JPEG /I..\..\LIBRARIES\ZLIB /Zi /nologo /W2 /WX- /O2 /Ob1 /Oy- /GL /D WIN32 /D WIN32_LEAN_AND_MEAN /D NDEBUG /D _LIB /D USE_WIN32_FILEIO /D _CRT_SECURE_NO_DEPRECATE /D _MBCS /GF /Gm- /EHsc /MT /GS- /Gy- /fp:precise /Zc:wchar_t /Zc:forScope /Zc:inline /Fo"BUILD\TIFF\WIN32\RELEASE\\" /Fd"BUILD\TIFF\WIN32\RELEASE\TIFF.PDB" /FR"build\tiff\Win32\Release\\" /Gd /TC /wd4133 /wd4005 /analyze- C:\USERS\MATTHEW MCCOMB\DOCUMENTS\GITHUB\POVRAY\LIBRARIES\TIFF\LIBTIFF\TIF_PREDICT.C
^C:\USERS\MATTHEW MCCOMB\DOCUMENTS\GITHUB\POVRAY\LIBRARIES\TIFF\LIBTIFF\TIF_PRINT.C
/c /I..\..\LIBRARIES\JPEG /I..\..\LIBRARIES\ZLIB /Zi /nologo /W2 /WX- /O2 /Ob1 /Oy- /GL /D WIN32 /D WIN32_LEAN_AND_MEAN /D NDEBUG /D _LIB /D USE_WIN32_FILEIO /D _CRT_SECURE_NO_DEPRECATE /D _MBCS /GF /Gm- /EHsc /MT /GS- /Gy- /fp:precise /Zc:wchar_t /Zc:forScope /Zc:inline /Fo"BUILD\TIFF\WIN32\RELEASE\\" /Fd"BUILD\TIFF\WIN32\RELEASE\TIFF.PDB" /FR"build\tiff\Win32\Release\\" /Gd /TC /wd4133 /wd4005 /analyze- C:\USERS\MATTHEW MCCOMB\DOCUMENTS\GITHUB\POVRAY\LIBRARIES\TIFF\LIBTIFF\TIF_PRINT.C
^C:\USERS\MATTHEW MCCOMB\DOCUMENTS\GITHUB\POVRAY\LIBRARIES\TIFF\LIBTIFF\TIF_READ.C
/c /I..\..\LIBRARIES\JPEG /I..\..\LIBRARIES\ZLIB /Zi /nologo /W2 /WX- /O2 /Ob1 /Oy- /GL /D WIN32 /D WIN32_LEAN_AND_MEAN /D NDEBUG /D _LIB /D USE_WIN32_FILEIO /D _CRT_SECURE_NO_DEPRECATE /D _MBCS /GF /Gm- /EHsc /MT /GS- /Gy- /fp:precise /Zc:wchar_t /Zc:forScope /Zc:inline /Fo"BUILD\TIFF\WIN32\RELEASE\\" /Fd"BUILD\TIFF\WIN32\RELEASE\TIFF.PDB" /FR"build\tiff\Win32\Release\\" /Gd /TC /wd4133 /wd4005 /analyze- C:\USERS\MATTHEW MCCOMB\DOCUMENTS\GITHUB\POVRAY\LIBRARIES\TIFF\LIBTIFF\TIF_READ.C
^C:\USERS\MATTHEW MCCOMB\DOCUMENTS\GITHUB\POVRAY\LIBRARIES\TIFF\LIBTIFF\TIF_STRIP.C
/c /I..\..\LIBRARIES\JPEG /I..\..\LIBRARIES\ZLIB /Zi /nologo /W2 /WX- /O2 /Ob1 /Oy- /GL /D WIN32 /D WIN32_LEAN_AND_MEAN /D NDEBUG /D _LIB /D USE_WIN32_FILEIO /D _CRT_SECURE_NO_DEPRECATE /D _MBCS /GF /Gm- /EHsc /MT /GS- /Gy- /fp:precise /Zc:wchar_t /Zc:forScope /Zc:inline /Fo"BUILD\TIFF\WIN32\RELEASE\\" /Fd"BUILD\TIFF\WIN32\RELEASE\TIFF.PDB" /FR"build\tiff\Win32\Release\\" /Gd /TC /wd4133 /wd4005 /analyze- C:\USERS\MATTHEW MCCOMB\DOCUMENTS\GITHUB\POVRAY\LIBRARIES\TIFF\LIBTIFF\TIF_STRIP.C
^C:\USERS\MATTHEW MCCOMB\DOCUMENTS\GITHUB\POVRAY\LIBRARIES\TIFF\LIBTIFF\TIF_SWAB.C
/c /I..\..\LIBRARIES\JPEG /I..\..\LIBRARIES\ZLIB /Zi /nologo /W2 /WX- /O2 /Ob1 /Oy- /GL /D WIN32 /D WIN32_LEAN_AND_MEAN /D NDEBUG /D _LIB /D USE_WIN32_FILEIO /D _CRT_SECURE_NO_DEPRECATE /D _MBCS /GF /Gm- /EHsc /MT /GS- /Gy- /fp:precise /Zc:wchar_t /Zc:forScope /Zc:inline /Fo"BUILD\TIFF\WIN32\RELEASE\\" /Fd"BUILD\TIFF\WIN32\RELEASE\TIFF.PDB" /FR"build\tiff\Win32\Release\\" /Gd /TC /wd4133 /wd4005 /analyze- C:\USERS\MATTHEW MCCOMB\DOCUMENTS\GITHUB\POVRAY\LIBRARIES\TIFF\LIBTIFF\TIF_SWAB.C
^C:\USERS\MATTHEW MCCOMB\DOCUMENTS\GITHUB\POVRAY\LIBRARIES\TIFF\LIBTIFF\TIF_THUNDER.C
/c /I..\..\LIBRARIES\JPEG /I..\..\LIBRARIES\ZLIB /Zi /nologo /W2 /WX- /O2 /Ob1 /Oy- /GL /D WIN32 /D WIN32_LEAN_AND_MEAN /D NDEBUG /D _LIB /D USE_WIN32_FILEIO /D _CRT_SECURE_NO_DEPRECATE /D _MBCS /GF /Gm- /EHsc /MT /GS- /Gy- /fp:precise /Zc:wchar_t /Zc:forScope /Zc:inline /Fo"BUILD\TIFF\WIN32\RELEASE\\" /Fd"BUILD\TIFF\WIN32\RELEASE\TIFF.PDB" /FR"build\tiff\Win32\Release\\" /Gd /TC /wd4133 /wd4005 /analyze- C:\USERS\MATTHEW MCCOMB\DOCUMENTS\GITHUB\POVRAY\LIBRARIES\TIFF\LIBTIFF\TIF_THUNDER.C
^C:\USERS\MATTHEW MCCOMB\DOCUMENTS\GITHUB\POVRAY\LIBRARIES\TIFF\LIBTIFF\TIF_TILE.C
/c /I..\..\LIBRARIES\JPEG /I..\..\LIBRARIES\ZLIB /Zi /nologo /W2 /WX- /O2 /Ob1 /Oy- /GL /D WIN32 /D WIN32_LEAN_AND_MEAN /D NDEBUG /D _LIB /D USE_WIN32_FILEIO /D _CRT_SECURE_NO_DEPRECATE /D _MBCS /GF /Gm- /EHsc /MT /GS- /Gy- /fp:precise /Zc:wchar_t /Zc:forScope /Zc:inline /Fo"BUILD\TIFF\WIN32\RELEASE\\" /Fd"BUILD\TIFF\WIN32\RELEASE\TIFF.PDB" /FR"build\tiff\Win32\Release\\" /Gd /TC /wd4133 /wd4005 /analyze- C:\USERS\MATTHEW MCCOMB\DOCUMENTS\GITHUB\POVRAY\LIBRARIES\TIFF\LIBTIFF\TIF_TILE.C
^C:\USERS\MATTHEW MCCOMB\DOCUMENTS\GITHUB\POVRAY\LIBRARIES\TIFF\LIBTIFF\TIF_VERSION.C
/c /I..\..\LIBRARIES\JPEG /I..\..\LIBRARIES\ZLIB /Zi /nologo /W2 /WX- /O2 /Ob1 /Oy- /GL /D WIN32 /D WIN32_LEAN_AND_MEAN /D NDEBUG /D _LIB /D USE_WIN32_FILEIO /D _CRT_SECURE_NO_DEPRECATE /D _MBCS /GF /Gm- /EHsc /MT /GS- /Gy- /fp:precise /Zc:wchar_t /Zc:forScope /Zc:inline /Fo"BUILD\TIFF\WIN32\RELEASE\\" /Fd"BUILD\TIFF\WIN32\RELEASE\TIFF.PDB" /FR"build\tiff\Win32\Release\\" /Gd /TC /wd4133 /wd4005 /analyze- C:\USERS\MATTHEW MCCOMB\DOCUMENTS\GITHUB\POVRAY\LIBRARIES\TIFF\LIBTIFF\TIF_VERSION.C
^C:\USERS\MATTHEW MCCOMB\DOCUMENTS\GITHUB\POVRAY\LIBRARIES\TIFF\LIBTIFF\TIF_WARNING.C
/c /I..\..\LIBRARIES\JPEG /I..\..\LIBRARIES\ZLIB /Zi /nologo /W2 /WX- /O2 /Ob1 /Oy- /GL /D WIN32 /D WIN32_LEAN_AND_MEAN /D NDEBUG /D _LIB /D USE_WIN32_FILEIO /D _CRT_SECURE_NO_DEPRECATE /D _MBCS /GF /Gm- /EHsc /MT /GS- /Gy- /fp:precise /Zc:wchar_t /Zc:forScope /Zc:inline /Fo"BUILD\TIFF\WIN32\RELEASE\\" /Fd"BUILD\TIFF\WIN32\RELEASE\TIFF.PDB" /FR"build\tiff\Win32\Release\\" /Gd /TC /wd4133 /wd4005 /analyze- C:\USERS\MATTHEW MCCOMB\DOCUMENTS\GITHUB\POVRAY\LIBRARIES\TIFF\LIBTIFF\TIF_WARNING.C
^C:\USERS\MATTHEW MCCOMB\DOCUMENTS\GITHUB\POVRAY\LIBRARIES\TIFF\LIBTIFF\TIF_WIN32.C
/c /I..\..\LIBRARIES\JPEG /I..\..\LIBRARIES\ZLIB /Zi /nologo /W2 /WX- /O2 /Ob1 /Oy- /GL /D WIN32 /D WIN32_LEAN_AND_MEAN /D NDEBUG /D _LIB /D USE_WIN32_FILEIO /D _CRT_SECURE_NO_DEPRECATE /D _MBCS /GF /Gm- /EHsc /MT /GS- /Gy- /fp:precise /Zc:wchar_t /Zc:forScope /Zc:inline /Fo"BUILD\TIFF\WIN32\RELEASE\\" /Fd"BUILD\TIFF\WIN32\RELEASE\TIFF.PDB" /FR"build\tiff\Win32\Release\\" /Gd /TC /wd4133 /wd4005 /analyze- C:\USERS\MATTHEW MCCOMB\DOCUMENTS\GITHUB\POVRAY\LIBRARIES\TIFF\LIBTIFF\TIF_WIN32.C
^C:\USERS\MATTHEW MCCOMB\DOCUMENTS\GITHUB\POVRAY\LIBRARIES\TIFF\LIBTIFF\TIF_WRITE.C
/c /I..\..\LIBRARIES\JPEG /I..\..\LIBRARIES\ZLIB /Zi /nologo /W2 /WX- /O2 /Ob1 /Oy- /GL /D WIN32 /D WIN32_LEAN_AND_MEAN /D NDEBUG /D _LIB /D USE_WIN32_FILEIO /D _CRT_SECURE_NO_DEPRECATE /D _MBCS /GF /Gm- /EHsc /MT /GS- /Gy- /fp:precise /Zc:wchar_t /Zc:forScope /Zc:inline /Fo"BUILD\TIFF\WIN32\RELEASE\\" /Fd"BUILD\TIFF\WIN32\RELEASE\TIFF.PDB" /FR"build\tiff\Win32\Release\\" /Gd /TC /wd4133 /wd4005 /analyze- C:\USERS\MATTHEW MCCOMB\DOCUMENTS\GITHUB\POVRAY\LIBRARIES\TIFF\LIBTIFF\TIF_WRITE.C
^C:\USERS\MATTHEW MCCOMB\DOCUMENTS\GITHUB\POVRAY\LIBRARIES\TIFF\LIBTIFF\TIF_ZIP.C
/c /I..\..\LIBRARIES\JPEG /I..\..\LIBRARIES\ZLIB /Zi /nologo /W2 /WX- /O2 /Ob1 /Oy- /GL /D WIN32 /D WIN32_LEAN_AND_MEAN /D NDEBUG /D _LIB /D USE_WIN32_FILEIO /D _CRT_SECURE_NO_DEPRECATE /D _MBCS /GF /Gm- /EHsc /MT /GS- /Gy- /fp:precise /Zc:wchar_t /Zc:forScope /Zc:inline /Fo"BUILD\TIFF\WIN32\RELEASE\\" /Fd"BUILD\TIFF\WIN32\RELEASE\TIFF.PDB" /FR"build\tiff\Win32\Release\\" /Gd /TC /wd4133 /wd4005 /analyze- C:\USERS\MATTHEW MCCOMB\DOCUMENTS\GITHUB\POVRAY\LIBRARIES\TIFF\LIBTIFF\TIF_ZIP.C
^D:\POV-RAY\POV-RAY SOURCES\NORMAL\POVRAY\LIBRARIES\TIFF\LIBTIFF\TIF_AUX.C
/c /I..\..\LIBRARIES\JPEG /I..\..\LIBRARIES\ZLIB /Zi /nologo /W2 /WX- /O2 /Ob1 /Oy- /GL /D WIN32 /D WIN32_LEAN_AND_MEAN /D NDEBUG /D _LIB /D USE_WIN32_FILEIO /D _CRT_SECURE_NO_DEPRECATE /D _MBCS /GF /Gm- /EHsc /MT /GS- /Gy- /fp:precise /Zc:wchar_t /Zc:forScope /Zc:inline /Fo"BUILD\TIFF\WIN32\RELEASE\\" /Fd"BUILD\TIFF\WIN32\RELEASE\TIFF.PDB" /FR"build\tiff\Win32\Release\\" /Gd /TC /wd4133 /wd4005 /analyze- D:\POV-RAY\POV-RAY SOURCES\NORMAL\POVRAY\LIBRARIES\TIFF\LIBTIFF\TIF_AUX.C
^D:\POV-RAY\POV-RAY SOURCES\NORMAL\POVRAY\LIBRARIES\TIFF\LIBTIFF\TIF_CLOSE.C
/c /I..\..\LIBRARIES\JPEG /I..\..\LIBRARIES\ZLIB /Zi /nologo /W2 /WX- /O2 /Ob1 /Oy- /GL /D WIN32 /D WIN32_LEAN_AND_MEAN /D NDEBUG /D _LIB /D USE_WIN32_FILEIO /D _CRT_SECURE_NO_DEPRECATE /D _MBCS /GF /Gm- /EHsc /MT /GS- /Gy- /fp:precise /Zc:wchar_t /Zc:forScope /Zc:inline /Fo"BUILD\TIFF\WIN32\RELEASE\\" /Fd"BUILD\TIFF\WIN32\RELEASE\TIFF.PDB" /FR"build\tiff\Win32\Release\\" /Gd /TC /wd4133 /wd4005 /analyze- D:\POV-RAY\POV-RAY SOURCES\NORMAL\POVRAY\LIBRARIES\TIFF\LIBTIFF\TIF_CLOSE.C
^D:\POV-RAY\POV-RAY SOURCES\NORMAL\POVRAY\LIBRARIES\TIFF\LIBTIFF\TIF_CODEC.C
/c /I..\..\LIBRARIES\JPEG /I..\..\LIBRARIES\ZLIB /Zi /nologo /W2 /WX- /O2 /Ob1 /Oy- /GL /D WIN32 /D WIN32_LEAN_AND_MEAN /D NDEBUG /D _LIB /D USE_WIN32_FILEIO /D _CRT_SECURE_NO_DEPRECATE /D _MBCS /GF /Gm- /EHsc /MT /GS- /Gy- /fp:precise /Zc:wchar_t /Zc:forScope /Zc:inline /Fo"BUILD\TIFF\WIN32\RELEASE\\" /Fd"BUILD\TIFF\WIN32\RELEASE\TIFF.PDB" /FR"build\tiff\Win32\Release\\" /Gd /TC /wd4133 /wd4005 /analyze- D:\POV-RAY\POV-RAY SOURCES\NORMAL\POVRAY\LIBRARIES\TIFF\LIBTIFF\TIF_CODEC.C
^D:\POV-RAY\POV-RAY SOURCES\NORMAL\POVRAY\LIBRARIES\TIFF\LIBTIFF\TIF_COLOR.C
/c /I..\..\LIBRARIES\JPEG /I..\..\LIBRARIES\ZLIB /Zi /nologo /W2 /WX- /O2 /Ob1 /Oy- /GL /D WIN32 /D WIN32_LEAN_AND_MEAN /D NDEBUG /D _LIB /D USE_WIN32_FILEIO /D _CRT_SECURE_NO_DEPRECATE /D _MBCS /GF /Gm- /EHsc /MT /GS- /Gy- /fp:precise /Zc:wchar_t /Zc:forScope /Zc:inline /Fo"BUILD\TIFF\WIN32\RELEASE\\" /Fd"BUILD\TIFF\WIN32\RELEASE\TIFF.PDB" /FR"build\tiff\Win32\Release\\" /Gd /TC /wd4133 /wd4005 /analyze- D:\POV-RAY\POV-RAY SOURCES\NORMAL\POVRAY\LIBRARIES\TIFF\LIBTIFF\TIF_COLOR.C
^D:\POV-RAY\POV-RAY SOURCES\NORMAL\POVRAY\LIBRARIES\TIFF\LIBTIFF\TIF_COMPRESS.C
/c /I..\..\LIBRARIES\JPEG /I..\..\LIBRARIES\ZLIB /Zi /nologo /W2 /WX- /O2 /Ob1 /Oy- /GL /D WIN32 /D WIN32_LEAN_AND_MEAN /D NDEBUG /D _LIB /D USE_WIN32_FILEIO /D _CRT_SECURE_NO_DEPRECATE /D _MBCS /GF /Gm- /EHsc /MT /GS- /Gy- /fp:precise /Zc:wchar_t /Zc:forScope /Zc:inline /Fo"BUILD\TIFF\WIN32\RELEASE\\" /Fd"BUILD\TIFF\WIN32\RELEASE\TIFF.PDB" /FR"build\tiff\Win32\Release\\" /Gd /TC /wd4133 /wd4005 /analyze- D:\POV-RAY\POV-RAY SOURCES\NORMAL\POVRAY\LIBRARIES\TIFF\LIBTIFF\TIF_COMPRESS.C
^D:\POV-RAY\POV-RAY SOURCES\NORMAL\POVRAY\LIBRARIES\TIFF\LIBTIFF\TIF_DIR.C
/c /I..\..\LIBRARIES\JPEG /I..\..\LIBRARIES\ZLIB /Zi /nologo /W2 /WX- /O2 /Ob1 /Oy- /GL /D WIN32 /D WIN32_LEAN_AND_MEAN /D NDEBUG /D _LIB /D USE_WIN32_FILEIO /D _CRT_SECURE_NO_DEPRECATE /D _MBCS /GF /Gm- /EHsc /MT /GS- /Gy- /fp:precise /Zc:wchar_t /Zc:forScope /Zc:inline /Fo"BUILD\TIFF\WIN32\RELEASE\\" /Fd"BUILD\TIFF\WIN32\RELEASE\TIFF.PDB" /FR"build\tiff\Win32\Release\\" /Gd /TC /wd4133 /wd4005 /analyze- D:\POV-RAY\POV-RAY SOURCES\NORMAL\POVRAY\LIBRARIES\TIFF\LIBTIFF\TIF_DIR.C
^D:\POV-RAY\POV-RAY SOURCES\NORMAL\POVRAY\LIBRARIES\TIFF\LIBTIFF\TIF_DIRINFO.C
/c /I..\..\LIBRARIES\JPEG /I..\..\LIBRARIES\ZLIB /Zi /nologo /W2 /WX- /O2 /Ob1 /Oy- /GL /D WIN32 /D WIN32_LEAN_AND_MEAN /D NDEBUG /D _LIB /D USE_WIN32_FILEIO /D _CRT_SECURE_NO_DEPRECATE /D _MBCS /GF /Gm- /EHsc /MT /GS- /Gy- /fp:precise /Zc:wchar_t /Zc:forScope /Zc:inline /Fo"BUILD\TIFF\WIN32\RELEASE\\" /Fd"BUILD\TIFF\WIN32\RELEASE\TIFF.PDB" /FR"build\tiff\Win32\Release\\" /Gd /TC /wd4133 /wd4005 /analyze- D:\POV-RAY\POV-RAY SOURCES\NORMAL\POVRAY\LIBRARIES\TIFF\LIBTIFF\TIF_DIRINFO.C
^D:\POV-RAY\POV-RAY SOURCES\NORMAL\POVRAY\LIBRARIES\TIFF\LIBTIFF\TIF_DIRREAD.C
/c /I..\..\LIBRARIES\JPEG /I..\..\LIBRARIES\ZLIB /Zi /nologo /W2 /WX- /O2 /Ob1 /Oy- /GL /D WIN32 /D WIN32_LEAN_AND_MEAN /D NDEBUG /D _LIB /D USE_WIN32_FILEIO /D _CRT_SECURE_NO_DEPRECATE /D _MBCS /GF /Gm- /EHsc /MT /GS- /Gy- /fp:precise /Zc:wchar_t /Zc:forScope /Zc:inline /Fo"BUILD\TIFF\WIN32\RELEASE\\" /Fd"BUILD\TIFF\WIN32\RELEASE\TIFF.PDB" /FR"build\tiff\Win32\Release\\" /Gd /TC /wd4133 /wd4005 /analyze- D:\POV-RAY\POV-RAY SOURCES\NORMAL\POVRAY\LIBRARIES\TIFF\LIBTIFF\TIF_DIRREAD.C
^D:\POV-RAY\POV-RAY SOURCES\NORMAL\POVRAY\LIBRARIES\TIFF\LIBTIFF\TIF_DIRWRITE.C
/c /I..\..\LIBRARIES\JPEG /I..\..\LIBRARIES\ZLIB /Zi /nologo /W2 /WX- /O2 /Ob1 /Oy- /GL /D WIN32 /D WIN32_LEAN_AND_MEAN /D NDEBUG /D _LIB /D USE_WIN32_FILEIO /D _CRT_SECURE_NO_DEPRECATE /D _MBCS /GF /Gm- /EHsc /MT /GS- /Gy- /fp:precise /Zc:wchar_t /Zc:forScope /Zc:inline /Fo"BUILD\TIFF\WIN32\RELEASE\\" /Fd"BUILD\TIFF\WIN32\RELEASE\TIFF.PDB" /FR"build\tiff\Win32\Release\\" /Gd /TC /wd4133 /wd4005 /analyze- D:\POV-RAY\POV-RAY SOURCES\NORMAL\POVRAY\LIBRARIES\TIFF\LIBTIFF\TIF_DIRWRITE.C
^D:\POV-RAY\POV-RAY SOURCES\NORMAL\POVRAY\LIBRARIES\TIFF\LIBTIFF\TIF_DUMPMODE.C
/c /I..\..\LIBRARIES\JPEG /I..\..\LIBRARIES\ZLIB /Zi /nologo /W2 /WX- /O2 /Ob1 /Oy- /GL /D WIN32 /D WIN32_LEAN_AND_MEAN /D NDEBUG /D _LIB /D USE_WIN32_FILEIO /D _CRT_SECURE_NO_DEPRECATE /D _MBCS /GF /Gm- /EHsc /MT /GS- /Gy- /fp:precise /Zc:wchar_t /Zc:forScope /Zc:inline /Fo"BUILD\TIFF\WIN32\RELEASE\\" /Fd"BUILD\TIFF\WIN32\RELEASE\TIFF.PDB" /FR"build\tiff\Win32\Release\\" /Gd /TC /wd4133 /wd4005 /analyze- D:\POV-RAY\POV-RAY SOURCES\NORMAL\POVRAY\LIBRARIES\TIFF\LIBTIFF\TIF_DUMPMODE.C
^D:\POV-RAY\POV-RAY SOURCES\NORMAL\POVRAY\LIBRARIES\TIFF\LIBTIFF\TIF_ERROR.C
/c /I..\..\LIBRARIES\JPEG /I..\..\LIBRARIES\ZLIB /Zi /nologo /W2 /WX- /O2 /Ob1 /Oy- /GL /D WIN32 /D WIN32_LEAN_AND_MEAN /D NDEBUG /D _LIB /D USE_WIN32_FILEIO /D _CRT_SECURE_NO_DEPRECATE /D _MBCS /GF /Gm- /EHsc /MT /GS- /Gy- /fp:precise /Zc:wchar_t /Zc:forScope /Zc:inline /Fo"BUILD\TIFF\WIN32\RELEASE\\" /Fd"BUILD\TIFF\WIN32\RELEASE\TIFF.PDB" /FR"build\tiff\Win32\Release\\" /Gd /TC /wd4133 /wd4005 /analyze- D:\POV-RAY\POV-RAY SOURCES\NORMAL\POVRAY\LIBRARIES\TIFF\LIBTIFF\TIF_ERROR.C
^D:\POV-RAY\POV-RAY SOURCES\NORMAL\POVRAY\LIBRARIES\TIFF\LIBTIFF\TIF_FAX3.C
/c /I..\..\LIBRARIES\JPEG /I..\..\LIBRARIES\ZLIB /Zi /nologo /W2 /WX- /O2 /Ob1 /Oy- /GL /D WIN32 /D WIN32_LEAN_AND_MEAN /D NDEBUG /D _LIB /D USE_WIN32_FILEIO /D _CRT_SECURE_NO_DEPRECATE /D _MBCS /GF /Gm- /EHsc /MT /GS- /Gy- /fp:precise /Zc:wchar_t /Zc:forScope /Zc:inline /Fo"BUILD\TIFF\WIN32\RELEASE\\" /Fd"BUILD\TIFF\WIN32\RELEASE\TIFF.PDB" /FR"build\tiff\Win32\Release\\" /Gd /TC /wd4133 /wd4005 /analyze- D:\POV-RAY\POV-RAY SOURCES\NORMAL\POVRAY\LIBRARIES\TIFF\LIBTIFF\TIF_FAX3.C
^D:\POV-RAY\POV-RAY SOURCES\NORMAL\POVRAY\LIBRARIES\TIFF\LIBTIFF\TIF_FAX3SM.C
/c /I..\..\LIBRARIES\JPEG /I..\..\LIBRARIES\ZLIB /Zi /nologo /W2 /WX- /O2 /Ob1 /Oy- /GL /D WIN32 /D WIN32_LEAN_AND_MEAN /D NDEBUG /D _LIB /D USE_WIN32_FILEIO /D _CRT_SECURE_NO_DEPRECATE /D _MBCS /GF /Gm- /EHsc /MT /GS- /Gy- /fp:precise /Zc:wchar_t /Zc:forScope /Zc:inline /Fo"BUILD\TIFF\WIN32\RELEASE\\" /Fd"BUILD\TIFF\WIN32\RELEASE\TIFF.PDB" /FR"build\tiff\Win32\Release\\" /Gd /TC /wd4133 /wd4005 /analyze- D:\POV-RAY\POV-RAY SOURCES\NORMAL\POVRAY\LIBRARIES\TIFF\LIBTIFF\TIF_FAX3SM.C
^D:\POV-RAY\POV-RAY SOURCES\NORMAL\POVRAY\LIBRARIES\TIFF\LIBTIFF\TIF_FLUSH.C
/c /I..\..\LIBRARIES\JPEG /I..\..\LIBRARIES\ZLIB /Zi /nologo /W2 /WX- /O2 /Ob1 /Oy- /GL /D WIN32 /D WIN32_LEAN_AND_MEAN /D NDEBUG /D _LIB /D USE_WIN32_FILEIO /D _CRT_SECURE_NO_DEPRECATE /D _MBCS /GF /Gm- /EHsc /MT /GS- /Gy- /fp:precise /Zc:wchar_t /Zc:forScope /Zc:inline /Fo"BUILD\TIFF\WIN32\RELEASE\\" /Fd"BUILD\TIFF\WIN32\RELEASE\TIFF.PDB" /FR"build\tiff\Win32\Release\\" /Gd /TC /wd4133 /wd4005 /analyze- D:\POV-RAY\POV-RAY SOURCES\NORMAL\POVRAY\LIBRARIES\TIFF\LIBTIFF\TIF_FLUSH.C
^D:\POV-RAY\POV-RAY SOURCES\NORMAL\POVRAY\LIBRARIES\TIFF\LIBTIFF\TIF_GETIMAGE.C
/c /I..\..\LIBRARIES\JPEG /I..\..\LIBRARIES\ZLIB /Zi /nologo /W2 /WX- /O2 /Ob1 /Oy- /GL /D WIN32 /D WIN32_LEAN_AND_MEAN /D NDEBUG /D _LIB /D USE_WIN32_FILEIO /D _CRT_SECURE_NO_DEPRECATE /D _MBCS /GF /Gm- /EHsc /MT /GS- /Gy- /fp:precise /Zc:wchar_t /Zc:forScope /Zc:inline /Fo"BUILD\TIFF\WIN32\RELEASE\\" /Fd"BUILD\TIFF\WIN32\RELEASE\TIFF.PDB" /FR"build\tiff\Win32\Release\\" /Gd /TC /wd4133 /wd4005 /analyze- D:\POV-RAY\POV-RAY SOURCES\NORMAL\POVRAY\LIBRARIES\TIFF\LIBTIFF\TIF_GETIMAGE.C
^D:\POV-RAY\POV-RAY SOURCES\NORMAL\POVRAY\LIBRARIES\TIFF\LIBTIFF\TIF_JPEG.C
/c /I..\..\LIBRARIES\JPEG /I..\..\LIBRARIES\ZLIB /Zi /nologo /W2 /WX- /O2 /Ob1 /Oy- /GL /D WIN32 /D WIN32_LEAN_AND_MEAN /D NDEBUG /D _LIB /D USE_WIN32_FILEIO /D _CRT_SECURE_NO_DEPRECATE /D _MBCS /GF /Gm- /EHsc /MT /GS- /Gy- /fp:precise /Zc:wchar_t /Zc:forScope /Zc:inline /Fo"BUILD\TIFF\WIN32\RELEASE\\" /Fd"BUILD\TIFF\WIN32\RELEASE\TIFF.PDB" /FR"build\tiff\Win32\Release\\" /Gd /TC /wd4133 /wd4005 /analyze- D:\POV-RAY\POV-RAY SOURCES\NORMAL\POVRAY\LIBRARIES\TIFF\LIBTIFF\TIF_JPEG.C
^D:\POV-RAY\POV-RAY SOURCES\NORMAL\POVRAY\LIBRARIES\TIFF\LIBTIFF\TIF_LUV.C
/c /I..\..\LIBRARIES\JPEG /I..\..\LIBRARIES\ZLIB /Zi /nologo /W2 /WX- /O2 /Ob1 /Oy- /GL /D WIN32 /D WIN32_LEAN_AND_MEAN /D NDEBUG /D _LIB /D USE_WIN32_FILEIO /D _CRT_SECURE_NO_DEPRECATE /D _MBCS /GF /Gm- /EHsc /MT /GS- /Gy- /fp:precise /Zc:wchar_t /Zc:forScope /Zc:inline /Fo"BUILD\TIFF\WIN32\RELEASE\\" /Fd"BUILD\TIFF\WIN32\RELEASE\TIFF.PDB" /FR"build\tiff\Win32\Release\\" /Gd /TC /wd4133 /wd4005 /analyze- D:\POV-RAY\POV-RAY SOURCES\NORMAL\POVRAY\LIBRARIES\TIFF\LIBTIFF\TIF_LUV.C
^D:\POV-RAY\POV-RAY SOURCES\NORMAL\POVRAY\LIBRARIES\TIFF\LIBTIFF\TIF_LZW.C
/c /I..\..\LIBRARIES\JPEG /I..\..\LIBRARIES\ZLIB /Zi /nologo /W2 /WX- /O2 /Ob1 /Oy- /GL /D WIN32 /D WIN32_LEAN_AND_MEAN /D NDEBUG /D _LIB /D USE_WIN32_FILEIO /D _CRT_SECURE_NO_DEPRECATE /D _MBCS /GF /Gm- /EHsc /MT /GS- /Gy- /fp:precise /Zc:wchar_t /Zc:forScope /Zc:inline /Fo"BUILD\TIFF\WIN32\RELEASE\\" /Fd"BUILD\TIFF\WIN32\RELEASE\TIFF.PDB" /FR"build\tiff\Win32\Release\\" /Gd /TC /wd4133 /wd4005 /analyze- D:\POV-RAY\POV-RAY SOURCES\NORMAL\POVRAY\LIBRARIES\TIFF\LIBTIFF\TIF_LZW.C
^D:\POV-RAY\POV-RAY SOURCES\NORMAL\POVRAY\LIBRARIES\TIFF\LIBTIFF\TIF_NEXT.C
/c /I..\..\LIBRARIES\JPEG /I..\..\LIBRARIES\ZLIB /Zi /nologo /W2 /WX- /O2 /Ob1 /Oy- /GL /D WIN32 /D WIN32_LEAN_AND_MEAN /D NDEBUG /D _LIB /D USE_WIN32_FILEIO /D _CRT_SECURE_NO_DEPRECATE /D _MBCS /GF /Gm- /EHsc /MT /GS- /Gy- /fp:precise /Zc:wchar_t /Zc:forScope /Zc:inline /Fo"BUILD\TIFF\WIN32\RELEASE\\" /Fd"BUILD\TIFF\WIN32\RELEASE\TIFF.PDB" /FR"build\tiff\Win32\Release\\" /Gd /TC /wd4133 /wd4005 /analyze- D:\POV-RAY\POV-RAY SOURCES\NORMAL\POVRAY\LIBRARIES\TIFF\LIBTIFF\TIF_NEXT.C
^D:\POV-RAY\POV-RAY SOURCES\NORMAL\POVRAY\LIBRARIES\TIFF\LIBTIFF\TIF_OPEN.C
/c /I..\..\LIBRARIES\JPEG /I..\..\LIBRARIES\ZLIB /Zi /nologo /W2 /WX- /O2 /Ob1 /Oy- /GL /D WIN32 /D WIN32_LEAN_AND_MEAN /D NDEBUG /D _LIB /D USE_WIN32_FILEIO /D _CRT_SECURE_NO_DEPRECATE /D _MBCS /GF /Gm- /EHsc /MT /GS- /Gy- /fp:precise /Zc:wchar_t /Zc:forScope /Zc:inline /Fo"BUILD\TIFF\WIN32\RELEASE\\" /Fd"BUILD\TIFF\WIN32\RELEASE\TIFF.PDB" /FR"build\tiff\Win32\Release\\" /Gd /TC /wd4133 /wd4005 /analyze- D:\POV-RAY\POV-RAY SOURCES\NORMAL\POVRAY\LIBRARIES\TIFF\LIBTIFF\TIF_OPEN.C
^D:\POV-RAY\POV-RAY SOURCES\NORMAL\POVRAY\LIBRARIES\TIFF\LIBTIFF\TIF_PACKBITS.C
/c /I..\..\LIBRARIES\JPEG /I..\..\LIBRARIES\ZLIB /Zi /nologo /W2 /WX- /O2 /Ob1 /Oy- /GL /D WIN32 /D WIN32_LEAN_AND_MEAN /D NDEBUG /D _LIB /D USE_WIN32_FILEIO /D _CRT_SECURE_NO_DEPRECATE /D _MBCS /GF /Gm- /EHsc /MT /GS- /Gy- /fp:precise /Zc:wchar_t /Zc:forScope /Zc:inline /Fo"BUILD\TIFF\WIN32\RELEASE\\" /Fd"BUILD\TIFF\WIN32\RELEASE\TIFF.PDB" /FR"build\tiff\Win32\Release\\" /Gd /TC /wd4133 /wd4005 /analyze- D:\POV-RAY\POV-RAY SOURCES\NORMAL\POVRAY\LIBRARIES\TIFF\LIBTIFF\TIF_PACKBITS.C
^D:\POV-RAY\POV-RAY SOURCES\NORMAL\POVRAY\LIBRARIES\TIFF\LIBTIFF\TIF_PIXARLOG.C
/c /I..\..\LIBRARIES\JPEG /I..\..\LIBRARIES\ZLIB /Zi /nologo /W2 /WX- /O2 /Ob1 /Oy- /GL /D WIN32 /D WIN32_LEAN_AND_MEAN /D NDEBUG /D _LIB /D USE_WIN32_FILEIO /D _CRT_SECURE_NO_DEPRECATE /D _MBCS /GF /Gm- /EHsc /MT /GS- /Gy- /fp:precise /Zc:wchar_t /Zc:forScope /Zc:inline /Fo"BUILD\TIFF\WIN32\RELEASE\\" /Fd"BUILD\TIFF\WIN32\RELEASE\TIFF.PDB" /FR"build\tiff\Win32\Release\\" /Gd /TC /wd4133 /wd4005 /analyze- D:\POV-RAY\POV-RAY SOURCES\NORMAL\POVRAY\LIBRARIES\TIFF\LIBTIFF\TIF_PIXARLOG.C
^D:\POV-RAY\POV-RAY SOURCES\NORMAL\POVRAY\LIBRARIES\TIFF\LIBTIFF\TIF_PREDICT.C
/c /I..\..\LIBRARIES\JPEG /I..\..\LIBRARIES\ZLIB /Zi /nologo /W2 /WX- /O2 /Ob1 /Oy- /GL /D WIN32 /D WIN32_LEAN_AND_MEAN /D NDEBUG /D _LIB /D USE_WIN32_FILEIO /D _CRT_SECURE_NO_DEPRECATE /D _MBCS /GF /Gm- /EHsc /MT /GS- /Gy- /fp:precise /Zc:wchar_t /Zc:forScope /Zc:inline /Fo"BUILD\TIFF\WIN32\RELEASE\\" /Fd"BUILD\TIFF\WIN32\RELEASE\TIFF.PDB" /FR"build\tiff\Win32\Release\\" /Gd /TC /wd4133 /wd4005 /analyze- D:\POV-RAY\POV-RAY SOURCES\NORMAL\POVRAY\LIBRARIES\TIFF\LIBTIFF\TIF_PREDICT.C
^D:\POV-RAY\POV-RAY SOURCES\NORMAL\POVRAY\LIBRARIES\TIFF\LIBTIFF\TIF_PRINT.C
/c /I..\..\LIBRARIES\JPEG /I..\..\LIBRARIES\ZLIB /Zi /nologo /W2 /WX- /O2 /Ob1 /Oy- /GL /D WIN32 /D WIN32_LEAN_AND_MEAN /D NDEBUG /D _LIB /D USE_WIN32_FILEIO /D _CRT_SECURE_NO_DEPRECATE /D _MBCS /GF /Gm- /EHsc /MT /GS- /Gy- /fp:precise /Zc:wchar_t /Zc:forScope /Zc:inline /Fo"BUILD\TIFF\WIN32\RELEASE\\" /Fd"BUILD\TIFF\WIN32\RELEASE\TIFF.PDB" /FR"build\tiff\Win32\Release\\" /Gd /TC /wd4133 /wd4005 /analyze- D:\POV-RAY\POV-RAY SOURCES\NORMAL\POVRAY\LIBRARIES\TIFF\LIBTIFF\TIF_PRINT.C
^D:\POV-RAY\POV-RAY SOURCES\NORMAL\POVRAY\LIBRARIES\TIFF\LIBTIFF\TIF_READ.C
/c /I..\..\LIBRARIES\JPEG /I..\..\LIBRARIES\ZLIB /Zi /nologo /W2 /WX- /O2 /Ob1 /Oy- /GL /D WIN32 /D WIN32_LEAN_AND_MEAN /D NDEBUG /D _LIB /D USE_WIN32_FILEIO /D _CRT_SECURE_NO_DEPRECATE /D _MBCS /GF /Gm- /EHsc /MT /GS- /Gy- /fp:precise /Zc:wchar_t /Zc:forScope /Zc:inline /Fo"BUILD\TIFF\WIN32\RELEASE\\" /Fd"BUILD\TIFF\WIN32\RELEASE\TIFF.PDB" /FR"build\tiff\Win32\Release\\" /Gd /TC /wd4133 /wd4005 /analyze- D:\POV-RAY\POV-RAY SOURCES\NORMAL\POVRAY\LIBRARIES\TIFF\LIBTIFF\TIF_READ.C
^D:\POV-RAY\POV-RAY SOURCES\NORMAL\POVRAY\LIBRARIES\TIFF\LIBTIFF\TIF_STRIP.C
/c /I..\..\LIBRARIES\JPEG /I..\..\LIBRARIES\ZLIB /Zi /nologo /W2 /WX- /O2 /Ob1 /Oy- /GL /D WIN32 /D WIN32_LEAN_AND_MEAN /D NDEBUG /D _LIB /D USE_WIN32_FILEIO /D _CRT_SECURE_NO_DEPRECATE /D _MBCS /GF /Gm- /EHsc /MT /GS- /Gy- /fp:precise /Zc:wchar_t /Zc:forScope /Zc:inline /Fo"BUILD\TIFF\WIN32\RELEASE\\" /Fd"BUILD\TIFF\WIN32\RELEASE\TIFF.PDB" /FR"build\tiff\Win32\Release\\" /Gd /TC /wd4133 /wd4005 /analyze- D:\POV-RAY\POV-RAY SOURCES\NORMAL\POVRAY\LIBRARIES\TIFF\LIBTIFF\TIF_STRIP.C
^D:\POV-RAY\POV-RAY SOURCES\NORMAL\POVRAY\LIBRARIES\TIFF\LIBTIFF\TIF_SWAB.C
/c /I..\..\LIBRARIES\JPEG /I..\..\LIBRARIES\ZLIB /Zi /nologo /W2 /WX- /O2 /Ob1 /Oy- /GL /D WIN32 /D WIN32_LEAN_AND_MEAN /D NDEBUG /D _LIB /D USE_WIN32_FILEIO /D _CRT_SECURE_NO_DEPRECATE /D _MBCS /GF /Gm- /EHsc /MT /GS- /Gy- /fp:precise /Zc:wchar_t /Zc:forScope /Zc:inline /Fo"BUILD\TIFF\WIN32\RELEASE\\" /Fd"BUILD\TIFF\WIN32\RELEASE\TIFF.PDB" /FR"build\tiff\Win32\Release\\" /Gd /TC /wd4133 /wd4005 /analyze- D:\POV-RAY\POV-RAY SOURCES\NORMAL\POVRAY\LIBRARIES\TIFF\LIBTIFF\TIF_SWAB.C
^D:\POV-RAY\POV-RAY SOURCES\NORMAL\POVRAY\LIBRARIES\TIFF\LIBTIFF\TIF_THUNDER.C
/c /I..\..\LIBRARIES\JPEG /I..\..\LIBRARIES\ZLIB /Zi /nologo /W2 /WX- /O2 /Ob1 /Oy- /GL /D WIN32 /D WIN32_LEAN_AND_MEAN /D NDEBUG /D _LIB /D USE_WIN32_FILEIO /D _CRT_SECURE_NO_DEPRECATE /D _MBCS /GF /Gm- /EHsc /MT /GS- /Gy- /fp:precise /Zc:wchar_t /Zc:forScope /Zc:inline /Fo"BUILD\TIFF\WIN32\RELEASE\\" /Fd"BUILD\TIFF\WIN32\RELEASE\TIFF.PDB" /FR"build\tiff\Win32\Release\\" /Gd /TC /wd4133 /wd4005 /analyze- D:\POV-RAY\POV-RAY SOURCES\NORMAL\POVRAY\LIBRARIES\TIFF\LIBTIFF\TIF_THUNDER.C
^D:\POV-RAY\POV-RAY SOURCES\NORMAL\POVRAY\LIBRARIES\TIFF\LIBTIFF\TIF_TILE.C
/c /I..\..\LIBRARIES\JPEG /I..\..\LIBRARIES\ZLIB /Zi /nologo /W2 /WX- /O2 /Ob1 /Oy- /GL /D WIN32 /D WIN32_LEAN_AND_MEAN /D NDEBUG /D _LIB /D USE_WIN32_FILEIO /D _CRT_SECURE_NO_DEPRECATE /D _MBCS /GF /Gm- /EHsc /MT /GS- /Gy- /fp:precise /Zc:wchar_t /Zc:forScope /Zc:inline /Fo"BUILD\TIFF\WIN32\RELEASE\\" /Fd"BUILD\TIFF\WIN32\RELEASE\TIFF.PDB" /FR"build\tiff\Win32\Release\\" /Gd /TC /wd4133 /wd4005 /analyze- D:\POV-RAY\POV-RAY SOURCES\NORMAL\POVRAY\LIBRARIES\TIFF\LIBTIFF\TIF_TILE.C
^D:\POV-RAY\POV-RAY SOURCES\NORMAL\POVRAY\LIBRARIES\TIFF\LIBTIFF\TIF_VERSION.C
/c /I..\..\LIBRARIES\JPEG /I..\..\LIBRARIES\ZLIB /Zi /nologo /W2 /WX- /O2 /Ob1 /Oy- /GL /D WIN32 /D WIN32_LEAN_AND_MEAN /D NDEBUG /D _LIB /D USE_WIN32_FILEIO /D _CRT_SECURE_NO_DEPRECATE /D _MBCS /GF /Gm- /EHsc /MT /GS- /Gy- /fp:precise /Zc:wchar_t /Zc:forScope /Zc:inline /Fo"BUILD\TIFF\WIN32\RELEASE\\" /Fd"BUILD\TIFF\WIN32\RELEASE\TIFF.PDB" /FR"build\tiff\Win32\Release\\" /Gd /TC /wd4133 /wd4005 /analyze- D:\POV-RAY\POV-RAY SOURCES\NORMAL\POVRAY\LIBRARIES\TIFF\LIBTIFF\TIF_VERSION.C
^D:\POV-RAY\POV-RAY SOURCES\NORMAL\POVRAY\LIBRARIES\TIFF\LIBTIFF\TIF_WARNING.C
/c /I..\..\LIBRARIES\JPEG /I..\..\LIBRARIES\ZLIB /Zi /nologo /W2 /WX- /O2 /Ob1 /Oy- /GL /D WIN32 /D WIN32_LEAN_AND_MEAN /D NDEBUG /D _LIB /D USE_WIN32_FILEIO /D _CRT_SECURE_NO_DEPRECATE /D _MBCS /GF /Gm- /EHsc /MT /GS- /Gy- /fp:precise /Zc:wchar_t /Zc:forScope /Zc:inline /Fo"BUILD\TIFF\WIN32\RELEASE\\" /Fd"BUILD\TIFF\WIN32\RELEASE\TIFF.PDB" /FR"build\tiff\Win32\Release\\" /Gd /TC /wd4133 /wd4005 /analyze- D:\POV-RAY\POV-RAY SOURCES\NORMAL\POVRAY\LIBRARIES\TIFF\LIBTIFF\TIF_WARNING.C
^D:\POV-RAY\POV-RAY SOURCES\NORMAL\POVRAY\LIBRARIES\TIFF\LIBTIFF\TIF_WIN32.C
/c /I..\..\LIBRARIES\JPEG /I..\..\LIBRARIES\ZLIB /Zi /nologo /W2 /WX- /O2 /Ob1 /Oy- /GL /D WIN32 /D WIN32_LEAN_AND_MEAN /D NDEBUG /D _LIB /D USE_WIN32_FILEIO /D _CRT_SECURE_NO_DEPRECATE /D _MBCS /GF /Gm- /EHsc /MT /GS- /Gy- /fp:precise /Zc:wchar_t /Zc:forScope /Zc:inline /Fo"BUILD\TIFF\WIN32\RELEASE\\" /Fd"BUILD\TIFF\WIN32\RELEASE\TIFF.PDB" /FR"build\tiff\Win32\Release\\" /Gd /TC /wd4133 /wd4005 /analyze- D:\POV-RAY\POV-RAY SOURCES\NORMAL\POVRAY\LIBRARIES\TIFF\LIBTIFF\TIF_WIN32.C
^D:\POV-RAY\POV-RAY SOURCES\NORMAL\POVRAY\LIBRARIES\TIFF\LIBTIFF\TIF_WRITE.C
/c /I..\..\LIBRARIES\JPEG /I..\..\LIBRARIES\ZLIB /Zi /nologo /W2 /WX- /O2 /Ob1 /Oy- /GL /D WIN32 /D WIN32_LEAN_AND_MEAN /D NDEBUG /D _LIB /D USE_WIN32_FILEIO /D _CRT_SECURE_NO_DEPRECATE /D _MBCS /GF /Gm- /EHsc /MT /GS- /Gy- /fp:precise /Zc:wchar_t /Zc:forScope /Zc:inline /Fo"BUILD\TIFF\WIN32\RELEASE\\" /Fd"BUILD\TIFF\WIN32\RELEASE\TIFF.PDB" /FR"build\tiff\Win32\Release\\" /Gd /TC /wd4133 /wd4005 /analyze- D:\POV-RAY\POV-RAY SOURCES\NORMAL\POVRAY\LIBRARIES\TIFF\LIBTIFF\TIF_WRITE.C
^D:\POV-RAY\POV-RAY SOURCES\NORMAL\POVRAY\LIBRARIES\TIFF\LIBTIFF\TIF_ZIP.C
/c /I..\..\LIBRARIES\JPEG /I..\..\LIBRARIES\ZLIB /Zi /nologo /W2 /WX- /O2 /Ob1 /Oy- /GL /D WIN32 /D WIN32_LEAN_AND_MEAN /D NDEBUG /D _LIB /D USE_WIN32_FILEIO /D _CRT_SECURE_NO_DEPRECATE /D _MBCS /GF /Gm- /EHsc /MT /GS- /Gy- /fp:precise /Zc:wchar_t /Zc:forScope /Zc:inline /Fo"BUILD\TIFF\WIN32\RELEASE\\" /Fd"BUILD\TIFF\WIN32\RELEASE\TIFF.PDB" /FR"build\tiff\Win32\Release\\" /Gd /TC /wd4133 /wd4005 /analyze- D:\POV-RAY\POV-RAY SOURCES\NORMAL\POVRAY\LIBRARIES\TIFF\LIBTIFF\TIF_ZIP.C
