^C:\USERS\MATTHEW MCCOMB\DOCUMENTS\GITHUB\POVRAY\LIBRARIES\BOOST\LIBS\DATE_TIME\SRC\GREGORIAN\DATE_GENERATORS.CPP
C:\USERS\MATTHEW MCCOMB\DOCUMENTS\GITHUB\POVRAY\WINDOWS\VS2015\BUILD\BOOST_DATE_TIME\WIN32\RELEASE\BOOST_DATE_TIME.PDB
^C:\USERS\MATTHEW MCCOMB\DOCUMENTS\GITHUB\POVRAY\LIBRARIES\BOOST\LIBS\DATE_TIME\SRC\GREGORIAN\GREG_MONTH.CPP
C:\USERS\MATTHEW MCCOMB\DOCUMENTS\GITHUB\POVRAY\WINDOWS\VS2015\BUILD\BOOST_DATE_TIME\WIN32\RELEASE\BOOST_DATE_TIME.PDB
^C:\USERS\MATTHEW MCCOMB\DOCUMENTS\GITHUB\POVRAY\LIBRARIES\BOOST\LIBS\DATE_TIME\SRC\GREGORIAN\GREG_WEEKDAY.CPP
C:\USERS\MATTHEW MCCOMB\DOCUMENTS\GITHUB\POVRAY\WINDOWS\VS2015\BUILD\BOOST_DATE_TIME\WIN32\RELEASE\BOOST_DATE_TIME.PDB
^C:\USERS\MATTHEW MCCOMB\DOCUMENTS\GITHUB\POVRAY\LIBRARIES\BOOST\LIBS\DATE_TIME\SRC\GREGORIAN\DATE_GENERATORS.CPP|C:\USERS\MATTHEW MCCOMB\DOCUMENTS\GITHUB\POVRAY\LIBRARIES\BOOST\LIBS\DATE_TIME\SRC\GREGORIAN\GREG_MONTH.CPP|C:\USERS\MATTHEW MCCOMB\DOCUMENTS\GITHUB\POVRAY\LIBRARIES\BOOST\LIBS\DATE_TIME\SRC\GREGORIAN\GREG_WEEKDAY.CPP
C:\USERS\MATTHEW MCCOMB\DOCUMENTS\GITHUB\POVRAY\WINDOWS\VS2015\BUILD\BOOST_DATE_TIME\WIN32\RELEASE\BOOST_DATE_TIME.PDB
C:\USERS\MATTHEW MCCOMB\DOCUMENTS\GITHUB\POVRAY\WINDOWS\VS2015\BUILD\BOOST_DATE_TIME\WIN32\RELEASE\DATE_GENERATORS.SBR
C:\USERS\MATTHEW MCCOMB\DOCUMENTS\GITHUB\POVRAY\WINDOWS\VS2015\BUILD\BOOST_DATE_TIME\WIN32\RELEASE\GREG_MONTH.SBR
C:\USERS\MATTHEW MCCOMB\DOCUMENTS\GITHUB\POVRAY\WINDOWS\VS2015\BUILD\BOOST_DATE_TIME\WIN32\RELEASE\GREG_WEEKDAY.SBR
C:\USERS\MATTHEW MCCOMB\DOCUMENTS\GITHUB\POVRAY\WINDOWS\VS2015\BUILD\BOOST_DATE_TIME\WIN32\RELEASE\GREG_WEEKDAY.OBJ
C:\USERS\MATTHEW MCCOMB\DOCUMENTS\GITHUB\POVRAY\WINDOWS\VS2015\BUILD\BOOST_DATE_TIME\WIN32\RELEASE\GREG_MONTH.OBJ
C:\USERS\MATTHEW MCCOMB\DOCUMENTS\GITHUB\POVRAY\WINDOWS\VS2015\BUILD\BOOST_DATE_TIME\WIN32\RELEASE\DATE_GENERATORS.OBJ
^D:\POV-RAY\POV-RAY SOURCES\NORMAL MINUS\POVRAY\LIBRARIES\BOOST\LIBS\DATE_TIME\SRC\GREGORIAN\DATE_GENERATORS.CPP|D:\POV-RAY\POV-RAY SOURCES\NORMAL MINUS\POVRAY\LIBRARIES\BOOST\LIBS\DATE_TIME\SRC\GREGORIAN\GREG_MONTH.CPP|D:\POV-RAY\POV-RAY SOURCES\NORMAL MINUS\POVRAY\LIBRARIES\BOOST\LIBS\DATE_TIME\SRC\GREGORIAN\GREG_WEEKDAY.CPP
D:\POV-RAY\POV-RAY SOURCES\NORMAL MINUS\POVRAY\WINDOWS\VS2015\BUILD\BOOST_DATE_TIME\WIN32\RELEASE\BOOST_DATE_TIME.PDB
D:\POV-RAY\POV-RAY SOURCES\NORMAL MINUS\POVRAY\WINDOWS\VS2015\BUILD\BOOST_DATE_TIME\WIN32\RELEASE\DATE_GENERATORS.SBR
D:\POV-RAY\POV-RAY SOURCES\NORMAL MINUS\POVRAY\WINDOWS\VS2015\BUILD\BOOST_DATE_TIME\WIN32\RELEASE\GREG_MONTH.SBR
D:\POV-RAY\POV-RAY SOURCES\NORMAL MINUS\POVRAY\WINDOWS\VS2015\BUILD\BOOST_DATE_TIME\WIN32\RELEASE\GREG_WEEKDAY.SBR
D:\POV-RAY\POV-RAY SOURCES\NORMAL MINUS\POVRAY\WINDOWS\VS2015\BUILD\BOOST_DATE_TIME\WIN32\RELEASE\GREG_WEEKDAY.OBJ
D:\POV-RAY\POV-RAY SOURCES\NORMAL MINUS\POVRAY\WINDOWS\VS2015\BUILD\BOOST_DATE_TIME\WIN32\RELEASE\GREG_MONTH.OBJ
D:\POV-RAY\POV-RAY SOURCES\NORMAL MINUS\POVRAY\WINDOWS\VS2015\BUILD\BOOST_DATE_TIME\WIN32\RELEASE\DATE_GENERATORS.OBJ
^D:\POV-RAY\POV-RAY SOURCES\NORMAL MINUS\POVRAY\LIBRARIES\BOOST\LIBS\DATE_TIME\SRC\GREGORIAN\DATE_GENERATORS.CPP
D:\POV-RAY\POV-RAY SOURCES\NORMAL MINUS\POVRAY\WINDOWS\VS2015\BUILD\BOOST_DATE_TIME\WIN32\RELEASE\BOOST_DATE_TIME.PDB
^D:\POV-RAY\POV-RAY SOURCES\NORMAL MINUS\POVRAY\LIBRARIES\BOOST\LIBS\DATE_TIME\SRC\GREGORIAN\GREG_MONTH.CPP
D:\POV-RAY\POV-RAY SOURCES\NORMAL MINUS\POVRAY\WINDOWS\VS2015\BUILD\BOOST_DATE_TIME\WIN32\RELEASE\BOOST_DATE_TIME.PDB
^D:\POV-RAY\POV-RAY SOURCES\NORMAL MINUS\POVRAY\LIBRARIES\BOOST\LIBS\DATE_TIME\SRC\GREGORIAN\GREG_WEEKDAY.CPP
D:\POV-RAY\POV-RAY SOURCES\NORMAL MINUS\POVRAY\WINDOWS\VS2015\BUILD\BOOST_DATE_TIME\WIN32\RELEASE\BOOST_DATE_TIME.PDB
