^C:\USERS\MATTHEW MCCOMB\DOCUMENTS\GITHUB\POVRAY\WINDOWS\VS2015\BUILD\BOOST_DATE_TIME\WIN32\RELEASE\DATE_GENERATORS.OBJ|C:\USERS\MATTHEW MCCOMB\DOCUMENTS\GITHUB\POVRAY\WINDOWS\VS2015\BUILD\BOOST_DATE_TIME\WIN32\RELEASE\GREG_MONTH.OBJ|C:\USERS\MATTHEW MCCOMB\DOCUMENTS\GITHUB\POVRAY\WINDOWS\VS2015\BUILD\BOOST_DATE_TIME\WIN32\RELEASE\GREG_WEEKDAY.OBJ
/OUT:"BIN32\LIB\LIBBOOST_DATE_TIME32.LIB" /NOLOGO /LTCG BUILD\BOOST_DATE_TIME\WIN32\RELEASE\DATE_GENERATORS.OBJBUILD\BOOST_DATE_TIME\WIN32\RELEASE\GREG_MONTH.OBJBUILD\BOOST_DATE_TIME\WIN32\RELEASE\GREG_WEEKDAY.OBJ
^D:\POV-RAY\POV-RAY SOURCES\NORMAL MINUS\POVRAY\WINDOWS\VS2015\BUILD\BOOST_DATE_TIME\WIN32\RELEASE\DATE_GENERATORS.OBJ|D:\POV-RAY\POV-RAY SOURCES\NORMAL MINUS\POVRAY\WINDOWS\VS2015\BUILD\BOOST_DATE_TIME\WIN32\RELEASE\GREG_MONTH.OBJ|D:\POV-RAY\POV-RAY SOURCES\NORMAL MINUS\POVRAY\WINDOWS\VS2015\BUILD\BOOST_DATE_TIME\WIN32\RELEASE\GREG_WEEKDAY.OBJ
/OUT:"BIN32\LIB\LIBBOOST_DATE_TIME32.LIB" /NOLOGO /LTCG BUILD\BOOST_DATE_TIME\WIN32\RELEASE\DATE_GENERATORS.OBJBUILD\BOOST_DATE_TIME\WIN32\RELEASE\GREG_MONTH.OBJBUILD\BOOST_DATE_TIME\WIN32\RELEASE\GREG_WEEKDAY.OBJ
