^C:\USERS\MATTHEW MCCOMB\DOCUMENTS\GITHUB\POVRAY\LIBRARIES\BOOST\LIBS\THREAD\SRC\FUTURE.CPP
/c /I..\..\LIBRARIES\BOOST /Zi /nologo /W3 /WX- /diagnostics:classic /Od /Oy- /D WIN32 /D WIN32_LEAN_AND_MEAN /D _DEBUG /D _WINDOWS /D _CRT_SECURE_NO_DEPRECATE /D _HAS_ITERATOR_DEBUGGING=0 /D BOOST_THREAD_BUILD_LIB=1 /D BOOST_ALL_NO_LIB /D _UNICODE /D UNICODE /GF /Gm- /EHsc /MTd /GS- /fp:precise /Zc:wchar_t /Zc:forScope /Zc:inline /Fo"BUILD\BOOST_THREAD\WIN32\DEBUG\\" /Fd"BUILD\BOOST_THREAD\WIN32\DEBUG\BOOST_THREAD.PDB" /FR"build\boost_thread\Win32\Debug\\" /Gd /TP /analyze- /FC C:\USERS\MATTHEW MCCOMB\DOCUMENTS\GITHUB\POVRAY\LIBRARIES\BOOST\LIBS\THREAD\SRC\FUTURE.CPP
^C:\USERS\MATTHEW MCCOMB\DOCUMENTS\GITHUB\POVRAY\LIBRARIES\BOOST\LIBS\THREAD\SRC\WIN32\THREAD.CPP
/c /I..\..\LIBRARIES\BOOST /Zi /nologo /W3 /WX- /diagnostics:classic /Od /Oy- /D WIN32 /D WIN32_LEAN_AND_MEAN /D _DEBUG /D _WINDOWS /D _CRT_SECURE_NO_DEPRECATE /D _HAS_ITERATOR_DEBUGGING=0 /D BOOST_THREAD_BUILD_LIB=1 /D BOOST_ALL_NO_LIB /D _UNICODE /D UNICODE /GF /Gm- /EHsc /MTd /GS- /fp:precise /Zc:wchar_t /Zc:forScope /Zc:inline /Fo"BUILD\BOOST_THREAD\WIN32\DEBUG\\" /Fd"BUILD\BOOST_THREAD\WIN32\DEBUG\BOOST_THREAD.PDB" /FR"build\boost_thread\Win32\Debug\\" /Gd /TP /analyze- /FC C:\USERS\MATTHEW MCCOMB\DOCUMENTS\GITHUB\POVRAY\LIBRARIES\BOOST\LIBS\THREAD\SRC\WIN32\THREAD.CPP
^C:\USERS\MATTHEW MCCOMB\DOCUMENTS\GITHUB\POVRAY\LIBRARIES\BOOST\LIBS\THREAD\SRC\WIN32\TSS_DLL.CPP
/c /I..\..\LIBRARIES\BOOST /Zi /nologo /W3 /WX- /diagnostics:classic /Od /Oy- /D WIN32 /D WIN32_LEAN_AND_MEAN /D _DEBUG /D _WINDOWS /D _CRT_SECURE_NO_DEPRECATE /D _HAS_ITERATOR_DEBUGGING=0 /D BOOST_THREAD_BUILD_LIB=1 /D BOOST_ALL_NO_LIB /D _UNICODE /D UNICODE /GF /Gm- /EHsc /MTd /GS- /fp:precise /Zc:wchar_t /Zc:forScope /Zc:inline /Fo"BUILD\BOOST_THREAD\WIN32\DEBUG\\" /Fd"BUILD\BOOST_THREAD\WIN32\DEBUG\BOOST_THREAD.PDB" /FR"build\boost_thread\Win32\Debug\\" /Gd /TP /analyze- /FC C:\USERS\MATTHEW MCCOMB\DOCUMENTS\GITHUB\POVRAY\LIBRARIES\BOOST\LIBS\THREAD\SRC\WIN32\TSS_DLL.CPP
^C:\USERS\MATTHEW MCCOMB\DOCUMENTS\GITHUB\POVRAY\LIBRARIES\BOOST\LIBS\THREAD\SRC\WIN32\TSS_PE.CPP
/c /I..\..\LIBRARIES\BOOST /Zi /nologo /W3 /WX- /diagnostics:classic /Od /Oy- /D WIN32 /D WIN32_LEAN_AND_MEAN /D _DEBUG /D _WINDOWS /D _CRT_SECURE_NO_DEPRECATE /D _HAS_ITERATOR_DEBUGGING=0 /D BOOST_THREAD_BUILD_LIB=1 /D BOOST_ALL_NO_LIB /D _UNICODE /D UNICODE /GF /Gm- /EHsc /MTd /GS- /fp:precise /Zc:wchar_t /Zc:forScope /Zc:inline /Fo"BUILD\BOOST_THREAD\WIN32\DEBUG\\" /Fd"BUILD\BOOST_THREAD\WIN32\DEBUG\BOOST_THREAD.PDB" /FR"build\boost_thread\Win32\Debug\\" /Gd /TP /analyze- /FC C:\USERS\MATTHEW MCCOMB\DOCUMENTS\GITHUB\POVRAY\LIBRARIES\BOOST\LIBS\THREAD\SRC\WIN32\TSS_PE.CPP
