^C:\USERS\MATTHEW MCCOMB\DOCUMENTS\GITHUB\POVRAY\LIBRARIES\ZLIB\ADLER32.C|C:\USERS\MATTHEW MCCOMB\DOCUMENTS\GITHUB\POVRAY\LIBRARIES\ZLIB\COMPRESS.C|C:\USERS\MATTHEW MCCOMB\DOCUMENTS\GITHUB\POVRAY\LIBRARIES\ZLIB\CRC32.C|C:\USERS\MATTHEW MCCOMB\DOCUMENTS\GITHUB\POVRAY\LIBRARIES\ZLIB\DEFLATE.C|C:\USERS\MATTHEW MCCOMB\DOCUMENTS\GITHUB\POVRAY\LIBRARIES\ZLIB\GZCLOSE.C|C:\USERS\MATTHEW MCCOMB\DOCUMENTS\GITHUB\POVRAY\LIBRARIES\ZLIB\GZLIB.C|C:\USERS\MATTHEW MCCOMB\DOCUMENTS\GITHUB\POVRAY\LIBRARIES\ZLIB\GZREAD.C|C:\USERS\MATTHEW MCCOMB\DOCUMENTS\GITHUB\POVRAY\LIBRARIES\ZLIB\GZWRITE.C|C:\USERS\MATTHEW MCCOMB\DOCUMENTS\GITHUB\POVRAY\LIBRARIES\ZLIB\INFBACK.C|C:\USERS\MATTHEW MCCOMB\DOCUMENTS\GITHUB\POVRAY\LIBRARIES\ZLIB\INFFAST.C|C:\USERS\MATTHEW MCCOMB\DOCUMENTS\GITHUB\POVRAY\LIBRARIES\ZLIB\INFLATE.C|C:\USERS\MATTHEW MCCOMB\DOCUMENTS\GITHUB\POVRAY\LIBRARIES\ZLIB\INFTREES.C|C:\USERS\MATTHEW MCCOMB\DOCUMENTS\GITHUB\POVRAY\LIBRARIES\ZLIB\TREES.C|C:\USERS\MATTHEW MCCOMB\DOCUMENTS\GITHUB\POVRAY\LIBRARIES\ZLIB\UNCOMPR.C|C:\USERS\MATTHEW MCCOMB\DOCUMENTS\GITHUB\POVRAY\LIBRARIES\ZLIB\ZUTIL.C
C:\USERS\MATTHEW MCCOMB\DOCUMENTS\GITHUB\POVRAY\WINDOWS\VS10\BUILD\ZLIB\WIN32\DEBUG\ZLIB.PDB
C:\USERS\MATTHEW MCCOMB\DOCUMENTS\GITHUB\POVRAY\WINDOWS\VS10\BUILD\ZLIB\WIN32\DEBUG\ADLER32.SBR
C:\USERS\MATTHEW MCCOMB\DOCUMENTS\GITHUB\POVRAY\WINDOWS\VS10\BUILD\ZLIB\WIN32\DEBUG\COMPRESS.SBR
C:\USERS\MATTHEW MCCOMB\DOCUMENTS\GITHUB\POVRAY\WINDOWS\VS10\BUILD\ZLIB\WIN32\DEBUG\CRC32.SBR
C:\USERS\MATTHEW MCCOMB\DOCUMENTS\GITHUB\POVRAY\WINDOWS\VS10\BUILD\ZLIB\WIN32\DEBUG\DEFLATE.SBR
C:\USERS\MATTHEW MCCOMB\DOCUMENTS\GITHUB\POVRAY\WINDOWS\VS10\BUILD\ZLIB\WIN32\DEBUG\GZCLOSE.SBR
C:\USERS\MATTHEW MCCOMB\DOCUMENTS\GITHUB\POVRAY\WINDOWS\VS10\BUILD\ZLIB\WIN32\DEBUG\GZLIB.SBR
C:\USERS\MATTHEW MCCOMB\DOCUMENTS\GITHUB\POVRAY\WINDOWS\VS10\BUILD\ZLIB\WIN32\DEBUG\GZREAD.SBR
C:\USERS\MATTHEW MCCOMB\DOCUMENTS\GITHUB\POVRAY\WINDOWS\VS10\BUILD\ZLIB\WIN32\DEBUG\GZWRITE.SBR
C:\USERS\MATTHEW MCCOMB\DOCUMENTS\GITHUB\POVRAY\WINDOWS\VS10\BUILD\ZLIB\WIN32\DEBUG\INFBACK.SBR
C:\USERS\MATTHEW MCCOMB\DOCUMENTS\GITHUB\POVRAY\WINDOWS\VS10\BUILD\ZLIB\WIN32\DEBUG\INFFAST.SBR
C:\USERS\MATTHEW MCCOMB\DOCUMENTS\GITHUB\POVRAY\WINDOWS\VS10\BUILD\ZLIB\WIN32\DEBUG\INFLATE.SBR
C:\USERS\MATTHEW MCCOMB\DOCUMENTS\GITHUB\POVRAY\WINDOWS\VS10\BUILD\ZLIB\WIN32\DEBUG\INFTREES.SBR
C:\USERS\MATTHEW MCCOMB\DOCUMENTS\GITHUB\POVRAY\WINDOWS\VS10\BUILD\ZLIB\WIN32\DEBUG\TREES.SBR
C:\USERS\MATTHEW MCCOMB\DOCUMENTS\GITHUB\POVRAY\WINDOWS\VS10\BUILD\ZLIB\WIN32\DEBUG\UNCOMPR.SBR
C:\USERS\MATTHEW MCCOMB\DOCUMENTS\GITHUB\POVRAY\WINDOWS\VS10\BUILD\ZLIB\WIN32\DEBUG\ZUTIL.SBR
C:\USERS\MATTHEW MCCOMB\DOCUMENTS\GITHUB\POVRAY\WINDOWS\VS10\BUILD\ZLIB\WIN32\DEBUG\ZUTIL.OBJ
C:\USERS\MATTHEW MCCOMB\DOCUMENTS\GITHUB\POVRAY\WINDOWS\VS10\BUILD\ZLIB\WIN32\DEBUG\UNCOMPR.OBJ
C:\USERS\MATTHEW MCCOMB\DOCUMENTS\GITHUB\POVRAY\WINDOWS\VS10\BUILD\ZLIB\WIN32\DEBUG\TREES.OBJ
C:\USERS\MATTHEW MCCOMB\DOCUMENTS\GITHUB\POVRAY\WINDOWS\VS10\BUILD\ZLIB\WIN32\DEBUG\INFTREES.OBJ
C:\USERS\MATTHEW MCCOMB\DOCUMENTS\GITHUB\POVRAY\WINDOWS\VS10\BUILD\ZLIB\WIN32\DEBUG\INFLATE.OBJ
C:\USERS\MATTHEW MCCOMB\DOCUMENTS\GITHUB\POVRAY\WINDOWS\VS10\BUILD\ZLIB\WIN32\DEBUG\INFFAST.OBJ
C:\USERS\MATTHEW MCCOMB\DOCUMENTS\GITHUB\POVRAY\WINDOWS\VS10\BUILD\ZLIB\WIN32\DEBUG\INFBACK.OBJ
C:\USERS\MATTHEW MCCOMB\DOCUMENTS\GITHUB\POVRAY\WINDOWS\VS10\BUILD\ZLIB\WIN32\DEBUG\GZWRITE.OBJ
C:\USERS\MATTHEW MCCOMB\DOCUMENTS\GITHUB\POVRAY\WINDOWS\VS10\BUILD\ZLIB\WIN32\DEBUG\GZREAD.OBJ
C:\USERS\MATTHEW MCCOMB\DOCUMENTS\GITHUB\POVRAY\WINDOWS\VS10\BUILD\ZLIB\WIN32\DEBUG\GZLIB.OBJ
C:\USERS\MATTHEW MCCOMB\DOCUMENTS\GITHUB\POVRAY\WINDOWS\VS10\BUILD\ZLIB\WIN32\DEBUG\GZCLOSE.OBJ
C:\USERS\MATTHEW MCCOMB\DOCUMENTS\GITHUB\POVRAY\WINDOWS\VS10\BUILD\ZLIB\WIN32\DEBUG\DEFLATE.OBJ
C:\USERS\MATTHEW MCCOMB\DOCUMENTS\GITHUB\POVRAY\WINDOWS\VS10\BUILD\ZLIB\WIN32\DEBUG\CRC32.OBJ
C:\USERS\MATTHEW MCCOMB\DOCUMENTS\GITHUB\POVRAY\WINDOWS\VS10\BUILD\ZLIB\WIN32\DEBUG\COMPRESS.OBJ
C:\USERS\MATTHEW MCCOMB\DOCUMENTS\GITHUB\POVRAY\WINDOWS\VS10\BUILD\ZLIB\WIN32\DEBUG\ADLER32.OBJ
^C:\USERS\MATTHEW MCCOMB\DOCUMENTS\GITHUB\POVRAY\LIBRARIES\ZLIB\ADLER32.C
C:\USERS\MATTHEW MCCOMB\DOCUMENTS\GITHUB\POVRAY\WINDOWS\VS10\BUILD\ZLIB\WIN32\DEBUG\ZLIB.PDB
^C:\USERS\MATTHEW MCCOMB\DOCUMENTS\GITHUB\POVRAY\LIBRARIES\ZLIB\COMPRESS.C
C:\USERS\MATTHEW MCCOMB\DOCUMENTS\GITHUB\POVRAY\WINDOWS\VS10\BUILD\ZLIB\WIN32\DEBUG\ZLIB.PDB
^C:\USERS\MATTHEW MCCOMB\DOCUMENTS\GITHUB\POVRAY\LIBRARIES\ZLIB\CRC32.C
C:\USERS\MATTHEW MCCOMB\DOCUMENTS\GITHUB\POVRAY\WINDOWS\VS10\BUILD\ZLIB\WIN32\DEBUG\ZLIB.PDB
^C:\USERS\MATTHEW MCCOMB\DOCUMENTS\GITHUB\POVRAY\LIBRARIES\ZLIB\DEFLATE.C
C:\USERS\MATTHEW MCCOMB\DOCUMENTS\GITHUB\POVRAY\WINDOWS\VS10\BUILD\ZLIB\WIN32\DEBUG\ZLIB.PDB
^C:\USERS\MATTHEW MCCOMB\DOCUMENTS\GITHUB\POVRAY\LIBRARIES\ZLIB\GZCLOSE.C
C:\USERS\MATTHEW MCCOMB\DOCUMENTS\GITHUB\POVRAY\WINDOWS\VS10\BUILD\ZLIB\WIN32\DEBUG\ZLIB.PDB
^C:\USERS\MATTHEW MCCOMB\DOCUMENTS\GITHUB\POVRAY\LIBRARIES\ZLIB\GZLIB.C
C:\USERS\MATTHEW MCCOMB\DOCUMENTS\GITHUB\POVRAY\WINDOWS\VS10\BUILD\ZLIB\WIN32\DEBUG\ZLIB.PDB
^C:\USERS\MATTHEW MCCOMB\DOCUMENTS\GITHUB\POVRAY\LIBRARIES\ZLIB\GZREAD.C
C:\USERS\MATTHEW MCCOMB\DOCUMENTS\GITHUB\POVRAY\WINDOWS\VS10\BUILD\ZLIB\WIN32\DEBUG\ZLIB.PDB
^C:\USERS\MATTHEW MCCOMB\DOCUMENTS\GITHUB\POVRAY\LIBRARIES\ZLIB\GZWRITE.C
C:\USERS\MATTHEW MCCOMB\DOCUMENTS\GITHUB\POVRAY\WINDOWS\VS10\BUILD\ZLIB\WIN32\DEBUG\ZLIB.PDB
^C:\USERS\MATTHEW MCCOMB\DOCUMENTS\GITHUB\POVRAY\LIBRARIES\ZLIB\INFBACK.C
C:\USERS\MATTHEW MCCOMB\DOCUMENTS\GITHUB\POVRAY\WINDOWS\VS10\BUILD\ZLIB\WIN32\DEBUG\ZLIB.PDB
^C:\USERS\MATTHEW MCCOMB\DOCUMENTS\GITHUB\POVRAY\LIBRARIES\ZLIB\INFFAST.C
C:\USERS\MATTHEW MCCOMB\DOCUMENTS\GITHUB\POVRAY\WINDOWS\VS10\BUILD\ZLIB\WIN32\DEBUG\ZLIB.PDB
^C:\USERS\MATTHEW MCCOMB\DOCUMENTS\GITHUB\POVRAY\LIBRARIES\ZLIB\INFLATE.C
C:\USERS\MATTHEW MCCOMB\DOCUMENTS\GITHUB\POVRAY\WINDOWS\VS10\BUILD\ZLIB\WIN32\DEBUG\ZLIB.PDB
^C:\USERS\MATTHEW MCCOMB\DOCUMENTS\GITHUB\POVRAY\LIBRARIES\ZLIB\INFTREES.C
C:\USERS\MATTHEW MCCOMB\DOCUMENTS\GITHUB\POVRAY\WINDOWS\VS10\BUILD\ZLIB\WIN32\DEBUG\ZLIB.PDB
^C:\USERS\MATTHEW MCCOMB\DOCUMENTS\GITHUB\POVRAY\LIBRARIES\ZLIB\TREES.C
C:\USERS\MATTHEW MCCOMB\DOCUMENTS\GITHUB\POVRAY\WINDOWS\VS10\BUILD\ZLIB\WIN32\DEBUG\ZLIB.PDB
^C:\USERS\MATTHEW MCCOMB\DOCUMENTS\GITHUB\POVRAY\LIBRARIES\ZLIB\UNCOMPR.C
C:\USERS\MATTHEW MCCOMB\DOCUMENTS\GITHUB\POVRAY\WINDOWS\VS10\BUILD\ZLIB\WIN32\DEBUG\ZLIB.PDB
^C:\USERS\MATTHEW MCCOMB\DOCUMENTS\GITHUB\POVRAY\LIBRARIES\ZLIB\ZUTIL.C
C:\USERS\MATTHEW MCCOMB\DOCUMENTS\GITHUB\POVRAY\WINDOWS\VS10\BUILD\ZLIB\WIN32\DEBUG\ZLIB.PDB
