^C:\USERS\MATTHEW MCCOMB\DOCUMENTS\GITHUB\POVRAY\SOURCE\PARSER\PRECOMP.CPP
C:\USERS\MATTHEW MCCOMB\DOCUMENTS\GITHUB\POVRAY\WINDOWS\VS2015\BUILD\POVPARSER\WIN32\RELEASE\PRECOMP.PCH
C:\USERS\MATTHEW MCCOMB\DOCUMENTS\GITHUB\POVRAY\WINDOWS\VS2015\BUILD\POVPARSER\WIN32\RELEASE\POVPARSER.PDB
C:\USERS\MATTHEW MCCOMB\DOCUMENTS\GITHUB\POVRAY\WINDOWS\VS2015\BUILD\POVPARSER\WIN32\RELEASE\PRECOMP.SBR
C:\USERS\MATTHEW MCCOMB\DOCUMENTS\GITHUB\POVRAY\WINDOWS\VS2015\BUILD\POVPARSER\WIN32\RELEASE\PRECOMP.OBJ
^C:\USERS\MATTHEW MCCOMB\DOCUMENTS\GITHUB\POVRAY\SOURCE\PARSER\FNCODE.CPP|C:\USERS\MATTHEW MCCOMB\DOCUMENTS\GITHUB\POVRAY\SOURCE\PARSER\PARSER.CPP|C:\USERS\MATTHEW MCCOMB\DOCUMENTS\GITHUB\POVRAY\SOURCE\PARSER\PARSER_EXPRESSIONS.CPP|C:\USERS\MATTHEW MCCOMB\DOCUMENTS\GITHUB\POVRAY\SOURCE\PARSER\PARSER_FUNCTIONS.CPP|C:\USERS\MATTHEW MCCOMB\DOCUMENTS\GITHUB\POVRAY\SOURCE\PARSER\PARSER_FUNCTIONS_UTILITIES.CPP|C:\USERS\MATTHEW MCCOMB\DOCUMENTS\GITHUB\POVRAY\SOURCE\PARSER\PARSER_MATERIALS.CPP|C:\USERS\MATTHEW MCCOMB\DOCUMENTS\GITHUB\POVRAY\SOURCE\PARSER\PARSER_OBJ.CPP|C:\USERS\MATTHEW MCCOMB\DOCUMENTS\GITHUB\POVRAY\SOURCE\PARSER\PARSER_STRINGS.CPP|C:\USERS\MATTHEW MCCOMB\DOCUMENTS\GITHUB\POVRAY\SOURCE\PARSER\PARSER_TOKENIZER.CPP|C:\USERS\MATTHEW MCCOMB\DOCUMENTS\GITHUB\POVRAY\SOURCE\PARSER\RESERVEDWORDS.CPP
C:\USERS\MATTHEW MCCOMB\DOCUMENTS\GITHUB\POVRAY\WINDOWS\VS2015\BUILD\POVPARSER\WIN32\RELEASE\POVPARSER.PDB
C:\USERS\MATTHEW MCCOMB\DOCUMENTS\GITHUB\POVRAY\WINDOWS\VS2015\BUILD\POVPARSER\WIN32\RELEASE\FNCODE.SBR
C:\USERS\MATTHEW MCCOMB\DOCUMENTS\GITHUB\POVRAY\WINDOWS\VS2015\BUILD\POVPARSER\WIN32\RELEASE\PARSER.SBR
C:\USERS\MATTHEW MCCOMB\DOCUMENTS\GITHUB\POVRAY\WINDOWS\VS2015\BUILD\POVPARSER\WIN32\RELEASE\PARSER_EXPRESSIONS.SBR
C:\USERS\MATTHEW MCCOMB\DOCUMENTS\GITHUB\POVRAY\WINDOWS\VS2015\BUILD\POVPARSER\WIN32\RELEASE\PARSER_FUNCTIONS.SBR
C:\USERS\MATTHEW MCCOMB\DOCUMENTS\GITHUB\POVRAY\WINDOWS\VS2015\BUILD\POVPARSER\WIN32\RELEASE\PARSER_FUNCTIONS_UTILITIES.SBR
C:\USERS\MATTHEW MCCOMB\DOCUMENTS\GITHUB\POVRAY\WINDOWS\VS2015\BUILD\POVPARSER\WIN32\RELEASE\PARSER_MATERIALS.SBR
C:\USERS\MATTHEW MCCOMB\DOCUMENTS\GITHUB\POVRAY\WINDOWS\VS2015\BUILD\POVPARSER\WIN32\RELEASE\PARSER_OBJ.SBR
C:\USERS\MATTHEW MCCOMB\DOCUMENTS\GITHUB\POVRAY\WINDOWS\VS2015\BUILD\POVPARSER\WIN32\RELEASE\PARSER_STRINGS.SBR
C:\USERS\MATTHEW MCCOMB\DOCUMENTS\GITHUB\POVRAY\WINDOWS\VS2015\BUILD\POVPARSER\WIN32\RELEASE\PARSER_TOKENIZER.SBR
C:\USERS\MATTHEW MCCOMB\DOCUMENTS\GITHUB\POVRAY\WINDOWS\VS2015\BUILD\POVPARSER\WIN32\RELEASE\RESERVEDWORDS.SBR
C:\USERS\MATTHEW MCCOMB\DOCUMENTS\GITHUB\POVRAY\WINDOWS\VS2015\BUILD\POVPARSER\WIN32\RELEASE\RESERVEDWORDS.OBJ
C:\USERS\MATTHEW MCCOMB\DOCUMENTS\GITHUB\POVRAY\WINDOWS\VS2015\BUILD\POVPARSER\WIN32\RELEASE\PARSER_TOKENIZER.OBJ
C:\USERS\MATTHEW MCCOMB\DOCUMENTS\GITHUB\POVRAY\WINDOWS\VS2015\BUILD\POVPARSER\WIN32\RELEASE\PARSER_STRINGS.OBJ
C:\USERS\MATTHEW MCCOMB\DOCUMENTS\GITHUB\POVRAY\WINDOWS\VS2015\BUILD\POVPARSER\WIN32\RELEASE\PARSER_OBJ.OBJ
C:\USERS\MATTHEW MCCOMB\DOCUMENTS\GITHUB\POVRAY\WINDOWS\VS2015\BUILD\POVPARSER\WIN32\RELEASE\PARSER_MATERIALS.OBJ
C:\USERS\MATTHEW MCCOMB\DOCUMENTS\GITHUB\POVRAY\WINDOWS\VS2015\BUILD\POVPARSER\WIN32\RELEASE\PARSER_FUNCTIONS_UTILITIES.OBJ
C:\USERS\MATTHEW MCCOMB\DOCUMENTS\GITHUB\POVRAY\WINDOWS\VS2015\BUILD\POVPARSER\WIN32\RELEASE\PARSER_FUNCTIONS.OBJ
C:\USERS\MATTHEW MCCOMB\DOCUMENTS\GITHUB\POVRAY\WINDOWS\VS2015\BUILD\POVPARSER\WIN32\RELEASE\PARSER_EXPRESSIONS.OBJ
C:\USERS\MATTHEW MCCOMB\DOCUMENTS\GITHUB\POVRAY\WINDOWS\VS2015\BUILD\POVPARSER\WIN32\RELEASE\PARSER.OBJ
C:\USERS\MATTHEW MCCOMB\DOCUMENTS\GITHUB\POVRAY\WINDOWS\VS2015\BUILD\POVPARSER\WIN32\RELEASE\FNCODE.OBJ
^C:\USERS\MATTHEW MCCOMB\DOCUMENTS\GITHUB\POVRAY\SOURCE\PARSER\FNCODE.CPP
C:\USERS\MATTHEW MCCOMB\DOCUMENTS\GITHUB\POVRAY\WINDOWS\VS2015\BUILD\POVPARSER\WIN32\RELEASE\POVPARSER.PDB
^C:\USERS\MATTHEW MCCOMB\DOCUMENTS\GITHUB\POVRAY\SOURCE\PARSER\PARSER.CPP
C:\USERS\MATTHEW MCCOMB\DOCUMENTS\GITHUB\POVRAY\WINDOWS\VS2015\BUILD\POVPARSER\WIN32\RELEASE\POVPARSER.PDB
^C:\USERS\MATTHEW MCCOMB\DOCUMENTS\GITHUB\POVRAY\SOURCE\PARSER\PARSER_EXPRESSIONS.CPP
C:\USERS\MATTHEW MCCOMB\DOCUMENTS\GITHUB\POVRAY\WINDOWS\VS2015\BUILD\POVPARSER\WIN32\RELEASE\POVPARSER.PDB
^C:\USERS\MATTHEW MCCOMB\DOCUMENTS\GITHUB\POVRAY\SOURCE\PARSER\PARSER_FUNCTIONS.CPP
C:\USERS\MATTHEW MCCOMB\DOCUMENTS\GITHUB\POVRAY\WINDOWS\VS2015\BUILD\POVPARSER\WIN32\RELEASE\POVPARSER.PDB
^C:\USERS\MATTHEW MCCOMB\DOCUMENTS\GITHUB\POVRAY\SOURCE\PARSER\PARSER_FUNCTIONS_UTILITIES.CPP
C:\USERS\MATTHEW MCCOMB\DOCUMENTS\GITHUB\POVRAY\WINDOWS\VS2015\BUILD\POVPARSER\WIN32\RELEASE\POVPARSER.PDB
^C:\USERS\MATTHEW MCCOMB\DOCUMENTS\GITHUB\POVRAY\SOURCE\PARSER\PARSER_MATERIALS.CPP
C:\USERS\MATTHEW MCCOMB\DOCUMENTS\GITHUB\POVRAY\WINDOWS\VS2015\BUILD\POVPARSER\WIN32\RELEASE\POVPARSER.PDB
^C:\USERS\MATTHEW MCCOMB\DOCUMENTS\GITHUB\POVRAY\SOURCE\PARSER\PARSER_OBJ.CPP
C:\USERS\MATTHEW MCCOMB\DOCUMENTS\GITHUB\POVRAY\WINDOWS\VS2015\BUILD\POVPARSER\WIN32\RELEASE\POVPARSER.PDB
^C:\USERS\MATTHEW MCCOMB\DOCUMENTS\GITHUB\POVRAY\SOURCE\PARSER\PARSER_STRINGS.CPP
C:\USERS\MATTHEW MCCOMB\DOCUMENTS\GITHUB\POVRAY\WINDOWS\VS2015\BUILD\POVPARSER\WIN32\RELEASE\POVPARSER.PDB
^C:\USERS\MATTHEW MCCOMB\DOCUMENTS\GITHUB\POVRAY\SOURCE\PARSER\PARSER_TOKENIZER.CPP
C:\USERS\MATTHEW MCCOMB\DOCUMENTS\GITHUB\POVRAY\WINDOWS\VS2015\BUILD\POVPARSER\WIN32\RELEASE\POVPARSER.PDB
^C:\USERS\MATTHEW MCCOMB\DOCUMENTS\GITHUB\POVRAY\SOURCE\PARSER\RESERVEDWORDS.CPP
C:\USERS\MATTHEW MCCOMB\DOCUMENTS\GITHUB\POVRAY\WINDOWS\VS2015\BUILD\POVPARSER\WIN32\RELEASE\POVPARSER.PDB
^D:\POV-RAY\POV-RAY SOURCES\NORMAL\POVRAY\SOURCE\PARSER\PRECOMP.CPP
D:\POV-RAY\POV-RAY SOURCES\NORMAL\POVRAY\WINDOWS\VS2015\BUILD\POVPARSER\WIN32\RELEASE\PRECOMP.PCH
D:\POV-RAY\POV-RAY SOURCES\NORMAL\POVRAY\WINDOWS\VS2015\BUILD\POVPARSER\WIN32\RELEASE\POVPARSER.PDB
D:\POV-RAY\POV-RAY SOURCES\NORMAL\POVRAY\WINDOWS\VS2015\BUILD\POVPARSER\WIN32\RELEASE\PRECOMP.SBR
D:\POV-RAY\POV-RAY SOURCES\NORMAL\POVRAY\WINDOWS\VS2015\BUILD\POVPARSER\WIN32\RELEASE\PRECOMP.OBJ
^D:\POV-RAY\POV-RAY SOURCES\NORMAL\POVRAY\SOURCE\PARSER\FNCODE.CPP|D:\POV-RAY\POV-RAY SOURCES\NORMAL\POVRAY\SOURCE\PARSER\PARSER.CPP|D:\POV-RAY\POV-RAY SOURCES\NORMAL\POVRAY\SOURCE\PARSER\PARSER_EXPRESSIONS.CPP|D:\POV-RAY\POV-RAY SOURCES\NORMAL\POVRAY\SOURCE\PARSER\PARSER_FUNCTIONS.CPP|D:\POV-RAY\POV-RAY SOURCES\NORMAL\POVRAY\SOURCE\PARSER\PARSER_FUNCTIONS_UTILITIES.CPP|D:\POV-RAY\POV-RAY SOURCES\NORMAL\POVRAY\SOURCE\PARSER\PARSER_MATERIALS.CPP|D:\POV-RAY\POV-RAY SOURCES\NORMAL\POVRAY\SOURCE\PARSER\PARSER_OBJ.CPP|D:\POV-RAY\POV-RAY SOURCES\NORMAL\POVRAY\SOURCE\PARSER\PARSER_STRINGS.CPP|D:\POV-RAY\POV-RAY SOURCES\NORMAL\POVRAY\SOURCE\PARSER\PARSER_TOKENIZER.CPP|D:\POV-RAY\POV-RAY SOURCES\NORMAL\POVRAY\SOURCE\PARSER\RESERVEDWORDS.CPP
D:\POV-RAY\POV-RAY SOURCES\NORMAL\POVRAY\WINDOWS\VS2015\BUILD\POVPARSER\WIN32\RELEASE\POVPARSER.PDB
D:\POV-RAY\POV-RAY SOURCES\NORMAL\POVRAY\WINDOWS\VS2015\BUILD\POVPARSER\WIN32\RELEASE\FNCODE.SBR
D:\POV-RAY\POV-RAY SOURCES\NORMAL\POVRAY\WINDOWS\VS2015\BUILD\POVPARSER\WIN32\RELEASE\PARSER.SBR
D:\POV-RAY\POV-RAY SOURCES\NORMAL\POVRAY\WINDOWS\VS2015\BUILD\POVPARSER\WIN32\RELEASE\PARSER_EXPRESSIONS.SBR
D:\POV-RAY\POV-RAY SOURCES\NORMAL\POVRAY\WINDOWS\VS2015\BUILD\POVPARSER\WIN32\RELEASE\PARSER_FUNCTIONS.SBR
D:\POV-RAY\POV-RAY SOURCES\NORMAL\POVRAY\WINDOWS\VS2015\BUILD\POVPARSER\WIN32\RELEASE\PARSER_FUNCTIONS_UTILITIES.SBR
D:\POV-RAY\POV-RAY SOURCES\NORMAL\POVRAY\WINDOWS\VS2015\BUILD\POVPARSER\WIN32\RELEASE\PARSER_MATERIALS.SBR
D:\POV-RAY\POV-RAY SOURCES\NORMAL\POVRAY\WINDOWS\VS2015\BUILD\POVPARSER\WIN32\RELEASE\PARSER_OBJ.SBR
D:\POV-RAY\POV-RAY SOURCES\NORMAL\POVRAY\WINDOWS\VS2015\BUILD\POVPARSER\WIN32\RELEASE\PARSER_STRINGS.SBR
D:\POV-RAY\POV-RAY SOURCES\NORMAL\POVRAY\WINDOWS\VS2015\BUILD\POVPARSER\WIN32\RELEASE\PARSER_TOKENIZER.SBR
D:\POV-RAY\POV-RAY SOURCES\NORMAL\POVRAY\WINDOWS\VS2015\BUILD\POVPARSER\WIN32\RELEASE\RESERVEDWORDS.SBR
D:\POV-RAY\POV-RAY SOURCES\NORMAL\POVRAY\WINDOWS\VS2015\BUILD\POVPARSER\WIN32\RELEASE\RESERVEDWORDS.OBJ
D:\POV-RAY\POV-RAY SOURCES\NORMAL\POVRAY\WINDOWS\VS2015\BUILD\POVPARSER\WIN32\RELEASE\PARSER_TOKENIZER.OBJ
D:\POV-RAY\POV-RAY SOURCES\NORMAL\POVRAY\WINDOWS\VS2015\BUILD\POVPARSER\WIN32\RELEASE\PARSER_STRINGS.OBJ
D:\POV-RAY\POV-RAY SOURCES\NORMAL\POVRAY\WINDOWS\VS2015\BUILD\POVPARSER\WIN32\RELEASE\PARSER_OBJ.OBJ
D:\POV-RAY\POV-RAY SOURCES\NORMAL\POVRAY\WINDOWS\VS2015\BUILD\POVPARSER\WIN32\RELEASE\PARSER_MATERIALS.OBJ
D:\POV-RAY\POV-RAY SOURCES\NORMAL\POVRAY\WINDOWS\VS2015\BUILD\POVPARSER\WIN32\RELEASE\PARSER_FUNCTIONS_UTILITIES.OBJ
D:\POV-RAY\POV-RAY SOURCES\NORMAL\POVRAY\WINDOWS\VS2015\BUILD\POVPARSER\WIN32\RELEASE\PARSER_FUNCTIONS.OBJ
D:\POV-RAY\POV-RAY SOURCES\NORMAL\POVRAY\WINDOWS\VS2015\BUILD\POVPARSER\WIN32\RELEASE\PARSER_EXPRESSIONS.OBJ
D:\POV-RAY\POV-RAY SOURCES\NORMAL\POVRAY\WINDOWS\VS2015\BUILD\POVPARSER\WIN32\RELEASE\PARSER.OBJ
D:\POV-RAY\POV-RAY SOURCES\NORMAL\POVRAY\WINDOWS\VS2015\BUILD\POVPARSER\WIN32\RELEASE\FNCODE.OBJ
^D:\POV-RAY\POV-RAY SOURCES\NORMAL\POVRAY\SOURCE\PARSER\FNCODE.CPP
D:\POV-RAY\POV-RAY SOURCES\NORMAL\POVRAY\WINDOWS\VS2015\BUILD\POVPARSER\WIN32\RELEASE\POVPARSER.PDB
^D:\POV-RAY\POV-RAY SOURCES\NORMAL\POVRAY\SOURCE\PARSER\PARSER.CPP
D:\POV-RAY\POV-RAY SOURCES\NORMAL\POVRAY\WINDOWS\VS2015\BUILD\POVPARSER\WIN32\RELEASE\POVPARSER.PDB
^D:\POV-RAY\POV-RAY SOURCES\NORMAL\POVRAY\SOURCE\PARSER\PARSER_EXPRESSIONS.CPP
D:\POV-RAY\POV-RAY SOURCES\NORMAL\POVRAY\WINDOWS\VS2015\BUILD\POVPARSER\WIN32\RELEASE\POVPARSER.PDB
^D:\POV-RAY\POV-RAY SOURCES\NORMAL\POVRAY\SOURCE\PARSER\PARSER_FUNCTIONS.CPP
D:\POV-RAY\POV-RAY SOURCES\NORMAL\POVRAY\WINDOWS\VS2015\BUILD\POVPARSER\WIN32\RELEASE\POVPARSER.PDB
^D:\POV-RAY\POV-RAY SOURCES\NORMAL\POVRAY\SOURCE\PARSER\PARSER_FUNCTIONS_UTILITIES.CPP
D:\POV-RAY\POV-RAY SOURCES\NORMAL\POVRAY\WINDOWS\VS2015\BUILD\POVPARSER\WIN32\RELEASE\POVPARSER.PDB
^D:\POV-RAY\POV-RAY SOURCES\NORMAL\POVRAY\SOURCE\PARSER\PARSER_MATERIALS.CPP
D:\POV-RAY\POV-RAY SOURCES\NORMAL\POVRAY\WINDOWS\VS2015\BUILD\POVPARSER\WIN32\RELEASE\POVPARSER.PDB
^D:\POV-RAY\POV-RAY SOURCES\NORMAL\POVRAY\SOURCE\PARSER\PARSER_OBJ.CPP
D:\POV-RAY\POV-RAY SOURCES\NORMAL\POVRAY\WINDOWS\VS2015\BUILD\POVPARSER\WIN32\RELEASE\POVPARSER.PDB
^D:\POV-RAY\POV-RAY SOURCES\NORMAL\POVRAY\SOURCE\PARSER\PARSER_STRINGS.CPP
D:\POV-RAY\POV-RAY SOURCES\NORMAL\POVRAY\WINDOWS\VS2015\BUILD\POVPARSER\WIN32\RELEASE\POVPARSER.PDB
^D:\POV-RAY\POV-RAY SOURCES\NORMAL\POVRAY\SOURCE\PARSER\PARSER_TOKENIZER.CPP
D:\POV-RAY\POV-RAY SOURCES\NORMAL\POVRAY\WINDOWS\VS2015\BUILD\POVPARSER\WIN32\RELEASE\POVPARSER.PDB
^D:\POV-RAY\POV-RAY SOURCES\NORMAL\POVRAY\SOURCE\PARSER\RESERVEDWORDS.CPP
D:\POV-RAY\POV-RAY SOURCES\NORMAL\POVRAY\WINDOWS\VS2015\BUILD\POVPARSER\WIN32\RELEASE\POVPARSER.PDB
