^C:\USERS\MATTHEW MCCOMB\DOCUMENTS\GITHUB\POVRAY\WINDOWS\VS2015\BUILD\OPENEXR ILMBASE HALF\WIN32\RELEASE\HALF.SBR
C:\USERS\MATTHEW MCCOMB\DOCUMENTS\GITHUB\POVRAY\WINDOWS\VS2015\BIN32\LIB\HALF32.BSC
^D:\POV-RAY\POV-RAY SOURCES\PLUSMINUS\POVRAY\WINDOWS\VS2015\BUILD\OPENEXR ILMBASE HALF\WIN32\RELEASE\HALF.SBR
D:\POV-RAY\POV-RAY SOURCES\PLUSMINUS\POVRAY\WINDOWS\VS2015\BIN32\LIB\HALF32.BSC
