^C:\USERS\MATTHEW MCCOMB\DOCUMENTS\GITHUB\POVRAY\WINDOWS\VS2015\BUILD\OPENEXR ILMBASE HALF\WIN32\RELEASE\HALF.OBJ
/OUT:"BIN32\LIB\HALF32.LIB" /NOLOGO /LTCG "BUILD\OPENEXR ILMBASE HALF\WIN32\RELEASE\HALF.OBJ"
^D:\POV-RAY\POV-RAY SOURCES\PLUSMINUS\POVRAY\WINDOWS\VS2015\BUILD\OPENEXR ILMBASE HALF\WIN32\RELEASE\HALF.OBJ
/OUT:"BIN32\LIB\HALF32.LIB" /NOLOGO /LTCG "BUILD\OPENEXR ILMBASE HALF\WIN32\RELEASE\HALF.OBJ"
