^C:\USERS\MATTHEW MCCOMB\DOCUMENTS\GITHUB\POVRAY\SOURCE\BACKEND\PRECOMP.CPP
/c /I..\..\LIBRARIES\BOOST /I..\..\VFE\WIN\ /I..\..\VFE\ /I..\..\SOURCE /I..\..\SOURCE\BASE /I..\..\SOURCE\BACKEND /I..\..\SOURCE\FRONTEND /I..\..\LIBRARIES\JPEG /I..\..\LIBRARIES\ZLIB /I..\..\LIBRARIES\PNG /I..\..\LIBRARIES\TIFF\LIBTIFF /I..\..\LIBRARIES\ILMBASE\CONFIG.WINDOWS /I..\..\LIBRARIES\OPENEXR\CONFIG.WINDOWS /Zi /nologo /W3 /WX- /diagnostics:classic /Od /Oi /Oy- /D BOOST_ALL_NO_LIB /D _DEBUG /D WIN32 /D WIN32_LEAN_AND_MEAN /D _WINDOWS /D WINVER=0x0500 /D _WIN32_WINNT=0x0500 /D COMMONCTRL_VERSION=0x500 /D CLASSLIB_DEFS_H /D NOMINMAX /D ISOLATION_AWARE_ENABLED /D _CRT_SECURE_NO_DEPRECATE /D _HAS_ITERATOR_DEBUGGING=0 /D _VC80_UPGRADE=0x0710 /GF /Gm- /EHsc /MTd /GS- /arch:SSE2 /fp:precise /Zc:wchar_t /Zc:forScope /Zc:inline /GR /Yc"precomp.h" /Fp"BUILD\POVBACKEND\WIN32\DEBUG\PRECOMP.PCH" /Fo"BUILD\POVBACKEND\WIN32\DEBUG\\" /Fd"BUILD\POVBACKEND\WIN32\DEBUG\POVBACKEND.PDB" /FR"build\povbackend\Win32\Debug\\" /Gd /TP /wd4800 /wd4355 /FIPRECOMP.H /analyze- /FC C:\USERS\MATTHEW MCCOMB\DOCUMENTS\GITHUB\POVRAY\SOURCE\BACKEND\PRECOMP.CPP
^C:\USERS\MATTHEW MCCOMB\DOCUMENTS\GITHUB\POVRAY\SOURCE\LIGHTGRP.CPP
/c /I..\..\LIBRARIES\BOOST /I..\..\VFE\WIN\ /I..\..\VFE\ /I..\..\SOURCE /I..\..\SOURCE\BASE /I..\..\SOURCE\BACKEND /I..\..\SOURCE\FRONTEND /I..\..\LIBRARIES\JPEG /I..\..\LIBRARIES\ZLIB /I..\..\LIBRARIES\PNG /I..\..\LIBRARIES\TIFF\LIBTIFF /I..\..\LIBRARIES\ILMBASE\CONFIG.WINDOWS /I..\..\LIBRARIES\OPENEXR\CONFIG.WINDOWS /Zi /nologo /W3 /WX- /diagnostics:classic /Od /Oi /Oy- /D BOOST_ALL_NO_LIB /D _DEBUG /D WIN32 /D WIN32_LEAN_AND_MEAN /D _WINDOWS /D WINVER=0x0500 /D _WIN32_WINNT=0x0500 /D COMMONCTRL_VERSION=0x500 /D CLASSLIB_DEFS_H /D NOMINMAX /D ISOLATION_AWARE_ENABLED /D _CRT_SECURE_NO_DEPRECATE /D _HAS_ITERATOR_DEBUGGING=0 /D _VC80_UPGRADE=0x0710 /GF /Gm- /EHsc /MTd /GS- /arch:SSE2 /fp:precise /Zc:wchar_t /Zc:forScope /Zc:inline /GR /Yu"precomp.h" /Fp"BUILD\POVBACKEND\WIN32\DEBUG\PRECOMP.PCH" /Fo"BUILD\POVBACKEND\WIN32\DEBUG\\" /Fd"BUILD\POVBACKEND\WIN32\DEBUG\POVBACKEND.PDB" /FR"build\povbackend\Win32\Debug\\" /Gd /TP /wd4800 /wd4355 /FIPRECOMP.H /analyze- /FC C:\USERS\MATTHEW MCCOMB\DOCUMENTS\GITHUB\POVRAY\SOURCE\LIGHTGRP.CPP
^C:\USERS\MATTHEW MCCOMB\DOCUMENTS\GITHUB\POVRAY\SOURCE\OPTOUT.CPP
/c /I..\..\LIBRARIES\BOOST /I..\..\VFE\WIN\ /I..\..\VFE\ /I..\..\SOURCE /I..\..\SOURCE\BASE /I..\..\SOURCE\BACKEND /I..\..\SOURCE\FRONTEND /I..\..\LIBRARIES\JPEG /I..\..\LIBRARIES\ZLIB /I..\..\LIBRARIES\PNG /I..\..\LIBRARIES\TIFF\LIBTIFF /I..\..\LIBRARIES\ILMBASE\CONFIG.WINDOWS /I..\..\LIBRARIES\OPENEXR\CONFIG.WINDOWS /Zi /nologo /W3 /WX- /diagnostics:classic /Od /Oi /Oy- /D BOOST_ALL_NO_LIB /D _DEBUG /D WIN32 /D WIN32_LEAN_AND_MEAN /D _WINDOWS /D WINVER=0x0500 /D _WIN32_WINNT=0x0500 /D COMMONCTRL_VERSION=0x500 /D CLASSLIB_DEFS_H /D NOMINMAX /D ISOLATION_AWARE_ENABLED /D _CRT_SECURE_NO_DEPRECATE /D _HAS_ITERATOR_DEBUGGING=0 /D _VC80_UPGRADE=0x0710 /GF /Gm- /EHsc /MTd /GS- /arch:SSE2 /fp:precise /Zc:wchar_t /Zc:forScope /Zc:inline /GR /Yu"precomp.h" /Fp"BUILD\POVBACKEND\WIN32\DEBUG\PRECOMP.PCH" /Fo"BUILD\POVBACKEND\WIN32\DEBUG\\" /Fd"BUILD\POVBACKEND\WIN32\DEBUG\POVBACKEND.PDB" /FR"build\povbackend\Win32\Debug\\" /Gd /TP /wd4800 /wd4355 /FIPRECOMP.H /analyze- /FC C:\USERS\MATTHEW MCCOMB\DOCUMENTS\GITHUB\POVRAY\SOURCE\OPTOUT.CPP
^C:\USERS\MATTHEW MCCOMB\DOCUMENTS\GITHUB\POVRAY\SOURCE\POV_MEM.CPP
/c /I..\..\LIBRARIES\BOOST /I..\..\VFE\WIN\ /I..\..\VFE\ /I..\..\SOURCE /I..\..\SOURCE\BASE /I..\..\SOURCE\BACKEND /I..\..\SOURCE\FRONTEND /I..\..\LIBRARIES\JPEG /I..\..\LIBRARIES\ZLIB /I..\..\LIBRARIES\PNG /I..\..\LIBRARIES\TIFF\LIBTIFF /I..\..\LIBRARIES\ILMBASE\CONFIG.WINDOWS /I..\..\LIBRARIES\OPENEXR\CONFIG.WINDOWS /Zi /nologo /W3 /WX- /diagnostics:classic /Od /Oi /Oy- /D BOOST_ALL_NO_LIB /D _DEBUG /D WIN32 /D WIN32_LEAN_AND_MEAN /D _WINDOWS /D WINVER=0x0500 /D _WIN32_WINNT=0x0500 /D COMMONCTRL_VERSION=0x500 /D CLASSLIB_DEFS_H /D NOMINMAX /D ISOLATION_AWARE_ENABLED /D _CRT_SECURE_NO_DEPRECATE /D _HAS_ITERATOR_DEBUGGING=0 /D _VC80_UPGRADE=0x0710 /GF /Gm- /EHsc /MTd /GS- /arch:SSE2 /fp:precise /Zc:wchar_t /Zc:forScope /Zc:inline /GR /Yu"precomp.h" /Fp"BUILD\POVBACKEND\WIN32\DEBUG\PRECOMP.PCH" /Fo"BUILD\POVBACKEND\WIN32\DEBUG\\" /Fd"BUILD\POVBACKEND\WIN32\DEBUG\POVBACKEND.PDB" /FR"build\povbackend\Win32\Debug\\" /Gd /TP /wd4800 /wd4355 /FIPRECOMP.H /analyze- /FC C:\USERS\MATTHEW MCCOMB\DOCUMENTS\GITHUB\POVRAY\SOURCE\POV_MEM.CPP
^C:\USERS\MATTHEW MCCOMB\DOCUMENTS\GITHUB\POVRAY\SOURCE\BACKEND\POVRAY.CPP
/c /I..\..\LIBRARIES\BOOST /I..\..\VFE\WIN\ /I..\..\VFE\ /I..\..\SOURCE /I..\..\SOURCE\BASE /I..\..\SOURCE\BACKEND /I..\..\SOURCE\FRONTEND /I..\..\LIBRARIES\JPEG /I..\..\LIBRARIES\ZLIB /I..\..\LIBRARIES\PNG /I..\..\LIBRARIES\TIFF\LIBTIFF /I..\..\LIBRARIES\ILMBASE\CONFIG.WINDOWS /I..\..\LIBRARIES\OPENEXR\CONFIG.WINDOWS /Zi /nologo /W3 /WX- /diagnostics:classic /Od /Oi /Oy- /D BOOST_ALL_NO_LIB /D _DEBUG /D WIN32 /D WIN32_LEAN_AND_MEAN /D _WINDOWS /D WINVER=0x0500 /D _WIN32_WINNT=0x0500 /D COMMONCTRL_VERSION=0x500 /D CLASSLIB_DEFS_H /D NOMINMAX /D ISOLATION_AWARE_ENABLED /D _CRT_SECURE_NO_DEPRECATE /D _HAS_ITERATOR_DEBUGGING=0 /D _VC80_UPGRADE=0x0710 /GF /Gm- /EHsc /MTd /GS- /arch:SSE2 /fp:precise /Zc:wchar_t /Zc:forScope /Zc:inline /GR /Yu"precomp.h" /Fp"BUILD\POVBACKEND\WIN32\DEBUG\PRECOMP.PCH" /Fo"BUILD\POVBACKEND\WIN32\DEBUG\\" /Fd"BUILD\POVBACKEND\WIN32\DEBUG\POVBACKEND.PDB" /FR"build\povbackend\Win32\Debug\\" /Gd /TP /wd4800 /wd4355 /FIPRECOMP.H /analyze- /FC C:\USERS\MATTHEW MCCOMB\DOCUMENTS\GITHUB\POVRAY\SOURCE\BACKEND\POVRAY.CPP
^C:\USERS\MATTHEW MCCOMB\DOCUMENTS\GITHUB\POVRAY\SOURCE\BACKEND\MATH\CHI2.CPP
/c /I..\..\LIBRARIES\BOOST /I..\..\VFE\WIN\ /I..\..\VFE\ /I..\..\SOURCE /I..\..\SOURCE\BASE /I..\..\SOURCE\BACKEND /I..\..\SOURCE\FRONTEND /I..\..\LIBRARIES\JPEG /I..\..\LIBRARIES\ZLIB /I..\..\LIBRARIES\PNG /I..\..\LIBRARIES\TIFF\LIBTIFF /I..\..\LIBRARIES\ILMBASE\CONFIG.WINDOWS /I..\..\LIBRARIES\OPENEXR\CONFIG.WINDOWS /Zi /nologo /W3 /WX- /diagnostics:classic /Od /Oi /Oy- /D BOOST_ALL_NO_LIB /D _DEBUG /D WIN32 /D WIN32_LEAN_AND_MEAN /D _WINDOWS /D WINVER=0x0500 /D _WIN32_WINNT=0x0500 /D COMMONCTRL_VERSION=0x500 /D CLASSLIB_DEFS_H /D NOMINMAX /D ISOLATION_AWARE_ENABLED /D _CRT_SECURE_NO_DEPRECATE /D _HAS_ITERATOR_DEBUGGING=0 /D _VC80_UPGRADE=0x0710 /GF /Gm- /EHsc /MTd /GS- /arch:SSE2 /fp:precise /Zc:wchar_t /Zc:forScope /Zc:inline /GR /Yu"precomp.h" /Fp"BUILD\POVBACKEND\WIN32\DEBUG\PRECOMP.PCH" /Fo"BUILD\POVBACKEND\WIN32\DEBUG\\" /Fd"BUILD\POVBACKEND\WIN32\DEBUG\POVBACKEND.PDB" /FR"build\povbackend\Win32\Debug\\" /Gd /TP /wd4800 /wd4355 /FIPRECOMP.H /analyze- /FC C:\USERS\MATTHEW MCCOMB\DOCUMENTS\GITHUB\POVRAY\SOURCE\BACKEND\MATH\CHI2.CPP
^C:\USERS\MATTHEW MCCOMB\DOCUMENTS\GITHUB\POVRAY\SOURCE\BACKEND\MATH\HCMPLX.CPP
/c /I..\..\LIBRARIES\BOOST /I..\..\VFE\WIN\ /I..\..\VFE\ /I..\..\SOURCE /I..\..\SOURCE\BASE /I..\..\SOURCE\BACKEND /I..\..\SOURCE\FRONTEND /I..\..\LIBRARIES\JPEG /I..\..\LIBRARIES\ZLIB /I..\..\LIBRARIES\PNG /I..\..\LIBRARIES\TIFF\LIBTIFF /I..\..\LIBRARIES\ILMBASE\CONFIG.WINDOWS /I..\..\LIBRARIES\OPENEXR\CONFIG.WINDOWS /Zi /nologo /W3 /WX- /diagnostics:classic /Od /Oi /Oy- /D BOOST_ALL_NO_LIB /D _DEBUG /D WIN32 /D WIN32_LEAN_AND_MEAN /D _WINDOWS /D WINVER=0x0500 /D _WIN32_WINNT=0x0500 /D COMMONCTRL_VERSION=0x500 /D CLASSLIB_DEFS_H /D NOMINMAX /D ISOLATION_AWARE_ENABLED /D _CRT_SECURE_NO_DEPRECATE /D _HAS_ITERATOR_DEBUGGING=0 /D _VC80_UPGRADE=0x0710 /GF /Gm- /EHsc /MTd /GS- /arch:SSE2 /fp:precise /Zc:wchar_t /Zc:forScope /Zc:inline /GR /Yu"precomp.h" /Fp"BUILD\POVBACKEND\WIN32\DEBUG\PRECOMP.PCH" /Fo"BUILD\POVBACKEND\WIN32\DEBUG\\" /Fd"BUILD\POVBACKEND\WIN32\DEBUG\POVBACKEND.PDB" /FR"build\povbackend\Win32\Debug\\" /Gd /TP /wd4800 /wd4355 /FIPRECOMP.H /analyze- /FC C:\USERS\MATTHEW MCCOMB\DOCUMENTS\GITHUB\POVRAY\SOURCE\BACKEND\MATH\HCMPLX.CPP
^C:\USERS\MATTHEW MCCOMB\DOCUMENTS\GITHUB\POVRAY\SOURCE\BACKEND\MATH\MATHUTIL.CPP
/c /I..\..\LIBRARIES\BOOST /I..\..\VFE\WIN\ /I..\..\VFE\ /I..\..\SOURCE /I..\..\SOURCE\BASE /I..\..\SOURCE\BACKEND /I..\..\SOURCE\FRONTEND /I..\..\LIBRARIES\JPEG /I..\..\LIBRARIES\ZLIB /I..\..\LIBRARIES\PNG /I..\..\LIBRARIES\TIFF\LIBTIFF /I..\..\LIBRARIES\ILMBASE\CONFIG.WINDOWS /I..\..\LIBRARIES\OPENEXR\CONFIG.WINDOWS /Zi /nologo /W3 /WX- /diagnostics:classic /Od /Oi /Oy- /D BOOST_ALL_NO_LIB /D _DEBUG /D WIN32 /D WIN32_LEAN_AND_MEAN /D _WINDOWS /D WINVER=0x0500 /D _WIN32_WINNT=0x0500 /D COMMONCTRL_VERSION=0x500 /D CLASSLIB_DEFS_H /D NOMINMAX /D ISOLATION_AWARE_ENABLED /D _CRT_SECURE_NO_DEPRECATE /D _HAS_ITERATOR_DEBUGGING=0 /D _VC80_UPGRADE=0x0710 /GF /Gm- /EHsc /MTd /GS- /arch:SSE2 /fp:precise /Zc:wchar_t /Zc:forScope /Zc:inline /GR /Yu"precomp.h" /Fp"BUILD\POVBACKEND\WIN32\DEBUG\PRECOMP.PCH" /Fo"BUILD\POVBACKEND\WIN32\DEBUG\\" /Fd"BUILD\POVBACKEND\WIN32\DEBUG\POVBACKEND.PDB" /FR"build\povbackend\Win32\Debug\\" /Gd /TP /wd4800 /wd4355 /FIPRECOMP.H /analyze- /FC C:\USERS\MATTHEW MCCOMB\DOCUMENTS\GITHUB\POVRAY\SOURCE\BACKEND\MATH\MATHUTIL.CPP
^C:\USERS\MATTHEW MCCOMB\DOCUMENTS\GITHUB\POVRAY\SOURCE\BACKEND\MATH\MATRICES.CPP
/c /I..\..\LIBRARIES\BOOST /I..\..\VFE\WIN\ /I..\..\VFE\ /I..\..\SOURCE /I..\..\SOURCE\BASE /I..\..\SOURCE\BACKEND /I..\..\SOURCE\FRONTEND /I..\..\LIBRARIES\JPEG /I..\..\LIBRARIES\ZLIB /I..\..\LIBRARIES\PNG /I..\..\LIBRARIES\TIFF\LIBTIFF /I..\..\LIBRARIES\ILMBASE\CONFIG.WINDOWS /I..\..\LIBRARIES\OPENEXR\CONFIG.WINDOWS /Zi /nologo /W3 /WX- /diagnostics:classic /Od /Oi /Oy- /D BOOST_ALL_NO_LIB /D _DEBUG /D WIN32 /D WIN32_LEAN_AND_MEAN /D _WINDOWS /D WINVER=0x0500 /D _WIN32_WINNT=0x0500 /D COMMONCTRL_VERSION=0x500 /D CLASSLIB_DEFS_H /D NOMINMAX /D ISOLATION_AWARE_ENABLED /D _CRT_SECURE_NO_DEPRECATE /D _HAS_ITERATOR_DEBUGGING=0 /D _VC80_UPGRADE=0x0710 /GF /Gm- /EHsc /MTd /GS- /arch:SSE2 /fp:precise /Zc:wchar_t /Zc:forScope /Zc:inline /GR /Yu"precomp.h" /Fp"BUILD\POVBACKEND\WIN32\DEBUG\PRECOMP.PCH" /Fo"BUILD\POVBACKEND\WIN32\DEBUG\\" /Fd"BUILD\POVBACKEND\WIN32\DEBUG\POVBACKEND.PDB" /FR"build\povbackend\Win32\Debug\\" /Gd /TP /wd4800 /wd4355 /FIPRECOMP.H /analyze- /FC C:\USERS\MATTHEW MCCOMB\DOCUMENTS\GITHUB\POVRAY\SOURCE\BACKEND\MATH\MATRICES.CPP
^C:\USERS\MATTHEW MCCOMB\DOCUMENTS\GITHUB\POVRAY\SOURCE\BACKEND\MATH\POLYSOLV.CPP
/c /I..\..\LIBRARIES\BOOST /I..\..\VFE\WIN\ /I..\..\VFE\ /I..\..\SOURCE /I..\..\SOURCE\BASE /I..\..\SOURCE\BACKEND /I..\..\SOURCE\FRONTEND /I..\..\LIBRARIES\JPEG /I..\..\LIBRARIES\ZLIB /I..\..\LIBRARIES\PNG /I..\..\LIBRARIES\TIFF\LIBTIFF /I..\..\LIBRARIES\ILMBASE\CONFIG.WINDOWS /I..\..\LIBRARIES\OPENEXR\CONFIG.WINDOWS /Zi /nologo /W3 /WX- /diagnostics:classic /Od /Oi /Oy- /D BOOST_ALL_NO_LIB /D _DEBUG /D WIN32 /D WIN32_LEAN_AND_MEAN /D _WINDOWS /D WINVER=0x0500 /D _WIN32_WINNT=0x0500 /D COMMONCTRL_VERSION=0x500 /D CLASSLIB_DEFS_H /D NOMINMAX /D ISOLATION_AWARE_ENABLED /D _CRT_SECURE_NO_DEPRECATE /D _HAS_ITERATOR_DEBUGGING=0 /D _VC80_UPGRADE=0x0710 /GF /Gm- /EHsc /MTd /GS- /arch:SSE2 /fp:precise /Zc:wchar_t /Zc:forScope /Zc:inline /GR /Yu"precomp.h" /Fp"BUILD\POVBACKEND\WIN32\DEBUG\PRECOMP.PCH" /Fo"BUILD\POVBACKEND\WIN32\DEBUG\\" /Fd"BUILD\POVBACKEND\WIN32\DEBUG\POVBACKEND.PDB" /FR"build\povbackend\Win32\Debug\\" /Gd /TP /wd4800 /wd4355 /FIPRECOMP.H /analyze- /FC C:\USERS\MATTHEW MCCOMB\DOCUMENTS\GITHUB\POVRAY\SOURCE\BACKEND\MATH\POLYSOLV.CPP
^C:\USERS\MATTHEW MCCOMB\DOCUMENTS\GITHUB\POVRAY\SOURCE\BACKEND\MATH\QUATERN.CPP
/c /I..\..\LIBRARIES\BOOST /I..\..\VFE\WIN\ /I..\..\VFE\ /I..\..\SOURCE /I..\..\SOURCE\BASE /I..\..\SOURCE\BACKEND /I..\..\SOURCE\FRONTEND /I..\..\LIBRARIES\JPEG /I..\..\LIBRARIES\ZLIB /I..\..\LIBRARIES\PNG /I..\..\LIBRARIES\TIFF\LIBTIFF /I..\..\LIBRARIES\ILMBASE\CONFIG.WINDOWS /I..\..\LIBRARIES\OPENEXR\CONFIG.WINDOWS /Zi /nologo /W3 /WX- /diagnostics:classic /Od /Oi /Oy- /D BOOST_ALL_NO_LIB /D _DEBUG /D WIN32 /D WIN32_LEAN_AND_MEAN /D _WINDOWS /D WINVER=0x0500 /D _WIN32_WINNT=0x0500 /D COMMONCTRL_VERSION=0x500 /D CLASSLIB_DEFS_H /D NOMINMAX /D ISOLATION_AWARE_ENABLED /D _CRT_SECURE_NO_DEPRECATE /D _HAS_ITERATOR_DEBUGGING=0 /D _VC80_UPGRADE=0x0710 /GF /Gm- /EHsc /MTd /GS- /arch:SSE2 /fp:precise /Zc:wchar_t /Zc:forScope /Zc:inline /GR /Yu"precomp.h" /Fp"BUILD\POVBACKEND\WIN32\DEBUG\PRECOMP.PCH" /Fo"BUILD\POVBACKEND\WIN32\DEBUG\\" /Fd"BUILD\POVBACKEND\WIN32\DEBUG\POVBACKEND.PDB" /FR"build\povbackend\Win32\Debug\\" /Gd /TP /wd4800 /wd4355 /FIPRECOMP.H /analyze- /FC C:\USERS\MATTHEW MCCOMB\DOCUMENTS\GITHUB\POVRAY\SOURCE\BACKEND\MATH\QUATERN.CPP
^C:\USERS\MATTHEW MCCOMB\DOCUMENTS\GITHUB\POVRAY\SOURCE\BACKEND\MATH\SPLINES.CPP
/c /I..\..\LIBRARIES\BOOST /I..\..\VFE\WIN\ /I..\..\VFE\ /I..\..\SOURCE /I..\..\SOURCE\BASE /I..\..\SOURCE\BACKEND /I..\..\SOURCE\FRONTEND /I..\..\LIBRARIES\JPEG /I..\..\LIBRARIES\ZLIB /I..\..\LIBRARIES\PNG /I..\..\LIBRARIES\TIFF\LIBTIFF /I..\..\LIBRARIES\ILMBASE\CONFIG.WINDOWS /I..\..\LIBRARIES\OPENEXR\CONFIG.WINDOWS /Zi /nologo /W3 /WX- /diagnostics:classic /Od /Oi /Oy- /D BOOST_ALL_NO_LIB /D _DEBUG /D WIN32 /D WIN32_LEAN_AND_MEAN /D _WINDOWS /D WINVER=0x0500 /D _WIN32_WINNT=0x0500 /D COMMONCTRL_VERSION=0x500 /D CLASSLIB_DEFS_H /D NOMINMAX /D ISOLATION_AWARE_ENABLED /D _CRT_SECURE_NO_DEPRECATE /D _HAS_ITERATOR_DEBUGGING=0 /D _VC80_UPGRADE=0x0710 /GF /Gm- /EHsc /MTd /GS- /arch:SSE2 /fp:precise /Zc:wchar_t /Zc:forScope /Zc:inline /GR /Yu"precomp.h" /Fp"BUILD\POVBACKEND\WIN32\DEBUG\PRECOMP.PCH" /Fo"BUILD\POVBACKEND\WIN32\DEBUG\\" /Fd"BUILD\POVBACKEND\WIN32\DEBUG\POVBACKEND.PDB" /FR"build\povbackend\Win32\Debug\\" /Gd /TP /wd4800 /wd4355 /FIPRECOMP.H /analyze- /FC C:\USERS\MATTHEW MCCOMB\DOCUMENTS\GITHUB\POVRAY\SOURCE\BACKEND\MATH\SPLINES.CPP
^C:\USERS\MATTHEW MCCOMB\DOCUMENTS\GITHUB\POVRAY\SOURCE\BACKEND\PARSER\EXPRESS.CPP
/c /I..\..\LIBRARIES\BOOST /I..\..\VFE\WIN\ /I..\..\VFE\ /I..\..\SOURCE /I..\..\SOURCE\BASE /I..\..\SOURCE\BACKEND /I..\..\SOURCE\FRONTEND /I..\..\LIBRARIES\JPEG /I..\..\LIBRARIES\ZLIB /I..\..\LIBRARIES\PNG /I..\..\LIBRARIES\TIFF\LIBTIFF /I..\..\LIBRARIES\ILMBASE\CONFIG.WINDOWS /I..\..\LIBRARIES\OPENEXR\CONFIG.WINDOWS /Zi /nologo /W3 /WX- /diagnostics:classic /Od /Oi /Oy- /D BOOST_ALL_NO_LIB /D _DEBUG /D WIN32 /D WIN32_LEAN_AND_MEAN /D _WINDOWS /D WINVER=0x0500 /D _WIN32_WINNT=0x0500 /D COMMONCTRL_VERSION=0x500 /D CLASSLIB_DEFS_H /D NOMINMAX /D ISOLATION_AWARE_ENABLED /D _CRT_SECURE_NO_DEPRECATE /D _HAS_ITERATOR_DEBUGGING=0 /D _VC80_UPGRADE=0x0710 /GF /Gm- /EHsc /MTd /GS- /arch:SSE2 /fp:precise /Zc:wchar_t /Zc:forScope /Zc:inline /GR /Yu"precomp.h" /Fp"BUILD\POVBACKEND\WIN32\DEBUG\PRECOMP.PCH" /Fo"BUILD\POVBACKEND\WIN32\DEBUG\\" /Fd"BUILD\POVBACKEND\WIN32\DEBUG\POVBACKEND.PDB" /FR"build\povbackend\Win32\Debug\\" /Gd /TP /wd4800 /wd4355 /FIPRECOMP.H /analyze- /FC C:\USERS\MATTHEW MCCOMB\DOCUMENTS\GITHUB\POVRAY\SOURCE\BACKEND\PARSER\EXPRESS.CPP
^C:\USERS\MATTHEW MCCOMB\DOCUMENTS\GITHUB\POVRAY\SOURCE\BACKEND\PARSER\FNSYNTAX.CPP
/c /I..\..\LIBRARIES\BOOST /I..\..\VFE\WIN\ /I..\..\VFE\ /I..\..\SOURCE /I..\..\SOURCE\BASE /I..\..\SOURCE\BACKEND /I..\..\SOURCE\FRONTEND /I..\..\LIBRARIES\JPEG /I..\..\LIBRARIES\ZLIB /I..\..\LIBRARIES\PNG /I..\..\LIBRARIES\TIFF\LIBTIFF /I..\..\LIBRARIES\ILMBASE\CONFIG.WINDOWS /I..\..\LIBRARIES\OPENEXR\CONFIG.WINDOWS /Zi /nologo /W3 /WX- /diagnostics:classic /Od /Oi /Oy- /D BOOST_ALL_NO_LIB /D _DEBUG /D WIN32 /D WIN32_LEAN_AND_MEAN /D _WINDOWS /D WINVER=0x0500 /D _WIN32_WINNT=0x0500 /D COMMONCTRL_VERSION=0x500 /D CLASSLIB_DEFS_H /D NOMINMAX /D ISOLATION_AWARE_ENABLED /D _CRT_SECURE_NO_DEPRECATE /D _HAS_ITERATOR_DEBUGGING=0 /D _VC80_UPGRADE=0x0710 /GF /Gm- /EHsc /MTd /GS- /arch:SSE2 /fp:precise /Zc:wchar_t /Zc:forScope /Zc:inline /GR /Yu"precomp.h" /Fp"BUILD\POVBACKEND\WIN32\DEBUG\PRECOMP.PCH" /Fo"BUILD\POVBACKEND\WIN32\DEBUG\\" /Fd"BUILD\POVBACKEND\WIN32\DEBUG\POVBACKEND.PDB" /FR"build\povbackend\Win32\Debug\\" /Gd /TP /wd4800 /wd4355 /FIPRECOMP.H /analyze- /FC C:\USERS\MATTHEW MCCOMB\DOCUMENTS\GITHUB\POVRAY\SOURCE\BACKEND\PARSER\FNSYNTAX.CPP
^C:\USERS\MATTHEW MCCOMB\DOCUMENTS\GITHUB\POVRAY\SOURCE\BACKEND\PARSER\FUNCTION.CPP
/c /I..\..\LIBRARIES\BOOST /I..\..\VFE\WIN\ /I..\..\VFE\ /I..\..\SOURCE /I..\..\SOURCE\BASE /I..\..\SOURCE\BACKEND /I..\..\SOURCE\FRONTEND /I..\..\LIBRARIES\JPEG /I..\..\LIBRARIES\ZLIB /I..\..\LIBRARIES\PNG /I..\..\LIBRARIES\TIFF\LIBTIFF /I..\..\LIBRARIES\ILMBASE\CONFIG.WINDOWS /I..\..\LIBRARIES\OPENEXR\CONFIG.WINDOWS /Zi /nologo /W3 /WX- /diagnostics:classic /Od /Oi /Oy- /D BOOST_ALL_NO_LIB /D _DEBUG /D WIN32 /D WIN32_LEAN_AND_MEAN /D _WINDOWS /D WINVER=0x0500 /D _WIN32_WINNT=0x0500 /D COMMONCTRL_VERSION=0x500 /D CLASSLIB_DEFS_H /D NOMINMAX /D ISOLATION_AWARE_ENABLED /D _CRT_SECURE_NO_DEPRECATE /D _HAS_ITERATOR_DEBUGGING=0 /D _VC80_UPGRADE=0x0710 /GF /Gm- /EHsc /MTd /GS- /arch:SSE2 /fp:precise /Zc:wchar_t /Zc:forScope /Zc:inline /GR /Yu"precomp.h" /Fp"BUILD\POVBACKEND\WIN32\DEBUG\PRECOMP.PCH" /Fo"BUILD\POVBACKEND\WIN32\DEBUG\\" /Fd"BUILD\POVBACKEND\WIN32\DEBUG\POVBACKEND.PDB" /FR"build\povbackend\Win32\Debug\\" /Gd /TP /wd4800 /wd4355 /FIPRECOMP.H /analyze- /FC C:\USERS\MATTHEW MCCOMB\DOCUMENTS\GITHUB\POVRAY\SOURCE\BACKEND\PARSER\FUNCTION.CPP
^C:\USERS\MATTHEW MCCOMB\DOCUMENTS\GITHUB\POVRAY\SOURCE\BACKEND\PARSER\PARSE.CPP
/c /I..\..\LIBRARIES\BOOST /I..\..\VFE\WIN\ /I..\..\VFE\ /I..\..\SOURCE /I..\..\SOURCE\BASE /I..\..\SOURCE\BACKEND /I..\..\SOURCE\FRONTEND /I..\..\LIBRARIES\JPEG /I..\..\LIBRARIES\ZLIB /I..\..\LIBRARIES\PNG /I..\..\LIBRARIES\TIFF\LIBTIFF /I..\..\LIBRARIES\ILMBASE\CONFIG.WINDOWS /I..\..\LIBRARIES\OPENEXR\CONFIG.WINDOWS /Zi /nologo /W3 /WX- /diagnostics:classic /Od /Oi /Oy- /D BOOST_ALL_NO_LIB /D _DEBUG /D WIN32 /D WIN32_LEAN_AND_MEAN /D _WINDOWS /D WINVER=0x0500 /D _WIN32_WINNT=0x0500 /D COMMONCTRL_VERSION=0x500 /D CLASSLIB_DEFS_H /D NOMINMAX /D ISOLATION_AWARE_ENABLED /D _CRT_SECURE_NO_DEPRECATE /D _HAS_ITERATOR_DEBUGGING=0 /D _VC80_UPGRADE=0x0710 /GF /Gm- /EHsc /MTd /GS- /arch:SSE2 /fp:precise /Zc:wchar_t /Zc:forScope /Zc:inline /GR /Yu"precomp.h" /Fp"BUILD\POVBACKEND\WIN32\DEBUG\PRECOMP.PCH" /Fo"BUILD\POVBACKEND\WIN32\DEBUG\\" /Fd"BUILD\POVBACKEND\WIN32\DEBUG\POVBACKEND.PDB" /FR"build\povbackend\Win32\Debug\\" /Gd /TP /wd4800 /wd4355 /FIPRECOMP.H /analyze- /FC C:\USERS\MATTHEW MCCOMB\DOCUMENTS\GITHUB\POVRAY\SOURCE\BACKEND\PARSER\PARSE.CPP
^C:\USERS\MATTHEW MCCOMB\DOCUMENTS\GITHUB\POVRAY\SOURCE\BACKEND\PARSER\PARSESTR.CPP
/c /I..\..\LIBRARIES\BOOST /I..\..\VFE\WIN\ /I..\..\VFE\ /I..\..\SOURCE /I..\..\SOURCE\BASE /I..\..\SOURCE\BACKEND /I..\..\SOURCE\FRONTEND /I..\..\LIBRARIES\JPEG /I..\..\LIBRARIES\ZLIB /I..\..\LIBRARIES\PNG /I..\..\LIBRARIES\TIFF\LIBTIFF /I..\..\LIBRARIES\ILMBASE\CONFIG.WINDOWS /I..\..\LIBRARIES\OPENEXR\CONFIG.WINDOWS /Zi /nologo /W3 /WX- /diagnostics:classic /Od /Oi /Oy- /D BOOST_ALL_NO_LIB /D _DEBUG /D WIN32 /D WIN32_LEAN_AND_MEAN /D _WINDOWS /D WINVER=0x0500 /D _WIN32_WINNT=0x0500 /D COMMONCTRL_VERSION=0x500 /D CLASSLIB_DEFS_H /D NOMINMAX /D ISOLATION_AWARE_ENABLED /D _CRT_SECURE_NO_DEPRECATE /D _HAS_ITERATOR_DEBUGGING=0 /D _VC80_UPGRADE=0x0710 /GF /Gm- /EHsc /MTd /GS- /arch:SSE2 /fp:precise /Zc:wchar_t /Zc:forScope /Zc:inline /GR /Yu"precomp.h" /Fp"BUILD\POVBACKEND\WIN32\DEBUG\PRECOMP.PCH" /Fo"BUILD\POVBACKEND\WIN32\DEBUG\\" /Fd"BUILD\POVBACKEND\WIN32\DEBUG\POVBACKEND.PDB" /FR"build\povbackend\Win32\Debug\\" /Gd /TP /wd4800 /wd4355 /FIPRECOMP.H /analyze- /FC C:\USERS\MATTHEW MCCOMB\DOCUMENTS\GITHUB\POVRAY\SOURCE\BACKEND\PARSER\PARSESTR.CPP
^C:\USERS\MATTHEW MCCOMB\DOCUMENTS\GITHUB\POVRAY\SOURCE\BACKEND\PARSER\PARSTXTR.CPP
/c /I..\..\LIBRARIES\BOOST /I..\..\VFE\WIN\ /I..\..\VFE\ /I..\..\SOURCE /I..\..\SOURCE\BASE /I..\..\SOURCE\BACKEND /I..\..\SOURCE\FRONTEND /I..\..\LIBRARIES\JPEG /I..\..\LIBRARIES\ZLIB /I..\..\LIBRARIES\PNG /I..\..\LIBRARIES\TIFF\LIBTIFF /I..\..\LIBRARIES\ILMBASE\CONFIG.WINDOWS /I..\..\LIBRARIES\OPENEXR\CONFIG.WINDOWS /Zi /nologo /W3 /WX- /diagnostics:classic /Od /Oi /Oy- /D BOOST_ALL_NO_LIB /D _DEBUG /D WIN32 /D WIN32_LEAN_AND_MEAN /D _WINDOWS /D WINVER=0x0500 /D _WIN32_WINNT=0x0500 /D COMMONCTRL_VERSION=0x500 /D CLASSLIB_DEFS_H /D NOMINMAX /D ISOLATION_AWARE_ENABLED /D _CRT_SECURE_NO_DEPRECATE /D _HAS_ITERATOR_DEBUGGING=0 /D _VC80_UPGRADE=0x0710 /GF /Gm- /EHsc /MTd /GS- /arch:SSE2 /fp:precise /Zc:wchar_t /Zc:forScope /Zc:inline /GR /Yu"precomp.h" /Fp"BUILD\POVBACKEND\WIN32\DEBUG\PRECOMP.PCH" /Fo"BUILD\POVBACKEND\WIN32\DEBUG\\" /Fd"BUILD\POVBACKEND\WIN32\DEBUG\POVBACKEND.PDB" /FR"build\povbackend\Win32\Debug\\" /Gd /TP /wd4800 /wd4355 /FIPRECOMP.H /analyze- /FC C:\USERS\MATTHEW MCCOMB\DOCUMENTS\GITHUB\POVRAY\SOURCE\BACKEND\PARSER\PARSTXTR.CPP
^C:\USERS\MATTHEW MCCOMB\DOCUMENTS\GITHUB\POVRAY\SOURCE\BACKEND\PARSER\RESWORDS.CPP
/c /I..\..\LIBRARIES\BOOST /I..\..\VFE\WIN\ /I..\..\VFE\ /I..\..\SOURCE /I..\..\SOURCE\BASE /I..\..\SOURCE\BACKEND /I..\..\SOURCE\FRONTEND /I..\..\LIBRARIES\JPEG /I..\..\LIBRARIES\ZLIB /I..\..\LIBRARIES\PNG /I..\..\LIBRARIES\TIFF\LIBTIFF /I..\..\LIBRARIES\ILMBASE\CONFIG.WINDOWS /I..\..\LIBRARIES\OPENEXR\CONFIG.WINDOWS /Zi /nologo /W3 /WX- /diagnostics:classic /Od /Oi /Oy- /D BOOST_ALL_NO_LIB /D _DEBUG /D WIN32 /D WIN32_LEAN_AND_MEAN /D _WINDOWS /D WINVER=0x0500 /D _WIN32_WINNT=0x0500 /D COMMONCTRL_VERSION=0x500 /D CLASSLIB_DEFS_H /D NOMINMAX /D ISOLATION_AWARE_ENABLED /D _CRT_SECURE_NO_DEPRECATE /D _HAS_ITERATOR_DEBUGGING=0 /D _VC80_UPGRADE=0x0710 /GF /Gm- /EHsc /MTd /GS- /arch:SSE2 /fp:precise /Zc:wchar_t /Zc:forScope /Zc:inline /GR /Yu"precomp.h" /Fp"BUILD\POVBACKEND\WIN32\DEBUG\PRECOMP.PCH" /Fo"BUILD\POVBACKEND\WIN32\DEBUG\\" /Fd"BUILD\POVBACKEND\WIN32\DEBUG\POVBACKEND.PDB" /FR"build\povbackend\Win32\Debug\\" /Gd /TP /wd4800 /wd4355 /FIPRECOMP.H /analyze- /FC C:\USERS\MATTHEW MCCOMB\DOCUMENTS\GITHUB\POVRAY\SOURCE\BACKEND\PARSER\RESWORDS.CPP
^C:\USERS\MATTHEW MCCOMB\DOCUMENTS\GITHUB\POVRAY\SOURCE\BACKEND\PARSER\TOKENIZE.CPP
/c /I..\..\LIBRARIES\BOOST /I..\..\VFE\WIN\ /I..\..\VFE\ /I..\..\SOURCE /I..\..\SOURCE\BASE /I..\..\SOURCE\BACKEND /I..\..\SOURCE\FRONTEND /I..\..\LIBRARIES\JPEG /I..\..\LIBRARIES\ZLIB /I..\..\LIBRARIES\PNG /I..\..\LIBRARIES\TIFF\LIBTIFF /I..\..\LIBRARIES\ILMBASE\CONFIG.WINDOWS /I..\..\LIBRARIES\OPENEXR\CONFIG.WINDOWS /Zi /nologo /W3 /WX- /diagnostics:classic /Od /Oi /Oy- /D BOOST_ALL_NO_LIB /D _DEBUG /D WIN32 /D WIN32_LEAN_AND_MEAN /D _WINDOWS /D WINVER=0x0500 /D _WIN32_WINNT=0x0500 /D COMMONCTRL_VERSION=0x500 /D CLASSLIB_DEFS_H /D NOMINMAX /D ISOLATION_AWARE_ENABLED /D _CRT_SECURE_NO_DEPRECATE /D _HAS_ITERATOR_DEBUGGING=0 /D _VC80_UPGRADE=0x0710 /GF /Gm- /EHsc /MTd /GS- /arch:SSE2 /fp:precise /Zc:wchar_t /Zc:forScope /Zc:inline /GR /Yu"precomp.h" /Fp"BUILD\POVBACKEND\WIN32\DEBUG\PRECOMP.PCH" /Fo"BUILD\POVBACKEND\WIN32\DEBUG\\" /Fd"BUILD\POVBACKEND\WIN32\DEBUG\POVBACKEND.PDB" /FR"build\povbackend\Win32\Debug\\" /Gd /TP /wd4800 /wd4355 /FIPRECOMP.H /analyze- /FC C:\USERS\MATTHEW MCCOMB\DOCUMENTS\GITHUB\POVRAY\SOURCE\BACKEND\PARSER\TOKENIZE.CPP
^C:\USERS\MATTHEW MCCOMB\DOCUMENTS\GITHUB\POVRAY\SOURCE\BACKEND\PATTERN\PATTERN.CPP
/c /I..\..\LIBRARIES\BOOST /I..\..\VFE\WIN\ /I..\..\VFE\ /I..\..\SOURCE /I..\..\SOURCE\BASE /I..\..\SOURCE\BACKEND /I..\..\SOURCE\FRONTEND /I..\..\LIBRARIES\JPEG /I..\..\LIBRARIES\ZLIB /I..\..\LIBRARIES\PNG /I..\..\LIBRARIES\TIFF\LIBTIFF /I..\..\LIBRARIES\ILMBASE\CONFIG.WINDOWS /I..\..\LIBRARIES\OPENEXR\CONFIG.WINDOWS /Zi /nologo /W3 /WX- /diagnostics:classic /Od /Oi /Oy- /D BOOST_ALL_NO_LIB /D _DEBUG /D WIN32 /D WIN32_LEAN_AND_MEAN /D _WINDOWS /D WINVER=0x0500 /D _WIN32_WINNT=0x0500 /D COMMONCTRL_VERSION=0x500 /D CLASSLIB_DEFS_H /D NOMINMAX /D ISOLATION_AWARE_ENABLED /D _CRT_SECURE_NO_DEPRECATE /D _HAS_ITERATOR_DEBUGGING=0 /D _VC80_UPGRADE=0x0710 /GF /Gm- /EHsc /MTd /GS- /arch:SSE2 /fp:precise /Zc:wchar_t /Zc:forScope /Zc:inline /GR /Yu"precomp.h" /Fp"BUILD\POVBACKEND\WIN32\DEBUG\PRECOMP.PCH" /Fo"BUILD\POVBACKEND\WIN32\DEBUG\\" /Fd"BUILD\POVBACKEND\WIN32\DEBUG\POVBACKEND.PDB" /FR"build\povbackend\Win32\Debug\\" /Gd /TP /wd4800 /wd4355 /FIPRECOMP.H /analyze- /FC C:\USERS\MATTHEW MCCOMB\DOCUMENTS\GITHUB\POVRAY\SOURCE\BACKEND\PATTERN\PATTERN.CPP
^C:\USERS\MATTHEW MCCOMB\DOCUMENTS\GITHUB\POVRAY\SOURCE\BACKEND\PATTERN\WARPS.CPP
/c /I..\..\LIBRARIES\BOOST /I..\..\VFE\WIN\ /I..\..\VFE\ /I..\..\SOURCE /I..\..\SOURCE\BASE /I..\..\SOURCE\BACKEND /I..\..\SOURCE\FRONTEND /I..\..\LIBRARIES\JPEG /I..\..\LIBRARIES\ZLIB /I..\..\LIBRARIES\PNG /I..\..\LIBRARIES\TIFF\LIBTIFF /I..\..\LIBRARIES\ILMBASE\CONFIG.WINDOWS /I..\..\LIBRARIES\OPENEXR\CONFIG.WINDOWS /Zi /nologo /W3 /WX- /diagnostics:classic /Od /Oi /Oy- /D BOOST_ALL_NO_LIB /D _DEBUG /D WIN32 /D WIN32_LEAN_AND_MEAN /D _WINDOWS /D WINVER=0x0500 /D _WIN32_WINNT=0x0500 /D COMMONCTRL_VERSION=0x500 /D CLASSLIB_DEFS_H /D NOMINMAX /D ISOLATION_AWARE_ENABLED /D _CRT_SECURE_NO_DEPRECATE /D _HAS_ITERATOR_DEBUGGING=0 /D _VC80_UPGRADE=0x0710 /GF /Gm- /EHsc /MTd /GS- /arch:SSE2 /fp:precise /Zc:wchar_t /Zc:forScope /Zc:inline /GR /Yu"precomp.h" /Fp"BUILD\POVBACKEND\WIN32\DEBUG\PRECOMP.PCH" /Fo"BUILD\POVBACKEND\WIN32\DEBUG\\" /Fd"BUILD\POVBACKEND\WIN32\DEBUG\POVBACKEND.PDB" /FR"build\povbackend\Win32\Debug\\" /Gd /TP /wd4800 /wd4355 /FIPRECOMP.H /analyze- /FC C:\USERS\MATTHEW MCCOMB\DOCUMENTS\GITHUB\POVRAY\SOURCE\BACKEND\PATTERN\WARPS.CPP
^C:\USERS\MATTHEW MCCOMB\DOCUMENTS\GITHUB\POVRAY\SOURCE\BACKEND\RENDER\RADIOSITYTASK.CPP
/c /I..\..\LIBRARIES\BOOST /I..\..\VFE\WIN\ /I..\..\VFE\ /I..\..\SOURCE /I..\..\SOURCE\BASE /I..\..\SOURCE\BACKEND /I..\..\SOURCE\FRONTEND /I..\..\LIBRARIES\JPEG /I..\..\LIBRARIES\ZLIB /I..\..\LIBRARIES\PNG /I..\..\LIBRARIES\TIFF\LIBTIFF /I..\..\LIBRARIES\ILMBASE\CONFIG.WINDOWS /I..\..\LIBRARIES\OPENEXR\CONFIG.WINDOWS /Zi /nologo /W3 /WX- /diagnostics:classic /Od /Oi /Oy- /D BOOST_ALL_NO_LIB /D _DEBUG /D WIN32 /D WIN32_LEAN_AND_MEAN /D _WINDOWS /D WINVER=0x0500 /D _WIN32_WINNT=0x0500 /D COMMONCTRL_VERSION=0x500 /D CLASSLIB_DEFS_H /D NOMINMAX /D ISOLATION_AWARE_ENABLED /D _CRT_SECURE_NO_DEPRECATE /D _HAS_ITERATOR_DEBUGGING=0 /D _VC80_UPGRADE=0x0710 /GF /Gm- /EHsc /MTd /GS- /arch:SSE2 /fp:precise /Zc:wchar_t /Zc:forScope /Zc:inline /GR /Yu"precomp.h" /Fp"BUILD\POVBACKEND\WIN32\DEBUG\PRECOMP.PCH" /Fo"BUILD\POVBACKEND\WIN32\DEBUG\\" /Fd"BUILD\POVBACKEND\WIN32\DEBUG\POVBACKEND.PDB" /FR"build\povbackend\Win32\Debug\\" /Gd /TP /wd4800 /wd4355 /FIPRECOMP.H /analyze- /FC C:\USERS\MATTHEW MCCOMB\DOCUMENTS\GITHUB\POVRAY\SOURCE\BACKEND\RENDER\RADIOSITYTASK.CPP
^C:\USERS\MATTHEW MCCOMB\DOCUMENTS\GITHUB\POVRAY\SOURCE\BACKEND\RENDER\RAY.CPP
/c /I..\..\LIBRARIES\BOOST /I..\..\VFE\WIN\ /I..\..\VFE\ /I..\..\SOURCE /I..\..\SOURCE\BASE /I..\..\SOURCE\BACKEND /I..\..\SOURCE\FRONTEND /I..\..\LIBRARIES\JPEG /I..\..\LIBRARIES\ZLIB /I..\..\LIBRARIES\PNG /I..\..\LIBRARIES\TIFF\LIBTIFF /I..\..\LIBRARIES\ILMBASE\CONFIG.WINDOWS /I..\..\LIBRARIES\OPENEXR\CONFIG.WINDOWS /Zi /nologo /W3 /WX- /diagnostics:classic /Od /Oi /Oy- /D BOOST_ALL_NO_LIB /D _DEBUG /D WIN32 /D WIN32_LEAN_AND_MEAN /D _WINDOWS /D WINVER=0x0500 /D _WIN32_WINNT=0x0500 /D COMMONCTRL_VERSION=0x500 /D CLASSLIB_DEFS_H /D NOMINMAX /D ISOLATION_AWARE_ENABLED /D _CRT_SECURE_NO_DEPRECATE /D _HAS_ITERATOR_DEBUGGING=0 /D _VC80_UPGRADE=0x0710 /GF /Gm- /EHsc /MTd /GS- /arch:SSE2 /fp:precise /Zc:wchar_t /Zc:forScope /Zc:inline /GR /Yu"precomp.h" /Fp"BUILD\POVBACKEND\WIN32\DEBUG\PRECOMP.PCH" /Fo"BUILD\POVBACKEND\WIN32\DEBUG\\" /Fd"BUILD\POVBACKEND\WIN32\DEBUG\POVBACKEND.PDB" /FR"build\povbackend\Win32\Debug\\" /Gd /TP /wd4800 /wd4355 /FIPRECOMP.H /analyze- /FC C:\USERS\MATTHEW MCCOMB\DOCUMENTS\GITHUB\POVRAY\SOURCE\BACKEND\RENDER\RAY.CPP
^C:\USERS\MATTHEW MCCOMB\DOCUMENTS\GITHUB\POVRAY\SOURCE\BACKEND\RENDER\RENDERTASK.CPP
/c /I..\..\LIBRARIES\BOOST /I..\..\VFE\WIN\ /I..\..\VFE\ /I..\..\SOURCE /I..\..\SOURCE\BASE /I..\..\SOURCE\BACKEND /I..\..\SOURCE\FRONTEND /I..\..\LIBRARIES\JPEG /I..\..\LIBRARIES\ZLIB /I..\..\LIBRARIES\PNG /I..\..\LIBRARIES\TIFF\LIBTIFF /I..\..\LIBRARIES\ILMBASE\CONFIG.WINDOWS /I..\..\LIBRARIES\OPENEXR\CONFIG.WINDOWS /Zi /nologo /W3 /WX- /diagnostics:classic /Od /Oi /Oy- /D BOOST_ALL_NO_LIB /D _DEBUG /D WIN32 /D WIN32_LEAN_AND_MEAN /D _WINDOWS /D WINVER=0x0500 /D _WIN32_WINNT=0x0500 /D COMMONCTRL_VERSION=0x500 /D CLASSLIB_DEFS_H /D NOMINMAX /D ISOLATION_AWARE_ENABLED /D _CRT_SECURE_NO_DEPRECATE /D _HAS_ITERATOR_DEBUGGING=0 /D _VC80_UPGRADE=0x0710 /GF /Gm- /EHsc /MTd /GS- /arch:SSE2 /fp:precise /Zc:wchar_t /Zc:forScope /Zc:inline /GR /Yu"precomp.h" /Fp"BUILD\POVBACKEND\WIN32\DEBUG\PRECOMP.PCH" /Fo"BUILD\POVBACKEND\WIN32\DEBUG\\" /Fd"BUILD\POVBACKEND\WIN32\DEBUG\POVBACKEND.PDB" /FR"build\povbackend\Win32\Debug\\" /Gd /TP /wd4800 /wd4355 /FIPRECOMP.H /analyze- /FC C:\USERS\MATTHEW MCCOMB\DOCUMENTS\GITHUB\POVRAY\SOURCE\BACKEND\RENDER\RENDERTASK.CPP
^C:\USERS\MATTHEW MCCOMB\DOCUMENTS\GITHUB\POVRAY\SOURCE\BACKEND\RENDER\TRACE.CPP
/c /I..\..\LIBRARIES\BOOST /I..\..\VFE\WIN\ /I..\..\VFE\ /I..\..\SOURCE /I..\..\SOURCE\BASE /I..\..\SOURCE\BACKEND /I..\..\SOURCE\FRONTEND /I..\..\LIBRARIES\JPEG /I..\..\LIBRARIES\ZLIB /I..\..\LIBRARIES\PNG /I..\..\LIBRARIES\TIFF\LIBTIFF /I..\..\LIBRARIES\ILMBASE\CONFIG.WINDOWS /I..\..\LIBRARIES\OPENEXR\CONFIG.WINDOWS /Zi /nologo /W3 /WX- /diagnostics:classic /Od /Oi /Oy- /D BOOST_ALL_NO_LIB /D _DEBUG /D WIN32 /D WIN32_LEAN_AND_MEAN /D _WINDOWS /D WINVER=0x0500 /D _WIN32_WINNT=0x0500 /D COMMONCTRL_VERSION=0x500 /D CLASSLIB_DEFS_H /D NOMINMAX /D ISOLATION_AWARE_ENABLED /D _CRT_SECURE_NO_DEPRECATE /D _HAS_ITERATOR_DEBUGGING=0 /D _VC80_UPGRADE=0x0710 /GF /Gm- /EHsc /MTd /GS- /arch:SSE2 /fp:precise /Zc:wchar_t /Zc:forScope /Zc:inline /GR /Yu"precomp.h" /Fp"BUILD\POVBACKEND\WIN32\DEBUG\PRECOMP.PCH" /Fo"BUILD\POVBACKEND\WIN32\DEBUG\\" /Fd"BUILD\POVBACKEND\WIN32\DEBUG\POVBACKEND.PDB" /FR"build\povbackend\Win32\Debug\\" /Gd /TP /wd4800 /wd4355 /FIPRECOMP.H /analyze- /FC C:\USERS\MATTHEW MCCOMB\DOCUMENTS\GITHUB\POVRAY\SOURCE\BACKEND\RENDER\TRACE.CPP
^C:\USERS\MATTHEW MCCOMB\DOCUMENTS\GITHUB\POVRAY\SOURCE\BACKEND\RENDER\TRACEPIXEL.CPP
/c /I..\..\LIBRARIES\BOOST /I..\..\VFE\WIN\ /I..\..\VFE\ /I..\..\SOURCE /I..\..\SOURCE\BASE /I..\..\SOURCE\BACKEND /I..\..\SOURCE\FRONTEND /I..\..\LIBRARIES\JPEG /I..\..\LIBRARIES\ZLIB /I..\..\LIBRARIES\PNG /I..\..\LIBRARIES\TIFF\LIBTIFF /I..\..\LIBRARIES\ILMBASE\CONFIG.WINDOWS /I..\..\LIBRARIES\OPENEXR\CONFIG.WINDOWS /Zi /nologo /W3 /WX- /diagnostics:classic /Od /Oi /Oy- /D BOOST_ALL_NO_LIB /D _DEBUG /D WIN32 /D WIN32_LEAN_AND_MEAN /D _WINDOWS /D WINVER=0x0500 /D _WIN32_WINNT=0x0500 /D COMMONCTRL_VERSION=0x500 /D CLASSLIB_DEFS_H /D NOMINMAX /D ISOLATION_AWARE_ENABLED /D _CRT_SECURE_NO_DEPRECATE /D _HAS_ITERATOR_DEBUGGING=0 /D _VC80_UPGRADE=0x0710 /GF /Gm- /EHsc /MTd /GS- /arch:SSE2 /fp:precise /Zc:wchar_t /Zc:forScope /Zc:inline /GR /Yu"precomp.h" /Fp"BUILD\POVBACKEND\WIN32\DEBUG\PRECOMP.PCH" /Fo"BUILD\POVBACKEND\WIN32\DEBUG\\" /Fd"BUILD\POVBACKEND\WIN32\DEBUG\POVBACKEND.PDB" /FR"build\povbackend\Win32\Debug\\" /Gd /TP /wd4800 /wd4355 /FIPRECOMP.H /analyze- /FC C:\USERS\MATTHEW MCCOMB\DOCUMENTS\GITHUB\POVRAY\SOURCE\BACKEND\RENDER\TRACEPIXEL.CPP
^C:\USERS\MATTHEW MCCOMB\DOCUMENTS\GITHUB\POVRAY\SOURCE\BACKEND\RENDER\TRACETASK.CPP
/c /I..\..\LIBRARIES\BOOST /I..\..\VFE\WIN\ /I..\..\VFE\ /I..\..\SOURCE /I..\..\SOURCE\BASE /I..\..\SOURCE\BACKEND /I..\..\SOURCE\FRONTEND /I..\..\LIBRARIES\JPEG /I..\..\LIBRARIES\ZLIB /I..\..\LIBRARIES\PNG /I..\..\LIBRARIES\TIFF\LIBTIFF /I..\..\LIBRARIES\ILMBASE\CONFIG.WINDOWS /I..\..\LIBRARIES\OPENEXR\CONFIG.WINDOWS /Zi /nologo /W3 /WX- /diagnostics:classic /Od /Oi /Oy- /D BOOST_ALL_NO_LIB /D _DEBUG /D WIN32 /D WIN32_LEAN_AND_MEAN /D _WINDOWS /D WINVER=0x0500 /D _WIN32_WINNT=0x0500 /D COMMONCTRL_VERSION=0x500 /D CLASSLIB_DEFS_H /D NOMINMAX /D ISOLATION_AWARE_ENABLED /D _CRT_SECURE_NO_DEPRECATE /D _HAS_ITERATOR_DEBUGGING=0 /D _VC80_UPGRADE=0x0710 /GF /Gm- /EHsc /MTd /GS- /arch:SSE2 /fp:precise /Zc:wchar_t /Zc:forScope /Zc:inline /GR /Yu"precomp.h" /Fp"BUILD\POVBACKEND\WIN32\DEBUG\PRECOMP.PCH" /Fo"BUILD\POVBACKEND\WIN32\DEBUG\\" /Fd"BUILD\POVBACKEND\WIN32\DEBUG\POVBACKEND.PDB" /FR"build\povbackend\Win32\Debug\\" /Gd /TP /wd4800 /wd4355 /FIPRECOMP.H /analyze- /FC C:\USERS\MATTHEW MCCOMB\DOCUMENTS\GITHUB\POVRAY\SOURCE\BACKEND\RENDER\TRACETASK.CPP
^C:\USERS\MATTHEW MCCOMB\DOCUMENTS\GITHUB\POVRAY\SOURCE\BACKEND\SCENE\ATMOSPH.CPP
/c /I..\..\LIBRARIES\BOOST /I..\..\VFE\WIN\ /I..\..\VFE\ /I..\..\SOURCE /I..\..\SOURCE\BASE /I..\..\SOURCE\BACKEND /I..\..\SOURCE\FRONTEND /I..\..\LIBRARIES\JPEG /I..\..\LIBRARIES\ZLIB /I..\..\LIBRARIES\PNG /I..\..\LIBRARIES\TIFF\LIBTIFF /I..\..\LIBRARIES\ILMBASE\CONFIG.WINDOWS /I..\..\LIBRARIES\OPENEXR\CONFIG.WINDOWS /Zi /nologo /W3 /WX- /diagnostics:classic /Od /Oi /Oy- /D BOOST_ALL_NO_LIB /D _DEBUG /D WIN32 /D WIN32_LEAN_AND_MEAN /D _WINDOWS /D WINVER=0x0500 /D _WIN32_WINNT=0x0500 /D COMMONCTRL_VERSION=0x500 /D CLASSLIB_DEFS_H /D NOMINMAX /D ISOLATION_AWARE_ENABLED /D _CRT_SECURE_NO_DEPRECATE /D _HAS_ITERATOR_DEBUGGING=0 /D _VC80_UPGRADE=0x0710 /GF /Gm- /EHsc /MTd /GS- /arch:SSE2 /fp:precise /Zc:wchar_t /Zc:forScope /Zc:inline /GR /Yu"precomp.h" /Fp"BUILD\POVBACKEND\WIN32\DEBUG\PRECOMP.PCH" /Fo"BUILD\POVBACKEND\WIN32\DEBUG\\" /Fd"BUILD\POVBACKEND\WIN32\DEBUG\POVBACKEND.PDB" /FR"build\povbackend\Win32\Debug\\" /Gd /TP /wd4800 /wd4355 /FIPRECOMP.H /analyze- /FC C:\USERS\MATTHEW MCCOMB\DOCUMENTS\GITHUB\POVRAY\SOURCE\BACKEND\SCENE\ATMOSPH.CPP
^C:\USERS\MATTHEW MCCOMB\DOCUMENTS\GITHUB\POVRAY\SOURCE\BACKEND\SCENE\CAMERA.CPP
/c /I..\..\LIBRARIES\BOOST /I..\..\VFE\WIN\ /I..\..\VFE\ /I..\..\SOURCE /I..\..\SOURCE\BASE /I..\..\SOURCE\BACKEND /I..\..\SOURCE\FRONTEND /I..\..\LIBRARIES\JPEG /I..\..\LIBRARIES\ZLIB /I..\..\LIBRARIES\PNG /I..\..\LIBRARIES\TIFF\LIBTIFF /I..\..\LIBRARIES\ILMBASE\CONFIG.WINDOWS /I..\..\LIBRARIES\OPENEXR\CONFIG.WINDOWS /Zi /nologo /W3 /WX- /diagnostics:classic /Od /Oi /Oy- /D BOOST_ALL_NO_LIB /D _DEBUG /D WIN32 /D WIN32_LEAN_AND_MEAN /D _WINDOWS /D WINVER=0x0500 /D _WIN32_WINNT=0x0500 /D COMMONCTRL_VERSION=0x500 /D CLASSLIB_DEFS_H /D NOMINMAX /D ISOLATION_AWARE_ENABLED /D _CRT_SECURE_NO_DEPRECATE /D _HAS_ITERATOR_DEBUGGING=0 /D _VC80_UPGRADE=0x0710 /GF /Gm- /EHsc /MTd /GS- /arch:SSE2 /fp:precise /Zc:wchar_t /Zc:forScope /Zc:inline /GR /Yu"precomp.h" /Fp"BUILD\POVBACKEND\WIN32\DEBUG\PRECOMP.PCH" /Fo"BUILD\POVBACKEND\WIN32\DEBUG\\" /Fd"BUILD\POVBACKEND\WIN32\DEBUG\POVBACKEND.PDB" /FR"build\povbackend\Win32\Debug\\" /Gd /TP /wd4800 /wd4355 /FIPRECOMP.H /analyze- /FC C:\USERS\MATTHEW MCCOMB\DOCUMENTS\GITHUB\POVRAY\SOURCE\BACKEND\SCENE\CAMERA.CPP
^C:\USERS\MATTHEW MCCOMB\DOCUMENTS\GITHUB\POVRAY\SOURCE\BACKEND\SCENE\OBJECTS.CPP
/c /I..\..\LIBRARIES\BOOST /I..\..\VFE\WIN\ /I..\..\VFE\ /I..\..\SOURCE /I..\..\SOURCE\BASE /I..\..\SOURCE\BACKEND /I..\..\SOURCE\FRONTEND /I..\..\LIBRARIES\JPEG /I..\..\LIBRARIES\ZLIB /I..\..\LIBRARIES\PNG /I..\..\LIBRARIES\TIFF\LIBTIFF /I..\..\LIBRARIES\ILMBASE\CONFIG.WINDOWS /I..\..\LIBRARIES\OPENEXR\CONFIG.WINDOWS /Zi /nologo /W3 /WX- /diagnostics:classic /Od /Oi /Oy- /D BOOST_ALL_NO_LIB /D _DEBUG /D WIN32 /D WIN32_LEAN_AND_MEAN /D _WINDOWS /D WINVER=0x0500 /D _WIN32_WINNT=0x0500 /D COMMONCTRL_VERSION=0x500 /D CLASSLIB_DEFS_H /D NOMINMAX /D ISOLATION_AWARE_ENABLED /D _CRT_SECURE_NO_DEPRECATE /D _HAS_ITERATOR_DEBUGGING=0 /D _VC80_UPGRADE=0x0710 /GF /Gm- /EHsc /MTd /GS- /arch:SSE2 /fp:precise /Zc:wchar_t /Zc:forScope /Zc:inline /GR /Yu"precomp.h" /Fp"BUILD\POVBACKEND\WIN32\DEBUG\PRECOMP.PCH" /Fo"BUILD\POVBACKEND\WIN32\DEBUG\\" /Fd"BUILD\POVBACKEND\WIN32\DEBUG\POVBACKEND.PDB" /FR"build\povbackend\Win32\Debug\\" /Gd /TP /wd4800 /wd4355 /FIPRECOMP.H /analyze- /FC C:\USERS\MATTHEW MCCOMB\DOCUMENTS\GITHUB\POVRAY\SOURCE\BACKEND\SCENE\OBJECTS.CPP
^C:\USERS\MATTHEW MCCOMB\DOCUMENTS\GITHUB\POVRAY\SOURCE\BACKEND\SCENE\SCENE.CPP
/c /I..\..\LIBRARIES\BOOST /I..\..\VFE\WIN\ /I..\..\VFE\ /I..\..\SOURCE /I..\..\SOURCE\BASE /I..\..\SOURCE\BACKEND /I..\..\SOURCE\FRONTEND /I..\..\LIBRARIES\JPEG /I..\..\LIBRARIES\ZLIB /I..\..\LIBRARIES\PNG /I..\..\LIBRARIES\TIFF\LIBTIFF /I..\..\LIBRARIES\ILMBASE\CONFIG.WINDOWS /I..\..\LIBRARIES\OPENEXR\CONFIG.WINDOWS /Zi /nologo /W3 /WX- /diagnostics:classic /Od /Oi /Oy- /D BOOST_ALL_NO_LIB /D _DEBUG /D WIN32 /D WIN32_LEAN_AND_MEAN /D _WINDOWS /D WINVER=0x0500 /D _WIN32_WINNT=0x0500 /D COMMONCTRL_VERSION=0x500 /D CLASSLIB_DEFS_H /D NOMINMAX /D ISOLATION_AWARE_ENABLED /D _CRT_SECURE_NO_DEPRECATE /D _HAS_ITERATOR_DEBUGGING=0 /D _VC80_UPGRADE=0x0710 /GF /Gm- /EHsc /MTd /GS- /arch:SSE2 /fp:precise /Zc:wchar_t /Zc:forScope /Zc:inline /GR /Yu"precomp.h" /Fp"BUILD\POVBACKEND\WIN32\DEBUG\PRECOMP.PCH" /Fo"BUILD\POVBACKEND\WIN32\DEBUG\\" /Fd"BUILD\POVBACKEND\WIN32\DEBUG\POVBACKEND.PDB" /FR"build\povbackend\Win32\Debug\\" /Gd /TP /wd4800 /wd4355 /FIPRECOMP.H /analyze- /FC C:\USERS\MATTHEW MCCOMB\DOCUMENTS\GITHUB\POVRAY\SOURCE\BACKEND\SCENE\SCENE.CPP
^C:\USERS\MATTHEW MCCOMB\DOCUMENTS\GITHUB\POVRAY\SOURCE\BACKEND\SCENE\THREADDATA.CPP
/c /I..\..\LIBRARIES\BOOST /I..\..\VFE\WIN\ /I..\..\VFE\ /I..\..\SOURCE /I..\..\SOURCE\BASE /I..\..\SOURCE\BACKEND /I..\..\SOURCE\FRONTEND /I..\..\LIBRARIES\JPEG /I..\..\LIBRARIES\ZLIB /I..\..\LIBRARIES\PNG /I..\..\LIBRARIES\TIFF\LIBTIFF /I..\..\LIBRARIES\ILMBASE\CONFIG.WINDOWS /I..\..\LIBRARIES\OPENEXR\CONFIG.WINDOWS /Zi /nologo /W3 /WX- /diagnostics:classic /Od /Oi /Oy- /D BOOST_ALL_NO_LIB /D _DEBUG /D WIN32 /D WIN32_LEAN_AND_MEAN /D _WINDOWS /D WINVER=0x0500 /D _WIN32_WINNT=0x0500 /D COMMONCTRL_VERSION=0x500 /D CLASSLIB_DEFS_H /D NOMINMAX /D ISOLATION_AWARE_ENABLED /D _CRT_SECURE_NO_DEPRECATE /D _HAS_ITERATOR_DEBUGGING=0 /D _VC80_UPGRADE=0x0710 /GF /Gm- /EHsc /MTd /GS- /arch:SSE2 /fp:precise /Zc:wchar_t /Zc:forScope /Zc:inline /GR /Yu"precomp.h" /Fp"BUILD\POVBACKEND\WIN32\DEBUG\PRECOMP.PCH" /Fo"BUILD\POVBACKEND\WIN32\DEBUG\\" /Fd"BUILD\POVBACKEND\WIN32\DEBUG\POVBACKEND.PDB" /FR"build\povbackend\Win32\Debug\\" /Gd /TP /wd4800 /wd4355 /FIPRECOMP.H /analyze- /FC C:\USERS\MATTHEW MCCOMB\DOCUMENTS\GITHUB\POVRAY\SOURCE\BACKEND\SCENE\THREADDATA.CPP
^C:\USERS\MATTHEW MCCOMB\DOCUMENTS\GITHUB\POVRAY\SOURCE\BACKEND\SCENE\VIEW.CPP
/c /I..\..\LIBRARIES\BOOST /I..\..\VFE\WIN\ /I..\..\VFE\ /I..\..\SOURCE /I..\..\SOURCE\BASE /I..\..\SOURCE\BACKEND /I..\..\SOURCE\FRONTEND /I..\..\LIBRARIES\JPEG /I..\..\LIBRARIES\ZLIB /I..\..\LIBRARIES\PNG /I..\..\LIBRARIES\TIFF\LIBTIFF /I..\..\LIBRARIES\ILMBASE\CONFIG.WINDOWS /I..\..\LIBRARIES\OPENEXR\CONFIG.WINDOWS /Zi /nologo /W3 /WX- /diagnostics:classic /Od /Oi /Oy- /D BOOST_ALL_NO_LIB /D _DEBUG /D WIN32 /D WIN32_LEAN_AND_MEAN /D _WINDOWS /D WINVER=0x0500 /D _WIN32_WINNT=0x0500 /D COMMONCTRL_VERSION=0x500 /D CLASSLIB_DEFS_H /D NOMINMAX /D ISOLATION_AWARE_ENABLED /D _CRT_SECURE_NO_DEPRECATE /D _HAS_ITERATOR_DEBUGGING=0 /D _VC80_UPGRADE=0x0710 /GF /Gm- /EHsc /MTd /GS- /arch:SSE2 /fp:precise /Zc:wchar_t /Zc:forScope /Zc:inline /GR /Yu"precomp.h" /Fp"BUILD\POVBACKEND\WIN32\DEBUG\PRECOMP.PCH" /Fo"BUILD\POVBACKEND\WIN32\DEBUG\\" /Fd"BUILD\POVBACKEND\WIN32\DEBUG\POVBACKEND.PDB" /FR"build\povbackend\Win32\Debug\\" /Gd /TP /wd4800 /wd4355 /FIPRECOMP.H /analyze- /FC C:\USERS\MATTHEW MCCOMB\DOCUMENTS\GITHUB\POVRAY\SOURCE\BACKEND\SCENE\VIEW.CPP
^C:\USERS\MATTHEW MCCOMB\DOCUMENTS\GITHUB\POVRAY\SOURCE\BACKEND\SHAPE\BEZIER.CPP
/c /I..\..\LIBRARIES\BOOST /I..\..\VFE\WIN\ /I..\..\VFE\ /I..\..\SOURCE /I..\..\SOURCE\BASE /I..\..\SOURCE\BACKEND /I..\..\SOURCE\FRONTEND /I..\..\LIBRARIES\JPEG /I..\..\LIBRARIES\ZLIB /I..\..\LIBRARIES\PNG /I..\..\LIBRARIES\TIFF\LIBTIFF /I..\..\LIBRARIES\ILMBASE\CONFIG.WINDOWS /I..\..\LIBRARIES\OPENEXR\CONFIG.WINDOWS /Zi /nologo /W3 /WX- /diagnostics:classic /Od /Oi /Oy- /D BOOST_ALL_NO_LIB /D _DEBUG /D WIN32 /D WIN32_LEAN_AND_MEAN /D _WINDOWS /D WINVER=0x0500 /D _WIN32_WINNT=0x0500 /D COMMONCTRL_VERSION=0x500 /D CLASSLIB_DEFS_H /D NOMINMAX /D ISOLATION_AWARE_ENABLED /D _CRT_SECURE_NO_DEPRECATE /D _HAS_ITERATOR_DEBUGGING=0 /D _VC80_UPGRADE=0x0710 /GF /Gm- /EHsc /MTd /GS- /arch:SSE2 /fp:precise /Zc:wchar_t /Zc:forScope /Zc:inline /GR /Yu"precomp.h" /Fp"BUILD\POVBACKEND\WIN32\DEBUG\PRECOMP.PCH" /Fo"BUILD\POVBACKEND\WIN32\DEBUG\\" /Fd"BUILD\POVBACKEND\WIN32\DEBUG\POVBACKEND.PDB" /FR"build\povbackend\Win32\Debug\\" /Gd /TP /wd4800 /wd4355 /FIPRECOMP.H /analyze- /FC C:\USERS\MATTHEW MCCOMB\DOCUMENTS\GITHUB\POVRAY\SOURCE\BACKEND\SHAPE\BEZIER.CPP
^C:\USERS\MATTHEW MCCOMB\DOCUMENTS\GITHUB\POVRAY\SOURCE\BACKEND\SHAPE\BLOB.CPP
/c /I..\..\LIBRARIES\BOOST /I..\..\VFE\WIN\ /I..\..\VFE\ /I..\..\SOURCE /I..\..\SOURCE\BASE /I..\..\SOURCE\BACKEND /I..\..\SOURCE\FRONTEND /I..\..\LIBRARIES\JPEG /I..\..\LIBRARIES\ZLIB /I..\..\LIBRARIES\PNG /I..\..\LIBRARIES\TIFF\LIBTIFF /I..\..\LIBRARIES\ILMBASE\CONFIG.WINDOWS /I..\..\LIBRARIES\OPENEXR\CONFIG.WINDOWS /Zi /nologo /W3 /WX- /diagnostics:classic /Od /Oi /Oy- /D BOOST_ALL_NO_LIB /D _DEBUG /D WIN32 /D WIN32_LEAN_AND_MEAN /D _WINDOWS /D WINVER=0x0500 /D _WIN32_WINNT=0x0500 /D COMMONCTRL_VERSION=0x500 /D CLASSLIB_DEFS_H /D NOMINMAX /D ISOLATION_AWARE_ENABLED /D _CRT_SECURE_NO_DEPRECATE /D _HAS_ITERATOR_DEBUGGING=0 /D _VC80_UPGRADE=0x0710 /GF /Gm- /EHsc /MTd /GS- /arch:SSE2 /fp:precise /Zc:wchar_t /Zc:forScope /Zc:inline /GR /Yu"precomp.h" /Fp"BUILD\POVBACKEND\WIN32\DEBUG\PRECOMP.PCH" /Fo"BUILD\POVBACKEND\WIN32\DEBUG\\" /Fd"BUILD\POVBACKEND\WIN32\DEBUG\POVBACKEND.PDB" /FR"build\povbackend\Win32\Debug\\" /Gd /TP /wd4800 /wd4355 /FIPRECOMP.H /analyze- /FC C:\USERS\MATTHEW MCCOMB\DOCUMENTS\GITHUB\POVRAY\SOURCE\BACKEND\SHAPE\BLOB.CPP
^C:\USERS\MATTHEW MCCOMB\DOCUMENTS\GITHUB\POVRAY\SOURCE\BACKEND\SHAPE\BOXES.CPP
/c /I..\..\LIBRARIES\BOOST /I..\..\VFE\WIN\ /I..\..\VFE\ /I..\..\SOURCE /I..\..\SOURCE\BASE /I..\..\SOURCE\BACKEND /I..\..\SOURCE\FRONTEND /I..\..\LIBRARIES\JPEG /I..\..\LIBRARIES\ZLIB /I..\..\LIBRARIES\PNG /I..\..\LIBRARIES\TIFF\LIBTIFF /I..\..\LIBRARIES\ILMBASE\CONFIG.WINDOWS /I..\..\LIBRARIES\OPENEXR\CONFIG.WINDOWS /Zi /nologo /W3 /WX- /diagnostics:classic /Od /Oi /Oy- /D BOOST_ALL_NO_LIB /D _DEBUG /D WIN32 /D WIN32_LEAN_AND_MEAN /D _WINDOWS /D WINVER=0x0500 /D _WIN32_WINNT=0x0500 /D COMMONCTRL_VERSION=0x500 /D CLASSLIB_DEFS_H /D NOMINMAX /D ISOLATION_AWARE_ENABLED /D _CRT_SECURE_NO_DEPRECATE /D _HAS_ITERATOR_DEBUGGING=0 /D _VC80_UPGRADE=0x0710 /GF /Gm- /EHsc /MTd /GS- /arch:SSE2 /fp:precise /Zc:wchar_t /Zc:forScope /Zc:inline /GR /Yu"precomp.h" /Fp"BUILD\POVBACKEND\WIN32\DEBUG\PRECOMP.PCH" /Fo"BUILD\POVBACKEND\WIN32\DEBUG\\" /Fd"BUILD\POVBACKEND\WIN32\DEBUG\POVBACKEND.PDB" /FR"build\povbackend\Win32\Debug\\" /Gd /TP /wd4800 /wd4355 /FIPRECOMP.H /analyze- /FC C:\USERS\MATTHEW MCCOMB\DOCUMENTS\GITHUB\POVRAY\SOURCE\BACKEND\SHAPE\BOXES.CPP
^C:\USERS\MATTHEW MCCOMB\DOCUMENTS\GITHUB\POVRAY\SOURCE\BACKEND\SHAPE\CONES.CPP
/c /I..\..\LIBRARIES\BOOST /I..\..\VFE\WIN\ /I..\..\VFE\ /I..\..\SOURCE /I..\..\SOURCE\BASE /I..\..\SOURCE\BACKEND /I..\..\SOURCE\FRONTEND /I..\..\LIBRARIES\JPEG /I..\..\LIBRARIES\ZLIB /I..\..\LIBRARIES\PNG /I..\..\LIBRARIES\TIFF\LIBTIFF /I..\..\LIBRARIES\ILMBASE\CONFIG.WINDOWS /I..\..\LIBRARIES\OPENEXR\CONFIG.WINDOWS /Zi /nologo /W3 /WX- /diagnostics:classic /Od /Oi /Oy- /D BOOST_ALL_NO_LIB /D _DEBUG /D WIN32 /D WIN32_LEAN_AND_MEAN /D _WINDOWS /D WINVER=0x0500 /D _WIN32_WINNT=0x0500 /D COMMONCTRL_VERSION=0x500 /D CLASSLIB_DEFS_H /D NOMINMAX /D ISOLATION_AWARE_ENABLED /D _CRT_SECURE_NO_DEPRECATE /D _HAS_ITERATOR_DEBUGGING=0 /D _VC80_UPGRADE=0x0710 /GF /Gm- /EHsc /MTd /GS- /arch:SSE2 /fp:precise /Zc:wchar_t /Zc:forScope /Zc:inline /GR /Yu"precomp.h" /Fp"BUILD\POVBACKEND\WIN32\DEBUG\PRECOMP.PCH" /Fo"BUILD\POVBACKEND\WIN32\DEBUG\\" /Fd"BUILD\POVBACKEND\WIN32\DEBUG\POVBACKEND.PDB" /FR"build\povbackend\Win32\Debug\\" /Gd /TP /wd4800 /wd4355 /FIPRECOMP.H /analyze- /FC C:\USERS\MATTHEW MCCOMB\DOCUMENTS\GITHUB\POVRAY\SOURCE\BACKEND\SHAPE\CONES.CPP
^C:\USERS\MATTHEW MCCOMB\DOCUMENTS\GITHUB\POVRAY\SOURCE\BACKEND\SHAPE\CSG.CPP
/c /I..\..\LIBRARIES\BOOST /I..\..\VFE\WIN\ /I..\..\VFE\ /I..\..\SOURCE /I..\..\SOURCE\BASE /I..\..\SOURCE\BACKEND /I..\..\SOURCE\FRONTEND /I..\..\LIBRARIES\JPEG /I..\..\LIBRARIES\ZLIB /I..\..\LIBRARIES\PNG /I..\..\LIBRARIES\TIFF\LIBTIFF /I..\..\LIBRARIES\ILMBASE\CONFIG.WINDOWS /I..\..\LIBRARIES\OPENEXR\CONFIG.WINDOWS /Zi /nologo /W3 /WX- /diagnostics:classic /Od /Oi /Oy- /D BOOST_ALL_NO_LIB /D _DEBUG /D WIN32 /D WIN32_LEAN_AND_MEAN /D _WINDOWS /D WINVER=0x0500 /D _WIN32_WINNT=0x0500 /D COMMONCTRL_VERSION=0x500 /D CLASSLIB_DEFS_H /D NOMINMAX /D ISOLATION_AWARE_ENABLED /D _CRT_SECURE_NO_DEPRECATE /D _HAS_ITERATOR_DEBUGGING=0 /D _VC80_UPGRADE=0x0710 /GF /Gm- /EHsc /MTd /GS- /arch:SSE2 /fp:precise /Zc:wchar_t /Zc:forScope /Zc:inline /GR /Yu"precomp.h" /Fp"BUILD\POVBACKEND\WIN32\DEBUG\PRECOMP.PCH" /Fo"BUILD\POVBACKEND\WIN32\DEBUG\\" /Fd"BUILD\POVBACKEND\WIN32\DEBUG\POVBACKEND.PDB" /FR"build\povbackend\Win32\Debug\\" /Gd /TP /wd4800 /wd4355 /FIPRECOMP.H /analyze- /FC C:\USERS\MATTHEW MCCOMB\DOCUMENTS\GITHUB\POVRAY\SOURCE\BACKEND\SHAPE\CSG.CPP
^C:\USERS\MATTHEW MCCOMB\DOCUMENTS\GITHUB\POVRAY\SOURCE\BACKEND\SHAPE\DISCS.CPP
/c /I..\..\LIBRARIES\BOOST /I..\..\VFE\WIN\ /I..\..\VFE\ /I..\..\SOURCE /I..\..\SOURCE\BASE /I..\..\SOURCE\BACKEND /I..\..\SOURCE\FRONTEND /I..\..\LIBRARIES\JPEG /I..\..\LIBRARIES\ZLIB /I..\..\LIBRARIES\PNG /I..\..\LIBRARIES\TIFF\LIBTIFF /I..\..\LIBRARIES\ILMBASE\CONFIG.WINDOWS /I..\..\LIBRARIES\OPENEXR\CONFIG.WINDOWS /Zi /nologo /W3 /WX- /diagnostics:classic /Od /Oi /Oy- /D BOOST_ALL_NO_LIB /D _DEBUG /D WIN32 /D WIN32_LEAN_AND_MEAN /D _WINDOWS /D WINVER=0x0500 /D _WIN32_WINNT=0x0500 /D COMMONCTRL_VERSION=0x500 /D CLASSLIB_DEFS_H /D NOMINMAX /D ISOLATION_AWARE_ENABLED /D _CRT_SECURE_NO_DEPRECATE /D _HAS_ITERATOR_DEBUGGING=0 /D _VC80_UPGRADE=0x0710 /GF /Gm- /EHsc /MTd /GS- /arch:SSE2 /fp:precise /Zc:wchar_t /Zc:forScope /Zc:inline /GR /Yu"precomp.h" /Fp"BUILD\POVBACKEND\WIN32\DEBUG\PRECOMP.PCH" /Fo"BUILD\POVBACKEND\WIN32\DEBUG\\" /Fd"BUILD\POVBACKEND\WIN32\DEBUG\POVBACKEND.PDB" /FR"build\povbackend\Win32\Debug\\" /Gd /TP /wd4800 /wd4355 /FIPRECOMP.H /analyze- /FC C:\USERS\MATTHEW MCCOMB\DOCUMENTS\GITHUB\POVRAY\SOURCE\BACKEND\SHAPE\DISCS.CPP
^C:\USERS\MATTHEW MCCOMB\DOCUMENTS\GITHUB\POVRAY\SOURCE\BACKEND\SHAPE\FPMETRIC.CPP
/c /I..\..\LIBRARIES\BOOST /I..\..\VFE\WIN\ /I..\..\VFE\ /I..\..\SOURCE /I..\..\SOURCE\BASE /I..\..\SOURCE\BACKEND /I..\..\SOURCE\FRONTEND /I..\..\LIBRARIES\JPEG /I..\..\LIBRARIES\ZLIB /I..\..\LIBRARIES\PNG /I..\..\LIBRARIES\TIFF\LIBTIFF /I..\..\LIBRARIES\ILMBASE\CONFIG.WINDOWS /I..\..\LIBRARIES\OPENEXR\CONFIG.WINDOWS /Zi /nologo /W3 /WX- /diagnostics:classic /Od /Oi /Oy- /D BOOST_ALL_NO_LIB /D _DEBUG /D WIN32 /D WIN32_LEAN_AND_MEAN /D _WINDOWS /D WINVER=0x0500 /D _WIN32_WINNT=0x0500 /D COMMONCTRL_VERSION=0x500 /D CLASSLIB_DEFS_H /D NOMINMAX /D ISOLATION_AWARE_ENABLED /D _CRT_SECURE_NO_DEPRECATE /D _HAS_ITERATOR_DEBUGGING=0 /D _VC80_UPGRADE=0x0710 /GF /Gm- /EHsc /MTd /GS- /arch:SSE2 /fp:precise /Zc:wchar_t /Zc:forScope /Zc:inline /GR /Yu"precomp.h" /Fp"BUILD\POVBACKEND\WIN32\DEBUG\PRECOMP.PCH" /Fo"BUILD\POVBACKEND\WIN32\DEBUG\\" /Fd"BUILD\POVBACKEND\WIN32\DEBUG\POVBACKEND.PDB" /FR"build\povbackend\Win32\Debug\\" /Gd /TP /wd4800 /wd4355 /FIPRECOMP.H /analyze- /FC C:\USERS\MATTHEW MCCOMB\DOCUMENTS\GITHUB\POVRAY\SOURCE\BACKEND\SHAPE\FPMETRIC.CPP
^C:\USERS\MATTHEW MCCOMB\DOCUMENTS\GITHUB\POVRAY\SOURCE\BACKEND\SHAPE\FRACTAL.CPP
/c /I..\..\LIBRARIES\BOOST /I..\..\VFE\WIN\ /I..\..\VFE\ /I..\..\SOURCE /I..\..\SOURCE\BASE /I..\..\SOURCE\BACKEND /I..\..\SOURCE\FRONTEND /I..\..\LIBRARIES\JPEG /I..\..\LIBRARIES\ZLIB /I..\..\LIBRARIES\PNG /I..\..\LIBRARIES\TIFF\LIBTIFF /I..\..\LIBRARIES\ILMBASE\CONFIG.WINDOWS /I..\..\LIBRARIES\OPENEXR\CONFIG.WINDOWS /Zi /nologo /W3 /WX- /diagnostics:classic /Od /Oi /Oy- /D BOOST_ALL_NO_LIB /D _DEBUG /D WIN32 /D WIN32_LEAN_AND_MEAN /D _WINDOWS /D WINVER=0x0500 /D _WIN32_WINNT=0x0500 /D COMMONCTRL_VERSION=0x500 /D CLASSLIB_DEFS_H /D NOMINMAX /D ISOLATION_AWARE_ENABLED /D _CRT_SECURE_NO_DEPRECATE /D _HAS_ITERATOR_DEBUGGING=0 /D _VC80_UPGRADE=0x0710 /GF /Gm- /EHsc /MTd /GS- /arch:SSE2 /fp:precise /Zc:wchar_t /Zc:forScope /Zc:inline /GR /Yu"precomp.h" /Fp"BUILD\POVBACKEND\WIN32\DEBUG\PRECOMP.PCH" /Fo"BUILD\POVBACKEND\WIN32\DEBUG\\" /Fd"BUILD\POVBACKEND\WIN32\DEBUG\POVBACKEND.PDB" /FR"build\povbackend\Win32\Debug\\" /Gd /TP /wd4800 /wd4355 /FIPRECOMP.H /analyze- /FC C:\USERS\MATTHEW MCCOMB\DOCUMENTS\GITHUB\POVRAY\SOURCE\BACKEND\SHAPE\FRACTAL.CPP
^C:\USERS\MATTHEW MCCOMB\DOCUMENTS\GITHUB\POVRAY\SOURCE\BACKEND\SHAPE\HFIELD.CPP
/c /I..\..\LIBRARIES\BOOST /I..\..\VFE\WIN\ /I..\..\VFE\ /I..\..\SOURCE /I..\..\SOURCE\BASE /I..\..\SOURCE\BACKEND /I..\..\SOURCE\FRONTEND /I..\..\LIBRARIES\JPEG /I..\..\LIBRARIES\ZLIB /I..\..\LIBRARIES\PNG /I..\..\LIBRARIES\TIFF\LIBTIFF /I..\..\LIBRARIES\ILMBASE\CONFIG.WINDOWS /I..\..\LIBRARIES\OPENEXR\CONFIG.WINDOWS /Zi /nologo /W3 /WX- /diagnostics:classic /Od /Oi /Oy- /D BOOST_ALL_NO_LIB /D _DEBUG /D WIN32 /D WIN32_LEAN_AND_MEAN /D _WINDOWS /D WINVER=0x0500 /D _WIN32_WINNT=0x0500 /D COMMONCTRL_VERSION=0x500 /D CLASSLIB_DEFS_H /D NOMINMAX /D ISOLATION_AWARE_ENABLED /D _CRT_SECURE_NO_DEPRECATE /D _HAS_ITERATOR_DEBUGGING=0 /D _VC80_UPGRADE=0x0710 /GF /Gm- /EHsc /MTd /GS- /arch:SSE2 /fp:precise /Zc:wchar_t /Zc:forScope /Zc:inline /GR /Yu"precomp.h" /Fp"BUILD\POVBACKEND\WIN32\DEBUG\PRECOMP.PCH" /Fo"BUILD\POVBACKEND\WIN32\DEBUG\\" /Fd"BUILD\POVBACKEND\WIN32\DEBUG\POVBACKEND.PDB" /FR"build\povbackend\Win32\Debug\\" /Gd /TP /wd4800 /wd4355 /FIPRECOMP.H /analyze- /FC C:\USERS\MATTHEW MCCOMB\DOCUMENTS\GITHUB\POVRAY\SOURCE\BACKEND\SHAPE\HFIELD.CPP
^C:\USERS\MATTHEW MCCOMB\DOCUMENTS\GITHUB\POVRAY\SOURCE\BACKEND\SHAPE\ISOSURF.CPP
/c /I..\..\LIBRARIES\BOOST /I..\..\VFE\WIN\ /I..\..\VFE\ /I..\..\SOURCE /I..\..\SOURCE\BASE /I..\..\SOURCE\BACKEND /I..\..\SOURCE\FRONTEND /I..\..\LIBRARIES\JPEG /I..\..\LIBRARIES\ZLIB /I..\..\LIBRARIES\PNG /I..\..\LIBRARIES\TIFF\LIBTIFF /I..\..\LIBRARIES\ILMBASE\CONFIG.WINDOWS /I..\..\LIBRARIES\OPENEXR\CONFIG.WINDOWS /Zi /nologo /W3 /WX- /diagnostics:classic /Od /Oi /Oy- /D BOOST_ALL_NO_LIB /D _DEBUG /D WIN32 /D WIN32_LEAN_AND_MEAN /D _WINDOWS /D WINVER=0x0500 /D _WIN32_WINNT=0x0500 /D COMMONCTRL_VERSION=0x500 /D CLASSLIB_DEFS_H /D NOMINMAX /D ISOLATION_AWARE_ENABLED /D _CRT_SECURE_NO_DEPRECATE /D _HAS_ITERATOR_DEBUGGING=0 /D _VC80_UPGRADE=0x0710 /GF /Gm- /EHsc /MTd /GS- /arch:SSE2 /fp:precise /Zc:wchar_t /Zc:forScope /Zc:inline /GR /Yu"precomp.h" /Fp"BUILD\POVBACKEND\WIN32\DEBUG\PRECOMP.PCH" /Fo"BUILD\POVBACKEND\WIN32\DEBUG\\" /Fd"BUILD\POVBACKEND\WIN32\DEBUG\POVBACKEND.PDB" /FR"build\povbackend\Win32\Debug\\" /Gd /TP /wd4800 /wd4355 /FIPRECOMP.H /analyze- /FC C:\USERS\MATTHEW MCCOMB\DOCUMENTS\GITHUB\POVRAY\SOURCE\BACKEND\SHAPE\ISOSURF.CPP
^C:\USERS\MATTHEW MCCOMB\DOCUMENTS\GITHUB\POVRAY\SOURCE\BACKEND\SHAPE\LATHE.CPP
/c /I..\..\LIBRARIES\BOOST /I..\..\VFE\WIN\ /I..\..\VFE\ /I..\..\SOURCE /I..\..\SOURCE\BASE /I..\..\SOURCE\BACKEND /I..\..\SOURCE\FRONTEND /I..\..\LIBRARIES\JPEG /I..\..\LIBRARIES\ZLIB /I..\..\LIBRARIES\PNG /I..\..\LIBRARIES\TIFF\LIBTIFF /I..\..\LIBRARIES\ILMBASE\CONFIG.WINDOWS /I..\..\LIBRARIES\OPENEXR\CONFIG.WINDOWS /Zi /nologo /W3 /WX- /diagnostics:classic /Od /Oi /Oy- /D BOOST_ALL_NO_LIB /D _DEBUG /D WIN32 /D WIN32_LEAN_AND_MEAN /D _WINDOWS /D WINVER=0x0500 /D _WIN32_WINNT=0x0500 /D COMMONCTRL_VERSION=0x500 /D CLASSLIB_DEFS_H /D NOMINMAX /D ISOLATION_AWARE_ENABLED /D _CRT_SECURE_NO_DEPRECATE /D _HAS_ITERATOR_DEBUGGING=0 /D _VC80_UPGRADE=0x0710 /GF /Gm- /EHsc /MTd /GS- /arch:SSE2 /fp:precise /Zc:wchar_t /Zc:forScope /Zc:inline /GR /Yu"precomp.h" /Fp"BUILD\POVBACKEND\WIN32\DEBUG\PRECOMP.PCH" /Fo"BUILD\POVBACKEND\WIN32\DEBUG\\" /Fd"BUILD\POVBACKEND\WIN32\DEBUG\POVBACKEND.PDB" /FR"build\povbackend\Win32\Debug\\" /Gd /TP /wd4800 /wd4355 /FIPRECOMP.H /analyze- /FC C:\USERS\MATTHEW MCCOMB\DOCUMENTS\GITHUB\POVRAY\SOURCE\BACKEND\SHAPE\LATHE.CPP
^C:\USERS\MATTHEW MCCOMB\DOCUMENTS\GITHUB\POVRAY\SOURCE\BACKEND\SHAPE\MESH.CPP
/c /I..\..\LIBRARIES\BOOST /I..\..\VFE\WIN\ /I..\..\VFE\ /I..\..\SOURCE /I..\..\SOURCE\BASE /I..\..\SOURCE\BACKEND /I..\..\SOURCE\FRONTEND /I..\..\LIBRARIES\JPEG /I..\..\LIBRARIES\ZLIB /I..\..\LIBRARIES\PNG /I..\..\LIBRARIES\TIFF\LIBTIFF /I..\..\LIBRARIES\ILMBASE\CONFIG.WINDOWS /I..\..\LIBRARIES\OPENEXR\CONFIG.WINDOWS /Zi /nologo /W3 /WX- /diagnostics:classic /Od /Oi /Oy- /D BOOST_ALL_NO_LIB /D _DEBUG /D WIN32 /D WIN32_LEAN_AND_MEAN /D _WINDOWS /D WINVER=0x0500 /D _WIN32_WINNT=0x0500 /D COMMONCTRL_VERSION=0x500 /D CLASSLIB_DEFS_H /D NOMINMAX /D ISOLATION_AWARE_ENABLED /D _CRT_SECURE_NO_DEPRECATE /D _HAS_ITERATOR_DEBUGGING=0 /D _VC80_UPGRADE=0x0710 /GF /Gm- /EHsc /MTd /GS- /arch:SSE2 /fp:precise /Zc:wchar_t /Zc:forScope /Zc:inline /GR /Yu"precomp.h" /Fp"BUILD\POVBACKEND\WIN32\DEBUG\PRECOMP.PCH" /Fo"BUILD\POVBACKEND\WIN32\DEBUG\\" /Fd"BUILD\POVBACKEND\WIN32\DEBUG\POVBACKEND.PDB" /FR"build\povbackend\Win32\Debug\\" /Gd /TP /wd4800 /wd4355 /FIPRECOMP.H /analyze- /FC C:\USERS\MATTHEW MCCOMB\DOCUMENTS\GITHUB\POVRAY\SOURCE\BACKEND\SHAPE\MESH.CPP
^C:\USERS\MATTHEW MCCOMB\DOCUMENTS\GITHUB\POVRAY\SOURCE\BACKEND\SHAPE\OVUS.CPP
/c /I..\..\LIBRARIES\BOOST /I..\..\VFE\WIN\ /I..\..\VFE\ /I..\..\SOURCE /I..\..\SOURCE\BASE /I..\..\SOURCE\BACKEND /I..\..\SOURCE\FRONTEND /I..\..\LIBRARIES\JPEG /I..\..\LIBRARIES\ZLIB /I..\..\LIBRARIES\PNG /I..\..\LIBRARIES\TIFF\LIBTIFF /I..\..\LIBRARIES\ILMBASE\CONFIG.WINDOWS /I..\..\LIBRARIES\OPENEXR\CONFIG.WINDOWS /Zi /nologo /W3 /WX- /diagnostics:classic /Od /Oi /Oy- /D BOOST_ALL_NO_LIB /D _DEBUG /D WIN32 /D WIN32_LEAN_AND_MEAN /D _WINDOWS /D WINVER=0x0500 /D _WIN32_WINNT=0x0500 /D COMMONCTRL_VERSION=0x500 /D CLASSLIB_DEFS_H /D NOMINMAX /D ISOLATION_AWARE_ENABLED /D _CRT_SECURE_NO_DEPRECATE /D _HAS_ITERATOR_DEBUGGING=0 /D _VC80_UPGRADE=0x0710 /GF /Gm- /EHsc /MTd /GS- /arch:SSE2 /fp:precise /Zc:wchar_t /Zc:forScope /Zc:inline /GR /Yu"precomp.h" /Fp"BUILD\POVBACKEND\WIN32\DEBUG\PRECOMP.PCH" /Fo"BUILD\POVBACKEND\WIN32\DEBUG\\" /Fd"BUILD\POVBACKEND\WIN32\DEBUG\POVBACKEND.PDB" /FR"build\povbackend\Win32\Debug\\" /Gd /TP /wd4800 /wd4355 /FIPRECOMP.H /analyze- /FC C:\USERS\MATTHEW MCCOMB\DOCUMENTS\GITHUB\POVRAY\SOURCE\BACKEND\SHAPE\OVUS.CPP
^C:\USERS\MATTHEW MCCOMB\DOCUMENTS\GITHUB\POVRAY\SOURCE\BACKEND\SHAPE\PLANES.CPP
/c /I..\..\LIBRARIES\BOOST /I..\..\VFE\WIN\ /I..\..\VFE\ /I..\..\SOURCE /I..\..\SOURCE\BASE /I..\..\SOURCE\BACKEND /I..\..\SOURCE\FRONTEND /I..\..\LIBRARIES\JPEG /I..\..\LIBRARIES\ZLIB /I..\..\LIBRARIES\PNG /I..\..\LIBRARIES\TIFF\LIBTIFF /I..\..\LIBRARIES\ILMBASE\CONFIG.WINDOWS /I..\..\LIBRARIES\OPENEXR\CONFIG.WINDOWS /Zi /nologo /W3 /WX- /diagnostics:classic /Od /Oi /Oy- /D BOOST_ALL_NO_LIB /D _DEBUG /D WIN32 /D WIN32_LEAN_AND_MEAN /D _WINDOWS /D WINVER=0x0500 /D _WIN32_WINNT=0x0500 /D COMMONCTRL_VERSION=0x500 /D CLASSLIB_DEFS_H /D NOMINMAX /D ISOLATION_AWARE_ENABLED /D _CRT_SECURE_NO_DEPRECATE /D _HAS_ITERATOR_DEBUGGING=0 /D _VC80_UPGRADE=0x0710 /GF /Gm- /EHsc /MTd /GS- /arch:SSE2 /fp:precise /Zc:wchar_t /Zc:forScope /Zc:inline /GR /Yu"precomp.h" /Fp"BUILD\POVBACKEND\WIN32\DEBUG\PRECOMP.PCH" /Fo"BUILD\POVBACKEND\WIN32\DEBUG\\" /Fd"BUILD\POVBACKEND\WIN32\DEBUG\POVBACKEND.PDB" /FR"build\povbackend\Win32\Debug\\" /Gd /TP /wd4800 /wd4355 /FIPRECOMP.H /analyze- /FC C:\USERS\MATTHEW MCCOMB\DOCUMENTS\GITHUB\POVRAY\SOURCE\BACKEND\SHAPE\PLANES.CPP
^C:\USERS\MATTHEW MCCOMB\DOCUMENTS\GITHUB\POVRAY\SOURCE\BACKEND\SHAPE\POLY.CPP
/c /I..\..\LIBRARIES\BOOST /I..\..\VFE\WIN\ /I..\..\VFE\ /I..\..\SOURCE /I..\..\SOURCE\BASE /I..\..\SOURCE\BACKEND /I..\..\SOURCE\FRONTEND /I..\..\LIBRARIES\JPEG /I..\..\LIBRARIES\ZLIB /I..\..\LIBRARIES\PNG /I..\..\LIBRARIES\TIFF\LIBTIFF /I..\..\LIBRARIES\ILMBASE\CONFIG.WINDOWS /I..\..\LIBRARIES\OPENEXR\CONFIG.WINDOWS /Zi /nologo /W3 /WX- /diagnostics:classic /Od /Oi /Oy- /D BOOST_ALL_NO_LIB /D _DEBUG /D WIN32 /D WIN32_LEAN_AND_MEAN /D _WINDOWS /D WINVER=0x0500 /D _WIN32_WINNT=0x0500 /D COMMONCTRL_VERSION=0x500 /D CLASSLIB_DEFS_H /D NOMINMAX /D ISOLATION_AWARE_ENABLED /D _CRT_SECURE_NO_DEPRECATE /D _HAS_ITERATOR_DEBUGGING=0 /D _VC80_UPGRADE=0x0710 /GF /Gm- /EHsc /MTd /GS- /arch:SSE2 /fp:precise /Zc:wchar_t /Zc:forScope /Zc:inline /GR /Yu"precomp.h" /Fp"BUILD\POVBACKEND\WIN32\DEBUG\PRECOMP.PCH" /Fo"BUILD\POVBACKEND\WIN32\DEBUG\\" /Fd"BUILD\POVBACKEND\WIN32\DEBUG\POVBACKEND.PDB" /FR"build\povbackend\Win32\Debug\\" /Gd /TP /wd4800 /wd4355 /FIPRECOMP.H /analyze- /FC C:\USERS\MATTHEW MCCOMB\DOCUMENTS\GITHUB\POVRAY\SOURCE\BACKEND\SHAPE\POLY.CPP
^C:\USERS\MATTHEW MCCOMB\DOCUMENTS\GITHUB\POVRAY\SOURCE\BACKEND\SHAPE\POLYGON.CPP
/c /I..\..\LIBRARIES\BOOST /I..\..\VFE\WIN\ /I..\..\VFE\ /I..\..\SOURCE /I..\..\SOURCE\BASE /I..\..\SOURCE\BACKEND /I..\..\SOURCE\FRONTEND /I..\..\LIBRARIES\JPEG /I..\..\LIBRARIES\ZLIB /I..\..\LIBRARIES\PNG /I..\..\LIBRARIES\TIFF\LIBTIFF /I..\..\LIBRARIES\ILMBASE\CONFIG.WINDOWS /I..\..\LIBRARIES\OPENEXR\CONFIG.WINDOWS /Zi /nologo /W3 /WX- /diagnostics:classic /Od /Oi /Oy- /D BOOST_ALL_NO_LIB /D _DEBUG /D WIN32 /D WIN32_LEAN_AND_MEAN /D _WINDOWS /D WINVER=0x0500 /D _WIN32_WINNT=0x0500 /D COMMONCTRL_VERSION=0x500 /D CLASSLIB_DEFS_H /D NOMINMAX /D ISOLATION_AWARE_ENABLED /D _CRT_SECURE_NO_DEPRECATE /D _HAS_ITERATOR_DEBUGGING=0 /D _VC80_UPGRADE=0x0710 /GF /Gm- /EHsc /MTd /GS- /arch:SSE2 /fp:precise /Zc:wchar_t /Zc:forScope /Zc:inline /GR /Yu"precomp.h" /Fp"BUILD\POVBACKEND\WIN32\DEBUG\PRECOMP.PCH" /Fo"BUILD\POVBACKEND\WIN32\DEBUG\\" /Fd"BUILD\POVBACKEND\WIN32\DEBUG\POVBACKEND.PDB" /FR"build\povbackend\Win32\Debug\\" /Gd /TP /wd4800 /wd4355 /FIPRECOMP.H /analyze- /FC C:\USERS\MATTHEW MCCOMB\DOCUMENTS\GITHUB\POVRAY\SOURCE\BACKEND\SHAPE\POLYGON.CPP
^C:\USERS\MATTHEW MCCOMB\DOCUMENTS\GITHUB\POVRAY\SOURCE\BACKEND\SHAPE\PRISM.CPP
/c /I..\..\LIBRARIES\BOOST /I..\..\VFE\WIN\ /I..\..\VFE\ /I..\..\SOURCE /I..\..\SOURCE\BASE /I..\..\SOURCE\BACKEND /I..\..\SOURCE\FRONTEND /I..\..\LIBRARIES\JPEG /I..\..\LIBRARIES\ZLIB /I..\..\LIBRARIES\PNG /I..\..\LIBRARIES\TIFF\LIBTIFF /I..\..\LIBRARIES\ILMBASE\CONFIG.WINDOWS /I..\..\LIBRARIES\OPENEXR\CONFIG.WINDOWS /Zi /nologo /W3 /WX- /diagnostics:classic /Od /Oi /Oy- /D BOOST_ALL_NO_LIB /D _DEBUG /D WIN32 /D WIN32_LEAN_AND_MEAN /D _WINDOWS /D WINVER=0x0500 /D _WIN32_WINNT=0x0500 /D COMMONCTRL_VERSION=0x500 /D CLASSLIB_DEFS_H /D NOMINMAX /D ISOLATION_AWARE_ENABLED /D _CRT_SECURE_NO_DEPRECATE /D _HAS_ITERATOR_DEBUGGING=0 /D _VC80_UPGRADE=0x0710 /GF /Gm- /EHsc /MTd /GS- /arch:SSE2 /fp:precise /Zc:wchar_t /Zc:forScope /Zc:inline /GR /Yu"precomp.h" /Fp"BUILD\POVBACKEND\WIN32\DEBUG\PRECOMP.PCH" /Fo"BUILD\POVBACKEND\WIN32\DEBUG\\" /Fd"BUILD\POVBACKEND\WIN32\DEBUG\POVBACKEND.PDB" /FR"build\povbackend\Win32\Debug\\" /Gd /TP /wd4800 /wd4355 /FIPRECOMP.H /analyze- /FC C:\USERS\MATTHEW MCCOMB\DOCUMENTS\GITHUB\POVRAY\SOURCE\BACKEND\SHAPE\PRISM.CPP
^C:\USERS\MATTHEW MCCOMB\DOCUMENTS\GITHUB\POVRAY\SOURCE\BACKEND\SHAPE\QUADRICS.CPP
/c /I..\..\LIBRARIES\BOOST /I..\..\VFE\WIN\ /I..\..\VFE\ /I..\..\SOURCE /I..\..\SOURCE\BASE /I..\..\SOURCE\BACKEND /I..\..\SOURCE\FRONTEND /I..\..\LIBRARIES\JPEG /I..\..\LIBRARIES\ZLIB /I..\..\LIBRARIES\PNG /I..\..\LIBRARIES\TIFF\LIBTIFF /I..\..\LIBRARIES\ILMBASE\CONFIG.WINDOWS /I..\..\LIBRARIES\OPENEXR\CONFIG.WINDOWS /Zi /nologo /W3 /WX- /diagnostics:classic /Od /Oi /Oy- /D BOOST_ALL_NO_LIB /D _DEBUG /D WIN32 /D WIN32_LEAN_AND_MEAN /D _WINDOWS /D WINVER=0x0500 /D _WIN32_WINNT=0x0500 /D COMMONCTRL_VERSION=0x500 /D CLASSLIB_DEFS_H /D NOMINMAX /D ISOLATION_AWARE_ENABLED /D _CRT_SECURE_NO_DEPRECATE /D _HAS_ITERATOR_DEBUGGING=0 /D _VC80_UPGRADE=0x0710 /GF /Gm- /EHsc /MTd /GS- /arch:SSE2 /fp:precise /Zc:wchar_t /Zc:forScope /Zc:inline /GR /Yu"precomp.h" /Fp"BUILD\POVBACKEND\WIN32\DEBUG\PRECOMP.PCH" /Fo"BUILD\POVBACKEND\WIN32\DEBUG\\" /Fd"BUILD\POVBACKEND\WIN32\DEBUG\POVBACKEND.PDB" /FR"build\povbackend\Win32\Debug\\" /Gd /TP /wd4800 /wd4355 /FIPRECOMP.H /analyze- /FC C:\USERS\MATTHEW MCCOMB\DOCUMENTS\GITHUB\POVRAY\SOURCE\BACKEND\SHAPE\QUADRICS.CPP
^C:\USERS\MATTHEW MCCOMB\DOCUMENTS\GITHUB\POVRAY\SOURCE\BACKEND\SHAPE\SOR.CPP
/c /I..\..\LIBRARIES\BOOST /I..\..\VFE\WIN\ /I..\..\VFE\ /I..\..\SOURCE /I..\..\SOURCE\BASE /I..\..\SOURCE\BACKEND /I..\..\SOURCE\FRONTEND /I..\..\LIBRARIES\JPEG /I..\..\LIBRARIES\ZLIB /I..\..\LIBRARIES\PNG /I..\..\LIBRARIES\TIFF\LIBTIFF /I..\..\LIBRARIES\ILMBASE\CONFIG.WINDOWS /I..\..\LIBRARIES\OPENEXR\CONFIG.WINDOWS /Zi /nologo /W3 /WX- /diagnostics:classic /Od /Oi /Oy- /D BOOST_ALL_NO_LIB /D _DEBUG /D WIN32 /D WIN32_LEAN_AND_MEAN /D _WINDOWS /D WINVER=0x0500 /D _WIN32_WINNT=0x0500 /D COMMONCTRL_VERSION=0x500 /D CLASSLIB_DEFS_H /D NOMINMAX /D ISOLATION_AWARE_ENABLED /D _CRT_SECURE_NO_DEPRECATE /D _HAS_ITERATOR_DEBUGGING=0 /D _VC80_UPGRADE=0x0710 /GF /Gm- /EHsc /MTd /GS- /arch:SSE2 /fp:precise /Zc:wchar_t /Zc:forScope /Zc:inline /GR /Yu"precomp.h" /Fp"BUILD\POVBACKEND\WIN32\DEBUG\PRECOMP.PCH" /Fo"BUILD\POVBACKEND\WIN32\DEBUG\\" /Fd"BUILD\POVBACKEND\WIN32\DEBUG\POVBACKEND.PDB" /FR"build\povbackend\Win32\Debug\\" /Gd /TP /wd4800 /wd4355 /FIPRECOMP.H /analyze- /FC C:\USERS\MATTHEW MCCOMB\DOCUMENTS\GITHUB\POVRAY\SOURCE\BACKEND\SHAPE\SOR.CPP
^C:\USERS\MATTHEW MCCOMB\DOCUMENTS\GITHUB\POVRAY\SOURCE\BACKEND\SHAPE\SPHERES.CPP
/c /I..\..\LIBRARIES\BOOST /I..\..\VFE\WIN\ /I..\..\VFE\ /I..\..\SOURCE /I..\..\SOURCE\BASE /I..\..\SOURCE\BACKEND /I..\..\SOURCE\FRONTEND /I..\..\LIBRARIES\JPEG /I..\..\LIBRARIES\ZLIB /I..\..\LIBRARIES\PNG /I..\..\LIBRARIES\TIFF\LIBTIFF /I..\..\LIBRARIES\ILMBASE\CONFIG.WINDOWS /I..\..\LIBRARIES\OPENEXR\CONFIG.WINDOWS /Zi /nologo /W3 /WX- /diagnostics:classic /Od /Oi /Oy- /D BOOST_ALL_NO_LIB /D _DEBUG /D WIN32 /D WIN32_LEAN_AND_MEAN /D _WINDOWS /D WINVER=0x0500 /D _WIN32_WINNT=0x0500 /D COMMONCTRL_VERSION=0x500 /D CLASSLIB_DEFS_H /D NOMINMAX /D ISOLATION_AWARE_ENABLED /D _CRT_SECURE_NO_DEPRECATE /D _HAS_ITERATOR_DEBUGGING=0 /D _VC80_UPGRADE=0x0710 /GF /Gm- /EHsc /MTd /GS- /arch:SSE2 /fp:precise /Zc:wchar_t /Zc:forScope /Zc:inline /GR /Yu"precomp.h" /Fp"BUILD\POVBACKEND\WIN32\DEBUG\PRECOMP.PCH" /Fo"BUILD\POVBACKEND\WIN32\DEBUG\\" /Fd"BUILD\POVBACKEND\WIN32\DEBUG\POVBACKEND.PDB" /FR"build\povbackend\Win32\Debug\\" /Gd /TP /wd4800 /wd4355 /FIPRECOMP.H /analyze- /FC C:\USERS\MATTHEW MCCOMB\DOCUMENTS\GITHUB\POVRAY\SOURCE\BACKEND\SHAPE\SPHERES.CPP
^C:\USERS\MATTHEW MCCOMB\DOCUMENTS\GITHUB\POVRAY\SOURCE\BACKEND\SHAPE\SPHSWEEP.CPP
/c /I..\..\LIBRARIES\BOOST /I..\..\VFE\WIN\ /I..\..\VFE\ /I..\..\SOURCE /I..\..\SOURCE\BASE /I..\..\SOURCE\BACKEND /I..\..\SOURCE\FRONTEND /I..\..\LIBRARIES\JPEG /I..\..\LIBRARIES\ZLIB /I..\..\LIBRARIES\PNG /I..\..\LIBRARIES\TIFF\LIBTIFF /I..\..\LIBRARIES\ILMBASE\CONFIG.WINDOWS /I..\..\LIBRARIES\OPENEXR\CONFIG.WINDOWS /Zi /nologo /W3 /WX- /diagnostics:classic /Od /Oi /Oy- /D BOOST_ALL_NO_LIB /D _DEBUG /D WIN32 /D WIN32_LEAN_AND_MEAN /D _WINDOWS /D WINVER=0x0500 /D _WIN32_WINNT=0x0500 /D COMMONCTRL_VERSION=0x500 /D CLASSLIB_DEFS_H /D NOMINMAX /D ISOLATION_AWARE_ENABLED /D _CRT_SECURE_NO_DEPRECATE /D _HAS_ITERATOR_DEBUGGING=0 /D _VC80_UPGRADE=0x0710 /GF /Gm- /EHsc /MTd /GS- /arch:SSE2 /fp:precise /Zc:wchar_t /Zc:forScope /Zc:inline /GR /Yu"precomp.h" /Fp"BUILD\POVBACKEND\WIN32\DEBUG\PRECOMP.PCH" /Fo"BUILD\POVBACKEND\WIN32\DEBUG\\" /Fd"BUILD\POVBACKEND\WIN32\DEBUG\POVBACKEND.PDB" /FR"build\povbackend\Win32\Debug\\" /Gd /TP /wd4800 /wd4355 /FIPRECOMP.H /analyze- /FC C:\USERS\MATTHEW MCCOMB\DOCUMENTS\GITHUB\POVRAY\SOURCE\BACKEND\SHAPE\SPHSWEEP.CPP
^C:\USERS\MATTHEW MCCOMB\DOCUMENTS\GITHUB\POVRAY\SOURCE\BACKEND\SHAPE\SUPER.CPP
/c /I..\..\LIBRARIES\BOOST /I..\..\VFE\WIN\ /I..\..\VFE\ /I..\..\SOURCE /I..\..\SOURCE\BASE /I..\..\SOURCE\BACKEND /I..\..\SOURCE\FRONTEND /I..\..\LIBRARIES\JPEG /I..\..\LIBRARIES\ZLIB /I..\..\LIBRARIES\PNG /I..\..\LIBRARIES\TIFF\LIBTIFF /I..\..\LIBRARIES\ILMBASE\CONFIG.WINDOWS /I..\..\LIBRARIES\OPENEXR\CONFIG.WINDOWS /Zi /nologo /W3 /WX- /diagnostics:classic /Od /Oi /Oy- /D BOOST_ALL_NO_LIB /D _DEBUG /D WIN32 /D WIN32_LEAN_AND_MEAN /D _WINDOWS /D WINVER=0x0500 /D _WIN32_WINNT=0x0500 /D COMMONCTRL_VERSION=0x500 /D CLASSLIB_DEFS_H /D NOMINMAX /D ISOLATION_AWARE_ENABLED /D _CRT_SECURE_NO_DEPRECATE /D _HAS_ITERATOR_DEBUGGING=0 /D _VC80_UPGRADE=0x0710 /GF /Gm- /EHsc /MTd /GS- /arch:SSE2 /fp:precise /Zc:wchar_t /Zc:forScope /Zc:inline /GR /Yu"precomp.h" /Fp"BUILD\POVBACKEND\WIN32\DEBUG\PRECOMP.PCH" /Fo"BUILD\POVBACKEND\WIN32\DEBUG\\" /Fd"BUILD\POVBACKEND\WIN32\DEBUG\POVBACKEND.PDB" /FR"build\povbackend\Win32\Debug\\" /Gd /TP /wd4800 /wd4355 /FIPRECOMP.H /analyze- /FC C:\USERS\MATTHEW MCCOMB\DOCUMENTS\GITHUB\POVRAY\SOURCE\BACKEND\SHAPE\SUPER.CPP
^C:\USERS\MATTHEW MCCOMB\DOCUMENTS\GITHUB\POVRAY\SOURCE\BACKEND\SHAPE\TORUS.CPP
/c /I..\..\LIBRARIES\BOOST /I..\..\VFE\WIN\ /I..\..\VFE\ /I..\..\SOURCE /I..\..\SOURCE\BASE /I..\..\SOURCE\BACKEND /I..\..\SOURCE\FRONTEND /I..\..\LIBRARIES\JPEG /I..\..\LIBRARIES\ZLIB /I..\..\LIBRARIES\PNG /I..\..\LIBRARIES\TIFF\LIBTIFF /I..\..\LIBRARIES\ILMBASE\CONFIG.WINDOWS /I..\..\LIBRARIES\OPENEXR\CONFIG.WINDOWS /Zi /nologo /W3 /WX- /diagnostics:classic /Od /Oi /Oy- /D BOOST_ALL_NO_LIB /D _DEBUG /D WIN32 /D WIN32_LEAN_AND_MEAN /D _WINDOWS /D WINVER=0x0500 /D _WIN32_WINNT=0x0500 /D COMMONCTRL_VERSION=0x500 /D CLASSLIB_DEFS_H /D NOMINMAX /D ISOLATION_AWARE_ENABLED /D _CRT_SECURE_NO_DEPRECATE /D _HAS_ITERATOR_DEBUGGING=0 /D _VC80_UPGRADE=0x0710 /GF /Gm- /EHsc /MTd /GS- /arch:SSE2 /fp:precise /Zc:wchar_t /Zc:forScope /Zc:inline /GR /Yu"precomp.h" /Fp"BUILD\POVBACKEND\WIN32\DEBUG\PRECOMP.PCH" /Fo"BUILD\POVBACKEND\WIN32\DEBUG\\" /Fd"BUILD\POVBACKEND\WIN32\DEBUG\POVBACKEND.PDB" /FR"build\povbackend\Win32\Debug\\" /Gd /TP /wd4800 /wd4355 /FIPRECOMP.H /analyze- /FC C:\USERS\MATTHEW MCCOMB\DOCUMENTS\GITHUB\POVRAY\SOURCE\BACKEND\SHAPE\TORUS.CPP
^C:\USERS\MATTHEW MCCOMB\DOCUMENTS\GITHUB\POVRAY\SOURCE\BACKEND\SHAPE\TRIANGLE.CPP
/c /I..\..\LIBRARIES\BOOST /I..\..\VFE\WIN\ /I..\..\VFE\ /I..\..\SOURCE /I..\..\SOURCE\BASE /I..\..\SOURCE\BACKEND /I..\..\SOURCE\FRONTEND /I..\..\LIBRARIES\JPEG /I..\..\LIBRARIES\ZLIB /I..\..\LIBRARIES\PNG /I..\..\LIBRARIES\TIFF\LIBTIFF /I..\..\LIBRARIES\ILMBASE\CONFIG.WINDOWS /I..\..\LIBRARIES\OPENEXR\CONFIG.WINDOWS /Zi /nologo /W3 /WX- /diagnostics:classic /Od /Oi /Oy- /D BOOST_ALL_NO_LIB /D _DEBUG /D WIN32 /D WIN32_LEAN_AND_MEAN /D _WINDOWS /D WINVER=0x0500 /D _WIN32_WINNT=0x0500 /D COMMONCTRL_VERSION=0x500 /D CLASSLIB_DEFS_H /D NOMINMAX /D ISOLATION_AWARE_ENABLED /D _CRT_SECURE_NO_DEPRECATE /D _HAS_ITERATOR_DEBUGGING=0 /D _VC80_UPGRADE=0x0710 /GF /Gm- /EHsc /MTd /GS- /arch:SSE2 /fp:precise /Zc:wchar_t /Zc:forScope /Zc:inline /GR /Yu"precomp.h" /Fp"BUILD\POVBACKEND\WIN32\DEBUG\PRECOMP.PCH" /Fo"BUILD\POVBACKEND\WIN32\DEBUG\\" /Fd"BUILD\POVBACKEND\WIN32\DEBUG\POVBACKEND.PDB" /FR"build\povbackend\Win32\Debug\\" /Gd /TP /wd4800 /wd4355 /FIPRECOMP.H /analyze- /FC C:\USERS\MATTHEW MCCOMB\DOCUMENTS\GITHUB\POVRAY\SOURCE\BACKEND\SHAPE\TRIANGLE.CPP
^C:\USERS\MATTHEW MCCOMB\DOCUMENTS\GITHUB\POVRAY\SOURCE\BACKEND\SHAPE\TRUETYPE.CPP
/c /I..\..\LIBRARIES\BOOST /I..\..\VFE\WIN\ /I..\..\VFE\ /I..\..\SOURCE /I..\..\SOURCE\BASE /I..\..\SOURCE\BACKEND /I..\..\SOURCE\FRONTEND /I..\..\LIBRARIES\JPEG /I..\..\LIBRARIES\ZLIB /I..\..\LIBRARIES\PNG /I..\..\LIBRARIES\TIFF\LIBTIFF /I..\..\LIBRARIES\ILMBASE\CONFIG.WINDOWS /I..\..\LIBRARIES\OPENEXR\CONFIG.WINDOWS /Zi /nologo /W3 /WX- /diagnostics:classic /Od /Oi /Oy- /D BOOST_ALL_NO_LIB /D _DEBUG /D WIN32 /D WIN32_LEAN_AND_MEAN /D _WINDOWS /D WINVER=0x0500 /D _WIN32_WINNT=0x0500 /D COMMONCTRL_VERSION=0x500 /D CLASSLIB_DEFS_H /D NOMINMAX /D ISOLATION_AWARE_ENABLED /D _CRT_SECURE_NO_DEPRECATE /D _HAS_ITERATOR_DEBUGGING=0 /D _VC80_UPGRADE=0x0710 /GF /Gm- /EHsc /MTd /GS- /arch:SSE2 /fp:precise /Zc:wchar_t /Zc:forScope /Zc:inline /GR /Yu"precomp.h" /Fp"BUILD\POVBACKEND\WIN32\DEBUG\PRECOMP.PCH" /Fo"BUILD\POVBACKEND\WIN32\DEBUG\\" /Fd"BUILD\POVBACKEND\WIN32\DEBUG\POVBACKEND.PDB" /FR"build\povbackend\Win32\Debug\\" /Gd /TP /wd4800 /wd4355 /FIPRECOMP.H /analyze- /FC C:\USERS\MATTHEW MCCOMB\DOCUMENTS\GITHUB\POVRAY\SOURCE\BACKEND\SHAPE\TRUETYPE.CPP
^C:\USERS\MATTHEW MCCOMB\DOCUMENTS\GITHUB\POVRAY\SOURCE\BACKEND\SUPPORT\BSPTREE.CPP
/c /I..\..\LIBRARIES\BOOST /I..\..\VFE\WIN\ /I..\..\VFE\ /I..\..\SOURCE /I..\..\SOURCE\BASE /I..\..\SOURCE\BACKEND /I..\..\SOURCE\FRONTEND /I..\..\LIBRARIES\JPEG /I..\..\LIBRARIES\ZLIB /I..\..\LIBRARIES\PNG /I..\..\LIBRARIES\TIFF\LIBTIFF /I..\..\LIBRARIES\ILMBASE\CONFIG.WINDOWS /I..\..\LIBRARIES\OPENEXR\CONFIG.WINDOWS /Zi /nologo /W3 /WX- /diagnostics:classic /Od /Oi /Oy- /D BOOST_ALL_NO_LIB /D _DEBUG /D WIN32 /D WIN32_LEAN_AND_MEAN /D _WINDOWS /D WINVER=0x0500 /D _WIN32_WINNT=0x0500 /D COMMONCTRL_VERSION=0x500 /D CLASSLIB_DEFS_H /D NOMINMAX /D ISOLATION_AWARE_ENABLED /D _CRT_SECURE_NO_DEPRECATE /D _HAS_ITERATOR_DEBUGGING=0 /D _VC80_UPGRADE=0x0710 /GF /Gm- /EHsc /MTd /GS- /arch:SSE2 /fp:precise /Zc:wchar_t /Zc:forScope /Zc:inline /GR /Yu"precomp.h" /Fp"BUILD\POVBACKEND\WIN32\DEBUG\PRECOMP.PCH" /Fo"BUILD\POVBACKEND\WIN32\DEBUG\\" /Fd"BUILD\POVBACKEND\WIN32\DEBUG\POVBACKEND.PDB" /FR"build\povbackend\Win32\Debug\\" /Gd /TP /wd4800 /wd4355 /FIPRECOMP.H /analyze- /FC C:\USERS\MATTHEW MCCOMB\DOCUMENTS\GITHUB\POVRAY\SOURCE\BACKEND\SUPPORT\BSPTREE.CPP
^C:\USERS\MATTHEW MCCOMB\DOCUMENTS\GITHUB\POVRAY\SOURCE\BACKEND\SUPPORT\FILEUTIL.CPP
/c /I..\..\LIBRARIES\BOOST /I..\..\VFE\WIN\ /I..\..\VFE\ /I..\..\SOURCE /I..\..\SOURCE\BASE /I..\..\SOURCE\BACKEND /I..\..\SOURCE\FRONTEND /I..\..\LIBRARIES\JPEG /I..\..\LIBRARIES\ZLIB /I..\..\LIBRARIES\PNG /I..\..\LIBRARIES\TIFF\LIBTIFF /I..\..\LIBRARIES\ILMBASE\CONFIG.WINDOWS /I..\..\LIBRARIES\OPENEXR\CONFIG.WINDOWS /Zi /nologo /W3 /WX- /diagnostics:classic /Od /Oi /Oy- /D BOOST_ALL_NO_LIB /D _DEBUG /D WIN32 /D WIN32_LEAN_AND_MEAN /D _WINDOWS /D WINVER=0x0500 /D _WIN32_WINNT=0x0500 /D COMMONCTRL_VERSION=0x500 /D CLASSLIB_DEFS_H /D NOMINMAX /D ISOLATION_AWARE_ENABLED /D _CRT_SECURE_NO_DEPRECATE /D _HAS_ITERATOR_DEBUGGING=0 /D _VC80_UPGRADE=0x0710 /GF /Gm- /EHsc /MTd /GS- /arch:SSE2 /fp:precise /Zc:wchar_t /Zc:forScope /Zc:inline /GR /Yu"precomp.h" /Fp"BUILD\POVBACKEND\WIN32\DEBUG\PRECOMP.PCH" /Fo"BUILD\POVBACKEND\WIN32\DEBUG\\" /Fd"BUILD\POVBACKEND\WIN32\DEBUG\POVBACKEND.PDB" /FR"build\povbackend\Win32\Debug\\" /Gd /TP /wd4800 /wd4355 /FIPRECOMP.H /analyze- /FC C:\USERS\MATTHEW MCCOMB\DOCUMENTS\GITHUB\POVRAY\SOURCE\BACKEND\SUPPORT\FILEUTIL.CPP
^C:\USERS\MATTHEW MCCOMB\DOCUMENTS\GITHUB\POVRAY\SOURCE\BACKEND\SUPPORT\IMAGEUTIL.CPP
/c /I..\..\LIBRARIES\BOOST /I..\..\VFE\WIN\ /I..\..\VFE\ /I..\..\SOURCE /I..\..\SOURCE\BASE /I..\..\SOURCE\BACKEND /I..\..\SOURCE\FRONTEND /I..\..\LIBRARIES\JPEG /I..\..\LIBRARIES\ZLIB /I..\..\LIBRARIES\PNG /I..\..\LIBRARIES\TIFF\LIBTIFF /I..\..\LIBRARIES\ILMBASE\CONFIG.WINDOWS /I..\..\LIBRARIES\OPENEXR\CONFIG.WINDOWS /Zi /nologo /W3 /WX- /diagnostics:classic /Od /Oi /Oy- /D BOOST_ALL_NO_LIB /D _DEBUG /D WIN32 /D WIN32_LEAN_AND_MEAN /D _WINDOWS /D WINVER=0x0500 /D _WIN32_WINNT=0x0500 /D COMMONCTRL_VERSION=0x500 /D CLASSLIB_DEFS_H /D NOMINMAX /D ISOLATION_AWARE_ENABLED /D _CRT_SECURE_NO_DEPRECATE /D _HAS_ITERATOR_DEBUGGING=0 /D _VC80_UPGRADE=0x0710 /GF /Gm- /EHsc /MTd /GS- /arch:SSE2 /fp:precise /Zc:wchar_t /Zc:forScope /Zc:inline /GR /Yu"precomp.h" /Fp"BUILD\POVBACKEND\WIN32\DEBUG\PRECOMP.PCH" /Fo"BUILD\POVBACKEND\WIN32\DEBUG\\" /Fd"BUILD\POVBACKEND\WIN32\DEBUG\POVBACKEND.PDB" /FR"build\povbackend\Win32\Debug\\" /Gd /TP /wd4800 /wd4355 /FIPRECOMP.H /analyze- /FC C:\USERS\MATTHEW MCCOMB\DOCUMENTS\GITHUB\POVRAY\SOURCE\BACKEND\SUPPORT\IMAGEUTIL.CPP
^C:\USERS\MATTHEW MCCOMB\DOCUMENTS\GITHUB\POVRAY\SOURCE\BACKEND\SUPPORT\JITTER.CPP
/c /I..\..\LIBRARIES\BOOST /I..\..\VFE\WIN\ /I..\..\VFE\ /I..\..\SOURCE /I..\..\SOURCE\BASE /I..\..\SOURCE\BACKEND /I..\..\SOURCE\FRONTEND /I..\..\LIBRARIES\JPEG /I..\..\LIBRARIES\ZLIB /I..\..\LIBRARIES\PNG /I..\..\LIBRARIES\TIFF\LIBTIFF /I..\..\LIBRARIES\ILMBASE\CONFIG.WINDOWS /I..\..\LIBRARIES\OPENEXR\CONFIG.WINDOWS /Zi /nologo /W3 /WX- /diagnostics:classic /Od /Oi /Oy- /D BOOST_ALL_NO_LIB /D _DEBUG /D WIN32 /D WIN32_LEAN_AND_MEAN /D _WINDOWS /D WINVER=0x0500 /D _WIN32_WINNT=0x0500 /D COMMONCTRL_VERSION=0x500 /D CLASSLIB_DEFS_H /D NOMINMAX /D ISOLATION_AWARE_ENABLED /D _CRT_SECURE_NO_DEPRECATE /D _HAS_ITERATOR_DEBUGGING=0 /D _VC80_UPGRADE=0x0710 /GF /Gm- /EHsc /MTd /GS- /arch:SSE2 /fp:precise /Zc:wchar_t /Zc:forScope /Zc:inline /GR /Yu"precomp.h" /Fp"BUILD\POVBACKEND\WIN32\DEBUG\PRECOMP.PCH" /Fo"BUILD\POVBACKEND\WIN32\DEBUG\\" /Fd"BUILD\POVBACKEND\WIN32\DEBUG\POVBACKEND.PDB" /FR"build\povbackend\Win32\Debug\\" /Gd /TP /wd4800 /wd4355 /FIPRECOMP.H /analyze- /FC C:\USERS\MATTHEW MCCOMB\DOCUMENTS\GITHUB\POVRAY\SOURCE\BACKEND\SUPPORT\JITTER.CPP
^C:\USERS\MATTHEW MCCOMB\DOCUMENTS\GITHUB\POVRAY\SOURCE\BACKEND\SUPPORT\MSGUTIL.CPP
/c /I..\..\LIBRARIES\BOOST /I..\..\VFE\WIN\ /I..\..\VFE\ /I..\..\SOURCE /I..\..\SOURCE\BASE /I..\..\SOURCE\BACKEND /I..\..\SOURCE\FRONTEND /I..\..\LIBRARIES\JPEG /I..\..\LIBRARIES\ZLIB /I..\..\LIBRARIES\PNG /I..\..\LIBRARIES\TIFF\LIBTIFF /I..\..\LIBRARIES\ILMBASE\CONFIG.WINDOWS /I..\..\LIBRARIES\OPENEXR\CONFIG.WINDOWS /Zi /nologo /W3 /WX- /diagnostics:classic /Od /Oi /Oy- /D BOOST_ALL_NO_LIB /D _DEBUG /D WIN32 /D WIN32_LEAN_AND_MEAN /D _WINDOWS /D WINVER=0x0500 /D _WIN32_WINNT=0x0500 /D COMMONCTRL_VERSION=0x500 /D CLASSLIB_DEFS_H /D NOMINMAX /D ISOLATION_AWARE_ENABLED /D _CRT_SECURE_NO_DEPRECATE /D _HAS_ITERATOR_DEBUGGING=0 /D _VC80_UPGRADE=0x0710 /GF /Gm- /EHsc /MTd /GS- /arch:SSE2 /fp:precise /Zc:wchar_t /Zc:forScope /Zc:inline /GR /Yu"precomp.h" /Fp"BUILD\POVBACKEND\WIN32\DEBUG\PRECOMP.PCH" /Fo"BUILD\POVBACKEND\WIN32\DEBUG\\" /Fd"BUILD\POVBACKEND\WIN32\DEBUG\POVBACKEND.PDB" /FR"build\povbackend\Win32\Debug\\" /Gd /TP /wd4800 /wd4355 /FIPRECOMP.H /analyze- /FC C:\USERS\MATTHEW MCCOMB\DOCUMENTS\GITHUB\POVRAY\SOURCE\BACKEND\SUPPORT\MSGUTIL.CPP
^C:\USERS\MATTHEW MCCOMB\DOCUMENTS\GITHUB\POVRAY\SOURCE\BACKEND\SUPPORT\OCTREE.CPP
/c /I..\..\LIBRARIES\BOOST /I..\..\VFE\WIN\ /I..\..\VFE\ /I..\..\SOURCE /I..\..\SOURCE\BASE /I..\..\SOURCE\BACKEND /I..\..\SOURCE\FRONTEND /I..\..\LIBRARIES\JPEG /I..\..\LIBRARIES\ZLIB /I..\..\LIBRARIES\PNG /I..\..\LIBRARIES\TIFF\LIBTIFF /I..\..\LIBRARIES\ILMBASE\CONFIG.WINDOWS /I..\..\LIBRARIES\OPENEXR\CONFIG.WINDOWS /Zi /nologo /W3 /WX- /diagnostics:classic /Od /Oi /Oy- /D BOOST_ALL_NO_LIB /D _DEBUG /D WIN32 /D WIN32_LEAN_AND_MEAN /D _WINDOWS /D WINVER=0x0500 /D _WIN32_WINNT=0x0500 /D COMMONCTRL_VERSION=0x500 /D CLASSLIB_DEFS_H /D NOMINMAX /D ISOLATION_AWARE_ENABLED /D _CRT_SECURE_NO_DEPRECATE /D _HAS_ITERATOR_DEBUGGING=0 /D _VC80_UPGRADE=0x0710 /GF /Gm- /EHsc /MTd /GS- /arch:SSE2 /fp:precise /Zc:wchar_t /Zc:forScope /Zc:inline /GR /Yu"precomp.h" /Fp"BUILD\POVBACKEND\WIN32\DEBUG\PRECOMP.PCH" /Fo"BUILD\POVBACKEND\WIN32\DEBUG\\" /Fd"BUILD\POVBACKEND\WIN32\DEBUG\POVBACKEND.PDB" /FR"build\povbackend\Win32\Debug\\" /Gd /TP /wd4800 /wd4355 /FIPRECOMP.H /analyze- /FC C:\USERS\MATTHEW MCCOMB\DOCUMENTS\GITHUB\POVRAY\SOURCE\BACKEND\SUPPORT\OCTREE.CPP
^C:\USERS\MATTHEW MCCOMB\DOCUMENTS\GITHUB\POVRAY\SOURCE\BACKEND\SUPPORT\RANDOMSEQUENCES.CPP
/c /I..\..\LIBRARIES\BOOST /I..\..\VFE\WIN\ /I..\..\VFE\ /I..\..\SOURCE /I..\..\SOURCE\BASE /I..\..\SOURCE\BACKEND /I..\..\SOURCE\FRONTEND /I..\..\LIBRARIES\JPEG /I..\..\LIBRARIES\ZLIB /I..\..\LIBRARIES\PNG /I..\..\LIBRARIES\TIFF\LIBTIFF /I..\..\LIBRARIES\ILMBASE\CONFIG.WINDOWS /I..\..\LIBRARIES\OPENEXR\CONFIG.WINDOWS /Zi /nologo /W3 /WX- /diagnostics:classic /Od /Oi /Oy- /D BOOST_ALL_NO_LIB /D _DEBUG /D WIN32 /D WIN32_LEAN_AND_MEAN /D _WINDOWS /D WINVER=0x0500 /D _WIN32_WINNT=0x0500 /D COMMONCTRL_VERSION=0x500 /D CLASSLIB_DEFS_H /D NOMINMAX /D ISOLATION_AWARE_ENABLED /D _CRT_SECURE_NO_DEPRECATE /D _HAS_ITERATOR_DEBUGGING=0 /D _VC80_UPGRADE=0x0710 /GF /Gm- /EHsc /MTd /GS- /arch:SSE2 /fp:precise /Zc:wchar_t /Zc:forScope /Zc:inline /GR /Yu"precomp.h" /Fp"BUILD\POVBACKEND\WIN32\DEBUG\PRECOMP.PCH" /Fo"BUILD\POVBACKEND\WIN32\DEBUG\\" /Fd"BUILD\POVBACKEND\WIN32\DEBUG\POVBACKEND.PDB" /FR"build\povbackend\Win32\Debug\\" /Gd /TP /wd4800 /wd4355 /FIPRECOMP.H /analyze- /FC C:\USERS\MATTHEW MCCOMB\DOCUMENTS\GITHUB\POVRAY\SOURCE\BACKEND\SUPPORT\RANDOMSEQUENCES.CPP
^C:\USERS\MATTHEW MCCOMB\DOCUMENTS\GITHUB\POVRAY\SOURCE\BACKEND\SUPPORT\STATISTICS.CPP
/c /I..\..\LIBRARIES\BOOST /I..\..\VFE\WIN\ /I..\..\VFE\ /I..\..\SOURCE /I..\..\SOURCE\BASE /I..\..\SOURCE\BACKEND /I..\..\SOURCE\FRONTEND /I..\..\LIBRARIES\JPEG /I..\..\LIBRARIES\ZLIB /I..\..\LIBRARIES\PNG /I..\..\LIBRARIES\TIFF\LIBTIFF /I..\..\LIBRARIES\ILMBASE\CONFIG.WINDOWS /I..\..\LIBRARIES\OPENEXR\CONFIG.WINDOWS /Zi /nologo /W3 /WX- /diagnostics:classic /Od /Oi /Oy- /D BOOST_ALL_NO_LIB /D _DEBUG /D WIN32 /D WIN32_LEAN_AND_MEAN /D _WINDOWS /D WINVER=0x0500 /D _WIN32_WINNT=0x0500 /D COMMONCTRL_VERSION=0x500 /D CLASSLIB_DEFS_H /D NOMINMAX /D ISOLATION_AWARE_ENABLED /D _CRT_SECURE_NO_DEPRECATE /D _HAS_ITERATOR_DEBUGGING=0 /D _VC80_UPGRADE=0x0710 /GF /Gm- /EHsc /MTd /GS- /arch:SSE2 /fp:precise /Zc:wchar_t /Zc:forScope /Zc:inline /GR /Yu"precomp.h" /Fp"BUILD\POVBACKEND\WIN32\DEBUG\PRECOMP.PCH" /Fo"BUILD\POVBACKEND\WIN32\DEBUG\\" /Fd"BUILD\POVBACKEND\WIN32\DEBUG\POVBACKEND.PDB" /FR"build\povbackend\Win32\Debug\\" /Gd /TP /wd4800 /wd4355 /FIPRECOMP.H /analyze- /FC C:\USERS\MATTHEW MCCOMB\DOCUMENTS\GITHUB\POVRAY\SOURCE\BACKEND\SUPPORT\STATISTICS.CPP
^C:\USERS\MATTHEW MCCOMB\DOCUMENTS\GITHUB\POVRAY\SOURCE\BACKEND\SUPPORT\TASK.CPP
/c /I..\..\LIBRARIES\BOOST /I..\..\VFE\WIN\ /I..\..\VFE\ /I..\..\SOURCE /I..\..\SOURCE\BASE /I..\..\SOURCE\BACKEND /I..\..\SOURCE\FRONTEND /I..\..\LIBRARIES\JPEG /I..\..\LIBRARIES\ZLIB /I..\..\LIBRARIES\PNG /I..\..\LIBRARIES\TIFF\LIBTIFF /I..\..\LIBRARIES\ILMBASE\CONFIG.WINDOWS /I..\..\LIBRARIES\OPENEXR\CONFIG.WINDOWS /Zi /nologo /W3 /WX- /diagnostics:classic /Od /Oi /Oy- /D BOOST_ALL_NO_LIB /D _DEBUG /D WIN32 /D WIN32_LEAN_AND_MEAN /D _WINDOWS /D WINVER=0x0500 /D _WIN32_WINNT=0x0500 /D COMMONCTRL_VERSION=0x500 /D CLASSLIB_DEFS_H /D NOMINMAX /D ISOLATION_AWARE_ENABLED /D _CRT_SECURE_NO_DEPRECATE /D _HAS_ITERATOR_DEBUGGING=0 /D _VC80_UPGRADE=0x0710 /GF /Gm- /EHsc /MTd /GS- /arch:SSE2 /fp:precise /Zc:wchar_t /Zc:forScope /Zc:inline /GR /Yu"precomp.h" /Fp"BUILD\POVBACKEND\WIN32\DEBUG\PRECOMP.PCH" /Fo"BUILD\POVBACKEND\WIN32\DEBUG\\" /Fd"BUILD\POVBACKEND\WIN32\DEBUG\POVBACKEND.PDB" /FR"build\povbackend\Win32\Debug\\" /Gd /TP /wd4800 /wd4355 /FIPRECOMP.H /analyze- /FC C:\USERS\MATTHEW MCCOMB\DOCUMENTS\GITHUB\POVRAY\SOURCE\BACKEND\SUPPORT\TASK.CPP
^C:\USERS\MATTHEW MCCOMB\DOCUMENTS\GITHUB\POVRAY\SOURCE\BACKEND\SUPPORT\TASKQUEUE.CPP
/c /I..\..\LIBRARIES\BOOST /I..\..\VFE\WIN\ /I..\..\VFE\ /I..\..\SOURCE /I..\..\SOURCE\BASE /I..\..\SOURCE\BACKEND /I..\..\SOURCE\FRONTEND /I..\..\LIBRARIES\JPEG /I..\..\LIBRARIES\ZLIB /I..\..\LIBRARIES\PNG /I..\..\LIBRARIES\TIFF\LIBTIFF /I..\..\LIBRARIES\ILMBASE\CONFIG.WINDOWS /I..\..\LIBRARIES\OPENEXR\CONFIG.WINDOWS /Zi /nologo /W3 /WX- /diagnostics:classic /Od /Oi /Oy- /D BOOST_ALL_NO_LIB /D _DEBUG /D WIN32 /D WIN32_LEAN_AND_MEAN /D _WINDOWS /D WINVER=0x0500 /D _WIN32_WINNT=0x0500 /D COMMONCTRL_VERSION=0x500 /D CLASSLIB_DEFS_H /D NOMINMAX /D ISOLATION_AWARE_ENABLED /D _CRT_SECURE_NO_DEPRECATE /D _HAS_ITERATOR_DEBUGGING=0 /D _VC80_UPGRADE=0x0710 /GF /Gm- /EHsc /MTd /GS- /arch:SSE2 /fp:precise /Zc:wchar_t /Zc:forScope /Zc:inline /GR /Yu"precomp.h" /Fp"BUILD\POVBACKEND\WIN32\DEBUG\PRECOMP.PCH" /Fo"BUILD\POVBACKEND\WIN32\DEBUG\\" /Fd"BUILD\POVBACKEND\WIN32\DEBUG\POVBACKEND.PDB" /FR"build\povbackend\Win32\Debug\\" /Gd /TP /wd4800 /wd4355 /FIPRECOMP.H /analyze- /FC C:\USERS\MATTHEW MCCOMB\DOCUMENTS\GITHUB\POVRAY\SOURCE\BACKEND\SUPPORT\TASKQUEUE.CPP
^C:\USERS\MATTHEW MCCOMB\DOCUMENTS\GITHUB\POVRAY\SOURCE\BACKEND\TEXTURE\NORMAL.CPP
/c /I..\..\LIBRARIES\BOOST /I..\..\VFE\WIN\ /I..\..\VFE\ /I..\..\SOURCE /I..\..\SOURCE\BASE /I..\..\SOURCE\BACKEND /I..\..\SOURCE\FRONTEND /I..\..\LIBRARIES\JPEG /I..\..\LIBRARIES\ZLIB /I..\..\LIBRARIES\PNG /I..\..\LIBRARIES\TIFF\LIBTIFF /I..\..\LIBRARIES\ILMBASE\CONFIG.WINDOWS /I..\..\LIBRARIES\OPENEXR\CONFIG.WINDOWS /Zi /nologo /W3 /WX- /diagnostics:classic /Od /Oi /Oy- /D BOOST_ALL_NO_LIB /D _DEBUG /D WIN32 /D WIN32_LEAN_AND_MEAN /D _WINDOWS /D WINVER=0x0500 /D _WIN32_WINNT=0x0500 /D COMMONCTRL_VERSION=0x500 /D CLASSLIB_DEFS_H /D NOMINMAX /D ISOLATION_AWARE_ENABLED /D _CRT_SECURE_NO_DEPRECATE /D _HAS_ITERATOR_DEBUGGING=0 /D _VC80_UPGRADE=0x0710 /GF /Gm- /EHsc /MTd /GS- /arch:SSE2 /fp:precise /Zc:wchar_t /Zc:forScope /Zc:inline /GR /Yu"precomp.h" /Fp"BUILD\POVBACKEND\WIN32\DEBUG\PRECOMP.PCH" /Fo"BUILD\POVBACKEND\WIN32\DEBUG\\" /Fd"BUILD\POVBACKEND\WIN32\DEBUG\POVBACKEND.PDB" /FR"build\povbackend\Win32\Debug\\" /Gd /TP /wd4800 /wd4355 /FIPRECOMP.H /analyze- /FC C:\USERS\MATTHEW MCCOMB\DOCUMENTS\GITHUB\POVRAY\SOURCE\BACKEND\TEXTURE\NORMAL.CPP
^C:\USERS\MATTHEW MCCOMB\DOCUMENTS\GITHUB\POVRAY\SOURCE\BACKEND\TEXTURE\PIGMENT.CPP
/c /I..\..\LIBRARIES\BOOST /I..\..\VFE\WIN\ /I..\..\VFE\ /I..\..\SOURCE /I..\..\SOURCE\BASE /I..\..\SOURCE\BACKEND /I..\..\SOURCE\FRONTEND /I..\..\LIBRARIES\JPEG /I..\..\LIBRARIES\ZLIB /I..\..\LIBRARIES\PNG /I..\..\LIBRARIES\TIFF\LIBTIFF /I..\..\LIBRARIES\ILMBASE\CONFIG.WINDOWS /I..\..\LIBRARIES\OPENEXR\CONFIG.WINDOWS /Zi /nologo /W3 /WX- /diagnostics:classic /Od /Oi /Oy- /D BOOST_ALL_NO_LIB /D _DEBUG /D WIN32 /D WIN32_LEAN_AND_MEAN /D _WINDOWS /D WINVER=0x0500 /D _WIN32_WINNT=0x0500 /D COMMONCTRL_VERSION=0x500 /D CLASSLIB_DEFS_H /D NOMINMAX /D ISOLATION_AWARE_ENABLED /D _CRT_SECURE_NO_DEPRECATE /D _HAS_ITERATOR_DEBUGGING=0 /D _VC80_UPGRADE=0x0710 /GF /Gm- /EHsc /MTd /GS- /arch:SSE2 /fp:precise /Zc:wchar_t /Zc:forScope /Zc:inline /GR /Yu"precomp.h" /Fp"BUILD\POVBACKEND\WIN32\DEBUG\PRECOMP.PCH" /Fo"BUILD\POVBACKEND\WIN32\DEBUG\\" /Fd"BUILD\POVBACKEND\WIN32\DEBUG\POVBACKEND.PDB" /FR"build\povbackend\Win32\Debug\\" /Gd /TP /wd4800 /wd4355 /FIPRECOMP.H /analyze- /FC C:\USERS\MATTHEW MCCOMB\DOCUMENTS\GITHUB\POVRAY\SOURCE\BACKEND\TEXTURE\PIGMENT.CPP
^C:\USERS\MATTHEW MCCOMB\DOCUMENTS\GITHUB\POVRAY\SOURCE\BACKEND\TEXTURE\TEXTURE.CPP
/c /I..\..\LIBRARIES\BOOST /I..\..\VFE\WIN\ /I..\..\VFE\ /I..\..\SOURCE /I..\..\SOURCE\BASE /I..\..\SOURCE\BACKEND /I..\..\SOURCE\FRONTEND /I..\..\LIBRARIES\JPEG /I..\..\LIBRARIES\ZLIB /I..\..\LIBRARIES\PNG /I..\..\LIBRARIES\TIFF\LIBTIFF /I..\..\LIBRARIES\ILMBASE\CONFIG.WINDOWS /I..\..\LIBRARIES\OPENEXR\CONFIG.WINDOWS /Zi /nologo /W3 /WX- /diagnostics:classic /Od /Oi /Oy- /D BOOST_ALL_NO_LIB /D _DEBUG /D WIN32 /D WIN32_LEAN_AND_MEAN /D _WINDOWS /D WINVER=0x0500 /D _WIN32_WINNT=0x0500 /D COMMONCTRL_VERSION=0x500 /D CLASSLIB_DEFS_H /D NOMINMAX /D ISOLATION_AWARE_ENABLED /D _CRT_SECURE_NO_DEPRECATE /D _HAS_ITERATOR_DEBUGGING=0 /D _VC80_UPGRADE=0x0710 /GF /Gm- /EHsc /MTd /GS- /arch:SSE2 /fp:precise /Zc:wchar_t /Zc:forScope /Zc:inline /GR /Yu"precomp.h" /Fp"BUILD\POVBACKEND\WIN32\DEBUG\PRECOMP.PCH" /Fo"BUILD\POVBACKEND\WIN32\DEBUG\\" /Fd"BUILD\POVBACKEND\WIN32\DEBUG\POVBACKEND.PDB" /FR"build\povbackend\Win32\Debug\\" /Gd /TP /wd4800 /wd4355 /FIPRECOMP.H /analyze- /FC C:\USERS\MATTHEW MCCOMB\DOCUMENTS\GITHUB\POVRAY\SOURCE\BACKEND\TEXTURE\TEXTURE.CPP
^C:\USERS\MATTHEW MCCOMB\DOCUMENTS\GITHUB\POVRAY\SOURCE\BACKEND\VM\FNCODE.CPP
/c /I..\..\LIBRARIES\BOOST /I..\..\VFE\WIN\ /I..\..\VFE\ /I..\..\SOURCE /I..\..\SOURCE\BASE /I..\..\SOURCE\BACKEND /I..\..\SOURCE\FRONTEND /I..\..\LIBRARIES\JPEG /I..\..\LIBRARIES\ZLIB /I..\..\LIBRARIES\PNG /I..\..\LIBRARIES\TIFF\LIBTIFF /I..\..\LIBRARIES\ILMBASE\CONFIG.WINDOWS /I..\..\LIBRARIES\OPENEXR\CONFIG.WINDOWS /Zi /nologo /W3 /WX- /diagnostics:classic /Od /Oi /Oy- /D BOOST_ALL_NO_LIB /D _DEBUG /D WIN32 /D WIN32_LEAN_AND_MEAN /D _WINDOWS /D WINVER=0x0500 /D _WIN32_WINNT=0x0500 /D COMMONCTRL_VERSION=0x500 /D CLASSLIB_DEFS_H /D NOMINMAX /D ISOLATION_AWARE_ENABLED /D _CRT_SECURE_NO_DEPRECATE /D _HAS_ITERATOR_DEBUGGING=0 /D _VC80_UPGRADE=0x0710 /GF /Gm- /EHsc /MTd /GS- /arch:SSE2 /fp:precise /Zc:wchar_t /Zc:forScope /Zc:inline /GR /Yu"precomp.h" /Fp"BUILD\POVBACKEND\WIN32\DEBUG\PRECOMP.PCH" /Fo"BUILD\POVBACKEND\WIN32\DEBUG\\" /Fd"BUILD\POVBACKEND\WIN32\DEBUG\POVBACKEND.PDB" /FR"build\povbackend\Win32\Debug\\" /Gd /TP /wd4800 /wd4355 /FIPRECOMP.H /analyze- /FC C:\USERS\MATTHEW MCCOMB\DOCUMENTS\GITHUB\POVRAY\SOURCE\BACKEND\VM\FNCODE.CPP
^C:\USERS\MATTHEW MCCOMB\DOCUMENTS\GITHUB\POVRAY\SOURCE\BACKEND\VM\FNINTERN.CPP
/c /I..\..\LIBRARIES\BOOST /I..\..\VFE\WIN\ /I..\..\VFE\ /I..\..\SOURCE /I..\..\SOURCE\BASE /I..\..\SOURCE\BACKEND /I..\..\SOURCE\FRONTEND /I..\..\LIBRARIES\JPEG /I..\..\LIBRARIES\ZLIB /I..\..\LIBRARIES\PNG /I..\..\LIBRARIES\TIFF\LIBTIFF /I..\..\LIBRARIES\ILMBASE\CONFIG.WINDOWS /I..\..\LIBRARIES\OPENEXR\CONFIG.WINDOWS /Zi /nologo /W3 /WX- /diagnostics:classic /Od /Oi /Oy- /D BOOST_ALL_NO_LIB /D _DEBUG /D WIN32 /D WIN32_LEAN_AND_MEAN /D _WINDOWS /D WINVER=0x0500 /D _WIN32_WINNT=0x0500 /D COMMONCTRL_VERSION=0x500 /D CLASSLIB_DEFS_H /D NOMINMAX /D ISOLATION_AWARE_ENABLED /D _CRT_SECURE_NO_DEPRECATE /D _HAS_ITERATOR_DEBUGGING=0 /D _VC80_UPGRADE=0x0710 /GF /Gm- /EHsc /MTd /GS- /arch:SSE2 /fp:precise /Zc:wchar_t /Zc:forScope /Zc:inline /GR /Yu"precomp.h" /Fp"BUILD\POVBACKEND\WIN32\DEBUG\PRECOMP.PCH" /Fo"BUILD\POVBACKEND\WIN32\DEBUG\\" /Fd"BUILD\POVBACKEND\WIN32\DEBUG\POVBACKEND.PDB" /FR"build\povbackend\Win32\Debug\\" /Gd /TP /wd4800 /wd4355 /FIPRECOMP.H /analyze- /FC C:\USERS\MATTHEW MCCOMB\DOCUMENTS\GITHUB\POVRAY\SOURCE\BACKEND\VM\FNINTERN.CPP
^C:\USERS\MATTHEW MCCOMB\DOCUMENTS\GITHUB\POVRAY\SOURCE\BACKEND\VM\FNPOVFPU.CPP
/c /I..\..\LIBRARIES\BOOST /I..\..\VFE\WIN\ /I..\..\VFE\ /I..\..\SOURCE /I..\..\SOURCE\BASE /I..\..\SOURCE\BACKEND /I..\..\SOURCE\FRONTEND /I..\..\LIBRARIES\JPEG /I..\..\LIBRARIES\ZLIB /I..\..\LIBRARIES\PNG /I..\..\LIBRARIES\TIFF\LIBTIFF /I..\..\LIBRARIES\ILMBASE\CONFIG.WINDOWS /I..\..\LIBRARIES\OPENEXR\CONFIG.WINDOWS /Zi /nologo /W3 /WX- /diagnostics:classic /Od /Oi /Oy- /D BOOST_ALL_NO_LIB /D _DEBUG /D WIN32 /D WIN32_LEAN_AND_MEAN /D _WINDOWS /D WINVER=0x0500 /D _WIN32_WINNT=0x0500 /D COMMONCTRL_VERSION=0x500 /D CLASSLIB_DEFS_H /D NOMINMAX /D ISOLATION_AWARE_ENABLED /D _CRT_SECURE_NO_DEPRECATE /D _HAS_ITERATOR_DEBUGGING=0 /D _VC80_UPGRADE=0x0710 /GF /Gm- /EHsc /MTd /GS- /arch:SSE2 /fp:precise /Zc:wchar_t /Zc:forScope /Zc:inline /GR /Yu"precomp.h" /Fp"BUILD\POVBACKEND\WIN32\DEBUG\PRECOMP.PCH" /Fo"BUILD\POVBACKEND\WIN32\DEBUG\\" /Fd"BUILD\POVBACKEND\WIN32\DEBUG\POVBACKEND.PDB" /FR"build\povbackend\Win32\Debug\\" /Gd /TP /wd4800 /wd4355 /FIPRECOMP.H /analyze- /FC C:\USERS\MATTHEW MCCOMB\DOCUMENTS\GITHUB\POVRAY\SOURCE\BACKEND\VM\FNPOVFPU.CPP
