^C:\USERS\MATTHEW MCCOMB\DOCUMENTS\GITHUB\POVRAY\WINDOWS\VS2015\BUILD\RTRSUPPORT\WIN32\RELEASE\RTRSUPPORT.OBJ|C:\USERS\MATTHEW MCCOMB\DOCUMENTS\GITHUB\POVRAY\WINDOWS\VS2015\BUILD\RTRSUPPORT\WIN32\RELEASE\VIDCAP.OBJ|C:\USERS\MATTHEW MCCOMB\DOCUMENTS\GITHUB\POVRAY\WINDOWS\VS2015\BUILD\RTRSUPPORT\WIN32\RELEASE\VIDCAPIMPL.OBJ
/OUT:"BIN32\LIB\RTRSUPPORT32.LIB" /NOLOGO /LTCG BUILD\RTRSUPPORT\WIN32\RELEASE\RTRSUPPORT.OBJBUILD\RTRSUPPORT\WIN32\RELEASE\VIDCAP.OBJBUILD\RTRSUPPORT\WIN32\RELEASE\VIDCAPIMPL.OBJ
^D:\POV-RAY\POV-RAY SOURCES\NORMAL MINUS\POVRAY\WINDOWS\VS2015\BUILD\RTRSUPPORT\WIN32\RELEASE\RTRSUPPORT.OBJ|D:\POV-RAY\POV-RAY SOURCES\NORMAL MINUS\POVRAY\WINDOWS\VS2015\BUILD\RTRSUPPORT\WIN32\RELEASE\VIDCAP.OBJ|D:\POV-RAY\POV-RAY SOURCES\NORMAL MINUS\POVRAY\WINDOWS\VS2015\BUILD\RTRSUPPORT\WIN32\RELEASE\VIDCAPIMPL.OBJ
/OUT:"BIN32\LIB\RTRSUPPORT32.LIB" /NOLOGO /LTCG BUILD\RTRSUPPORT\WIN32\RELEASE\RTRSUPPORT.OBJBUILD\RTRSUPPORT\WIN32\RELEASE\VIDCAP.OBJBUILD\RTRSUPPORT\WIN32\RELEASE\VIDCAPIMPL.OBJ
