^C:\USERS\MATTHEW MCCOMB\DOCUMENTS\GITHUB\POVRAY\WINDOWS\VS2015\BUILD\BOOST_SYSTEM\WIN32\RELEASE\ERROR_CODE.OBJ
/OUT:"BIN32\LIB\LIBBOOST_SYSTEM32.LIB" /NOLOGO /LTCG BUILD\BOOST_SYSTEM\WIN32\RELEASE\ERROR_CODE.OBJ
^D:\POV-RAY\POV-RAY SOURCES\NORMAL MINUS\POVRAY\WINDOWS\VS2015\BUILD\BOOST_SYSTEM\WIN32\RELEASE\ERROR_CODE.OBJ
/OUT:"BIN32\LIB\LIBBOOST_SYSTEM32.LIB" /NOLOGO /LTCG BUILD\BOOST_SYSTEM\WIN32\RELEASE\ERROR_CODE.OBJ
