^C:\USERS\MATTHEW MCCOMB\DOCUMENTS\GITHUB\POVRAYONLYSPHERE\WINDOWS\VS2015\BUILD\OPENEXR ILMBASE ILMTHREAD\WIN32\RELEASE\ILMTHREAD.OBJ|C:\USERS\MATTHEW MCCOMB\DOCUMENTS\GITHUB\POVRAYONLYSPHERE\WINDOWS\VS2015\BUILD\OPENEXR ILMBASE ILMTHREAD\WIN32\RELEASE\ILMTHREADMUTEX.OBJ|C:\USERS\MATTHEW MCCOMB\DOCUMENTS\GITHUB\POVRAYONLYSPHERE\WINDOWS\VS2015\BUILD\OPENEXR ILMBASE ILMTHREAD\WIN32\RELEASE\ILMTHREADMUTEXPOSIX.OBJ|C:\USERS\MATTHEW MCCOMB\DOCUMENTS\GITHUB\POVRAYONLYSPHERE\WINDOWS\VS2015\BUILD\OPENEXR ILMBASE ILMTHREAD\WIN32\RELEASE\ILMTHREADMUTEXWIN32.OBJ|C:\USERS\MATTHEW MCCOMB\DOCUMENTS\GITHUB\POVRAYONLYSPHERE\WINDOWS\VS2015\BUILD\OPENEXR ILMBASE ILMTHREAD\WIN32\RELEASE\ILMTHREADPOOL.OBJ|C:\USERS\MATTHEW MCCOMB\DOCUMENTS\GITHUB\POVRAYONLYSPHERE\WINDOWS\VS2015\BUILD\OPENEXR ILMBASE ILMTHREAD\WIN32\RELEASE\ILMTHREADPOSIX.OBJ|C:\USERS\MATTHEW MCCOMB\DOCUMENTS\GITHUB\POVRAYONLYSPHERE\WINDOWS\VS2015\BUILD\OPENEXR ILMBASE ILMTHREAD\WIN32\RELEASE\ILMTHREADSEMAPHORE.OBJ|C:\USERS\MATTHEW MCCOMB\DOCUMENTS\GITHUB\POVRAYONLYSPHERE\WINDOWS\VS2015\BUILD\OPENEXR ILMBASE ILMTHREAD\WIN32\RELEASE\ILMTHREADSEMAPHOREPOSIX.OBJ|C:\USERS\MATTHEW MCCOMB\DOCUMENTS\GITHUB\POVRAYONLYSPHERE\WINDOWS\VS2015\BUILD\OPENEXR ILMBASE ILMTHREAD\WIN32\RELEASE\ILMTHREADSEMAPHOREPOSIXCOMPAT.OBJ|C:\USERS\MATTHEW MCCOMB\DOCUMENTS\GITHUB\POVRAYONLYSPHERE\WINDOWS\VS2015\BUILD\OPENEXR ILMBASE ILMTHREAD\WIN32\RELEASE\ILMTHREADSEMAPHOREWIN32.OBJ|C:\USERS\MATTHEW MCCOMB\DOCUMENTS\GITHUB\POVRAYONLYSPHERE\WINDOWS\VS2015\BUILD\OPENEXR ILMBASE ILMTHREAD\WIN32\RELEASE\ILMTHREADWIN32.OBJ
/OUT:"BIN32\LIB\ILMTHREAD32.LIB" /NOLOGO /LTCG "BUILD\OPENEXR ILMBASE ILMTHREAD\WIN32\RELEASE\ILMTHREAD.OBJ""BUILD\OPENEXR ILMBASE ILMTHREAD\WIN32\RELEASE\ILMTHREADMUTEX.OBJ""BUILD\OPENEXR ILMBASE ILMTHREAD\WIN32\RELEASE\ILMTHREADMUTEXPOSIX.OBJ""BUILD\OPENEXR ILMBASE ILMTHREAD\WIN32\RELEASE\ILMTHREADMUTEXWIN32.OBJ""BUILD\OPENEXR ILMBASE ILMTHREAD\WIN32\RELEASE\ILMTHREADPOOL.OBJ""BUILD\OPENEXR ILMBASE ILMTHREAD\WIN32\RELEASE\ILMTHREADPOSIX.OBJ""BUILD\OPENEXR ILMBASE ILMTHREAD\WIN32\RELEASE\ILMTHREADSEMAPHORE.OBJ""BUILD\OPENEXR ILMBASE ILMTHREAD\WIN32\RELEASE\ILMTHREADSEMAPHOREPOSIX.OBJ""BUILD\OPENEXR ILMBASE ILMTHREAD\WIN32\RELEASE\ILMTHREADSEMAPHOREPOSIXCOMPAT.OBJ""BUILD\OPENEXR ILMBASE ILMTHREAD\WIN32\RELEASE\ILMTHREADSEMAPHOREWIN32.OBJ""BUILD\OPENEXR ILMBASE ILMTHREAD\WIN32\RELEASE\ILMTHREADWIN32.OBJ"
^D:\POV-RAY\POV-RAY SOURCES\FLOAT\POVRAYFLOAT\WINDOWS\VS2015\BUILD\OPENEXR ILMBASE ILMTHREAD\WIN32\RELEASE\ILMTHREAD.OBJ|D:\POV-RAY\POV-RAY SOURCES\FLOAT\POVRAYFLOAT\WINDOWS\VS2015\BUILD\OPENEXR ILMBASE ILMTHREAD\WIN32\RELEASE\ILMTHREADMUTEX.OBJ|D:\POV-RAY\POV-RAY SOURCES\FLOAT\POVRAYFLOAT\WINDOWS\VS2015\BUILD\OPENEXR ILMBASE ILMTHREAD\WIN32\RELEASE\ILMTHREADMUTEXPOSIX.OBJ|D:\POV-RAY\POV-RAY SOURCES\FLOAT\POVRAYFLOAT\WINDOWS\VS2015\BUILD\OPENEXR ILMBASE ILMTHREAD\WIN32\RELEASE\ILMTHREADMUTEXWIN32.OBJ|D:\POV-RAY\POV-RAY SOURCES\FLOAT\POVRAYFLOAT\WINDOWS\VS2015\BUILD\OPENEXR ILMBASE ILMTHREAD\WIN32\RELEASE\ILMTHREADPOOL.OBJ|D:\POV-RAY\POV-RAY SOURCES\FLOAT\POVRAYFLOAT\WINDOWS\VS2015\BUILD\OPENEXR ILMBASE ILMTHREAD\WIN32\RELEASE\ILMTHREADPOSIX.OBJ|D:\POV-RAY\POV-RAY SOURCES\FLOAT\POVRAYFLOAT\WINDOWS\VS2015\BUILD\OPENEXR ILMBASE ILMTHREAD\WIN32\RELEASE\ILMTHREADSEMAPHORE.OBJ|D:\POV-RAY\POV-RAY SOURCES\FLOAT\POVRAYFLOAT\WINDOWS\VS2015\BUILD\OPENEXR ILMBASE ILMTHREAD\WIN32\RELEASE\ILMTHREADSEMAPHOREPOSIX.OBJ|D:\POV-RAY\POV-RAY SOURCES\FLOAT\POVRAYFLOAT\WINDOWS\VS2015\BUILD\OPENEXR ILMBASE ILMTHREAD\WIN32\RELEASE\ILMTHREADSEMAPHOREPOSIXCOMPAT.OBJ|D:\POV-RAY\POV-RAY SOURCES\FLOAT\POVRAYFLOAT\WINDOWS\VS2015\BUILD\OPENEXR ILMBASE ILMTHREAD\WIN32\RELEASE\ILMTHREADSEMAPHOREWIN32.OBJ|D:\POV-RAY\POV-RAY SOURCES\FLOAT\POVRAYFLOAT\WINDOWS\VS2015\BUILD\OPENEXR ILMBASE ILMTHREAD\WIN32\RELEASE\ILMTHREADWIN32.OBJ
/OUT:"BIN32\LIB\ILMTHREAD32.LIB" /NOLOGO /LTCG "BUILD\OPENEXR ILMBASE ILMTHREAD\WIN32\RELEASE\ILMTHREAD.OBJ""BUILD\OPENEXR ILMBASE ILMTHREAD\WIN32\RELEASE\ILMTHREADMUTEX.OBJ""BUILD\OPENEXR ILMBASE ILMTHREAD\WIN32\RELEASE\ILMTHREADMUTEXPOSIX.OBJ""BUILD\OPENEXR ILMBASE ILMTHREAD\WIN32\RELEASE\ILMTHREADMUTEXWIN32.OBJ""BUILD\OPENEXR ILMBASE ILMTHREAD\WIN32\RELEASE\ILMTHREADPOOL.OBJ""BUILD\OPENEXR ILMBASE ILMTHREAD\WIN32\RELEASE\ILMTHREADPOSIX.OBJ""BUILD\OPENEXR ILMBASE ILMTHREAD\WIN32\RELEASE\ILMTHREADSEMAPHORE.OBJ""BUILD\OPENEXR ILMBASE ILMTHREAD\WIN32\RELEASE\ILMTHREADSEMAPHOREPOSIX.OBJ""BUILD\OPENEXR ILMBASE ILMTHREAD\WIN32\RELEASE\ILMTHREADSEMAPHOREPOSIXCOMPAT.OBJ""BUILD\OPENEXR ILMBASE ILMTHREAD\WIN32\RELEASE\ILMTHREADSEMAPHOREWIN32.OBJ""BUILD\OPENEXR ILMBASE ILMTHREAD\WIN32\RELEASE\ILMTHREADWIN32.OBJ"
