^C:\USERS\MATTHEW MCCOMB\DOCUMENTS\GITHUB\POVRAY\WINDOWS\VS10\BUILD\LIBPNG\WIN32\DEBUG\PNG.OBJ|C:\USERS\MATTHEW MCCOMB\DOCUMENTS\GITHUB\POVRAY\WINDOWS\VS10\BUILD\LIBPNG\WIN32\DEBUG\PNGERROR.OBJ|C:\USERS\MATTHEW MCCOMB\DOCUMENTS\GITHUB\POVRAY\WINDOWS\VS10\BUILD\LIBPNG\WIN32\DEBUG\PNGGET.OBJ|C:\USERS\MATTHEW MCCOMB\DOCUMENTS\GITHUB\POVRAY\WINDOWS\VS10\BUILD\LIBPNG\WIN32\DEBUG\PNGMEM.OBJ|C:\USERS\MATTHEW MCCOMB\DOCUMENTS\GITHUB\POVRAY\WINDOWS\VS10\BUILD\LIBPNG\WIN32\DEBUG\PNGPREAD.OBJ|C:\USERS\MATTHEW MCCOMB\DOCUMENTS\GITHUB\POVRAY\WINDOWS\VS10\BUILD\LIBPNG\WIN32\DEBUG\PNGREAD.OBJ|C:\USERS\MATTHEW MCCOMB\DOCUMENTS\GITHUB\POVRAY\WINDOWS\VS10\BUILD\LIBPNG\WIN32\DEBUG\PNGRIO.OBJ|C:\USERS\MATTHEW MCCOMB\DOCUMENTS\GITHUB\POVRAY\WINDOWS\VS10\BUILD\LIBPNG\WIN32\DEBUG\PNGRTRAN.OBJ|C:\USERS\MATTHEW MCCOMB\DOCUMENTS\GITHUB\POVRAY\WINDOWS\VS10\BUILD\LIBPNG\WIN32\DEBUG\PNGRUTIL.OBJ|C:\USERS\MATTHEW MCCOMB\DOCUMENTS\GITHUB\POVRAY\WINDOWS\VS10\BUILD\LIBPNG\WIN32\DEBUG\PNGSET.OBJ|C:\USERS\MATTHEW MCCOMB\DOCUMENTS\GITHUB\POVRAY\WINDOWS\VS10\BUILD\LIBPNG\WIN32\DEBUG\PNGTRANS.OBJ|C:\USERS\MATTHEW MCCOMB\DOCUMENTS\GITHUB\POVRAY\WINDOWS\VS10\BUILD\LIBPNG\WIN32\DEBUG\PNGWIO.OBJ|C:\USERS\MATTHEW MCCOMB\DOCUMENTS\GITHUB\POVRAY\WINDOWS\VS10\BUILD\LIBPNG\WIN32\DEBUG\PNGWRITE.OBJ|C:\USERS\MATTHEW MCCOMB\DOCUMENTS\GITHUB\POVRAY\WINDOWS\VS10\BUILD\LIBPNG\WIN32\DEBUG\PNGWTRAN.OBJ|C:\USERS\MATTHEW MCCOMB\DOCUMENTS\GITHUB\POVRAY\WINDOWS\VS10\BUILD\LIBPNG\WIN32\DEBUG\PNGWUTIL.OBJ
C:\USERS\MATTHEW MCCOMB\DOCUMENTS\GITHUB\POVRAY\WINDOWS\VS10\BUILD\LIBPNG\WIN32\DEBUG\PNG.OBJ
C:\WINDOWS\SYSTEM32\TZRES.DLL
C:\USERS\MATTHEW MCCOMB\DOCUMENTS\GITHUB\POVRAY\WINDOWS\VS10\BUILD\LIBPNG\WIN32\DEBUG\PNGERROR.OBJ
C:\USERS\MATTHEW MCCOMB\DOCUMENTS\GITHUB\POVRAY\WINDOWS\VS10\BUILD\LIBPNG\WIN32\DEBUG\PNGGET.OBJ
C:\USERS\MATTHEW MCCOMB\DOCUMENTS\GITHUB\POVRAY\WINDOWS\VS10\BUILD\LIBPNG\WIN32\DEBUG\PNGMEM.OBJ
C:\USERS\MATTHEW MCCOMB\DOCUMENTS\GITHUB\POVRAY\WINDOWS\VS10\BUILD\LIBPNG\WIN32\DEBUG\PNGPREAD.OBJ
C:\USERS\MATTHEW MCCOMB\DOCUMENTS\GITHUB\POVRAY\WINDOWS\VS10\BUILD\LIBPNG\WIN32\DEBUG\PNGREAD.OBJ
C:\USERS\MATTHEW MCCOMB\DOCUMENTS\GITHUB\POVRAY\WINDOWS\VS10\BUILD\LIBPNG\WIN32\DEBUG\PNGRIO.OBJ
C:\USERS\MATTHEW MCCOMB\DOCUMENTS\GITHUB\POVRAY\WINDOWS\VS10\BUILD\LIBPNG\WIN32\DEBUG\PNGRTRAN.OBJ
C:\USERS\MATTHEW MCCOMB\DOCUMENTS\GITHUB\POVRAY\WINDOWS\VS10\BUILD\LIBPNG\WIN32\DEBUG\PNGRUTIL.OBJ
C:\USERS\MATTHEW MCCOMB\DOCUMENTS\GITHUB\POVRAY\WINDOWS\VS10\BUILD\LIBPNG\WIN32\DEBUG\PNGSET.OBJ
C:\USERS\MATTHEW MCCOMB\DOCUMENTS\GITHUB\POVRAY\WINDOWS\VS10\BUILD\LIBPNG\WIN32\DEBUG\PNGTRANS.OBJ
C:\USERS\MATTHEW MCCOMB\DOCUMENTS\GITHUB\POVRAY\WINDOWS\VS10\BUILD\LIBPNG\WIN32\DEBUG\PNGWIO.OBJ
C:\USERS\MATTHEW MCCOMB\DOCUMENTS\GITHUB\POVRAY\WINDOWS\VS10\BUILD\LIBPNG\WIN32\DEBUG\PNGWRITE.OBJ
C:\USERS\MATTHEW MCCOMB\DOCUMENTS\GITHUB\POVRAY\WINDOWS\VS10\BUILD\LIBPNG\WIN32\DEBUG\PNGWTRAN.OBJ
C:\USERS\MATTHEW MCCOMB\DOCUMENTS\GITHUB\POVRAY\WINDOWS\VS10\BUILD\LIBPNG\WIN32\DEBUG\PNGWUTIL.OBJ
C:\WINDOWS\GLOBALIZATION\SORTING\SORTDEFAULT.NLS
