^C:\USERS\MATTHEW MCCOMB\DOCUMENTS\GITHUB\POVRAY\WINDOWS\VS2015\BUILD\POVVM\WIN32\RELEASE\FNINTERN.SBR|C:\USERS\MATTHEW MCCOMB\DOCUMENTS\GITHUB\POVRAY\WINDOWS\VS2015\BUILD\POVVM\WIN32\RELEASE\FNPOVFPU.SBR|C:\USERS\MATTHEW MCCOMB\DOCUMENTS\GITHUB\POVRAY\WINDOWS\VS2015\BUILD\POVVM\WIN32\RELEASE\PRECOMP.SBR
C:\WINDOWS\SYSTEM32\TZRES.DLL
C:\USERS\MATTHEW MCCOMB\DOCUMENTS\GITHUB\POVRAY\WINDOWS\VS2015\BUILD\POVVM\WIN32\RELEASE\FNINTERN.SBR
C:\USERS\MATTHEW MCCOMB\DOCUMENTS\GITHUB\POVRAY\WINDOWS\VS2015\BUILD\POVVM\WIN32\RELEASE\FNPOVFPU.SBR
C:\USERS\MATTHEW MCCOMB\DOCUMENTS\GITHUB\POVRAY\WINDOWS\VS2015\BUILD\POVVM\WIN32\RELEASE\PRECOMP.SBR
^D:\POV-RAY\POV-RAY SOURCES\NORMAL PLUS\POVRAY\WINDOWS\VS2015\BUILD\POVVM\WIN32\RELEASE\FNINTERN.SBR|D:\POV-RAY\POV-RAY SOURCES\NORMAL PLUS\POVRAY\WINDOWS\VS2015\BUILD\POVVM\WIN32\RELEASE\FNPOVFPU.SBR|D:\POV-RAY\POV-RAY SOURCES\NORMAL PLUS\POVRAY\WINDOWS\VS2015\BUILD\POVVM\WIN32\RELEASE\PRECOMP.SBR
C:\WINDOWS\SYSTEM32\TZRES.DLL
D:\POV-RAY\POV-RAY SOURCES\NORMAL PLUS\POVRAY\WINDOWS\VS2015\BIN32\LIB\POVVM32.BSC
D:\POV-RAY\POV-RAY SOURCES\NORMAL PLUS\POVRAY\WINDOWS\VS2015\BUILD\POVVM\WIN32\RELEASE\FNINTERN.SBR
D:\POV-RAY\POV-RAY SOURCES\NORMAL PLUS\POVRAY\WINDOWS\VS2015\BUILD\POVVM\WIN32\RELEASE\FNPOVFPU.SBR
D:\POV-RAY\POV-RAY SOURCES\NORMAL PLUS\POVRAY\WINDOWS\VS2015\BUILD\POVVM\WIN32\RELEASE\PRECOMP.SBR
