^C:\USERS\MATTHEW MCCOMB\DOCUMENTS\GITHUB\POVRAY\LIBRARIES\ILMBASE\HALF\ELUT.CPP
C:\USERS\MATTHEW MCCOMB\DOCUMENTS\GITHUB\POVRAY\WINDOWS\VS2015\BUILD\OPENEXR ILMBASE HALF ELUT\WIN32\RELEASE\VC140.PDB
C:\USERS\MATTHEW MCCOMB\DOCUMENTS\GITHUB\POVRAY\WINDOWS\VS2015\BUILD\OPENEXR ILMBASE HALF ELUT\WIN32\RELEASE\ELUT.OBJ
^D:\POV-RAY\POV-RAY SOURCES\NORMAL\POVRAY\LIBRARIES\ILMBASE\HALF\ELUT.CPP
D:\POV-RAY\POV-RAY SOURCES\NORMAL\POVRAY\WINDOWS\VS2015\BUILD\OPENEXR ILMBASE HALF ELUT\WIN32\RELEASE\VC140.PDB
D:\POV-RAY\POV-RAY SOURCES\NORMAL\POVRAY\WINDOWS\VS2015\BUILD\OPENEXR ILMBASE HALF ELUT\WIN32\RELEASE\ELUT.OBJ
