^D:\POV-RAY\POV-RAY SOURCES\FLOAT\POVRAYFLOAT\WINDOWS\VS2015\BUILD\OPENEXR ILMBASE HALF\WIN32\RELEASE\HALF.SBR
C:\WINDOWS\SYSTEM32\TZRES.DLL
D:\POV-RAY\POV-RAY SOURCES\FLOAT\POVRAYFLOAT\WINDOWS\VS2015\BIN32\LIB\HALF32.BSC
D:\POV-RAY\POV-RAY SOURCES\FLOAT\POVRAYFLOAT\WINDOWS\VS2015\BUILD\OPENEXR ILMBASE HALF\WIN32\RELEASE\HALF.SBR
