^C:\USERS\MATTHEW MCCOMB\DOCUMENTS\GITHUB\POVRAY\LIBRARIES\ILMBASE\IEX\IEXBASEEXC.CPP
/c /I..\..\LIBRARIES\ILMBASE\IEX /I..\..\LIBRARIES\ILMBASE\CONFIG.WINDOWS /Zi /nologo /W2 /WX- /diagnostics:classic /Od /Oy- /D WIN32 /D WIN32_LEAN_AND_MEAN /D _DEBUG /D _WINDOWS /D _HAS_ITERATOR_DEBUGGING=0 /D IEX_EXPORTS /D _MBCS /Gm /EHsc /RTC1 /MTd /GS /fp:precise /Zc:wchar_t /Zc:forScope /Zc:inline /GR /Fo"BUILD\OPENEXR ILMBASE IEX\WIN32\DEBUG\\" /Fd"BUILD\OPENEXR ILMBASE IEX\WIN32\DEBUG\OPENEXR ILMBASE IEX.PDB" /FR"build\OpenEXR IlmBase Iex\Win32\Debug\\" /Gd /TP /analyze- /FC C:\USERS\MATTHEW MCCOMB\DOCUMENTS\GITHUB\POVRAY\LIBRARIES\ILMBASE\IEX\IEXBASEEXC.CPP
^C:\USERS\MATTHEW MCCOMB\DOCUMENTS\GITHUB\POVRAY\LIBRARIES\ILMBASE\IEX\IEXTHROWERRNOEXC.CPP
/c /I..\..\LIBRARIES\ILMBASE\IEX /I..\..\LIBRARIES\ILMBASE\CONFIG.WINDOWS /Zi /nologo /W2 /WX- /diagnostics:classic /Od /Oy- /D WIN32 /D WIN32_LEAN_AND_MEAN /D _DEBUG /D _WINDOWS /D _HAS_ITERATOR_DEBUGGING=0 /D IEX_EXPORTS /D _MBCS /Gm /EHsc /RTC1 /MTd /GS /fp:precise /Zc:wchar_t /Zc:forScope /Zc:inline /GR /Fo"BUILD\OPENEXR ILMBASE IEX\WIN32\DEBUG\\" /Fd"BUILD\OPENEXR ILMBASE IEX\WIN32\DEBUG\OPENEXR ILMBASE IEX.PDB" /FR"build\OpenEXR IlmBase Iex\Win32\Debug\\" /Gd /TP /analyze- /FC C:\USERS\MATTHEW MCCOMB\DOCUMENTS\GITHUB\POVRAY\LIBRARIES\ILMBASE\IEX\IEXTHROWERRNOEXC.CPP
