^C:\USERS\MATTHEW MCCOMB\DOCUMENTS\GITHUB\POVRAY\WINDOWS\VS2015\BUILD\BOOST_THREAD\WIN32\RELEASE\FUTURE.SBR|C:\USERS\MATTHEW MCCOMB\DOCUMENTS\GITHUB\POVRAY\WINDOWS\VS2015\BUILD\BOOST_THREAD\WIN32\RELEASE\THREAD.SBR|C:\USERS\MATTHEW MCCOMB\DOCUMENTS\GITHUB\POVRAY\WINDOWS\VS2015\BUILD\BOOST_THREAD\WIN32\RELEASE\TSS_DLL.SBR|C:\USERS\MATTHEW MCCOMB\DOCUMENTS\GITHUB\POVRAY\WINDOWS\VS2015\BUILD\BOOST_THREAD\WIN32\RELEASE\TSS_PE.SBR
C:\USERS\MATTHEW MCCOMB\DOCUMENTS\GITHUB\POVRAY\WINDOWS\VS2015\BIN32\LIB\LIBBOOST_THREAD32.BSC
^D:\POV-RAY\POV-RAY SOURCES\NORMAL\POVRAY\WINDOWS\VS2015\BUILD\BOOST_THREAD\WIN32\RELEASE\FUTURE.SBR|D:\POV-RAY\POV-RAY SOURCES\NORMAL\POVRAY\WINDOWS\VS2015\BUILD\BOOST_THREAD\WIN32\RELEASE\THREAD.SBR|D:\POV-RAY\POV-RAY SOURCES\NORMAL\POVRAY\WINDOWS\VS2015\BUILD\BOOST_THREAD\WIN32\RELEASE\TSS_DLL.SBR|D:\POV-RAY\POV-RAY SOURCES\NORMAL\POVRAY\WINDOWS\VS2015\BUILD\BOOST_THREAD\WIN32\RELEASE\TSS_PE.SBR
D:\POV-RAY\POV-RAY SOURCES\NORMAL\POVRAY\WINDOWS\VS2015\BIN32\LIB\LIBBOOST_THREAD32.BSC
