c:\users\matthew mccomb\documents\github\povray\windows\vs2015\bin32\lib\povparser32d.bsc
c:\users\matthew mccomb\documents\github\povray\windows\vs2015\build\povparser\win32\debug\precomp.pch
c:\users\matthew mccomb\documents\github\povray\windows\vs2015\build\povparser\win32\debug\povparser.pdb
c:\users\matthew mccomb\documents\github\povray\windows\vs2015\build\povparser\win32\debug\precomp.sbr
c:\users\matthew mccomb\documents\github\povray\windows\vs2015\build\povparser\win32\debug\precomp.obj
c:\users\matthew mccomb\documents\github\povray\windows\vs2015\build\povparser\win32\debug\fncode.sbr
c:\users\matthew mccomb\documents\github\povray\windows\vs2015\build\povparser\win32\debug\parser.sbr
c:\users\matthew mccomb\documents\github\povray\windows\vs2015\build\povparser\win32\debug\parser_expressions.sbr
c:\users\matthew mccomb\documents\github\povray\windows\vs2015\build\povparser\win32\debug\parser_functions.sbr
c:\users\matthew mccomb\documents\github\povray\windows\vs2015\build\povparser\win32\debug\parser_functions_utilities.sbr
c:\users\matthew mccomb\documents\github\povray\windows\vs2015\build\povparser\win32\debug\parser_materials.sbr
c:\users\matthew mccomb\documents\github\povray\windows\vs2015\build\povparser\win32\debug\parser_obj.sbr
c:\users\matthew mccomb\documents\github\povray\windows\vs2015\build\povparser\win32\debug\parser_strings.sbr
c:\users\matthew mccomb\documents\github\povray\windows\vs2015\build\povparser\win32\debug\reservedwords.sbr
c:\users\matthew mccomb\documents\github\povray\windows\vs2015\build\povparser\win32\debug\reservedwords.obj
c:\users\matthew mccomb\documents\github\povray\windows\vs2015\build\povparser\win32\debug\parser_strings.obj
c:\users\matthew mccomb\documents\github\povray\windows\vs2015\build\povparser\win32\debug\parser_obj.obj
c:\users\matthew mccomb\documents\github\povray\windows\vs2015\build\povparser\win32\debug\parser_materials.obj
c:\users\matthew mccomb\documents\github\povray\windows\vs2015\build\povparser\win32\debug\parser_functions_utilities.obj
c:\users\matthew mccomb\documents\github\povray\windows\vs2015\build\povparser\win32\debug\parser_functions.obj
c:\users\matthew mccomb\documents\github\povray\windows\vs2015\build\povparser\win32\debug\parser_expressions.obj
c:\users\matthew mccomb\documents\github\povray\windows\vs2015\build\povparser\win32\debug\parser.obj
c:\users\matthew mccomb\documents\github\povray\windows\vs2015\build\povparser\win32\debug\fncode.obj
c:\users\matthew mccomb\documents\github\povray\windows\vs2015\build\povparser\win32\debug\parser_tokenizer.sbr
c:\users\matthew mccomb\documents\github\povray\windows\vs2015\build\povparser\win32\debug\parser_tokenizer.obj
c:\users\matthew mccomb\documents\github\povray\windows\vs2015\bin32\lib\povparser32d.lib
c:\users\matthew mccomb\documents\github\povray\windows\vs2015\build\povparser\win32\debug\povparser.tlog\bscmake.command.1.tlog
c:\users\matthew mccomb\documents\github\povray\windows\vs2015\build\povparser\win32\debug\povparser.tlog\bscmake.read.1.tlog
c:\users\matthew mccomb\documents\github\povray\windows\vs2015\build\povparser\win32\debug\povparser.tlog\bscmake.write.1.tlog
c:\users\matthew mccomb\documents\github\povray\windows\vs2015\build\povparser\win32\debug\povparser.tlog\cl.command.1.tlog
c:\users\matthew mccomb\documents\github\povray\windows\vs2015\build\povparser\win32\debug\povparser.tlog\cl.read.1.tlog
c:\users\matthew mccomb\documents\github\povray\windows\vs2015\build\povparser\win32\debug\povparser.tlog\cl.write.1.tlog
c:\users\matthew mccomb\documents\github\povray\windows\vs2015\build\povparser\win32\debug\povparser.tlog\lib-link.read.1.tlog
c:\users\matthew mccomb\documents\github\povray\windows\vs2015\build\povparser\win32\debug\povparser.tlog\lib-link.write.1.tlog
c:\users\matthew mccomb\documents\github\povray\windows\vs2015\build\povparser\win32\debug\povparser.tlog\lib.command.1.tlog
