^C:\USERS\MATTHEW MCCOMB\DOCUMENTS\GITHUB\POVRAY\WINDOWS\VS2015\BUILD\BOOST_SYSTEM\WIN32\DEBUG\ERROR_CODE.OBJ
C:\USERS\MATTHEW MCCOMB\DOCUMENTS\GITHUB\POVRAY\WINDOWS\VS2015\BUILD\BOOST_SYSTEM\WIN32\DEBUG\ERROR_CODE.OBJ
C:\WINDOWS\SYSTEM32\TZRES.DLL
