^C:\USERS\MATTHEW MCCOMB\DOCUMENTS\GITHUB\POVRAY\WINDOWS\RTRSUPPORT\RTRSUPPORT.CPP|C:\USERS\MATTHEW MCCOMB\DOCUMENTS\GITHUB\POVRAY\WINDOWS\RTRSUPPORT\VIDCAP.CPP|C:\USERS\MATTHEW MCCOMB\DOCUMENTS\GITHUB\POVRAY\WINDOWS\RTRSUPPORT\VIDCAPIMPL.CPP
C:\USERS\MATTHEW MCCOMB\DOCUMENTS\GITHUB\POVRAY\WINDOWS\VS2015\BUILD\RTRSUPPORT\WIN32\DEBUG\RTRSUPPORT.PDB
C:\USERS\MATTHEW MCCOMB\DOCUMENTS\GITHUB\POVRAY\WINDOWS\VS2015\BUILD\RTRSUPPORT\WIN32\DEBUG\RTRSUPPORT.IDB
C:\USERS\MATTHEW MCCOMB\DOCUMENTS\GITHUB\POVRAY\WINDOWS\VS2015\BUILD\RTRSUPPORT\WIN32\DEBUG\VIDCAPIMPL.SBR
C:\USERS\MATTHEW MCCOMB\DOCUMENTS\GITHUB\POVRAY\WINDOWS\VS2015\BUILD\RTRSUPPORT\WIN32\DEBUG\VIDCAP.SBR
C:\USERS\MATTHEW MCCOMB\DOCUMENTS\GITHUB\POVRAY\WINDOWS\VS2015\BUILD\RTRSUPPORT\WIN32\DEBUG\RTRSUPPORT.SBR
C:\USERS\MATTHEW MCCOMB\DOCUMENTS\GITHUB\POVRAY\WINDOWS\VS2015\BUILD\RTRSUPPORT\WIN32\DEBUG\RTRSUPPORT.OBJ
C:\USERS\MATTHEW MCCOMB\DOCUMENTS\GITHUB\POVRAY\WINDOWS\VS2015\BUILD\RTRSUPPORT\WIN32\DEBUG\VIDCAP.OBJ
C:\USERS\MATTHEW MCCOMB\DOCUMENTS\GITHUB\POVRAY\WINDOWS\VS2015\BUILD\RTRSUPPORT\WIN32\DEBUG\VIDCAPIMPL.OBJ
^C:\USERS\MATTHEW MCCOMB\DOCUMENTS\GITHUB\POVRAY\WINDOWS\RTRSUPPORT\RTRSUPPORT.CPP
C:\USERS\MATTHEW MCCOMB\DOCUMENTS\GITHUB\POVRAY\WINDOWS\VS2015\BUILD\RTRSUPPORT\WIN32\DEBUG\RTRSUPPORT.PDB
^C:\USERS\MATTHEW MCCOMB\DOCUMENTS\GITHUB\POVRAY\WINDOWS\RTRSUPPORT\VIDCAP.CPP
C:\USERS\MATTHEW MCCOMB\DOCUMENTS\GITHUB\POVRAY\WINDOWS\VS2015\BUILD\RTRSUPPORT\WIN32\DEBUG\RTRSUPPORT.PDB
^C:\USERS\MATTHEW MCCOMB\DOCUMENTS\GITHUB\POVRAY\WINDOWS\RTRSUPPORT\VIDCAPIMPL.CPP
C:\USERS\MATTHEW MCCOMB\DOCUMENTS\GITHUB\POVRAY\WINDOWS\VS2015\BUILD\RTRSUPPORT\WIN32\DEBUG\RTRSUPPORT.PDB
