^C:\USERS\MATTHEW MCCOMB\DOCUMENTS\GITHUB\POVRAY\LIBRARIES\ZLIB\ADLER32.C
/c /Zi /nologo /W2 /WX- /diagnostics:classic /Od /Oy- /D WIN32 /D WIN32_LEAN_AND_MEAN /D _DEBUG /D _WINDOWS /D _CRT_SECURE_NO_DEPRECATE /Gm- /EHsc /MTd /GS- /arch:SSE2 /fp:precise /Zc:wchar_t /Zc:forScope /Zc:inline /Fo"BUILD\ZLIB\WIN32\DEBUG\\" /Fd"BUILD\ZLIB\WIN32\DEBUG\ZLIB.PDB" /FR"build\zlib\Win32\Debug\\" /Gd /TC /analyze- /FC C:\USERS\MATTHEW MCCOMB\DOCUMENTS\GITHUB\POVRAY\LIBRARIES\ZLIB\ADLER32.C
^C:\USERS\MATTHEW MCCOMB\DOCUMENTS\GITHUB\POVRAY\LIBRARIES\ZLIB\COMPRESS.C
/c /Zi /nologo /W2 /WX- /diagnostics:classic /Od /Oy- /D WIN32 /D WIN32_LEAN_AND_MEAN /D _DEBUG /D _WINDOWS /D _CRT_SECURE_NO_DEPRECATE /Gm- /EHsc /MTd /GS- /arch:SSE2 /fp:precise /Zc:wchar_t /Zc:forScope /Zc:inline /Fo"BUILD\ZLIB\WIN32\DEBUG\\" /Fd"BUILD\ZLIB\WIN32\DEBUG\ZLIB.PDB" /FR"build\zlib\Win32\Debug\\" /Gd /TC /analyze- /FC C:\USERS\MATTHEW MCCOMB\DOCUMENTS\GITHUB\POVRAY\LIBRARIES\ZLIB\COMPRESS.C
^C:\USERS\MATTHEW MCCOMB\DOCUMENTS\GITHUB\POVRAY\LIBRARIES\ZLIB\CRC32.C
/c /Zi /nologo /W2 /WX- /diagnostics:classic /Od /Oy- /D WIN32 /D WIN32_LEAN_AND_MEAN /D _DEBUG /D _WINDOWS /D _CRT_SECURE_NO_DEPRECATE /Gm- /EHsc /MTd /GS- /arch:SSE2 /fp:precise /Zc:wchar_t /Zc:forScope /Zc:inline /Fo"BUILD\ZLIB\WIN32\DEBUG\\" /Fd"BUILD\ZLIB\WIN32\DEBUG\ZLIB.PDB" /FR"build\zlib\Win32\Debug\\" /Gd /TC /analyze- /FC C:\USERS\MATTHEW MCCOMB\DOCUMENTS\GITHUB\POVRAY\LIBRARIES\ZLIB\CRC32.C
^C:\USERS\MATTHEW MCCOMB\DOCUMENTS\GITHUB\POVRAY\LIBRARIES\ZLIB\DEFLATE.C
/c /Zi /nologo /W2 /WX- /diagnostics:classic /Od /Oy- /D WIN32 /D WIN32_LEAN_AND_MEAN /D _DEBUG /D _WINDOWS /D _CRT_SECURE_NO_DEPRECATE /Gm- /EHsc /MTd /GS- /arch:SSE2 /fp:precise /Zc:wchar_t /Zc:forScope /Zc:inline /Fo"BUILD\ZLIB\WIN32\DEBUG\\" /Fd"BUILD\ZLIB\WIN32\DEBUG\ZLIB.PDB" /FR"build\zlib\Win32\Debug\\" /Gd /TC /analyze- /FC C:\USERS\MATTHEW MCCOMB\DOCUMENTS\GITHUB\POVRAY\LIBRARIES\ZLIB\DEFLATE.C
^C:\USERS\MATTHEW MCCOMB\DOCUMENTS\GITHUB\POVRAY\LIBRARIES\ZLIB\GZCLOSE.C
/c /Zi /nologo /W2 /WX- /diagnostics:classic /Od /Oy- /D WIN32 /D WIN32_LEAN_AND_MEAN /D _DEBUG /D _WINDOWS /D _CRT_SECURE_NO_DEPRECATE /Gm- /EHsc /MTd /GS- /arch:SSE2 /fp:precise /Zc:wchar_t /Zc:forScope /Zc:inline /Fo"BUILD\ZLIB\WIN32\DEBUG\\" /Fd"BUILD\ZLIB\WIN32\DEBUG\ZLIB.PDB" /FR"build\zlib\Win32\Debug\\" /Gd /TC /analyze- /FC C:\USERS\MATTHEW MCCOMB\DOCUMENTS\GITHUB\POVRAY\LIBRARIES\ZLIB\GZCLOSE.C
^C:\USERS\MATTHEW MCCOMB\DOCUMENTS\GITHUB\POVRAY\LIBRARIES\ZLIB\GZLIB.C
/c /Zi /nologo /W2 /WX- /diagnostics:classic /Od /Oy- /D WIN32 /D WIN32_LEAN_AND_MEAN /D _DEBUG /D _WINDOWS /D _CRT_SECURE_NO_DEPRECATE /Gm- /EHsc /MTd /GS- /arch:SSE2 /fp:precise /Zc:wchar_t /Zc:forScope /Zc:inline /Fo"BUILD\ZLIB\WIN32\DEBUG\\" /Fd"BUILD\ZLIB\WIN32\DEBUG\ZLIB.PDB" /FR"build\zlib\Win32\Debug\\" /Gd /TC /analyze- /FC C:\USERS\MATTHEW MCCOMB\DOCUMENTS\GITHUB\POVRAY\LIBRARIES\ZLIB\GZLIB.C
^C:\USERS\MATTHEW MCCOMB\DOCUMENTS\GITHUB\POVRAY\LIBRARIES\ZLIB\GZREAD.C
/c /Zi /nologo /W2 /WX- /diagnostics:classic /Od /Oy- /D WIN32 /D WIN32_LEAN_AND_MEAN /D _DEBUG /D _WINDOWS /D _CRT_SECURE_NO_DEPRECATE /Gm- /EHsc /MTd /GS- /arch:SSE2 /fp:precise /Zc:wchar_t /Zc:forScope /Zc:inline /Fo"BUILD\ZLIB\WIN32\DEBUG\\" /Fd"BUILD\ZLIB\WIN32\DEBUG\ZLIB.PDB" /FR"build\zlib\Win32\Debug\\" /Gd /TC /analyze- /FC C:\USERS\MATTHEW MCCOMB\DOCUMENTS\GITHUB\POVRAY\LIBRARIES\ZLIB\GZREAD.C
^C:\USERS\MATTHEW MCCOMB\DOCUMENTS\GITHUB\POVRAY\LIBRARIES\ZLIB\GZWRITE.C
/c /Zi /nologo /W2 /WX- /diagnostics:classic /Od /Oy- /D WIN32 /D WIN32_LEAN_AND_MEAN /D _DEBUG /D _WINDOWS /D _CRT_SECURE_NO_DEPRECATE /Gm- /EHsc /MTd /GS- /arch:SSE2 /fp:precise /Zc:wchar_t /Zc:forScope /Zc:inline /Fo"BUILD\ZLIB\WIN32\DEBUG\\" /Fd"BUILD\ZLIB\WIN32\DEBUG\ZLIB.PDB" /FR"build\zlib\Win32\Debug\\" /Gd /TC /analyze- /FC C:\USERS\MATTHEW MCCOMB\DOCUMENTS\GITHUB\POVRAY\LIBRARIES\ZLIB\GZWRITE.C
^C:\USERS\MATTHEW MCCOMB\DOCUMENTS\GITHUB\POVRAY\LIBRARIES\ZLIB\INFBACK.C
/c /Zi /nologo /W2 /WX- /diagnostics:classic /Od /Oy- /D WIN32 /D WIN32_LEAN_AND_MEAN /D _DEBUG /D _WINDOWS /D _CRT_SECURE_NO_DEPRECATE /Gm- /EHsc /MTd /GS- /arch:SSE2 /fp:precise /Zc:wchar_t /Zc:forScope /Zc:inline /Fo"BUILD\ZLIB\WIN32\DEBUG\\" /Fd"BUILD\ZLIB\WIN32\DEBUG\ZLIB.PDB" /FR"build\zlib\Win32\Debug\\" /Gd /TC /analyze- /FC C:\USERS\MATTHEW MCCOMB\DOCUMENTS\GITHUB\POVRAY\LIBRARIES\ZLIB\INFBACK.C
^C:\USERS\MATTHEW MCCOMB\DOCUMENTS\GITHUB\POVRAY\LIBRARIES\ZLIB\INFFAST.C
/c /Zi /nologo /W2 /WX- /diagnostics:classic /Od /Oy- /D WIN32 /D WIN32_LEAN_AND_MEAN /D _DEBUG /D _WINDOWS /D _CRT_SECURE_NO_DEPRECATE /Gm- /EHsc /MTd /GS- /arch:SSE2 /fp:precise /Zc:wchar_t /Zc:forScope /Zc:inline /Fo"BUILD\ZLIB\WIN32\DEBUG\\" /Fd"BUILD\ZLIB\WIN32\DEBUG\ZLIB.PDB" /FR"build\zlib\Win32\Debug\\" /Gd /TC /analyze- /FC C:\USERS\MATTHEW MCCOMB\DOCUMENTS\GITHUB\POVRAY\LIBRARIES\ZLIB\INFFAST.C
^C:\USERS\MATTHEW MCCOMB\DOCUMENTS\GITHUB\POVRAY\LIBRARIES\ZLIB\INFLATE.C
/c /Zi /nologo /W2 /WX- /diagnostics:classic /Od /Oy- /D WIN32 /D WIN32_LEAN_AND_MEAN /D _DEBUG /D _WINDOWS /D _CRT_SECURE_NO_DEPRECATE /Gm- /EHsc /MTd /GS- /arch:SSE2 /fp:precise /Zc:wchar_t /Zc:forScope /Zc:inline /Fo"BUILD\ZLIB\WIN32\DEBUG\\" /Fd"BUILD\ZLIB\WIN32\DEBUG\ZLIB.PDB" /FR"build\zlib\Win32\Debug\\" /Gd /TC /analyze- /FC C:\USERS\MATTHEW MCCOMB\DOCUMENTS\GITHUB\POVRAY\LIBRARIES\ZLIB\INFLATE.C
^C:\USERS\MATTHEW MCCOMB\DOCUMENTS\GITHUB\POVRAY\LIBRARIES\ZLIB\INFTREES.C
/c /Zi /nologo /W2 /WX- /diagnostics:classic /Od /Oy- /D WIN32 /D WIN32_LEAN_AND_MEAN /D _DEBUG /D _WINDOWS /D _CRT_SECURE_NO_DEPRECATE /Gm- /EHsc /MTd /GS- /arch:SSE2 /fp:precise /Zc:wchar_t /Zc:forScope /Zc:inline /Fo"BUILD\ZLIB\WIN32\DEBUG\\" /Fd"BUILD\ZLIB\WIN32\DEBUG\ZLIB.PDB" /FR"build\zlib\Win32\Debug\\" /Gd /TC /analyze- /FC C:\USERS\MATTHEW MCCOMB\DOCUMENTS\GITHUB\POVRAY\LIBRARIES\ZLIB\INFTREES.C
^C:\USERS\MATTHEW MCCOMB\DOCUMENTS\GITHUB\POVRAY\LIBRARIES\ZLIB\TREES.C
/c /Zi /nologo /W2 /WX- /diagnostics:classic /Od /Oy- /D WIN32 /D WIN32_LEAN_AND_MEAN /D _DEBUG /D _WINDOWS /D _CRT_SECURE_NO_DEPRECATE /Gm- /EHsc /MTd /GS- /arch:SSE2 /fp:precise /Zc:wchar_t /Zc:forScope /Zc:inline /Fo"BUILD\ZLIB\WIN32\DEBUG\\" /Fd"BUILD\ZLIB\WIN32\DEBUG\ZLIB.PDB" /FR"build\zlib\Win32\Debug\\" /Gd /TC /analyze- /FC C:\USERS\MATTHEW MCCOMB\DOCUMENTS\GITHUB\POVRAY\LIBRARIES\ZLIB\TREES.C
^C:\USERS\MATTHEW MCCOMB\DOCUMENTS\GITHUB\POVRAY\LIBRARIES\ZLIB\UNCOMPR.C
/c /Zi /nologo /W2 /WX- /diagnostics:classic /Od /Oy- /D WIN32 /D WIN32_LEAN_AND_MEAN /D _DEBUG /D _WINDOWS /D _CRT_SECURE_NO_DEPRECATE /Gm- /EHsc /MTd /GS- /arch:SSE2 /fp:precise /Zc:wchar_t /Zc:forScope /Zc:inline /Fo"BUILD\ZLIB\WIN32\DEBUG\\" /Fd"BUILD\ZLIB\WIN32\DEBUG\ZLIB.PDB" /FR"build\zlib\Win32\Debug\\" /Gd /TC /analyze- /FC C:\USERS\MATTHEW MCCOMB\DOCUMENTS\GITHUB\POVRAY\LIBRARIES\ZLIB\UNCOMPR.C
^C:\USERS\MATTHEW MCCOMB\DOCUMENTS\GITHUB\POVRAY\LIBRARIES\ZLIB\ZUTIL.C
/c /Zi /nologo /W2 /WX- /diagnostics:classic /Od /Oy- /D WIN32 /D WIN32_LEAN_AND_MEAN /D _DEBUG /D _WINDOWS /D _CRT_SECURE_NO_DEPRECATE /Gm- /EHsc /MTd /GS- /arch:SSE2 /fp:precise /Zc:wchar_t /Zc:forScope /Zc:inline /Fo"BUILD\ZLIB\WIN32\DEBUG\\" /Fd"BUILD\ZLIB\WIN32\DEBUG\ZLIB.PDB" /FR"build\zlib\Win32\Debug\\" /Gd /TC /analyze- /FC C:\USERS\MATTHEW MCCOMB\DOCUMENTS\GITHUB\POVRAY\LIBRARIES\ZLIB\ZUTIL.C
