^C:\USERS\MATTHEW MCCOMB\DOCUMENTS\GITHUB\POVRAY\LIBRARIES\ILMBASE\IEX\IEXBASEEXC.CPP
C:\USERS\MATTHEW MCCOMB\DOCUMENTS\GITHUB\POVRAY\WINDOWS\VS2015\BUILD\OPENEXR ILMBASE IEX\WIN32\RELEASE\OPENEXR ILMBASE IEX.PDB
^C:\USERS\MATTHEW MCCOMB\DOCUMENTS\GITHUB\POVRAY\LIBRARIES\ILMBASE\IEX\IEXTHROWERRNOEXC.CPP
C:\USERS\MATTHEW MCCOMB\DOCUMENTS\GITHUB\POVRAY\WINDOWS\VS2015\BUILD\OPENEXR ILMBASE IEX\WIN32\RELEASE\OPENEXR ILMBASE IEX.PDB
^C:\USERS\MATTHEW MCCOMB\DOCUMENTS\GITHUB\POVRAY\LIBRARIES\ILMBASE\IEX\IEXBASEEXC.CPP|C:\USERS\MATTHEW MCCOMB\DOCUMENTS\GITHUB\POVRAY\LIBRARIES\ILMBASE\IEX\IEXTHROWERRNOEXC.CPP
C:\USERS\MATTHEW MCCOMB\DOCUMENTS\GITHUB\POVRAY\WINDOWS\VS2015\BUILD\OPENEXR ILMBASE IEX\WIN32\RELEASE\OPENEXR ILMBASE IEX.PDB
C:\USERS\MATTHEW MCCOMB\DOCUMENTS\GITHUB\POVRAY\WINDOWS\VS2015\BUILD\OPENEXR ILMBASE IEX\WIN32\RELEASE\IEXBASEEXC.SBR
C:\USERS\MATTHEW MCCOMB\DOCUMENTS\GITHUB\POVRAY\WINDOWS\VS2015\BUILD\OPENEXR ILMBASE IEX\WIN32\RELEASE\IEXTHROWERRNOEXC.SBR
C:\USERS\MATTHEW MCCOMB\DOCUMENTS\GITHUB\POVRAY\WINDOWS\VS2015\BUILD\OPENEXR ILMBASE IEX\WIN32\RELEASE\IEXTHROWERRNOEXC.OBJ
C:\USERS\MATTHEW MCCOMB\DOCUMENTS\GITHUB\POVRAY\WINDOWS\VS2015\BUILD\OPENEXR ILMBASE IEX\WIN32\RELEASE\IEXBASEEXC.OBJ
^D:\POV-RAY\POV-RAY SOURCES\PLUSMINUS\POVRAY\LIBRARIES\ILMBASE\IEX\IEXBASEEXC.CPP|D:\POV-RAY\POV-RAY SOURCES\PLUSMINUS\POVRAY\LIBRARIES\ILMBASE\IEX\IEXTHROWERRNOEXC.CPP
D:\POV-RAY\POV-RAY SOURCES\PLUSMINUS\POVRAY\WINDOWS\VS2015\BUILD\OPENEXR ILMBASE IEX\WIN32\RELEASE\OPENEXR ILMBASE IEX.PDB
D:\POV-RAY\POV-RAY SOURCES\PLUSMINUS\POVRAY\WINDOWS\VS2015\BUILD\OPENEXR ILMBASE IEX\WIN32\RELEASE\IEXBASEEXC.SBR
D:\POV-RAY\POV-RAY SOURCES\PLUSMINUS\POVRAY\WINDOWS\VS2015\BUILD\OPENEXR ILMBASE IEX\WIN32\RELEASE\IEXTHROWERRNOEXC.SBR
D:\POV-RAY\POV-RAY SOURCES\PLUSMINUS\POVRAY\WINDOWS\VS2015\BUILD\OPENEXR ILMBASE IEX\WIN32\RELEASE\IEXTHROWERRNOEXC.OBJ
D:\POV-RAY\POV-RAY SOURCES\PLUSMINUS\POVRAY\WINDOWS\VS2015\BUILD\OPENEXR ILMBASE IEX\WIN32\RELEASE\IEXBASEEXC.OBJ
^D:\POV-RAY\POV-RAY SOURCES\PLUSMINUS\POVRAY\LIBRARIES\ILMBASE\IEX\IEXBASEEXC.CPP
D:\POV-RAY\POV-RAY SOURCES\PLUSMINUS\POVRAY\WINDOWS\VS2015\BUILD\OPENEXR ILMBASE IEX\WIN32\RELEASE\OPENEXR ILMBASE IEX.PDB
^D:\POV-RAY\POV-RAY SOURCES\PLUSMINUS\POVRAY\LIBRARIES\ILMBASE\IEX\IEXTHROWERRNOEXC.CPP
D:\POV-RAY\POV-RAY SOURCES\PLUSMINUS\POVRAY\WINDOWS\VS2015\BUILD\OPENEXR ILMBASE IEX\WIN32\RELEASE\OPENEXR ILMBASE IEX.PDB
