^C:\USERS\MATTHEW MCCOMB\DOCUMENTS\GITHUB\POVRAY\WINDOWS\VS2015\BUILD\POVVM\WIN32\RELEASE\FNINTERN.OBJ|C:\USERS\MATTHEW MCCOMB\DOCUMENTS\GITHUB\POVRAY\WINDOWS\VS2015\BUILD\POVVM\WIN32\RELEASE\FNPOVFPU.OBJ|C:\USERS\MATTHEW MCCOMB\DOCUMENTS\GITHUB\POVRAY\WINDOWS\VS2015\BUILD\POVVM\WIN32\RELEASE\PRECOMP.OBJ
/OUT:"BIN32\LIB\POVVM32.LIB" /NOLOGO /LTCG BUILD\POVVM\WIN32\RELEASE\FNINTERN.OBJBUILD\POVVM\WIN32\RELEASE\FNPOVFPU.OBJBUILD\POVVM\WIN32\RELEASE\PRECOMP.OBJ
^D:\POV-RAY\POV-RAY SOURCES\NORMAL\POVRAY\WINDOWS\VS2015\BUILD\POVVM\WIN32\RELEASE\FNINTERN.OBJ|D:\POV-RAY\POV-RAY SOURCES\NORMAL\POVRAY\WINDOWS\VS2015\BUILD\POVVM\WIN32\RELEASE\FNPOVFPU.OBJ|D:\POV-RAY\POV-RAY SOURCES\NORMAL\POVRAY\WINDOWS\VS2015\BUILD\POVVM\WIN32\RELEASE\PRECOMP.OBJ
/OUT:"BIN32\LIB\POVVM32.LIB" /NOLOGO /LTCG BUILD\POVVM\WIN32\RELEASE\FNINTERN.OBJBUILD\POVVM\WIN32\RELEASE\FNPOVFPU.OBJBUILD\POVVM\WIN32\RELEASE\PRECOMP.OBJ
