^C:\USERS\MATTHEW MCCOMB\DOCUMENTS\GITHUB\POVRAY\WINDOWS\VS2015\BUILD\LIBPNG\WIN32\RELEASE\PNG.OBJ|C:\USERS\MATTHEW MCCOMB\DOCUMENTS\GITHUB\POVRAY\WINDOWS\VS2015\BUILD\LIBPNG\WIN32\RELEASE\PNGERROR.OBJ|C:\USERS\MATTHEW MCCOMB\DOCUMENTS\GITHUB\POVRAY\WINDOWS\VS2015\BUILD\LIBPNG\WIN32\RELEASE\PNGGET.OBJ|C:\USERS\MATTHEW MCCOMB\DOCUMENTS\GITHUB\POVRAY\WINDOWS\VS2015\BUILD\LIBPNG\WIN32\RELEASE\PNGMEM.OBJ|C:\USERS\MATTHEW MCCOMB\DOCUMENTS\GITHUB\POVRAY\WINDOWS\VS2015\BUILD\LIBPNG\WIN32\RELEASE\PNGPREAD.OBJ|C:\USERS\MATTHEW MCCOMB\DOCUMENTS\GITHUB\POVRAY\WINDOWS\VS2015\BUILD\LIBPNG\WIN32\RELEASE\PNGREAD.OBJ|C:\USERS\MATTHEW MCCOMB\DOCUMENTS\GITHUB\POVRAY\WINDOWS\VS2015\BUILD\LIBPNG\WIN32\RELEASE\PNGRIO.OBJ|C:\USERS\MATTHEW MCCOMB\DOCUMENTS\GITHUB\POVRAY\WINDOWS\VS2015\BUILD\LIBPNG\WIN32\RELEASE\PNGRTRAN.OBJ|C:\USERS\MATTHEW MCCOMB\DOCUMENTS\GITHUB\POVRAY\WINDOWS\VS2015\BUILD\LIBPNG\WIN32\RELEASE\PNGRUTIL.OBJ|C:\USERS\MATTHEW MCCOMB\DOCUMENTS\GITHUB\POVRAY\WINDOWS\VS2015\BUILD\LIBPNG\WIN32\RELEASE\PNGSET.OBJ|C:\USERS\MATTHEW MCCOMB\DOCUMENTS\GITHUB\POVRAY\WINDOWS\VS2015\BUILD\LIBPNG\WIN32\RELEASE\PNGTRANS.OBJ|C:\USERS\MATTHEW MCCOMB\DOCUMENTS\GITHUB\POVRAY\WINDOWS\VS2015\BUILD\LIBPNG\WIN32\RELEASE\PNGWIO.OBJ|C:\USERS\MATTHEW MCCOMB\DOCUMENTS\GITHUB\POVRAY\WINDOWS\VS2015\BUILD\LIBPNG\WIN32\RELEASE\PNGWRITE.OBJ|C:\USERS\MATTHEW MCCOMB\DOCUMENTS\GITHUB\POVRAY\WINDOWS\VS2015\BUILD\LIBPNG\WIN32\RELEASE\PNGWTRAN.OBJ|C:\USERS\MATTHEW MCCOMB\DOCUMENTS\GITHUB\POVRAY\WINDOWS\VS2015\BUILD\LIBPNG\WIN32\RELEASE\PNGWUTIL.OBJ
/OUT:"BIN32\LIB\LIBPNG32.LIB" /NOLOGO /LTCG BUILD\LIBPNG\WIN32\RELEASE\PNG.OBJBUILD\LIBPNG\WIN32\RELEASE\PNGERROR.OBJBUILD\LIBPNG\WIN32\RELEASE\PNGGET.OBJBUILD\LIBPNG\WIN32\RELEASE\PNGMEM.OBJBUILD\LIBPNG\WIN32\RELEASE\PNGPREAD.OBJBUILD\LIBPNG\WIN32\RELEASE\PNGREAD.OBJBUILD\LIBPNG\WIN32\RELEASE\PNGRIO.OBJBUILD\LIBPNG\WIN32\RELEASE\PNGRTRAN.OBJBUILD\LIBPNG\WIN32\RELEASE\PNGRUTIL.OBJBUILD\LIBPNG\WIN32\RELEASE\PNGSET.OBJBUILD\LIBPNG\WIN32\RELEASE\PNGTRANS.OBJBUILD\LIBPNG\WIN32\RELEASE\PNGWIO.OBJBUILD\LIBPNG\WIN32\RELEASE\PNGWRITE.OBJBUILD\LIBPNG\WIN32\RELEASE\PNGWTRAN.OBJBUILD\LIBPNG\WIN32\RELEASE\PNGWUTIL.OBJ
^D:\POV-RAY\POV-RAY SOURCES\NORMAL\POVRAY\WINDOWS\VS2015\BUILD\LIBPNG\WIN32\RELEASE\PNG.OBJ|D:\POV-RAY\POV-RAY SOURCES\NORMAL\POVRAY\WINDOWS\VS2015\BUILD\LIBPNG\WIN32\RELEASE\PNGERROR.OBJ|D:\POV-RAY\POV-RAY SOURCES\NORMAL\POVRAY\WINDOWS\VS2015\BUILD\LIBPNG\WIN32\RELEASE\PNGGET.OBJ|D:\POV-RAY\POV-RAY SOURCES\NORMAL\POVRAY\WINDOWS\VS2015\BUILD\LIBPNG\WIN32\RELEASE\PNGMEM.OBJ|D:\POV-RAY\POV-RAY SOURCES\NORMAL\POVRAY\WINDOWS\VS2015\BUILD\LIBPNG\WIN32\RELEASE\PNGPREAD.OBJ|D:\POV-RAY\POV-RAY SOURCES\NORMAL\POVRAY\WINDOWS\VS2015\BUILD\LIBPNG\WIN32\RELEASE\PNGREAD.OBJ|D:\POV-RAY\POV-RAY SOURCES\NORMAL\POVRAY\WINDOWS\VS2015\BUILD\LIBPNG\WIN32\RELEASE\PNGRIO.OBJ|D:\POV-RAY\POV-RAY SOURCES\NORMAL\POVRAY\WINDOWS\VS2015\BUILD\LIBPNG\WIN32\RELEASE\PNGRTRAN.OBJ|D:\POV-RAY\POV-RAY SOURCES\NORMAL\POVRAY\WINDOWS\VS2015\BUILD\LIBPNG\WIN32\RELEASE\PNGRUTIL.OBJ|D:\POV-RAY\POV-RAY SOURCES\NORMAL\POVRAY\WINDOWS\VS2015\BUILD\LIBPNG\WIN32\RELEASE\PNGSET.OBJ|D:\POV-RAY\POV-RAY SOURCES\NORMAL\POVRAY\WINDOWS\VS2015\BUILD\LIBPNG\WIN32\RELEASE\PNGTRANS.OBJ|D:\POV-RAY\POV-RAY SOURCES\NORMAL\POVRAY\WINDOWS\VS2015\BUILD\LIBPNG\WIN32\RELEASE\PNGWIO.OBJ|D:\POV-RAY\POV-RAY SOURCES\NORMAL\POVRAY\WINDOWS\VS2015\BUILD\LIBPNG\WIN32\RELEASE\PNGWRITE.OBJ|D:\POV-RAY\POV-RAY SOURCES\NORMAL\POVRAY\WINDOWS\VS2015\BUILD\LIBPNG\WIN32\RELEASE\PNGWTRAN.OBJ|D:\POV-RAY\POV-RAY SOURCES\NORMAL\POVRAY\WINDOWS\VS2015\BUILD\LIBPNG\WIN32\RELEASE\PNGWUTIL.OBJ
/OUT:"BIN32\LIB\LIBPNG32.LIB" /NOLOGO /LTCG BUILD\LIBPNG\WIN32\RELEASE\PNG.OBJBUILD\LIBPNG\WIN32\RELEASE\PNGERROR.OBJBUILD\LIBPNG\WIN32\RELEASE\PNGGET.OBJBUILD\LIBPNG\WIN32\RELEASE\PNGMEM.OBJBUILD\LIBPNG\WIN32\RELEASE\PNGPREAD.OBJBUILD\LIBPNG\WIN32\RELEASE\PNGREAD.OBJBUILD\LIBPNG\WIN32\RELEASE\PNGRIO.OBJBUILD\LIBPNG\WIN32\RELEASE\PNGRTRAN.OBJBUILD\LIBPNG\WIN32\RELEASE\PNGRUTIL.OBJBUILD\LIBPNG\WIN32\RELEASE\PNGSET.OBJBUILD\LIBPNG\WIN32\RELEASE\PNGTRANS.OBJBUILD\LIBPNG\WIN32\RELEASE\PNGWIO.OBJBUILD\LIBPNG\WIN32\RELEASE\PNGWRITE.OBJBUILD\LIBPNG\WIN32\RELEASE\PNGWTRAN.OBJBUILD\LIBPNG\WIN32\RELEASE\PNGWUTIL.OBJ
