^C:\USERS\MATTHEW MCCOMB\DOCUMENTS\GITHUB\POVRAY\SOURCE\CORE\PRECOMP.CPP
C:\USERS\MATTHEW MCCOMB\DOCUMENTS\GITHUB\POVRAY\WINDOWS\VS2015\BUILD\POVCORE\WIN32\RELEASE\PRECOMP.PCH
C:\USERS\MATTHEW MCCOMB\DOCUMENTS\GITHUB\POVRAY\WINDOWS\VS2015\BUILD\POVCORE\WIN32\RELEASE\POVCORE.PDB
C:\USERS\MATTHEW MCCOMB\DOCUMENTS\GITHUB\POVRAY\WINDOWS\VS2015\BUILD\POVCORE\WIN32\RELEASE\PRECOMP.SBR
C:\USERS\MATTHEW MCCOMB\DOCUMENTS\GITHUB\POVRAY\WINDOWS\VS2015\BUILD\POVCORE\WIN32\RELEASE\PRECOMP.OBJ
^C:\USERS\MATTHEW MCCOMB\DOCUMENTS\GITHUB\POVRAY\SOURCE\CORE\BOUNDING\BOUNDING.CPP|C:\USERS\MATTHEW MCCOMB\DOCUMENTS\GITHUB\POVRAY\SOURCE\CORE\BOUNDING\BOUNDINGBOX.CPP|C:\USERS\MATTHEW MCCOMB\DOCUMENTS\GITHUB\POVRAY\SOURCE\CORE\BOUNDING\BOUNDINGCYLINDER.CPP|C:\USERS\MATTHEW MCCOMB\DOCUMENTS\GITHUB\POVRAY\SOURCE\CORE\BOUNDING\BOUNDINGSPHERE.CPP|C:\USERS\MATTHEW MCCOMB\DOCUMENTS\GITHUB\POVRAY\SOURCE\CORE\BOUNDING\BSPTREE.CPP|C:\USERS\MATTHEW MCCOMB\DOCUMENTS\GITHUB\POVRAY\SOURCE\CORE\COLOUR\SPECTRAL.CPP|C:\USERS\MATTHEW MCCOMB\DOCUMENTS\GITHUB\POVRAY\SOURCE\CORE\LIGHTING\LIGHTGROUP.CPP|C:\USERS\MATTHEW MCCOMB\DOCUMENTS\GITHUB\POVRAY\SOURCE\CORE\LIGHTING\LIGHTSOURCE.CPP|C:\USERS\MATTHEW MCCOMB\DOCUMENTS\GITHUB\POVRAY\SOURCE\CORE\LIGHTING\PHOTONS.CPP|C:\USERS\MATTHEW MCCOMB\DOCUMENTS\GITHUB\POVRAY\SOURCE\CORE\LIGHTING\RADIOSITY.CPP|C:\USERS\MATTHEW MCCOMB\DOCUMENTS\GITHUB\POVRAY\SOURCE\CORE\LIGHTING\SUBSURFACE.CPP|C:\USERS\MATTHEW MCCOMB\DOCUMENTS\GITHUB\POVRAY\SOURCE\CORE\MATERIAL\BLENDMAP.CPP|C:\USERS\MATTHEW MCCOMB\DOCUMENTS\GITHUB\POVRAY\SOURCE\CORE\MATERIAL\INTERIOR.CPP|C:\USERS\MATTHEW MCCOMB\DOCUMENTS\GITHUB\POVRAY\SOURCE\CORE\MATERIAL\MEDIA.CPP|C:\USERS\MATTHEW MCCOMB\DOCUMENTS\GITHUB\POVRAY\SOURCE\CORE\MATERIAL\NOISE.CPP|C:\USERS\MATTHEW MCCOMB\DOCUMENTS\GITHUB\POVRAY\SOURCE\CORE\MATERIAL\NORMAL.CPP|C:\USERS\MATTHEW MCCOMB\DOCUMENTS\GITHUB\POVRAY\SOURCE\CORE\MATERIAL\PATTERN.CPP|C:\USERS\MATTHEW MCCOMB\DOCUMENTS\GITHUB\POVRAY\SOURCE\CORE\MATERIAL\PIGMENT.CPP|C:\USERS\MATTHEW MCCOMB\DOCUMENTS\GITHUB\POVRAY\SOURCE\CORE\MATERIAL\PORTABLENOISE.CPP|C:\USERS\MATTHEW MCCOMB\DOCUMENTS\GITHUB\POVRAY\SOURCE\CORE\MATERIAL\TEXTURE.CPP|C:\USERS\MATTHEW MCCOMB\DOCUMENTS\GITHUB\POVRAY\SOURCE\CORE\MATERIAL\WARP.CPP|C:\USERS\MATTHEW MCCOMB\DOCUMENTS\GITHUB\POVRAY\SOURCE\CORE\MATH\CHI2.CPP|C:\USERS\MATTHEW MCCOMB\DOCUMENTS\GITHUB\POVRAY\SOURCE\CORE\MATH\HYPERCOMPLEX.CPP|C:\USERS\MATTHEW MCCOMB\DOCUMENTS\GITHUB\POVRAY\SOURCE\CORE\MATH\JITTER.CPP|C:\USERS\MATTHEW MCCOMB\DOCUMENTS\GITHUB\POVRAY\SOURCE\CORE\MATH\MATRIX.CPP|C:\USERS\MATTHEW MCCOMB\DOCUMENTS\GITHUB\POVRAY\SOURCE\CORE\MATH\POLYNOMIALSOLVER.CPP|C:\USERS\MATTHEW MCCOMB\DOCUMENTS\GITHUB\POVRAY\SOURCE\CORE\MATH\QUATERNION.CPP|C:\USERS\MATTHEW MCCOMB\DOCUMENTS\GITHUB\POVRAY\SOURCE\CORE\MATH\RANDCOSWEIGHTED.CPP|C:\USERS\MATTHEW MCCOMB\DOCUMENTS\GITHUB\POVRAY\SOURCE\CORE\MATH\RANDOMSEQUENCE.CPP|C:\USERS\MATTHEW MCCOMB\DOCUMENTS\GITHUB\POVRAY\SOURCE\CORE\MATH\SPLINE.CPP|C:\USERS\MATTHEW MCCOMB\DOCUMENTS\GITHUB\POVRAY\SOURCE\CORE\RENDER\RAY.CPP|C:\USERS\MATTHEW MCCOMB\DOCUMENTS\GITHUB\POVRAY\SOURCE\CORE\RENDER\TRACE.CPP|C:\USERS\MATTHEW MCCOMB\DOCUMENTS\GITHUB\POVRAY\SOURCE\CORE\RENDER\TRACEPIXEL.CPP|C:\USERS\MATTHEW MCCOMB\DOCUMENTS\GITHUB\POVRAY\SOURCE\CORE\SCENE\ATMOSPHERE.CPP|C:\USERS\MATTHEW MCCOMB\DOCUMENTS\GITHUB\POVRAY\SOURCE\CORE\SCENE\CAMERA.CPP|C:\USERS\MATTHEW MCCOMB\DOCUMENTS\GITHUB\POVRAY\SOURCE\CORE\SCENE\OBJECT.CPP|C:\USERS\MATTHEW MCCOMB\DOCUMENTS\GITHUB\POVRAY\SOURCE\CORE\SCENE\SCENEDATA.CPP|C:\USERS\MATTHEW MCCOMB\DOCUMENTS\GITHUB\POVRAY\SOURCE\CORE\SCENE\TRACETHREADDATA.CPP|C:\USERS\MATTHEW MCCOMB\DOCUMENTS\GITHUB\POVRAY\SOURCE\CORE\SHAPE\BEZIER.CPP|C:\USERS\MATTHEW MCCOMB\DOCUMENTS\GITHUB\POVRAY\SOURCE\CORE\SHAPE\BLOB.CPP|C:\USERS\MATTHEW MCCOMB\DOCUMENTS\GITHUB\POVRAY\SOURCE\CORE\SHAPE\BOX.CPP|C:\USERS\MATTHEW MCCOMB\DOCUMENTS\GITHUB\POVRAY\SOURCE\CORE\SHAPE\CONE.CPP|C:\USERS\MATTHEW MCCOMB\DOCUMENTS\GITHUB\POVRAY\SOURCE\CORE\SHAPE\CSG.CPP|C:\USERS\MATTHEW MCCOMB\DOCUMENTS\GITHUB\POVRAY\SOURCE\CORE\SHAPE\DISC.CPP|C:\USERS\MATTHEW MCCOMB\DOCUMENTS\GITHUB\POVRAY\SOURCE\CORE\SHAPE\FRACTAL.CPP|C:\USERS\MATTHEW MCCOMB\DOCUMENTS\GITHUB\POVRAY\SOURCE\CORE\SHAPE\HEIGHTFIELD.CPP|C:\USERS\MATTHEW MCCOMB\DOCUMENTS\GITHUB\POVRAY\SOURCE\CORE\SHAPE\ISOSURFACE.CPP|C:\USERS\MATTHEW MCCOMB\DOCUMENTS\GITHUB\POVRAY\SOURCE\CORE\SHAPE\LATHE.CPP|C:\USERS\MATTHEW MCCOMB\DOCUMENTS\GITHUB\POVRAY\SOURCE\CORE\SHAPE\LEMON.CPP|C:\USERS\MATTHEW MCCOMB\DOCUMENTS\GITHUB\POVRAY\SOURCE\CORE\SHAPE\MESH.CPP|C:\USERS\MATTHEW MCCOMB\DOCUMENTS\GITHUB\POVRAY\SOURCE\CORE\SHAPE\OVUS.CPP|C:\USERS\MATTHEW MCCOMB\DOCUMENTS\GITHUB\POVRAY\SOURCE\CORE\SHAPE\PARAMETRIC.CPP|C:\USERS\MATTHEW MCCOMB\DOCUMENTS\GITHUB\POVRAY\SOURCE\CORE\SHAPE\PLANE.CPP|C:\USERS\MATTHEW MCCOMB\DOCUMENTS\GITHUB\POVRAY\SOURCE\CORE\SHAPE\POLYGON.CPP|C:\USERS\MATTHEW MCCOMB\DOCUMENTS\GITHUB\POVRAY\SOURCE\CORE\SHAPE\POLYNOMIAL.CPP|C:\USERS\MATTHEW MCCOMB\DOCUMENTS\GITHUB\POVRAY\SOURCE\CORE\SHAPE\PRISM.CPP|C:\USERS\MATTHEW MCCOMB\DOCUMENTS\GITHUB\POVRAY\SOURCE\CORE\SHAPE\QUADRIC.CPP|C:\USERS\MATTHEW MCCOMB\DOCUMENTS\GITHUB\POVRAY\SOURCE\CORE\SHAPE\SOR.CPP|C:\USERS\MATTHEW MCCOMB\DOCUMENTS\GITHUB\POVRAY\SOURCE\CORE\SHAPE\SPHERE.CPP|C:\USERS\MATTHEW MCCOMB\DOCUMENTS\GITHUB\POVRAY\SOURCE\CORE\SHAPE\SPHERESWEEP.CPP|C:\USERS\MATTHEW MCCOMB\DOCUMENTS\GITHUB\POVRAY\SOURCE\CORE\SHAPE\SUPERELLIPSOID.CPP|C:\USERS\MATTHEW MCCOMB\DOCUMENTS\GITHUB\POVRAY\SOURCE\CORE\SHAPE\TORUS.CPP|C:\USERS\MATTHEW MCCOMB\DOCUMENTS\GITHUB\POVRAY\SOURCE\CORE\SHAPE\TRIANGLE.CPP|C:\USERS\MATTHEW MCCOMB\DOCUMENTS\GITHUB\POVRAY\SOURCE\CORE\SHAPE\TRUETYPE.CPP|C:\USERS\MATTHEW MCCOMB\DOCUMENTS\GITHUB\POVRAY\SOURCE\CORE\SUPPORT\IMAGEUTIL.CPP|C:\USERS\MATTHEW MCCOMB\DOCUMENTS\GITHUB\POVRAY\SOURCE\CORE\SUPPORT\OCTREE.CPP|C:\USERS\MATTHEW MCCOMB\DOCUMENTS\GITHUB\POVRAY\SOURCE\CORE\SUPPORT\STATISTICIDS.CPP|C:\USERS\MATTHEW MCCOMB\DOCUMENTS\GITHUB\POVRAY\SOURCE\CORE\SUPPORT\STATISTICS.CPP
C:\USERS\MATTHEW MCCOMB\DOCUMENTS\GITHUB\POVRAY\WINDOWS\VS2015\BUILD\POVCORE\WIN32\RELEASE\POVCORE.PDB
C:\USERS\MATTHEW MCCOMB\DOCUMENTS\GITHUB\POVRAY\WINDOWS\VS2015\BUILD\POVCORE\WIN32\RELEASE\BOUNDING.SBR
C:\USERS\MATTHEW MCCOMB\DOCUMENTS\GITHUB\POVRAY\WINDOWS\VS2015\BUILD\POVCORE\WIN32\RELEASE\BOUNDINGBOX.SBR
C:\USERS\MATTHEW MCCOMB\DOCUMENTS\GITHUB\POVRAY\WINDOWS\VS2015\BUILD\POVCORE\WIN32\RELEASE\BOUNDINGCYLINDER.SBR
C:\USERS\MATTHEW MCCOMB\DOCUMENTS\GITHUB\POVRAY\WINDOWS\VS2015\BUILD\POVCORE\WIN32\RELEASE\BOUNDINGSPHERE.SBR
C:\USERS\MATTHEW MCCOMB\DOCUMENTS\GITHUB\POVRAY\WINDOWS\VS2015\BUILD\POVCORE\WIN32\RELEASE\BSPTREE.SBR
C:\USERS\MATTHEW MCCOMB\DOCUMENTS\GITHUB\POVRAY\WINDOWS\VS2015\BUILD\POVCORE\WIN32\RELEASE\SPECTRAL.SBR
C:\USERS\MATTHEW MCCOMB\DOCUMENTS\GITHUB\POVRAY\WINDOWS\VS2015\BUILD\POVCORE\WIN32\RELEASE\LIGHTGROUP.SBR
C:\USERS\MATTHEW MCCOMB\DOCUMENTS\GITHUB\POVRAY\WINDOWS\VS2015\BUILD\POVCORE\WIN32\RELEASE\LIGHTSOURCE.SBR
C:\USERS\MATTHEW MCCOMB\DOCUMENTS\GITHUB\POVRAY\WINDOWS\VS2015\BUILD\POVCORE\WIN32\RELEASE\PHOTONS.SBR
C:\USERS\MATTHEW MCCOMB\DOCUMENTS\GITHUB\POVRAY\WINDOWS\VS2015\BUILD\POVCORE\WIN32\RELEASE\RADIOSITY.SBR
C:\USERS\MATTHEW MCCOMB\DOCUMENTS\GITHUB\POVRAY\WINDOWS\VS2015\BUILD\POVCORE\WIN32\RELEASE\SUBSURFACE.SBR
C:\USERS\MATTHEW MCCOMB\DOCUMENTS\GITHUB\POVRAY\WINDOWS\VS2015\BUILD\POVCORE\WIN32\RELEASE\BLENDMAP.SBR
C:\USERS\MATTHEW MCCOMB\DOCUMENTS\GITHUB\POVRAY\WINDOWS\VS2015\BUILD\POVCORE\WIN32\RELEASE\INTERIOR.SBR
C:\USERS\MATTHEW MCCOMB\DOCUMENTS\GITHUB\POVRAY\WINDOWS\VS2015\BUILD\POVCORE\WIN32\RELEASE\MEDIA.SBR
C:\USERS\MATTHEW MCCOMB\DOCUMENTS\GITHUB\POVRAY\WINDOWS\VS2015\BUILD\POVCORE\WIN32\RELEASE\NOISE.SBR
C:\USERS\MATTHEW MCCOMB\DOCUMENTS\GITHUB\POVRAY\WINDOWS\VS2015\BUILD\POVCORE\WIN32\RELEASE\NORMAL.SBR
C:\USERS\MATTHEW MCCOMB\DOCUMENTS\GITHUB\POVRAY\WINDOWS\VS2015\BUILD\POVCORE\WIN32\RELEASE\PATTERN.SBR
C:\USERS\MATTHEW MCCOMB\DOCUMENTS\GITHUB\POVRAY\WINDOWS\VS2015\BUILD\POVCORE\WIN32\RELEASE\PIGMENT.SBR
C:\USERS\MATTHEW MCCOMB\DOCUMENTS\GITHUB\POVRAY\WINDOWS\VS2015\BUILD\POVCORE\WIN32\RELEASE\PORTABLENOISE.SBR
C:\USERS\MATTHEW MCCOMB\DOCUMENTS\GITHUB\POVRAY\WINDOWS\VS2015\BUILD\POVCORE\WIN32\RELEASE\TEXTURE.SBR
C:\USERS\MATTHEW MCCOMB\DOCUMENTS\GITHUB\POVRAY\WINDOWS\VS2015\BUILD\POVCORE\WIN32\RELEASE\TEXTURE.OBJ
C:\USERS\MATTHEW MCCOMB\DOCUMENTS\GITHUB\POVRAY\WINDOWS\VS2015\BUILD\POVCORE\WIN32\RELEASE\PORTABLENOISE.OBJ
C:\USERS\MATTHEW MCCOMB\DOCUMENTS\GITHUB\POVRAY\WINDOWS\VS2015\BUILD\POVCORE\WIN32\RELEASE\PIGMENT.OBJ
C:\USERS\MATTHEW MCCOMB\DOCUMENTS\GITHUB\POVRAY\WINDOWS\VS2015\BUILD\POVCORE\WIN32\RELEASE\PATTERN.OBJ
C:\USERS\MATTHEW MCCOMB\DOCUMENTS\GITHUB\POVRAY\WINDOWS\VS2015\BUILD\POVCORE\WIN32\RELEASE\NORMAL.OBJ
C:\USERS\MATTHEW MCCOMB\DOCUMENTS\GITHUB\POVRAY\WINDOWS\VS2015\BUILD\POVCORE\WIN32\RELEASE\NOISE.OBJ
C:\USERS\MATTHEW MCCOMB\DOCUMENTS\GITHUB\POVRAY\WINDOWS\VS2015\BUILD\POVCORE\WIN32\RELEASE\MEDIA.OBJ
C:\USERS\MATTHEW MCCOMB\DOCUMENTS\GITHUB\POVRAY\WINDOWS\VS2015\BUILD\POVCORE\WIN32\RELEASE\INTERIOR.OBJ
C:\USERS\MATTHEW MCCOMB\DOCUMENTS\GITHUB\POVRAY\WINDOWS\VS2015\BUILD\POVCORE\WIN32\RELEASE\BLENDMAP.OBJ
C:\USERS\MATTHEW MCCOMB\DOCUMENTS\GITHUB\POVRAY\WINDOWS\VS2015\BUILD\POVCORE\WIN32\RELEASE\SUBSURFACE.OBJ
C:\USERS\MATTHEW MCCOMB\DOCUMENTS\GITHUB\POVRAY\WINDOWS\VS2015\BUILD\POVCORE\WIN32\RELEASE\RADIOSITY.OBJ
C:\USERS\MATTHEW MCCOMB\DOCUMENTS\GITHUB\POVRAY\WINDOWS\VS2015\BUILD\POVCORE\WIN32\RELEASE\PHOTONS.OBJ
C:\USERS\MATTHEW MCCOMB\DOCUMENTS\GITHUB\POVRAY\WINDOWS\VS2015\BUILD\POVCORE\WIN32\RELEASE\LIGHTSOURCE.OBJ
C:\USERS\MATTHEW MCCOMB\DOCUMENTS\GITHUB\POVRAY\WINDOWS\VS2015\BUILD\POVCORE\WIN32\RELEASE\LIGHTGROUP.OBJ
C:\USERS\MATTHEW MCCOMB\DOCUMENTS\GITHUB\POVRAY\WINDOWS\VS2015\BUILD\POVCORE\WIN32\RELEASE\SPECTRAL.OBJ
C:\USERS\MATTHEW MCCOMB\DOCUMENTS\GITHUB\POVRAY\WINDOWS\VS2015\BUILD\POVCORE\WIN32\RELEASE\BSPTREE.OBJ
C:\USERS\MATTHEW MCCOMB\DOCUMENTS\GITHUB\POVRAY\WINDOWS\VS2015\BUILD\POVCORE\WIN32\RELEASE\BOUNDINGSPHERE.OBJ
C:\USERS\MATTHEW MCCOMB\DOCUMENTS\GITHUB\POVRAY\WINDOWS\VS2015\BUILD\POVCORE\WIN32\RELEASE\BOUNDINGCYLINDER.OBJ
C:\USERS\MATTHEW MCCOMB\DOCUMENTS\GITHUB\POVRAY\WINDOWS\VS2015\BUILD\POVCORE\WIN32\RELEASE\BOUNDINGBOX.OBJ
C:\USERS\MATTHEW MCCOMB\DOCUMENTS\GITHUB\POVRAY\WINDOWS\VS2015\BUILD\POVCORE\WIN32\RELEASE\BOUNDING.OBJ
C:\USERS\MATTHEW MCCOMB\DOCUMENTS\GITHUB\POVRAY\WINDOWS\VS2015\BUILD\POVCORE\WIN32\RELEASE\WARP.SBR
C:\USERS\MATTHEW MCCOMB\DOCUMENTS\GITHUB\POVRAY\WINDOWS\VS2015\BUILD\POVCORE\WIN32\RELEASE\CHI2.SBR
C:\USERS\MATTHEW MCCOMB\DOCUMENTS\GITHUB\POVRAY\WINDOWS\VS2015\BUILD\POVCORE\WIN32\RELEASE\HYPERCOMPLEX.SBR
C:\USERS\MATTHEW MCCOMB\DOCUMENTS\GITHUB\POVRAY\WINDOWS\VS2015\BUILD\POVCORE\WIN32\RELEASE\JITTER.SBR
C:\USERS\MATTHEW MCCOMB\DOCUMENTS\GITHUB\POVRAY\WINDOWS\VS2015\BUILD\POVCORE\WIN32\RELEASE\MATRIX.SBR
C:\USERS\MATTHEW MCCOMB\DOCUMENTS\GITHUB\POVRAY\WINDOWS\VS2015\BUILD\POVCORE\WIN32\RELEASE\POLYNOMIALSOLVER.SBR
C:\USERS\MATTHEW MCCOMB\DOCUMENTS\GITHUB\POVRAY\WINDOWS\VS2015\BUILD\POVCORE\WIN32\RELEASE\QUATERNION.SBR
C:\USERS\MATTHEW MCCOMB\DOCUMENTS\GITHUB\POVRAY\WINDOWS\VS2015\BUILD\POVCORE\WIN32\RELEASE\RANDCOSWEIGHTED.SBR
C:\USERS\MATTHEW MCCOMB\DOCUMENTS\GITHUB\POVRAY\WINDOWS\VS2015\BUILD\POVCORE\WIN32\RELEASE\RANDOMSEQUENCE.SBR
C:\USERS\MATTHEW MCCOMB\DOCUMENTS\GITHUB\POVRAY\WINDOWS\VS2015\BUILD\POVCORE\WIN32\RELEASE\SPLINE.SBR
C:\USERS\MATTHEW MCCOMB\DOCUMENTS\GITHUB\POVRAY\WINDOWS\VS2015\BUILD\POVCORE\WIN32\RELEASE\RAY.SBR
C:\USERS\MATTHEW MCCOMB\DOCUMENTS\GITHUB\POVRAY\WINDOWS\VS2015\BUILD\POVCORE\WIN32\RELEASE\TRACE.SBR
C:\USERS\MATTHEW MCCOMB\DOCUMENTS\GITHUB\POVRAY\WINDOWS\VS2015\BUILD\POVCORE\WIN32\RELEASE\TRACEPIXEL.SBR
C:\USERS\MATTHEW MCCOMB\DOCUMENTS\GITHUB\POVRAY\WINDOWS\VS2015\BUILD\POVCORE\WIN32\RELEASE\ATMOSPHERE.SBR
C:\USERS\MATTHEW MCCOMB\DOCUMENTS\GITHUB\POVRAY\WINDOWS\VS2015\BUILD\POVCORE\WIN32\RELEASE\CAMERA.SBR
C:\USERS\MATTHEW MCCOMB\DOCUMENTS\GITHUB\POVRAY\WINDOWS\VS2015\BUILD\POVCORE\WIN32\RELEASE\OBJECT.SBR
C:\USERS\MATTHEW MCCOMB\DOCUMENTS\GITHUB\POVRAY\WINDOWS\VS2015\BUILD\POVCORE\WIN32\RELEASE\SCENEDATA.SBR
C:\USERS\MATTHEW MCCOMB\DOCUMENTS\GITHUB\POVRAY\WINDOWS\VS2015\BUILD\POVCORE\WIN32\RELEASE\TRACETHREADDATA.SBR
C:\USERS\MATTHEW MCCOMB\DOCUMENTS\GITHUB\POVRAY\WINDOWS\VS2015\BUILD\POVCORE\WIN32\RELEASE\BEZIER.SBR
C:\USERS\MATTHEW MCCOMB\DOCUMENTS\GITHUB\POVRAY\WINDOWS\VS2015\BUILD\POVCORE\WIN32\RELEASE\BLOB.SBR
C:\USERS\MATTHEW MCCOMB\DOCUMENTS\GITHUB\POVRAY\WINDOWS\VS2015\BUILD\POVCORE\WIN32\RELEASE\BLOB.OBJ
C:\USERS\MATTHEW MCCOMB\DOCUMENTS\GITHUB\POVRAY\WINDOWS\VS2015\BUILD\POVCORE\WIN32\RELEASE\BEZIER.OBJ
C:\USERS\MATTHEW MCCOMB\DOCUMENTS\GITHUB\POVRAY\WINDOWS\VS2015\BUILD\POVCORE\WIN32\RELEASE\TRACETHREADDATA.OBJ
C:\USERS\MATTHEW MCCOMB\DOCUMENTS\GITHUB\POVRAY\WINDOWS\VS2015\BUILD\POVCORE\WIN32\RELEASE\SCENEDATA.OBJ
C:\USERS\MATTHEW MCCOMB\DOCUMENTS\GITHUB\POVRAY\WINDOWS\VS2015\BUILD\POVCORE\WIN32\RELEASE\OBJECT.OBJ
C:\USERS\MATTHEW MCCOMB\DOCUMENTS\GITHUB\POVRAY\WINDOWS\VS2015\BUILD\POVCORE\WIN32\RELEASE\CAMERA.OBJ
C:\USERS\MATTHEW MCCOMB\DOCUMENTS\GITHUB\POVRAY\WINDOWS\VS2015\BUILD\POVCORE\WIN32\RELEASE\ATMOSPHERE.OBJ
C:\USERS\MATTHEW MCCOMB\DOCUMENTS\GITHUB\POVRAY\WINDOWS\VS2015\BUILD\POVCORE\WIN32\RELEASE\TRACEPIXEL.OBJ
C:\USERS\MATTHEW MCCOMB\DOCUMENTS\GITHUB\POVRAY\WINDOWS\VS2015\BUILD\POVCORE\WIN32\RELEASE\TRACE.OBJ
C:\USERS\MATTHEW MCCOMB\DOCUMENTS\GITHUB\POVRAY\WINDOWS\VS2015\BUILD\POVCORE\WIN32\RELEASE\RAY.OBJ
C:\USERS\MATTHEW MCCOMB\DOCUMENTS\GITHUB\POVRAY\WINDOWS\VS2015\BUILD\POVCORE\WIN32\RELEASE\SPLINE.OBJ
C:\USERS\MATTHEW MCCOMB\DOCUMENTS\GITHUB\POVRAY\WINDOWS\VS2015\BUILD\POVCORE\WIN32\RELEASE\RANDOMSEQUENCE.OBJ
C:\USERS\MATTHEW MCCOMB\DOCUMENTS\GITHUB\POVRAY\WINDOWS\VS2015\BUILD\POVCORE\WIN32\RELEASE\RANDCOSWEIGHTED.OBJ
C:\USERS\MATTHEW MCCOMB\DOCUMENTS\GITHUB\POVRAY\WINDOWS\VS2015\BUILD\POVCORE\WIN32\RELEASE\QUATERNION.OBJ
C:\USERS\MATTHEW MCCOMB\DOCUMENTS\GITHUB\POVRAY\WINDOWS\VS2015\BUILD\POVCORE\WIN32\RELEASE\POLYNOMIALSOLVER.OBJ
C:\USERS\MATTHEW MCCOMB\DOCUMENTS\GITHUB\POVRAY\WINDOWS\VS2015\BUILD\POVCORE\WIN32\RELEASE\MATRIX.OBJ
C:\USERS\MATTHEW MCCOMB\DOCUMENTS\GITHUB\POVRAY\WINDOWS\VS2015\BUILD\POVCORE\WIN32\RELEASE\JITTER.OBJ
C:\USERS\MATTHEW MCCOMB\DOCUMENTS\GITHUB\POVRAY\WINDOWS\VS2015\BUILD\POVCORE\WIN32\RELEASE\HYPERCOMPLEX.OBJ
C:\USERS\MATTHEW MCCOMB\DOCUMENTS\GITHUB\POVRAY\WINDOWS\VS2015\BUILD\POVCORE\WIN32\RELEASE\CHI2.OBJ
C:\USERS\MATTHEW MCCOMB\DOCUMENTS\GITHUB\POVRAY\WINDOWS\VS2015\BUILD\POVCORE\WIN32\RELEASE\WARP.OBJ
C:\USERS\MATTHEW MCCOMB\DOCUMENTS\GITHUB\POVRAY\WINDOWS\VS2015\BUILD\POVCORE\WIN32\RELEASE\BOX.SBR
C:\USERS\MATTHEW MCCOMB\DOCUMENTS\GITHUB\POVRAY\WINDOWS\VS2015\BUILD\POVCORE\WIN32\RELEASE\CONE.SBR
C:\USERS\MATTHEW MCCOMB\DOCUMENTS\GITHUB\POVRAY\WINDOWS\VS2015\BUILD\POVCORE\WIN32\RELEASE\CSG.SBR
C:\USERS\MATTHEW MCCOMB\DOCUMENTS\GITHUB\POVRAY\WINDOWS\VS2015\BUILD\POVCORE\WIN32\RELEASE\DISC.SBR
C:\USERS\MATTHEW MCCOMB\DOCUMENTS\GITHUB\POVRAY\WINDOWS\VS2015\BUILD\POVCORE\WIN32\RELEASE\FRACTAL.SBR
C:\USERS\MATTHEW MCCOMB\DOCUMENTS\GITHUB\POVRAY\WINDOWS\VS2015\BUILD\POVCORE\WIN32\RELEASE\HEIGHTFIELD.SBR
C:\USERS\MATTHEW MCCOMB\DOCUMENTS\GITHUB\POVRAY\WINDOWS\VS2015\BUILD\POVCORE\WIN32\RELEASE\ISOSURFACE.SBR
C:\USERS\MATTHEW MCCOMB\DOCUMENTS\GITHUB\POVRAY\WINDOWS\VS2015\BUILD\POVCORE\WIN32\RELEASE\LATHE.SBR
C:\USERS\MATTHEW MCCOMB\DOCUMENTS\GITHUB\POVRAY\WINDOWS\VS2015\BUILD\POVCORE\WIN32\RELEASE\LEMON.SBR
C:\USERS\MATTHEW MCCOMB\DOCUMENTS\GITHUB\POVRAY\WINDOWS\VS2015\BUILD\POVCORE\WIN32\RELEASE\MESH.SBR
C:\USERS\MATTHEW MCCOMB\DOCUMENTS\GITHUB\POVRAY\WINDOWS\VS2015\BUILD\POVCORE\WIN32\RELEASE\OVUS.SBR
C:\USERS\MATTHEW MCCOMB\DOCUMENTS\GITHUB\POVRAY\WINDOWS\VS2015\BUILD\POVCORE\WIN32\RELEASE\PARAMETRIC.SBR
C:\USERS\MATTHEW MCCOMB\DOCUMENTS\GITHUB\POVRAY\WINDOWS\VS2015\BUILD\POVCORE\WIN32\RELEASE\PLANE.SBR
C:\USERS\MATTHEW MCCOMB\DOCUMENTS\GITHUB\POVRAY\WINDOWS\VS2015\BUILD\POVCORE\WIN32\RELEASE\POLYGON.SBR
C:\USERS\MATTHEW MCCOMB\DOCUMENTS\GITHUB\POVRAY\WINDOWS\VS2015\BUILD\POVCORE\WIN32\RELEASE\POLYNOMIAL.SBR
C:\USERS\MATTHEW MCCOMB\DOCUMENTS\GITHUB\POVRAY\WINDOWS\VS2015\BUILD\POVCORE\WIN32\RELEASE\PRISM.SBR
C:\USERS\MATTHEW MCCOMB\DOCUMENTS\GITHUB\POVRAY\WINDOWS\VS2015\BUILD\POVCORE\WIN32\RELEASE\QUADRIC.SBR
C:\USERS\MATTHEW MCCOMB\DOCUMENTS\GITHUB\POVRAY\WINDOWS\VS2015\BUILD\POVCORE\WIN32\RELEASE\SOR.SBR
C:\USERS\MATTHEW MCCOMB\DOCUMENTS\GITHUB\POVRAY\WINDOWS\VS2015\BUILD\POVCORE\WIN32\RELEASE\SPHERE.SBR
C:\USERS\MATTHEW MCCOMB\DOCUMENTS\GITHUB\POVRAY\WINDOWS\VS2015\BUILD\POVCORE\WIN32\RELEASE\SPHERESWEEP.SBR
C:\USERS\MATTHEW MCCOMB\DOCUMENTS\GITHUB\POVRAY\WINDOWS\VS2015\BUILD\POVCORE\WIN32\RELEASE\SPHERESWEEP.OBJ
C:\USERS\MATTHEW MCCOMB\DOCUMENTS\GITHUB\POVRAY\WINDOWS\VS2015\BUILD\POVCORE\WIN32\RELEASE\SPHERE.OBJ
C:\USERS\MATTHEW MCCOMB\DOCUMENTS\GITHUB\POVRAY\WINDOWS\VS2015\BUILD\POVCORE\WIN32\RELEASE\SOR.OBJ
C:\USERS\MATTHEW MCCOMB\DOCUMENTS\GITHUB\POVRAY\WINDOWS\VS2015\BUILD\POVCORE\WIN32\RELEASE\QUADRIC.OBJ
C:\USERS\MATTHEW MCCOMB\DOCUMENTS\GITHUB\POVRAY\WINDOWS\VS2015\BUILD\POVCORE\WIN32\RELEASE\PRISM.OBJ
C:\USERS\MATTHEW MCCOMB\DOCUMENTS\GITHUB\POVRAY\WINDOWS\VS2015\BUILD\POVCORE\WIN32\RELEASE\POLYNOMIAL.OBJ
C:\USERS\MATTHEW MCCOMB\DOCUMENTS\GITHUB\POVRAY\WINDOWS\VS2015\BUILD\POVCORE\WIN32\RELEASE\POLYGON.OBJ
C:\USERS\MATTHEW MCCOMB\DOCUMENTS\GITHUB\POVRAY\WINDOWS\VS2015\BUILD\POVCORE\WIN32\RELEASE\PLANE.OBJ
C:\USERS\MATTHEW MCCOMB\DOCUMENTS\GITHUB\POVRAY\WINDOWS\VS2015\BUILD\POVCORE\WIN32\RELEASE\PARAMETRIC.OBJ
C:\USERS\MATTHEW MCCOMB\DOCUMENTS\GITHUB\POVRAY\WINDOWS\VS2015\BUILD\POVCORE\WIN32\RELEASE\OVUS.OBJ
C:\USERS\MATTHEW MCCOMB\DOCUMENTS\GITHUB\POVRAY\WINDOWS\VS2015\BUILD\POVCORE\WIN32\RELEASE\MESH.OBJ
C:\USERS\MATTHEW MCCOMB\DOCUMENTS\GITHUB\POVRAY\WINDOWS\VS2015\BUILD\POVCORE\WIN32\RELEASE\LEMON.OBJ
C:\USERS\MATTHEW MCCOMB\DOCUMENTS\GITHUB\POVRAY\WINDOWS\VS2015\BUILD\POVCORE\WIN32\RELEASE\LATHE.OBJ
C:\USERS\MATTHEW MCCOMB\DOCUMENTS\GITHUB\POVRAY\WINDOWS\VS2015\BUILD\POVCORE\WIN32\RELEASE\ISOSURFACE.OBJ
C:\USERS\MATTHEW MCCOMB\DOCUMENTS\GITHUB\POVRAY\WINDOWS\VS2015\BUILD\POVCORE\WIN32\RELEASE\HEIGHTFIELD.OBJ
C:\USERS\MATTHEW MCCOMB\DOCUMENTS\GITHUB\POVRAY\WINDOWS\VS2015\BUILD\POVCORE\WIN32\RELEASE\FRACTAL.OBJ
C:\USERS\MATTHEW MCCOMB\DOCUMENTS\GITHUB\POVRAY\WINDOWS\VS2015\BUILD\POVCORE\WIN32\RELEASE\DISC.OBJ
C:\USERS\MATTHEW MCCOMB\DOCUMENTS\GITHUB\POVRAY\WINDOWS\VS2015\BUILD\POVCORE\WIN32\RELEASE\CSG.OBJ
C:\USERS\MATTHEW MCCOMB\DOCUMENTS\GITHUB\POVRAY\WINDOWS\VS2015\BUILD\POVCORE\WIN32\RELEASE\CONE.OBJ
C:\USERS\MATTHEW MCCOMB\DOCUMENTS\GITHUB\POVRAY\WINDOWS\VS2015\BUILD\POVCORE\WIN32\RELEASE\BOX.OBJ
C:\USERS\MATTHEW MCCOMB\DOCUMENTS\GITHUB\POVRAY\WINDOWS\VS2015\BUILD\POVCORE\WIN32\RELEASE\SUPERELLIPSOID.SBR
C:\USERS\MATTHEW MCCOMB\DOCUMENTS\GITHUB\POVRAY\WINDOWS\VS2015\BUILD\POVCORE\WIN32\RELEASE\TORUS.SBR
C:\USERS\MATTHEW MCCOMB\DOCUMENTS\GITHUB\POVRAY\WINDOWS\VS2015\BUILD\POVCORE\WIN32\RELEASE\TRIANGLE.SBR
C:\USERS\MATTHEW MCCOMB\DOCUMENTS\GITHUB\POVRAY\WINDOWS\VS2015\BUILD\POVCORE\WIN32\RELEASE\TRUETYPE.SBR
C:\USERS\MATTHEW MCCOMB\DOCUMENTS\GITHUB\POVRAY\WINDOWS\VS2015\BUILD\POVCORE\WIN32\RELEASE\IMAGEUTIL.SBR
C:\USERS\MATTHEW MCCOMB\DOCUMENTS\GITHUB\POVRAY\WINDOWS\VS2015\BUILD\POVCORE\WIN32\RELEASE\OCTREE.SBR
C:\USERS\MATTHEW MCCOMB\DOCUMENTS\GITHUB\POVRAY\WINDOWS\VS2015\BUILD\POVCORE\WIN32\RELEASE\STATISTICIDS.SBR
C:\USERS\MATTHEW MCCOMB\DOCUMENTS\GITHUB\POVRAY\WINDOWS\VS2015\BUILD\POVCORE\WIN32\RELEASE\STATISTICS.SBR
C:\USERS\MATTHEW MCCOMB\DOCUMENTS\GITHUB\POVRAY\WINDOWS\VS2015\BUILD\POVCORE\WIN32\RELEASE\STATISTICS.OBJ
C:\USERS\MATTHEW MCCOMB\DOCUMENTS\GITHUB\POVRAY\WINDOWS\VS2015\BUILD\POVCORE\WIN32\RELEASE\STATISTICIDS.OBJ
C:\USERS\MATTHEW MCCOMB\DOCUMENTS\GITHUB\POVRAY\WINDOWS\VS2015\BUILD\POVCORE\WIN32\RELEASE\OCTREE.OBJ
C:\USERS\MATTHEW MCCOMB\DOCUMENTS\GITHUB\POVRAY\WINDOWS\VS2015\BUILD\POVCORE\WIN32\RELEASE\IMAGEUTIL.OBJ
C:\USERS\MATTHEW MCCOMB\DOCUMENTS\GITHUB\POVRAY\WINDOWS\VS2015\BUILD\POVCORE\WIN32\RELEASE\TRUETYPE.OBJ
C:\USERS\MATTHEW MCCOMB\DOCUMENTS\GITHUB\POVRAY\WINDOWS\VS2015\BUILD\POVCORE\WIN32\RELEASE\TRIANGLE.OBJ
C:\USERS\MATTHEW MCCOMB\DOCUMENTS\GITHUB\POVRAY\WINDOWS\VS2015\BUILD\POVCORE\WIN32\RELEASE\TORUS.OBJ
C:\USERS\MATTHEW MCCOMB\DOCUMENTS\GITHUB\POVRAY\WINDOWS\VS2015\BUILD\POVCORE\WIN32\RELEASE\SUPERELLIPSOID.OBJ
^C:\USERS\MATTHEW MCCOMB\DOCUMENTS\GITHUB\POVRAY\SOURCE\CORE\BOUNDING\BOUNDING.CPP
C:\USERS\MATTHEW MCCOMB\DOCUMENTS\GITHUB\POVRAY\WINDOWS\VS2015\BUILD\POVCORE\WIN32\RELEASE\POVCORE.PDB
^C:\USERS\MATTHEW MCCOMB\DOCUMENTS\GITHUB\POVRAY\SOURCE\CORE\BOUNDING\BOUNDINGBOX.CPP
C:\USERS\MATTHEW MCCOMB\DOCUMENTS\GITHUB\POVRAY\WINDOWS\VS2015\BUILD\POVCORE\WIN32\RELEASE\POVCORE.PDB
^C:\USERS\MATTHEW MCCOMB\DOCUMENTS\GITHUB\POVRAY\SOURCE\CORE\BOUNDING\BOUNDINGCYLINDER.CPP
C:\USERS\MATTHEW MCCOMB\DOCUMENTS\GITHUB\POVRAY\WINDOWS\VS2015\BUILD\POVCORE\WIN32\RELEASE\POVCORE.PDB
^C:\USERS\MATTHEW MCCOMB\DOCUMENTS\GITHUB\POVRAY\SOURCE\CORE\BOUNDING\BOUNDINGSPHERE.CPP
C:\USERS\MATTHEW MCCOMB\DOCUMENTS\GITHUB\POVRAY\WINDOWS\VS2015\BUILD\POVCORE\WIN32\RELEASE\POVCORE.PDB
^C:\USERS\MATTHEW MCCOMB\DOCUMENTS\GITHUB\POVRAY\SOURCE\CORE\BOUNDING\BSPTREE.CPP
C:\USERS\MATTHEW MCCOMB\DOCUMENTS\GITHUB\POVRAY\WINDOWS\VS2015\BUILD\POVCORE\WIN32\RELEASE\POVCORE.PDB
^C:\USERS\MATTHEW MCCOMB\DOCUMENTS\GITHUB\POVRAY\SOURCE\CORE\COLOUR\SPECTRAL.CPP
C:\USERS\MATTHEW MCCOMB\DOCUMENTS\GITHUB\POVRAY\WINDOWS\VS2015\BUILD\POVCORE\WIN32\RELEASE\POVCORE.PDB
^C:\USERS\MATTHEW MCCOMB\DOCUMENTS\GITHUB\POVRAY\SOURCE\CORE\LIGHTING\LIGHTGROUP.CPP
C:\USERS\MATTHEW MCCOMB\DOCUMENTS\GITHUB\POVRAY\WINDOWS\VS2015\BUILD\POVCORE\WIN32\RELEASE\POVCORE.PDB
^C:\USERS\MATTHEW MCCOMB\DOCUMENTS\GITHUB\POVRAY\SOURCE\CORE\LIGHTING\LIGHTSOURCE.CPP
C:\USERS\MATTHEW MCCOMB\DOCUMENTS\GITHUB\POVRAY\WINDOWS\VS2015\BUILD\POVCORE\WIN32\RELEASE\POVCORE.PDB
^C:\USERS\MATTHEW MCCOMB\DOCUMENTS\GITHUB\POVRAY\SOURCE\CORE\LIGHTING\PHOTONS.CPP
C:\USERS\MATTHEW MCCOMB\DOCUMENTS\GITHUB\POVRAY\WINDOWS\VS2015\BUILD\POVCORE\WIN32\RELEASE\POVCORE.PDB
^C:\USERS\MATTHEW MCCOMB\DOCUMENTS\GITHUB\POVRAY\SOURCE\CORE\LIGHTING\RADIOSITY.CPP
C:\USERS\MATTHEW MCCOMB\DOCUMENTS\GITHUB\POVRAY\WINDOWS\VS2015\BUILD\POVCORE\WIN32\RELEASE\POVCORE.PDB
^C:\USERS\MATTHEW MCCOMB\DOCUMENTS\GITHUB\POVRAY\SOURCE\CORE\LIGHTING\SUBSURFACE.CPP
C:\USERS\MATTHEW MCCOMB\DOCUMENTS\GITHUB\POVRAY\WINDOWS\VS2015\BUILD\POVCORE\WIN32\RELEASE\POVCORE.PDB
^C:\USERS\MATTHEW MCCOMB\DOCUMENTS\GITHUB\POVRAY\SOURCE\CORE\MATERIAL\BLENDMAP.CPP
C:\USERS\MATTHEW MCCOMB\DOCUMENTS\GITHUB\POVRAY\WINDOWS\VS2015\BUILD\POVCORE\WIN32\RELEASE\POVCORE.PDB
^C:\USERS\MATTHEW MCCOMB\DOCUMENTS\GITHUB\POVRAY\SOURCE\CORE\MATERIAL\INTERIOR.CPP
C:\USERS\MATTHEW MCCOMB\DOCUMENTS\GITHUB\POVRAY\WINDOWS\VS2015\BUILD\POVCORE\WIN32\RELEASE\POVCORE.PDB
^C:\USERS\MATTHEW MCCOMB\DOCUMENTS\GITHUB\POVRAY\SOURCE\CORE\MATERIAL\MEDIA.CPP
C:\USERS\MATTHEW MCCOMB\DOCUMENTS\GITHUB\POVRAY\WINDOWS\VS2015\BUILD\POVCORE\WIN32\RELEASE\POVCORE.PDB
^C:\USERS\MATTHEW MCCOMB\DOCUMENTS\GITHUB\POVRAY\SOURCE\CORE\MATERIAL\NOISE.CPP
C:\USERS\MATTHEW MCCOMB\DOCUMENTS\GITHUB\POVRAY\WINDOWS\VS2015\BUILD\POVCORE\WIN32\RELEASE\POVCORE.PDB
^C:\USERS\MATTHEW MCCOMB\DOCUMENTS\GITHUB\POVRAY\SOURCE\CORE\MATERIAL\NORMAL.CPP
C:\USERS\MATTHEW MCCOMB\DOCUMENTS\GITHUB\POVRAY\WINDOWS\VS2015\BUILD\POVCORE\WIN32\RELEASE\POVCORE.PDB
^C:\USERS\MATTHEW MCCOMB\DOCUMENTS\GITHUB\POVRAY\SOURCE\CORE\MATERIAL\PATTERN.CPP
C:\USERS\MATTHEW MCCOMB\DOCUMENTS\GITHUB\POVRAY\WINDOWS\VS2015\BUILD\POVCORE\WIN32\RELEASE\POVCORE.PDB
^C:\USERS\MATTHEW MCCOMB\DOCUMENTS\GITHUB\POVRAY\SOURCE\CORE\MATERIAL\PIGMENT.CPP
C:\USERS\MATTHEW MCCOMB\DOCUMENTS\GITHUB\POVRAY\WINDOWS\VS2015\BUILD\POVCORE\WIN32\RELEASE\POVCORE.PDB
^C:\USERS\MATTHEW MCCOMB\DOCUMENTS\GITHUB\POVRAY\SOURCE\CORE\MATERIAL\PORTABLENOISE.CPP
C:\USERS\MATTHEW MCCOMB\DOCUMENTS\GITHUB\POVRAY\WINDOWS\VS2015\BUILD\POVCORE\WIN32\RELEASE\POVCORE.PDB
^C:\USERS\MATTHEW MCCOMB\DOCUMENTS\GITHUB\POVRAY\SOURCE\CORE\MATERIAL\TEXTURE.CPP
C:\USERS\MATTHEW MCCOMB\DOCUMENTS\GITHUB\POVRAY\WINDOWS\VS2015\BUILD\POVCORE\WIN32\RELEASE\POVCORE.PDB
^C:\USERS\MATTHEW MCCOMB\DOCUMENTS\GITHUB\POVRAY\SOURCE\CORE\MATERIAL\WARP.CPP
C:\USERS\MATTHEW MCCOMB\DOCUMENTS\GITHUB\POVRAY\WINDOWS\VS2015\BUILD\POVCORE\WIN32\RELEASE\POVCORE.PDB
^C:\USERS\MATTHEW MCCOMB\DOCUMENTS\GITHUB\POVRAY\SOURCE\CORE\MATH\CHI2.CPP
C:\USERS\MATTHEW MCCOMB\DOCUMENTS\GITHUB\POVRAY\WINDOWS\VS2015\BUILD\POVCORE\WIN32\RELEASE\POVCORE.PDB
^C:\USERS\MATTHEW MCCOMB\DOCUMENTS\GITHUB\POVRAY\SOURCE\CORE\MATH\HYPERCOMPLEX.CPP
C:\USERS\MATTHEW MCCOMB\DOCUMENTS\GITHUB\POVRAY\WINDOWS\VS2015\BUILD\POVCORE\WIN32\RELEASE\POVCORE.PDB
^C:\USERS\MATTHEW MCCOMB\DOCUMENTS\GITHUB\POVRAY\SOURCE\CORE\MATH\JITTER.CPP
C:\USERS\MATTHEW MCCOMB\DOCUMENTS\GITHUB\POVRAY\WINDOWS\VS2015\BUILD\POVCORE\WIN32\RELEASE\POVCORE.PDB
^C:\USERS\MATTHEW MCCOMB\DOCUMENTS\GITHUB\POVRAY\SOURCE\CORE\MATH\MATRIX.CPP
C:\USERS\MATTHEW MCCOMB\DOCUMENTS\GITHUB\POVRAY\WINDOWS\VS2015\BUILD\POVCORE\WIN32\RELEASE\POVCORE.PDB
^C:\USERS\MATTHEW MCCOMB\DOCUMENTS\GITHUB\POVRAY\SOURCE\CORE\MATH\POLYNOMIALSOLVER.CPP
C:\USERS\MATTHEW MCCOMB\DOCUMENTS\GITHUB\POVRAY\WINDOWS\VS2015\BUILD\POVCORE\WIN32\RELEASE\POVCORE.PDB
^C:\USERS\MATTHEW MCCOMB\DOCUMENTS\GITHUB\POVRAY\SOURCE\CORE\MATH\QUATERNION.CPP
C:\USERS\MATTHEW MCCOMB\DOCUMENTS\GITHUB\POVRAY\WINDOWS\VS2015\BUILD\POVCORE\WIN32\RELEASE\POVCORE.PDB
^C:\USERS\MATTHEW MCCOMB\DOCUMENTS\GITHUB\POVRAY\SOURCE\CORE\MATH\RANDCOSWEIGHTED.CPP
C:\USERS\MATTHEW MCCOMB\DOCUMENTS\GITHUB\POVRAY\WINDOWS\VS2015\BUILD\POVCORE\WIN32\RELEASE\POVCORE.PDB
^C:\USERS\MATTHEW MCCOMB\DOCUMENTS\GITHUB\POVRAY\SOURCE\CORE\MATH\RANDOMSEQUENCE.CPP
C:\USERS\MATTHEW MCCOMB\DOCUMENTS\GITHUB\POVRAY\WINDOWS\VS2015\BUILD\POVCORE\WIN32\RELEASE\POVCORE.PDB
^C:\USERS\MATTHEW MCCOMB\DOCUMENTS\GITHUB\POVRAY\SOURCE\CORE\MATH\SPLINE.CPP
C:\USERS\MATTHEW MCCOMB\DOCUMENTS\GITHUB\POVRAY\WINDOWS\VS2015\BUILD\POVCORE\WIN32\RELEASE\POVCORE.PDB
^C:\USERS\MATTHEW MCCOMB\DOCUMENTS\GITHUB\POVRAY\SOURCE\CORE\RENDER\RAY.CPP
C:\USERS\MATTHEW MCCOMB\DOCUMENTS\GITHUB\POVRAY\WINDOWS\VS2015\BUILD\POVCORE\WIN32\RELEASE\POVCORE.PDB
^C:\USERS\MATTHEW MCCOMB\DOCUMENTS\GITHUB\POVRAY\SOURCE\CORE\RENDER\TRACE.CPP
C:\USERS\MATTHEW MCCOMB\DOCUMENTS\GITHUB\POVRAY\WINDOWS\VS2015\BUILD\POVCORE\WIN32\RELEASE\POVCORE.PDB
^C:\USERS\MATTHEW MCCOMB\DOCUMENTS\GITHUB\POVRAY\SOURCE\CORE\RENDER\TRACEPIXEL.CPP
C:\USERS\MATTHEW MCCOMB\DOCUMENTS\GITHUB\POVRAY\WINDOWS\VS2015\BUILD\POVCORE\WIN32\RELEASE\POVCORE.PDB
^C:\USERS\MATTHEW MCCOMB\DOCUMENTS\GITHUB\POVRAY\SOURCE\CORE\SCENE\ATMOSPHERE.CPP
C:\USERS\MATTHEW MCCOMB\DOCUMENTS\GITHUB\POVRAY\WINDOWS\VS2015\BUILD\POVCORE\WIN32\RELEASE\POVCORE.PDB
^C:\USERS\MATTHEW MCCOMB\DOCUMENTS\GITHUB\POVRAY\SOURCE\CORE\SCENE\CAMERA.CPP
C:\USERS\MATTHEW MCCOMB\DOCUMENTS\GITHUB\POVRAY\WINDOWS\VS2015\BUILD\POVCORE\WIN32\RELEASE\POVCORE.PDB
^C:\USERS\MATTHEW MCCOMB\DOCUMENTS\GITHUB\POVRAY\SOURCE\CORE\SCENE\OBJECT.CPP
C:\USERS\MATTHEW MCCOMB\DOCUMENTS\GITHUB\POVRAY\WINDOWS\VS2015\BUILD\POVCORE\WIN32\RELEASE\POVCORE.PDB
^C:\USERS\MATTHEW MCCOMB\DOCUMENTS\GITHUB\POVRAY\SOURCE\CORE\SCENE\SCENEDATA.CPP
C:\USERS\MATTHEW MCCOMB\DOCUMENTS\GITHUB\POVRAY\WINDOWS\VS2015\BUILD\POVCORE\WIN32\RELEASE\POVCORE.PDB
^C:\USERS\MATTHEW MCCOMB\DOCUMENTS\GITHUB\POVRAY\SOURCE\CORE\SCENE\TRACETHREADDATA.CPP
C:\USERS\MATTHEW MCCOMB\DOCUMENTS\GITHUB\POVRAY\WINDOWS\VS2015\BUILD\POVCORE\WIN32\RELEASE\POVCORE.PDB
^C:\USERS\MATTHEW MCCOMB\DOCUMENTS\GITHUB\POVRAY\SOURCE\CORE\SHAPE\BEZIER.CPP
C:\USERS\MATTHEW MCCOMB\DOCUMENTS\GITHUB\POVRAY\WINDOWS\VS2015\BUILD\POVCORE\WIN32\RELEASE\POVCORE.PDB
^C:\USERS\MATTHEW MCCOMB\DOCUMENTS\GITHUB\POVRAY\SOURCE\CORE\SHAPE\BLOB.CPP
C:\USERS\MATTHEW MCCOMB\DOCUMENTS\GITHUB\POVRAY\WINDOWS\VS2015\BUILD\POVCORE\WIN32\RELEASE\POVCORE.PDB
^C:\USERS\MATTHEW MCCOMB\DOCUMENTS\GITHUB\POVRAY\SOURCE\CORE\SHAPE\BOX.CPP
C:\USERS\MATTHEW MCCOMB\DOCUMENTS\GITHUB\POVRAY\WINDOWS\VS2015\BUILD\POVCORE\WIN32\RELEASE\POVCORE.PDB
^C:\USERS\MATTHEW MCCOMB\DOCUMENTS\GITHUB\POVRAY\SOURCE\CORE\SHAPE\CONE.CPP
C:\USERS\MATTHEW MCCOMB\DOCUMENTS\GITHUB\POVRAY\WINDOWS\VS2015\BUILD\POVCORE\WIN32\RELEASE\POVCORE.PDB
^C:\USERS\MATTHEW MCCOMB\DOCUMENTS\GITHUB\POVRAY\SOURCE\CORE\SHAPE\CSG.CPP
C:\USERS\MATTHEW MCCOMB\DOCUMENTS\GITHUB\POVRAY\WINDOWS\VS2015\BUILD\POVCORE\WIN32\RELEASE\POVCORE.PDB
^C:\USERS\MATTHEW MCCOMB\DOCUMENTS\GITHUB\POVRAY\SOURCE\CORE\SHAPE\DISC.CPP
C:\USERS\MATTHEW MCCOMB\DOCUMENTS\GITHUB\POVRAY\WINDOWS\VS2015\BUILD\POVCORE\WIN32\RELEASE\POVCORE.PDB
^C:\USERS\MATTHEW MCCOMB\DOCUMENTS\GITHUB\POVRAY\SOURCE\CORE\SHAPE\FRACTAL.CPP
C:\USERS\MATTHEW MCCOMB\DOCUMENTS\GITHUB\POVRAY\WINDOWS\VS2015\BUILD\POVCORE\WIN32\RELEASE\POVCORE.PDB
^C:\USERS\MATTHEW MCCOMB\DOCUMENTS\GITHUB\POVRAY\SOURCE\CORE\SHAPE\HEIGHTFIELD.CPP
C:\USERS\MATTHEW MCCOMB\DOCUMENTS\GITHUB\POVRAY\WINDOWS\VS2015\BUILD\POVCORE\WIN32\RELEASE\POVCORE.PDB
^C:\USERS\MATTHEW MCCOMB\DOCUMENTS\GITHUB\POVRAY\SOURCE\CORE\SHAPE\ISOSURFACE.CPP
C:\USERS\MATTHEW MCCOMB\DOCUMENTS\GITHUB\POVRAY\WINDOWS\VS2015\BUILD\POVCORE\WIN32\RELEASE\POVCORE.PDB
^C:\USERS\MATTHEW MCCOMB\DOCUMENTS\GITHUB\POVRAY\SOURCE\CORE\SHAPE\LATHE.CPP
C:\USERS\MATTHEW MCCOMB\DOCUMENTS\GITHUB\POVRAY\WINDOWS\VS2015\BUILD\POVCORE\WIN32\RELEASE\POVCORE.PDB
^C:\USERS\MATTHEW MCCOMB\DOCUMENTS\GITHUB\POVRAY\SOURCE\CORE\SHAPE\LEMON.CPP
C:\USERS\MATTHEW MCCOMB\DOCUMENTS\GITHUB\POVRAY\WINDOWS\VS2015\BUILD\POVCORE\WIN32\RELEASE\POVCORE.PDB
^C:\USERS\MATTHEW MCCOMB\DOCUMENTS\GITHUB\POVRAY\SOURCE\CORE\SHAPE\MESH.CPP
C:\USERS\MATTHEW MCCOMB\DOCUMENTS\GITHUB\POVRAY\WINDOWS\VS2015\BUILD\POVCORE\WIN32\RELEASE\POVCORE.PDB
^C:\USERS\MATTHEW MCCOMB\DOCUMENTS\GITHUB\POVRAY\SOURCE\CORE\SHAPE\OVUS.CPP
C:\USERS\MATTHEW MCCOMB\DOCUMENTS\GITHUB\POVRAY\WINDOWS\VS2015\BUILD\POVCORE\WIN32\RELEASE\POVCORE.PDB
^C:\USERS\MATTHEW MCCOMB\DOCUMENTS\GITHUB\POVRAY\SOURCE\CORE\SHAPE\PARAMETRIC.CPP
C:\USERS\MATTHEW MCCOMB\DOCUMENTS\GITHUB\POVRAY\WINDOWS\VS2015\BUILD\POVCORE\WIN32\RELEASE\POVCORE.PDB
^C:\USERS\MATTHEW MCCOMB\DOCUMENTS\GITHUB\POVRAY\SOURCE\CORE\SHAPE\PLANE.CPP
C:\USERS\MATTHEW MCCOMB\DOCUMENTS\GITHUB\POVRAY\WINDOWS\VS2015\BUILD\POVCORE\WIN32\RELEASE\POVCORE.PDB
^C:\USERS\MATTHEW MCCOMB\DOCUMENTS\GITHUB\POVRAY\SOURCE\CORE\SHAPE\POLYGON.CPP
C:\USERS\MATTHEW MCCOMB\DOCUMENTS\GITHUB\POVRAY\WINDOWS\VS2015\BUILD\POVCORE\WIN32\RELEASE\POVCORE.PDB
^C:\USERS\MATTHEW MCCOMB\DOCUMENTS\GITHUB\POVRAY\SOURCE\CORE\SHAPE\POLYNOMIAL.CPP
C:\USERS\MATTHEW MCCOMB\DOCUMENTS\GITHUB\POVRAY\WINDOWS\VS2015\BUILD\POVCORE\WIN32\RELEASE\POVCORE.PDB
^C:\USERS\MATTHEW MCCOMB\DOCUMENTS\GITHUB\POVRAY\SOURCE\CORE\SHAPE\PRISM.CPP
C:\USERS\MATTHEW MCCOMB\DOCUMENTS\GITHUB\POVRAY\WINDOWS\VS2015\BUILD\POVCORE\WIN32\RELEASE\POVCORE.PDB
^C:\USERS\MATTHEW MCCOMB\DOCUMENTS\GITHUB\POVRAY\SOURCE\CORE\SHAPE\QUADRIC.CPP
C:\USERS\MATTHEW MCCOMB\DOCUMENTS\GITHUB\POVRAY\WINDOWS\VS2015\BUILD\POVCORE\WIN32\RELEASE\POVCORE.PDB
^C:\USERS\MATTHEW MCCOMB\DOCUMENTS\GITHUB\POVRAY\SOURCE\CORE\SHAPE\SOR.CPP
C:\USERS\MATTHEW MCCOMB\DOCUMENTS\GITHUB\POVRAY\WINDOWS\VS2015\BUILD\POVCORE\WIN32\RELEASE\POVCORE.PDB
^C:\USERS\MATTHEW MCCOMB\DOCUMENTS\GITHUB\POVRAY\SOURCE\CORE\SHAPE\SPHERE.CPP
C:\USERS\MATTHEW MCCOMB\DOCUMENTS\GITHUB\POVRAY\WINDOWS\VS2015\BUILD\POVCORE\WIN32\RELEASE\POVCORE.PDB
^C:\USERS\MATTHEW MCCOMB\DOCUMENTS\GITHUB\POVRAY\SOURCE\CORE\SHAPE\SPHERESWEEP.CPP
C:\USERS\MATTHEW MCCOMB\DOCUMENTS\GITHUB\POVRAY\WINDOWS\VS2015\BUILD\POVCORE\WIN32\RELEASE\POVCORE.PDB
^C:\USERS\MATTHEW MCCOMB\DOCUMENTS\GITHUB\POVRAY\SOURCE\CORE\SHAPE\SUPERELLIPSOID.CPP
C:\USERS\MATTHEW MCCOMB\DOCUMENTS\GITHUB\POVRAY\WINDOWS\VS2015\BUILD\POVCORE\WIN32\RELEASE\POVCORE.PDB
^C:\USERS\MATTHEW MCCOMB\DOCUMENTS\GITHUB\POVRAY\SOURCE\CORE\SHAPE\TORUS.CPP
C:\USERS\MATTHEW MCCOMB\DOCUMENTS\GITHUB\POVRAY\WINDOWS\VS2015\BUILD\POVCORE\WIN32\RELEASE\POVCORE.PDB
^C:\USERS\MATTHEW MCCOMB\DOCUMENTS\GITHUB\POVRAY\SOURCE\CORE\SHAPE\TRIANGLE.CPP
C:\USERS\MATTHEW MCCOMB\DOCUMENTS\GITHUB\POVRAY\WINDOWS\VS2015\BUILD\POVCORE\WIN32\RELEASE\POVCORE.PDB
^C:\USERS\MATTHEW MCCOMB\DOCUMENTS\GITHUB\POVRAY\SOURCE\CORE\SHAPE\TRUETYPE.CPP
C:\USERS\MATTHEW MCCOMB\DOCUMENTS\GITHUB\POVRAY\WINDOWS\VS2015\BUILD\POVCORE\WIN32\RELEASE\POVCORE.PDB
^C:\USERS\MATTHEW MCCOMB\DOCUMENTS\GITHUB\POVRAY\SOURCE\CORE\SUPPORT\IMAGEUTIL.CPP
C:\USERS\MATTHEW MCCOMB\DOCUMENTS\GITHUB\POVRAY\WINDOWS\VS2015\BUILD\POVCORE\WIN32\RELEASE\POVCORE.PDB
^C:\USERS\MATTHEW MCCOMB\DOCUMENTS\GITHUB\POVRAY\SOURCE\CORE\SUPPORT\OCTREE.CPP
C:\USERS\MATTHEW MCCOMB\DOCUMENTS\GITHUB\POVRAY\WINDOWS\VS2015\BUILD\POVCORE\WIN32\RELEASE\POVCORE.PDB
^C:\USERS\MATTHEW MCCOMB\DOCUMENTS\GITHUB\POVRAY\SOURCE\CORE\SUPPORT\STATISTICIDS.CPP
C:\USERS\MATTHEW MCCOMB\DOCUMENTS\GITHUB\POVRAY\WINDOWS\VS2015\BUILD\POVCORE\WIN32\RELEASE\POVCORE.PDB
^C:\USERS\MATTHEW MCCOMB\DOCUMENTS\GITHUB\POVRAY\SOURCE\CORE\SUPPORT\STATISTICS.CPP
C:\USERS\MATTHEW MCCOMB\DOCUMENTS\GITHUB\POVRAY\WINDOWS\VS2015\BUILD\POVCORE\WIN32\RELEASE\POVCORE.PDB
^D:\POV-RAY\POV-RAY SOURCES\NORMAL\POVRAY\SOURCE\CORE\PRECOMP.CPP
D:\POV-RAY\POV-RAY SOURCES\NORMAL\POVRAY\WINDOWS\VS2015\BUILD\POVCORE\WIN32\RELEASE\PRECOMP.PCH
D:\POV-RAY\POV-RAY SOURCES\NORMAL\POVRAY\WINDOWS\VS2015\BUILD\POVCORE\WIN32\RELEASE\POVCORE.PDB
D:\POV-RAY\POV-RAY SOURCES\NORMAL\POVRAY\WINDOWS\VS2015\BUILD\POVCORE\WIN32\RELEASE\PRECOMP.SBR
D:\POV-RAY\POV-RAY SOURCES\NORMAL\POVRAY\WINDOWS\VS2015\BUILD\POVCORE\WIN32\RELEASE\PRECOMP.OBJ
^D:\POV-RAY\POV-RAY SOURCES\NORMAL\POVRAY\SOURCE\CORE\BOUNDING\BOUNDING.CPP|D:\POV-RAY\POV-RAY SOURCES\NORMAL\POVRAY\SOURCE\CORE\BOUNDING\BOUNDINGBOX.CPP|D:\POV-RAY\POV-RAY SOURCES\NORMAL\POVRAY\SOURCE\CORE\BOUNDING\BOUNDINGCYLINDER.CPP|D:\POV-RAY\POV-RAY SOURCES\NORMAL\POVRAY\SOURCE\CORE\BOUNDING\BOUNDINGSPHERE.CPP|D:\POV-RAY\POV-RAY SOURCES\NORMAL\POVRAY\SOURCE\CORE\BOUNDING\BSPTREE.CPP|D:\POV-RAY\POV-RAY SOURCES\NORMAL\POVRAY\SOURCE\CORE\COLOUR\SPECTRAL.CPP|D:\POV-RAY\POV-RAY SOURCES\NORMAL\POVRAY\SOURCE\CORE\LIGHTING\LIGHTGROUP.CPP|D:\POV-RAY\POV-RAY SOURCES\NORMAL\POVRAY\SOURCE\CORE\LIGHTING\LIGHTSOURCE.CPP|D:\POV-RAY\POV-RAY SOURCES\NORMAL\POVRAY\SOURCE\CORE\LIGHTING\PHOTONS.CPP|D:\POV-RAY\POV-RAY SOURCES\NORMAL\POVRAY\SOURCE\CORE\LIGHTING\RADIOSITY.CPP|D:\POV-RAY\POV-RAY SOURCES\NORMAL\POVRAY\SOURCE\CORE\LIGHTING\SUBSURFACE.CPP|D:\POV-RAY\POV-RAY SOURCES\NORMAL\POVRAY\SOURCE\CORE\MATERIAL\BLENDMAP.CPP|D:\POV-RAY\POV-RAY SOURCES\NORMAL\POVRAY\SOURCE\CORE\MATERIAL\INTERIOR.CPP|D:\POV-RAY\POV-RAY SOURCES\NORMAL\POVRAY\SOURCE\CORE\MATERIAL\MEDIA.CPP|D:\POV-RAY\POV-RAY SOURCES\NORMAL\POVRAY\SOURCE\CORE\MATERIAL\NOISE.CPP|D:\POV-RAY\POV-RAY SOURCES\NORMAL\POVRAY\SOURCE\CORE\MATERIAL\NORMAL.CPP|D:\POV-RAY\POV-RAY SOURCES\NORMAL\POVRAY\SOURCE\CORE\MATERIAL\PATTERN.CPP|D:\POV-RAY\POV-RAY SOURCES\NORMAL\POVRAY\SOURCE\CORE\MATERIAL\PIGMENT.CPP|D:\POV-RAY\POV-RAY SOURCES\NORMAL\POVRAY\SOURCE\CORE\MATERIAL\PORTABLENOISE.CPP|D:\POV-RAY\POV-RAY SOURCES\NORMAL\POVRAY\SOURCE\CORE\MATERIAL\TEXTURE.CPP|D:\POV-RAY\POV-RAY SOURCES\NORMAL\POVRAY\SOURCE\CORE\MATERIAL\WARP.CPP|D:\POV-RAY\POV-RAY SOURCES\NORMAL\POVRAY\SOURCE\CORE\MATH\CHI2.CPP|D:\POV-RAY\POV-RAY SOURCES\NORMAL\POVRAY\SOURCE\CORE\MATH\HYPERCOMPLEX.CPP|D:\POV-RAY\POV-RAY SOURCES\NORMAL\POVRAY\SOURCE\CORE\MATH\JITTER.CPP|D:\POV-RAY\POV-RAY SOURCES\NORMAL\POVRAY\SOURCE\CORE\MATH\MATRIX.CPP|D:\POV-RAY\POV-RAY SOURCES\NORMAL\POVRAY\SOURCE\CORE\MATH\POLYNOMIALSOLVER.CPP|D:\POV-RAY\POV-RAY SOURCES\NORMAL\POVRAY\SOURCE\CORE\MATH\QUATERNION.CPP|D:\POV-RAY\POV-RAY SOURCES\NORMAL\POVRAY\SOURCE\CORE\MATH\RANDCOSWEIGHTED.CPP|D:\POV-RAY\POV-RAY SOURCES\NORMAL\POVRAY\SOURCE\CORE\MATH\RANDOMSEQUENCE.CPP|D:\POV-RAY\POV-RAY SOURCES\NORMAL\POVRAY\SOURCE\CORE\MATH\SPLINE.CPP|D:\POV-RAY\POV-RAY SOURCES\NORMAL\POVRAY\SOURCE\CORE\RENDER\RAY.CPP|D:\POV-RAY\POV-RAY SOURCES\NORMAL\POVRAY\SOURCE\CORE\RENDER\TRACE.CPP|D:\POV-RAY\POV-RAY SOURCES\NORMAL\POVRAY\SOURCE\CORE\RENDER\TRACEPIXEL.CPP|D:\POV-RAY\POV-RAY SOURCES\NORMAL\POVRAY\SOURCE\CORE\SCENE\ATMOSPHERE.CPP|D:\POV-RAY\POV-RAY SOURCES\NORMAL\POVRAY\SOURCE\CORE\SCENE\CAMERA.CPP|D:\POV-RAY\POV-RAY SOURCES\NORMAL\POVRAY\SOURCE\CORE\SCENE\OBJECT.CPP|D:\POV-RAY\POV-RAY SOURCES\NORMAL\POVRAY\SOURCE\CORE\SCENE\SCENEDATA.CPP|D:\POV-RAY\POV-RAY SOURCES\NORMAL\POVRAY\SOURCE\CORE\SCENE\TRACETHREADDATA.CPP|D:\POV-RAY\POV-RAY SOURCES\NORMAL\POVRAY\SOURCE\CORE\SHAPE\BEZIER.CPP|D:\POV-RAY\POV-RAY SOURCES\NORMAL\POVRAY\SOURCE\CORE\SHAPE\BLOB.CPP|D:\POV-RAY\POV-RAY SOURCES\NORMAL\POVRAY\SOURCE\CORE\SHAPE\BOX.CPP|D:\POV-RAY\POV-RAY SOURCES\NORMAL\POVRAY\SOURCE\CORE\SHAPE\CONE.CPP|D:\POV-RAY\POV-RAY SOURCES\NORMAL\POVRAY\SOURCE\CORE\SHAPE\CSG.CPP|D:\POV-RAY\POV-RAY SOURCES\NORMAL\POVRAY\SOURCE\CORE\SHAPE\DISC.CPP|D:\POV-RAY\POV-RAY SOURCES\NORMAL\POVRAY\SOURCE\CORE\SHAPE\FRACTAL.CPP|D:\POV-RAY\POV-RAY SOURCES\NORMAL\POVRAY\SOURCE\CORE\SHAPE\HEIGHTFIELD.CPP|D:\POV-RAY\POV-RAY SOURCES\NORMAL\POVRAY\SOURCE\CORE\SHAPE\ISOSURFACE.CPP|D:\POV-RAY\POV-RAY SOURCES\NORMAL\POVRAY\SOURCE\CORE\SHAPE\LATHE.CPP|D:\POV-RAY\POV-RAY SOURCES\NORMAL\POVRAY\SOURCE\CORE\SHAPE\LEMON.CPP|D:\POV-RAY\POV-RAY SOURCES\NORMAL\POVRAY\SOURCE\CORE\SHAPE\MESH.CPP|D:\POV-RAY\POV-RAY SOURCES\NORMAL\POVRAY\SOURCE\CORE\SHAPE\OVUS.CPP|D:\POV-RAY\POV-RAY SOURCES\NORMAL\POVRAY\SOURCE\CORE\SHAPE\PARAMETRIC.CPP|D:\POV-RAY\POV-RAY SOURCES\NORMAL\POVRAY\SOURCE\CORE\SHAPE\PLANE.CPP|D:\POV-RAY\POV-RAY SOURCES\NORMAL\POVRAY\SOURCE\CORE\SHAPE\POLYGON.CPP|D:\POV-RAY\POV-RAY SOURCES\NORMAL\POVRAY\SOURCE\CORE\SHAPE\POLYNOMIAL.CPP|D:\POV-RAY\POV-RAY SOURCES\NORMAL\POVRAY\SOURCE\CORE\SHAPE\PRISM.CPP|D:\POV-RAY\POV-RAY SOURCES\NORMAL\POVRAY\SOURCE\CORE\SHAPE\QUADRIC.CPP|D:\POV-RAY\POV-RAY SOURCES\NORMAL\POVRAY\SOURCE\CORE\SHAPE\SOR.CPP|D:\POV-RAY\POV-RAY SOURCES\NORMAL\POVRAY\SOURCE\CORE\SHAPE\SPHERE.CPP|D:\POV-RAY\POV-RAY SOURCES\NORMAL\POVRAY\SOURCE\CORE\SHAPE\SPHERESWEEP.CPP|D:\POV-RAY\POV-RAY SOURCES\NORMAL\POVRAY\SOURCE\CORE\SHAPE\SUPERELLIPSOID.CPP|D:\POV-RAY\POV-RAY SOURCES\NORMAL\POVRAY\SOURCE\CORE\SHAPE\TORUS.CPP|D:\POV-RAY\POV-RAY SOURCES\NORMAL\POVRAY\SOURCE\CORE\SHAPE\TRIANGLE.CPP|D:\POV-RAY\POV-RAY SOURCES\NORMAL\POVRAY\SOURCE\CORE\SHAPE\TRUETYPE.CPP|D:\POV-RAY\POV-RAY SOURCES\NORMAL\POVRAY\SOURCE\CORE\SUPPORT\IMAGEUTIL.CPP|D:\POV-RAY\POV-RAY SOURCES\NORMAL\POVRAY\SOURCE\CORE\SUPPORT\OCTREE.CPP|D:\POV-RAY\POV-RAY SOURCES\NORMAL\POVRAY\SOURCE\CORE\SUPPORT\STATISTICIDS.CPP|D:\POV-RAY\POV-RAY SOURCES\NORMAL\POVRAY\SOURCE\CORE\SUPPORT\STATISTICS.CPP
D:\POV-RAY\POV-RAY SOURCES\NORMAL\POVRAY\WINDOWS\VS2015\BUILD\POVCORE\WIN32\RELEASE\POVCORE.PDB
D:\POV-RAY\POV-RAY SOURCES\NORMAL\POVRAY\WINDOWS\VS2015\BUILD\POVCORE\WIN32\RELEASE\BOUNDING.SBR
D:\POV-RAY\POV-RAY SOURCES\NORMAL\POVRAY\WINDOWS\VS2015\BUILD\POVCORE\WIN32\RELEASE\BOUNDINGBOX.SBR
D:\POV-RAY\POV-RAY SOURCES\NORMAL\POVRAY\WINDOWS\VS2015\BUILD\POVCORE\WIN32\RELEASE\BOUNDINGCYLINDER.SBR
D:\POV-RAY\POV-RAY SOURCES\NORMAL\POVRAY\WINDOWS\VS2015\BUILD\POVCORE\WIN32\RELEASE\BOUNDINGSPHERE.SBR
D:\POV-RAY\POV-RAY SOURCES\NORMAL\POVRAY\WINDOWS\VS2015\BUILD\POVCORE\WIN32\RELEASE\BSPTREE.SBR
D:\POV-RAY\POV-RAY SOURCES\NORMAL\POVRAY\WINDOWS\VS2015\BUILD\POVCORE\WIN32\RELEASE\SPECTRAL.SBR
D:\POV-RAY\POV-RAY SOURCES\NORMAL\POVRAY\WINDOWS\VS2015\BUILD\POVCORE\WIN32\RELEASE\LIGHTGROUP.SBR
D:\POV-RAY\POV-RAY SOURCES\NORMAL\POVRAY\WINDOWS\VS2015\BUILD\POVCORE\WIN32\RELEASE\LIGHTSOURCE.SBR
D:\POV-RAY\POV-RAY SOURCES\NORMAL\POVRAY\WINDOWS\VS2015\BUILD\POVCORE\WIN32\RELEASE\PHOTONS.SBR
D:\POV-RAY\POV-RAY SOURCES\NORMAL\POVRAY\WINDOWS\VS2015\BUILD\POVCORE\WIN32\RELEASE\RADIOSITY.SBR
D:\POV-RAY\POV-RAY SOURCES\NORMAL\POVRAY\WINDOWS\VS2015\BUILD\POVCORE\WIN32\RELEASE\SUBSURFACE.SBR
D:\POV-RAY\POV-RAY SOURCES\NORMAL\POVRAY\WINDOWS\VS2015\BUILD\POVCORE\WIN32\RELEASE\BLENDMAP.SBR
D:\POV-RAY\POV-RAY SOURCES\NORMAL\POVRAY\WINDOWS\VS2015\BUILD\POVCORE\WIN32\RELEASE\INTERIOR.SBR
D:\POV-RAY\POV-RAY SOURCES\NORMAL\POVRAY\WINDOWS\VS2015\BUILD\POVCORE\WIN32\RELEASE\MEDIA.SBR
D:\POV-RAY\POV-RAY SOURCES\NORMAL\POVRAY\WINDOWS\VS2015\BUILD\POVCORE\WIN32\RELEASE\NOISE.SBR
D:\POV-RAY\POV-RAY SOURCES\NORMAL\POVRAY\WINDOWS\VS2015\BUILD\POVCORE\WIN32\RELEASE\PATTERN.SBR
D:\POV-RAY\POV-RAY SOURCES\NORMAL\POVRAY\WINDOWS\VS2015\BUILD\POVCORE\WIN32\RELEASE\PORTABLENOISE.SBR
D:\POV-RAY\POV-RAY SOURCES\NORMAL\POVRAY\WINDOWS\VS2015\BUILD\POVCORE\WIN32\RELEASE\WARP.SBR
D:\POV-RAY\POV-RAY SOURCES\NORMAL\POVRAY\WINDOWS\VS2015\BUILD\POVCORE\WIN32\RELEASE\NORMAL.SBR
D:\POV-RAY\POV-RAY SOURCES\NORMAL\POVRAY\WINDOWS\VS2015\BUILD\POVCORE\WIN32\RELEASE\PIGMENT.SBR
D:\POV-RAY\POV-RAY SOURCES\NORMAL\POVRAY\WINDOWS\VS2015\BUILD\POVCORE\WIN32\RELEASE\PIGMENT.OBJ
D:\POV-RAY\POV-RAY SOURCES\NORMAL\POVRAY\WINDOWS\VS2015\BUILD\POVCORE\WIN32\RELEASE\NORMAL.OBJ
D:\POV-RAY\POV-RAY SOURCES\NORMAL\POVRAY\WINDOWS\VS2015\BUILD\POVCORE\WIN32\RELEASE\WARP.OBJ
D:\POV-RAY\POV-RAY SOURCES\NORMAL\POVRAY\WINDOWS\VS2015\BUILD\POVCORE\WIN32\RELEASE\PORTABLENOISE.OBJ
D:\POV-RAY\POV-RAY SOURCES\NORMAL\POVRAY\WINDOWS\VS2015\BUILD\POVCORE\WIN32\RELEASE\PATTERN.OBJ
D:\POV-RAY\POV-RAY SOURCES\NORMAL\POVRAY\WINDOWS\VS2015\BUILD\POVCORE\WIN32\RELEASE\NOISE.OBJ
D:\POV-RAY\POV-RAY SOURCES\NORMAL\POVRAY\WINDOWS\VS2015\BUILD\POVCORE\WIN32\RELEASE\MEDIA.OBJ
D:\POV-RAY\POV-RAY SOURCES\NORMAL\POVRAY\WINDOWS\VS2015\BUILD\POVCORE\WIN32\RELEASE\INTERIOR.OBJ
D:\POV-RAY\POV-RAY SOURCES\NORMAL\POVRAY\WINDOWS\VS2015\BUILD\POVCORE\WIN32\RELEASE\BLENDMAP.OBJ
D:\POV-RAY\POV-RAY SOURCES\NORMAL\POVRAY\WINDOWS\VS2015\BUILD\POVCORE\WIN32\RELEASE\SUBSURFACE.OBJ
D:\POV-RAY\POV-RAY SOURCES\NORMAL\POVRAY\WINDOWS\VS2015\BUILD\POVCORE\WIN32\RELEASE\RADIOSITY.OBJ
D:\POV-RAY\POV-RAY SOURCES\NORMAL\POVRAY\WINDOWS\VS2015\BUILD\POVCORE\WIN32\RELEASE\PHOTONS.OBJ
D:\POV-RAY\POV-RAY SOURCES\NORMAL\POVRAY\WINDOWS\VS2015\BUILD\POVCORE\WIN32\RELEASE\LIGHTSOURCE.OBJ
D:\POV-RAY\POV-RAY SOURCES\NORMAL\POVRAY\WINDOWS\VS2015\BUILD\POVCORE\WIN32\RELEASE\LIGHTGROUP.OBJ
D:\POV-RAY\POV-RAY SOURCES\NORMAL\POVRAY\WINDOWS\VS2015\BUILD\POVCORE\WIN32\RELEASE\SPECTRAL.OBJ
D:\POV-RAY\POV-RAY SOURCES\NORMAL\POVRAY\WINDOWS\VS2015\BUILD\POVCORE\WIN32\RELEASE\BSPTREE.OBJ
D:\POV-RAY\POV-RAY SOURCES\NORMAL\POVRAY\WINDOWS\VS2015\BUILD\POVCORE\WIN32\RELEASE\BOUNDINGSPHERE.OBJ
D:\POV-RAY\POV-RAY SOURCES\NORMAL\POVRAY\WINDOWS\VS2015\BUILD\POVCORE\WIN32\RELEASE\BOUNDINGCYLINDER.OBJ
D:\POV-RAY\POV-RAY SOURCES\NORMAL\POVRAY\WINDOWS\VS2015\BUILD\POVCORE\WIN32\RELEASE\BOUNDINGBOX.OBJ
D:\POV-RAY\POV-RAY SOURCES\NORMAL\POVRAY\WINDOWS\VS2015\BUILD\POVCORE\WIN32\RELEASE\BOUNDING.OBJ
D:\POV-RAY\POV-RAY SOURCES\NORMAL\POVRAY\WINDOWS\VS2015\BUILD\POVCORE\WIN32\RELEASE\TEXTURE.SBR
D:\POV-RAY\POV-RAY SOURCES\NORMAL\POVRAY\WINDOWS\VS2015\BUILD\POVCORE\WIN32\RELEASE\CHI2.SBR
D:\POV-RAY\POV-RAY SOURCES\NORMAL\POVRAY\WINDOWS\VS2015\BUILD\POVCORE\WIN32\RELEASE\HYPERCOMPLEX.SBR
D:\POV-RAY\POV-RAY SOURCES\NORMAL\POVRAY\WINDOWS\VS2015\BUILD\POVCORE\WIN32\RELEASE\JITTER.SBR
D:\POV-RAY\POV-RAY SOURCES\NORMAL\POVRAY\WINDOWS\VS2015\BUILD\POVCORE\WIN32\RELEASE\MATRIX.SBR
D:\POV-RAY\POV-RAY SOURCES\NORMAL\POVRAY\WINDOWS\VS2015\BUILD\POVCORE\WIN32\RELEASE\POLYNOMIALSOLVER.SBR
D:\POV-RAY\POV-RAY SOURCES\NORMAL\POVRAY\WINDOWS\VS2015\BUILD\POVCORE\WIN32\RELEASE\QUATERNION.SBR
D:\POV-RAY\POV-RAY SOURCES\NORMAL\POVRAY\WINDOWS\VS2015\BUILD\POVCORE\WIN32\RELEASE\RANDCOSWEIGHTED.SBR
D:\POV-RAY\POV-RAY SOURCES\NORMAL\POVRAY\WINDOWS\VS2015\BUILD\POVCORE\WIN32\RELEASE\RANDOMSEQUENCE.SBR
D:\POV-RAY\POV-RAY SOURCES\NORMAL\POVRAY\WINDOWS\VS2015\BUILD\POVCORE\WIN32\RELEASE\SPLINE.SBR
D:\POV-RAY\POV-RAY SOURCES\NORMAL\POVRAY\WINDOWS\VS2015\BUILD\POVCORE\WIN32\RELEASE\RAY.SBR
D:\POV-RAY\POV-RAY SOURCES\NORMAL\POVRAY\WINDOWS\VS2015\BUILD\POVCORE\WIN32\RELEASE\TRACE.SBR
D:\POV-RAY\POV-RAY SOURCES\NORMAL\POVRAY\WINDOWS\VS2015\BUILD\POVCORE\WIN32\RELEASE\TRACEPIXEL.SBR
D:\POV-RAY\POV-RAY SOURCES\NORMAL\POVRAY\WINDOWS\VS2015\BUILD\POVCORE\WIN32\RELEASE\ATMOSPHERE.SBR
D:\POV-RAY\POV-RAY SOURCES\NORMAL\POVRAY\WINDOWS\VS2015\BUILD\POVCORE\WIN32\RELEASE\CAMERA.SBR
D:\POV-RAY\POV-RAY SOURCES\NORMAL\POVRAY\WINDOWS\VS2015\BUILD\POVCORE\WIN32\RELEASE\OBJECT.SBR
D:\POV-RAY\POV-RAY SOURCES\NORMAL\POVRAY\WINDOWS\VS2015\BUILD\POVCORE\WIN32\RELEASE\SCENEDATA.SBR
D:\POV-RAY\POV-RAY SOURCES\NORMAL\POVRAY\WINDOWS\VS2015\BUILD\POVCORE\WIN32\RELEASE\TRACETHREADDATA.SBR
D:\POV-RAY\POV-RAY SOURCES\NORMAL\POVRAY\WINDOWS\VS2015\BUILD\POVCORE\WIN32\RELEASE\BEZIER.SBR
D:\POV-RAY\POV-RAY SOURCES\NORMAL\POVRAY\WINDOWS\VS2015\BUILD\POVCORE\WIN32\RELEASE\BLOB.SBR
D:\POV-RAY\POV-RAY SOURCES\NORMAL\POVRAY\WINDOWS\VS2015\BUILD\POVCORE\WIN32\RELEASE\BLOB.OBJ
D:\POV-RAY\POV-RAY SOURCES\NORMAL\POVRAY\WINDOWS\VS2015\BUILD\POVCORE\WIN32\RELEASE\BEZIER.OBJ
D:\POV-RAY\POV-RAY SOURCES\NORMAL\POVRAY\WINDOWS\VS2015\BUILD\POVCORE\WIN32\RELEASE\TRACETHREADDATA.OBJ
D:\POV-RAY\POV-RAY SOURCES\NORMAL\POVRAY\WINDOWS\VS2015\BUILD\POVCORE\WIN32\RELEASE\SCENEDATA.OBJ
D:\POV-RAY\POV-RAY SOURCES\NORMAL\POVRAY\WINDOWS\VS2015\BUILD\POVCORE\WIN32\RELEASE\OBJECT.OBJ
D:\POV-RAY\POV-RAY SOURCES\NORMAL\POVRAY\WINDOWS\VS2015\BUILD\POVCORE\WIN32\RELEASE\CAMERA.OBJ
D:\POV-RAY\POV-RAY SOURCES\NORMAL\POVRAY\WINDOWS\VS2015\BUILD\POVCORE\WIN32\RELEASE\ATMOSPHERE.OBJ
D:\POV-RAY\POV-RAY SOURCES\NORMAL\POVRAY\WINDOWS\VS2015\BUILD\POVCORE\WIN32\RELEASE\TRACEPIXEL.OBJ
D:\POV-RAY\POV-RAY SOURCES\NORMAL\POVRAY\WINDOWS\VS2015\BUILD\POVCORE\WIN32\RELEASE\TRACE.OBJ
D:\POV-RAY\POV-RAY SOURCES\NORMAL\POVRAY\WINDOWS\VS2015\BUILD\POVCORE\WIN32\RELEASE\RAY.OBJ
D:\POV-RAY\POV-RAY SOURCES\NORMAL\POVRAY\WINDOWS\VS2015\BUILD\POVCORE\WIN32\RELEASE\SPLINE.OBJ
D:\POV-RAY\POV-RAY SOURCES\NORMAL\POVRAY\WINDOWS\VS2015\BUILD\POVCORE\WIN32\RELEASE\RANDOMSEQUENCE.OBJ
D:\POV-RAY\POV-RAY SOURCES\NORMAL\POVRAY\WINDOWS\VS2015\BUILD\POVCORE\WIN32\RELEASE\RANDCOSWEIGHTED.OBJ
D:\POV-RAY\POV-RAY SOURCES\NORMAL\POVRAY\WINDOWS\VS2015\BUILD\POVCORE\WIN32\RELEASE\QUATERNION.OBJ
D:\POV-RAY\POV-RAY SOURCES\NORMAL\POVRAY\WINDOWS\VS2015\BUILD\POVCORE\WIN32\RELEASE\POLYNOMIALSOLVER.OBJ
D:\POV-RAY\POV-RAY SOURCES\NORMAL\POVRAY\WINDOWS\VS2015\BUILD\POVCORE\WIN32\RELEASE\MATRIX.OBJ
D:\POV-RAY\POV-RAY SOURCES\NORMAL\POVRAY\WINDOWS\VS2015\BUILD\POVCORE\WIN32\RELEASE\JITTER.OBJ
D:\POV-RAY\POV-RAY SOURCES\NORMAL\POVRAY\WINDOWS\VS2015\BUILD\POVCORE\WIN32\RELEASE\HYPERCOMPLEX.OBJ
D:\POV-RAY\POV-RAY SOURCES\NORMAL\POVRAY\WINDOWS\VS2015\BUILD\POVCORE\WIN32\RELEASE\CHI2.OBJ
D:\POV-RAY\POV-RAY SOURCES\NORMAL\POVRAY\WINDOWS\VS2015\BUILD\POVCORE\WIN32\RELEASE\TEXTURE.OBJ
D:\POV-RAY\POV-RAY SOURCES\NORMAL\POVRAY\WINDOWS\VS2015\BUILD\POVCORE\WIN32\RELEASE\BOX.SBR
D:\POV-RAY\POV-RAY SOURCES\NORMAL\POVRAY\WINDOWS\VS2015\BUILD\POVCORE\WIN32\RELEASE\CONE.SBR
D:\POV-RAY\POV-RAY SOURCES\NORMAL\POVRAY\WINDOWS\VS2015\BUILD\POVCORE\WIN32\RELEASE\CSG.SBR
D:\POV-RAY\POV-RAY SOURCES\NORMAL\POVRAY\WINDOWS\VS2015\BUILD\POVCORE\WIN32\RELEASE\DISC.SBR
D:\POV-RAY\POV-RAY SOURCES\NORMAL\POVRAY\WINDOWS\VS2015\BUILD\POVCORE\WIN32\RELEASE\PARAMETRIC.SBR
D:\POV-RAY\POV-RAY SOURCES\NORMAL\POVRAY\WINDOWS\VS2015\BUILD\POVCORE\WIN32\RELEASE\FRACTAL.SBR
D:\POV-RAY\POV-RAY SOURCES\NORMAL\POVRAY\WINDOWS\VS2015\BUILD\POVCORE\WIN32\RELEASE\HEIGHTFIELD.SBR
D:\POV-RAY\POV-RAY SOURCES\NORMAL\POVRAY\WINDOWS\VS2015\BUILD\POVCORE\WIN32\RELEASE\ISOSURFACE.SBR
D:\POV-RAY\POV-RAY SOURCES\NORMAL\POVRAY\WINDOWS\VS2015\BUILD\POVCORE\WIN32\RELEASE\LATHE.SBR
D:\POV-RAY\POV-RAY SOURCES\NORMAL\POVRAY\WINDOWS\VS2015\BUILD\POVCORE\WIN32\RELEASE\LEMON.SBR
D:\POV-RAY\POV-RAY SOURCES\NORMAL\POVRAY\WINDOWS\VS2015\BUILD\POVCORE\WIN32\RELEASE\MESH.SBR
D:\POV-RAY\POV-RAY SOURCES\NORMAL\POVRAY\WINDOWS\VS2015\BUILD\POVCORE\WIN32\RELEASE\OVUS.SBR
D:\POV-RAY\POV-RAY SOURCES\NORMAL\POVRAY\WINDOWS\VS2015\BUILD\POVCORE\WIN32\RELEASE\PLANE.SBR
D:\POV-RAY\POV-RAY SOURCES\NORMAL\POVRAY\WINDOWS\VS2015\BUILD\POVCORE\WIN32\RELEASE\POLYNOMIAL.SBR
D:\POV-RAY\POV-RAY SOURCES\NORMAL\POVRAY\WINDOWS\VS2015\BUILD\POVCORE\WIN32\RELEASE\POLYGON.SBR
D:\POV-RAY\POV-RAY SOURCES\NORMAL\POVRAY\WINDOWS\VS2015\BUILD\POVCORE\WIN32\RELEASE\PRISM.SBR
D:\POV-RAY\POV-RAY SOURCES\NORMAL\POVRAY\WINDOWS\VS2015\BUILD\POVCORE\WIN32\RELEASE\QUADRIC.SBR
D:\POV-RAY\POV-RAY SOURCES\NORMAL\POVRAY\WINDOWS\VS2015\BUILD\POVCORE\WIN32\RELEASE\SOR.SBR
D:\POV-RAY\POV-RAY SOURCES\NORMAL\POVRAY\WINDOWS\VS2015\BUILD\POVCORE\WIN32\RELEASE\SPHERE.SBR
D:\POV-RAY\POV-RAY SOURCES\NORMAL\POVRAY\WINDOWS\VS2015\BUILD\POVCORE\WIN32\RELEASE\SPHERESWEEP.SBR
D:\POV-RAY\POV-RAY SOURCES\NORMAL\POVRAY\WINDOWS\VS2015\BUILD\POVCORE\WIN32\RELEASE\SPHERESWEEP.OBJ
D:\POV-RAY\POV-RAY SOURCES\NORMAL\POVRAY\WINDOWS\VS2015\BUILD\POVCORE\WIN32\RELEASE\SPHERE.OBJ
D:\POV-RAY\POV-RAY SOURCES\NORMAL\POVRAY\WINDOWS\VS2015\BUILD\POVCORE\WIN32\RELEASE\SOR.OBJ
D:\POV-RAY\POV-RAY SOURCES\NORMAL\POVRAY\WINDOWS\VS2015\BUILD\POVCORE\WIN32\RELEASE\QUADRIC.OBJ
D:\POV-RAY\POV-RAY SOURCES\NORMAL\POVRAY\WINDOWS\VS2015\BUILD\POVCORE\WIN32\RELEASE\PRISM.OBJ
D:\POV-RAY\POV-RAY SOURCES\NORMAL\POVRAY\WINDOWS\VS2015\BUILD\POVCORE\WIN32\RELEASE\POLYGON.OBJ
D:\POV-RAY\POV-RAY SOURCES\NORMAL\POVRAY\WINDOWS\VS2015\BUILD\POVCORE\WIN32\RELEASE\POLYNOMIAL.OBJ
D:\POV-RAY\POV-RAY SOURCES\NORMAL\POVRAY\WINDOWS\VS2015\BUILD\POVCORE\WIN32\RELEASE\PLANE.OBJ
D:\POV-RAY\POV-RAY SOURCES\NORMAL\POVRAY\WINDOWS\VS2015\BUILD\POVCORE\WIN32\RELEASE\OVUS.OBJ
D:\POV-RAY\POV-RAY SOURCES\NORMAL\POVRAY\WINDOWS\VS2015\BUILD\POVCORE\WIN32\RELEASE\MESH.OBJ
D:\POV-RAY\POV-RAY SOURCES\NORMAL\POVRAY\WINDOWS\VS2015\BUILD\POVCORE\WIN32\RELEASE\LEMON.OBJ
D:\POV-RAY\POV-RAY SOURCES\NORMAL\POVRAY\WINDOWS\VS2015\BUILD\POVCORE\WIN32\RELEASE\LATHE.OBJ
D:\POV-RAY\POV-RAY SOURCES\NORMAL\POVRAY\WINDOWS\VS2015\BUILD\POVCORE\WIN32\RELEASE\ISOSURFACE.OBJ
D:\POV-RAY\POV-RAY SOURCES\NORMAL\POVRAY\WINDOWS\VS2015\BUILD\POVCORE\WIN32\RELEASE\HEIGHTFIELD.OBJ
D:\POV-RAY\POV-RAY SOURCES\NORMAL\POVRAY\WINDOWS\VS2015\BUILD\POVCORE\WIN32\RELEASE\FRACTAL.OBJ
D:\POV-RAY\POV-RAY SOURCES\NORMAL\POVRAY\WINDOWS\VS2015\BUILD\POVCORE\WIN32\RELEASE\PARAMETRIC.OBJ
D:\POV-RAY\POV-RAY SOURCES\NORMAL\POVRAY\WINDOWS\VS2015\BUILD\POVCORE\WIN32\RELEASE\DISC.OBJ
D:\POV-RAY\POV-RAY SOURCES\NORMAL\POVRAY\WINDOWS\VS2015\BUILD\POVCORE\WIN32\RELEASE\CSG.OBJ
D:\POV-RAY\POV-RAY SOURCES\NORMAL\POVRAY\WINDOWS\VS2015\BUILD\POVCORE\WIN32\RELEASE\CONE.OBJ
D:\POV-RAY\POV-RAY SOURCES\NORMAL\POVRAY\WINDOWS\VS2015\BUILD\POVCORE\WIN32\RELEASE\BOX.OBJ
D:\POV-RAY\POV-RAY SOURCES\NORMAL\POVRAY\WINDOWS\VS2015\BUILD\POVCORE\WIN32\RELEASE\SUPERELLIPSOID.SBR
D:\POV-RAY\POV-RAY SOURCES\NORMAL\POVRAY\WINDOWS\VS2015\BUILD\POVCORE\WIN32\RELEASE\TORUS.SBR
D:\POV-RAY\POV-RAY SOURCES\NORMAL\POVRAY\WINDOWS\VS2015\BUILD\POVCORE\WIN32\RELEASE\TRIANGLE.SBR
D:\POV-RAY\POV-RAY SOURCES\NORMAL\POVRAY\WINDOWS\VS2015\BUILD\POVCORE\WIN32\RELEASE\TRUETYPE.SBR
D:\POV-RAY\POV-RAY SOURCES\NORMAL\POVRAY\WINDOWS\VS2015\BUILD\POVCORE\WIN32\RELEASE\IMAGEUTIL.SBR
D:\POV-RAY\POV-RAY SOURCES\NORMAL\POVRAY\WINDOWS\VS2015\BUILD\POVCORE\WIN32\RELEASE\OCTREE.SBR
D:\POV-RAY\POV-RAY SOURCES\NORMAL\POVRAY\WINDOWS\VS2015\BUILD\POVCORE\WIN32\RELEASE\STATISTICIDS.SBR
D:\POV-RAY\POV-RAY SOURCES\NORMAL\POVRAY\WINDOWS\VS2015\BUILD\POVCORE\WIN32\RELEASE\STATISTICS.SBR
D:\POV-RAY\POV-RAY SOURCES\NORMAL\POVRAY\WINDOWS\VS2015\BUILD\POVCORE\WIN32\RELEASE\STATISTICS.OBJ
D:\POV-RAY\POV-RAY SOURCES\NORMAL\POVRAY\WINDOWS\VS2015\BUILD\POVCORE\WIN32\RELEASE\STATISTICIDS.OBJ
D:\POV-RAY\POV-RAY SOURCES\NORMAL\POVRAY\WINDOWS\VS2015\BUILD\POVCORE\WIN32\RELEASE\OCTREE.OBJ
D:\POV-RAY\POV-RAY SOURCES\NORMAL\POVRAY\WINDOWS\VS2015\BUILD\POVCORE\WIN32\RELEASE\IMAGEUTIL.OBJ
D:\POV-RAY\POV-RAY SOURCES\NORMAL\POVRAY\WINDOWS\VS2015\BUILD\POVCORE\WIN32\RELEASE\TRUETYPE.OBJ
D:\POV-RAY\POV-RAY SOURCES\NORMAL\POVRAY\WINDOWS\VS2015\BUILD\POVCORE\WIN32\RELEASE\TRIANGLE.OBJ
D:\POV-RAY\POV-RAY SOURCES\NORMAL\POVRAY\WINDOWS\VS2015\BUILD\POVCORE\WIN32\RELEASE\TORUS.OBJ
D:\POV-RAY\POV-RAY SOURCES\NORMAL\POVRAY\WINDOWS\VS2015\BUILD\POVCORE\WIN32\RELEASE\SUPERELLIPSOID.OBJ
^D:\POV-RAY\POV-RAY SOURCES\NORMAL\POVRAY\SOURCE\CORE\BOUNDING\BOUNDING.CPP
D:\POV-RAY\POV-RAY SOURCES\NORMAL\POVRAY\WINDOWS\VS2015\BUILD\POVCORE\WIN32\RELEASE\POVCORE.PDB
^D:\POV-RAY\POV-RAY SOURCES\NORMAL\POVRAY\SOURCE\CORE\BOUNDING\BOUNDINGBOX.CPP
D:\POV-RAY\POV-RAY SOURCES\NORMAL\POVRAY\WINDOWS\VS2015\BUILD\POVCORE\WIN32\RELEASE\POVCORE.PDB
^D:\POV-RAY\POV-RAY SOURCES\NORMAL\POVRAY\SOURCE\CORE\BOUNDING\BOUNDINGCYLINDER.CPP
D:\POV-RAY\POV-RAY SOURCES\NORMAL\POVRAY\WINDOWS\VS2015\BUILD\POVCORE\WIN32\RELEASE\POVCORE.PDB
^D:\POV-RAY\POV-RAY SOURCES\NORMAL\POVRAY\SOURCE\CORE\BOUNDING\BOUNDINGSPHERE.CPP
D:\POV-RAY\POV-RAY SOURCES\NORMAL\POVRAY\WINDOWS\VS2015\BUILD\POVCORE\WIN32\RELEASE\POVCORE.PDB
^D:\POV-RAY\POV-RAY SOURCES\NORMAL\POVRAY\SOURCE\CORE\BOUNDING\BSPTREE.CPP
D:\POV-RAY\POV-RAY SOURCES\NORMAL\POVRAY\WINDOWS\VS2015\BUILD\POVCORE\WIN32\RELEASE\POVCORE.PDB
^D:\POV-RAY\POV-RAY SOURCES\NORMAL\POVRAY\SOURCE\CORE\COLOUR\SPECTRAL.CPP
D:\POV-RAY\POV-RAY SOURCES\NORMAL\POVRAY\WINDOWS\VS2015\BUILD\POVCORE\WIN32\RELEASE\POVCORE.PDB
^D:\POV-RAY\POV-RAY SOURCES\NORMAL\POVRAY\SOURCE\CORE\LIGHTING\LIGHTGROUP.CPP
D:\POV-RAY\POV-RAY SOURCES\NORMAL\POVRAY\WINDOWS\VS2015\BUILD\POVCORE\WIN32\RELEASE\POVCORE.PDB
^D:\POV-RAY\POV-RAY SOURCES\NORMAL\POVRAY\SOURCE\CORE\LIGHTING\LIGHTSOURCE.CPP
D:\POV-RAY\POV-RAY SOURCES\NORMAL\POVRAY\WINDOWS\VS2015\BUILD\POVCORE\WIN32\RELEASE\POVCORE.PDB
^D:\POV-RAY\POV-RAY SOURCES\NORMAL\POVRAY\SOURCE\CORE\LIGHTING\PHOTONS.CPP
D:\POV-RAY\POV-RAY SOURCES\NORMAL\POVRAY\WINDOWS\VS2015\BUILD\POVCORE\WIN32\RELEASE\POVCORE.PDB
^D:\POV-RAY\POV-RAY SOURCES\NORMAL\POVRAY\SOURCE\CORE\LIGHTING\RADIOSITY.CPP
D:\POV-RAY\POV-RAY SOURCES\NORMAL\POVRAY\WINDOWS\VS2015\BUILD\POVCORE\WIN32\RELEASE\POVCORE.PDB
^D:\POV-RAY\POV-RAY SOURCES\NORMAL\POVRAY\SOURCE\CORE\LIGHTING\SUBSURFACE.CPP
D:\POV-RAY\POV-RAY SOURCES\NORMAL\POVRAY\WINDOWS\VS2015\BUILD\POVCORE\WIN32\RELEASE\POVCORE.PDB
^D:\POV-RAY\POV-RAY SOURCES\NORMAL\POVRAY\SOURCE\CORE\MATERIAL\BLENDMAP.CPP
D:\POV-RAY\POV-RAY SOURCES\NORMAL\POVRAY\WINDOWS\VS2015\BUILD\POVCORE\WIN32\RELEASE\POVCORE.PDB
^D:\POV-RAY\POV-RAY SOURCES\NORMAL\POVRAY\SOURCE\CORE\MATERIAL\INTERIOR.CPP
D:\POV-RAY\POV-RAY SOURCES\NORMAL\POVRAY\WINDOWS\VS2015\BUILD\POVCORE\WIN32\RELEASE\POVCORE.PDB
^D:\POV-RAY\POV-RAY SOURCES\NORMAL\POVRAY\SOURCE\CORE\MATERIAL\MEDIA.CPP
D:\POV-RAY\POV-RAY SOURCES\NORMAL\POVRAY\WINDOWS\VS2015\BUILD\POVCORE\WIN32\RELEASE\POVCORE.PDB
^D:\POV-RAY\POV-RAY SOURCES\NORMAL\POVRAY\SOURCE\CORE\MATERIAL\NOISE.CPP
D:\POV-RAY\POV-RAY SOURCES\NORMAL\POVRAY\WINDOWS\VS2015\BUILD\POVCORE\WIN32\RELEASE\POVCORE.PDB
^D:\POV-RAY\POV-RAY SOURCES\NORMAL\POVRAY\SOURCE\CORE\MATERIAL\PATTERN.CPP
D:\POV-RAY\POV-RAY SOURCES\NORMAL\POVRAY\WINDOWS\VS2015\BUILD\POVCORE\WIN32\RELEASE\POVCORE.PDB
^D:\POV-RAY\POV-RAY SOURCES\NORMAL\POVRAY\SOURCE\CORE\MATERIAL\PORTABLENOISE.CPP
D:\POV-RAY\POV-RAY SOURCES\NORMAL\POVRAY\WINDOWS\VS2015\BUILD\POVCORE\WIN32\RELEASE\POVCORE.PDB
^D:\POV-RAY\POV-RAY SOURCES\NORMAL\POVRAY\SOURCE\CORE\MATERIAL\WARP.CPP
D:\POV-RAY\POV-RAY SOURCES\NORMAL\POVRAY\WINDOWS\VS2015\BUILD\POVCORE\WIN32\RELEASE\POVCORE.PDB
^D:\POV-RAY\POV-RAY SOURCES\NORMAL\POVRAY\SOURCE\CORE\MATERIAL\NORMAL.CPP
D:\POV-RAY\POV-RAY SOURCES\NORMAL\POVRAY\WINDOWS\VS2015\BUILD\POVCORE\WIN32\RELEASE\POVCORE.PDB
^D:\POV-RAY\POV-RAY SOURCES\NORMAL\POVRAY\SOURCE\CORE\MATERIAL\PIGMENT.CPP
D:\POV-RAY\POV-RAY SOURCES\NORMAL\POVRAY\WINDOWS\VS2015\BUILD\POVCORE\WIN32\RELEASE\POVCORE.PDB
^D:\POV-RAY\POV-RAY SOURCES\NORMAL\POVRAY\SOURCE\CORE\MATERIAL\TEXTURE.CPP
D:\POV-RAY\POV-RAY SOURCES\NORMAL\POVRAY\WINDOWS\VS2015\BUILD\POVCORE\WIN32\RELEASE\POVCORE.PDB
^D:\POV-RAY\POV-RAY SOURCES\NORMAL\POVRAY\SOURCE\CORE\MATH\CHI2.CPP
D:\POV-RAY\POV-RAY SOURCES\NORMAL\POVRAY\WINDOWS\VS2015\BUILD\POVCORE\WIN32\RELEASE\POVCORE.PDB
^D:\POV-RAY\POV-RAY SOURCES\NORMAL\POVRAY\SOURCE\CORE\MATH\HYPERCOMPLEX.CPP
D:\POV-RAY\POV-RAY SOURCES\NORMAL\POVRAY\WINDOWS\VS2015\BUILD\POVCORE\WIN32\RELEASE\POVCORE.PDB
^D:\POV-RAY\POV-RAY SOURCES\NORMAL\POVRAY\SOURCE\CORE\MATH\JITTER.CPP
D:\POV-RAY\POV-RAY SOURCES\NORMAL\POVRAY\WINDOWS\VS2015\BUILD\POVCORE\WIN32\RELEASE\POVCORE.PDB
^D:\POV-RAY\POV-RAY SOURCES\NORMAL\POVRAY\SOURCE\CORE\MATH\MATRIX.CPP
D:\POV-RAY\POV-RAY SOURCES\NORMAL\POVRAY\WINDOWS\VS2015\BUILD\POVCORE\WIN32\RELEASE\POVCORE.PDB
^D:\POV-RAY\POV-RAY SOURCES\NORMAL\POVRAY\SOURCE\CORE\MATH\POLYNOMIALSOLVER.CPP
D:\POV-RAY\POV-RAY SOURCES\NORMAL\POVRAY\WINDOWS\VS2015\BUILD\POVCORE\WIN32\RELEASE\POVCORE.PDB
^D:\POV-RAY\POV-RAY SOURCES\NORMAL\POVRAY\SOURCE\CORE\MATH\QUATERNION.CPP
D:\POV-RAY\POV-RAY SOURCES\NORMAL\POVRAY\WINDOWS\VS2015\BUILD\POVCORE\WIN32\RELEASE\POVCORE.PDB
^D:\POV-RAY\POV-RAY SOURCES\NORMAL\POVRAY\SOURCE\CORE\MATH\RANDCOSWEIGHTED.CPP
D:\POV-RAY\POV-RAY SOURCES\NORMAL\POVRAY\WINDOWS\VS2015\BUILD\POVCORE\WIN32\RELEASE\POVCORE.PDB
^D:\POV-RAY\POV-RAY SOURCES\NORMAL\POVRAY\SOURCE\CORE\MATH\RANDOMSEQUENCE.CPP
D:\POV-RAY\POV-RAY SOURCES\NORMAL\POVRAY\WINDOWS\VS2015\BUILD\POVCORE\WIN32\RELEASE\POVCORE.PDB
^D:\POV-RAY\POV-RAY SOURCES\NORMAL\POVRAY\SOURCE\CORE\MATH\SPLINE.CPP
D:\POV-RAY\POV-RAY SOURCES\NORMAL\POVRAY\WINDOWS\VS2015\BUILD\POVCORE\WIN32\RELEASE\POVCORE.PDB
^D:\POV-RAY\POV-RAY SOURCES\NORMAL\POVRAY\SOURCE\CORE\RENDER\RAY.CPP
D:\POV-RAY\POV-RAY SOURCES\NORMAL\POVRAY\WINDOWS\VS2015\BUILD\POVCORE\WIN32\RELEASE\POVCORE.PDB
^D:\POV-RAY\POV-RAY SOURCES\NORMAL\POVRAY\SOURCE\CORE\RENDER\TRACE.CPP
D:\POV-RAY\POV-RAY SOURCES\NORMAL\POVRAY\WINDOWS\VS2015\BUILD\POVCORE\WIN32\RELEASE\POVCORE.PDB
^D:\POV-RAY\POV-RAY SOURCES\NORMAL\POVRAY\SOURCE\CORE\RENDER\TRACEPIXEL.CPP
D:\POV-RAY\POV-RAY SOURCES\NORMAL\POVRAY\WINDOWS\VS2015\BUILD\POVCORE\WIN32\RELEASE\POVCORE.PDB
^D:\POV-RAY\POV-RAY SOURCES\NORMAL\POVRAY\SOURCE\CORE\SCENE\ATMOSPHERE.CPP
D:\POV-RAY\POV-RAY SOURCES\NORMAL\POVRAY\WINDOWS\VS2015\BUILD\POVCORE\WIN32\RELEASE\POVCORE.PDB
^D:\POV-RAY\POV-RAY SOURCES\NORMAL\POVRAY\SOURCE\CORE\SCENE\CAMERA.CPP
D:\POV-RAY\POV-RAY SOURCES\NORMAL\POVRAY\WINDOWS\VS2015\BUILD\POVCORE\WIN32\RELEASE\POVCORE.PDB
^D:\POV-RAY\POV-RAY SOURCES\NORMAL\POVRAY\SOURCE\CORE\SCENE\OBJECT.CPP
D:\POV-RAY\POV-RAY SOURCES\NORMAL\POVRAY\WINDOWS\VS2015\BUILD\POVCORE\WIN32\RELEASE\POVCORE.PDB
^D:\POV-RAY\POV-RAY SOURCES\NORMAL\POVRAY\SOURCE\CORE\SCENE\SCENEDATA.CPP
D:\POV-RAY\POV-RAY SOURCES\NORMAL\POVRAY\WINDOWS\VS2015\BUILD\POVCORE\WIN32\RELEASE\POVCORE.PDB
^D:\POV-RAY\POV-RAY SOURCES\NORMAL\POVRAY\SOURCE\CORE\SCENE\TRACETHREADDATA.CPP
D:\POV-RAY\POV-RAY SOURCES\NORMAL\POVRAY\WINDOWS\VS2015\BUILD\POVCORE\WIN32\RELEASE\POVCORE.PDB
^D:\POV-RAY\POV-RAY SOURCES\NORMAL\POVRAY\SOURCE\CORE\SHAPE\BEZIER.CPP
D:\POV-RAY\POV-RAY SOURCES\NORMAL\POVRAY\WINDOWS\VS2015\BUILD\POVCORE\WIN32\RELEASE\POVCORE.PDB
^D:\POV-RAY\POV-RAY SOURCES\NORMAL\POVRAY\SOURCE\CORE\SHAPE\BLOB.CPP
D:\POV-RAY\POV-RAY SOURCES\NORMAL\POVRAY\WINDOWS\VS2015\BUILD\POVCORE\WIN32\RELEASE\POVCORE.PDB
^D:\POV-RAY\POV-RAY SOURCES\NORMAL\POVRAY\SOURCE\CORE\SHAPE\BOX.CPP
D:\POV-RAY\POV-RAY SOURCES\NORMAL\POVRAY\WINDOWS\VS2015\BUILD\POVCORE\WIN32\RELEASE\POVCORE.PDB
^D:\POV-RAY\POV-RAY SOURCES\NORMAL\POVRAY\SOURCE\CORE\SHAPE\CONE.CPP
D:\POV-RAY\POV-RAY SOURCES\NORMAL\POVRAY\WINDOWS\VS2015\BUILD\POVCORE\WIN32\RELEASE\POVCORE.PDB
^D:\POV-RAY\POV-RAY SOURCES\NORMAL\POVRAY\SOURCE\CORE\SHAPE\CSG.CPP
D:\POV-RAY\POV-RAY SOURCES\NORMAL\POVRAY\WINDOWS\VS2015\BUILD\POVCORE\WIN32\RELEASE\POVCORE.PDB
^D:\POV-RAY\POV-RAY SOURCES\NORMAL\POVRAY\SOURCE\CORE\SHAPE\DISC.CPP
D:\POV-RAY\POV-RAY SOURCES\NORMAL\POVRAY\WINDOWS\VS2015\BUILD\POVCORE\WIN32\RELEASE\POVCORE.PDB
^D:\POV-RAY\POV-RAY SOURCES\NORMAL\POVRAY\SOURCE\CORE\SHAPE\PARAMETRIC.CPP
D:\POV-RAY\POV-RAY SOURCES\NORMAL\POVRAY\WINDOWS\VS2015\BUILD\POVCORE\WIN32\RELEASE\POVCORE.PDB
^D:\POV-RAY\POV-RAY SOURCES\NORMAL\POVRAY\SOURCE\CORE\SHAPE\FRACTAL.CPP
D:\POV-RAY\POV-RAY SOURCES\NORMAL\POVRAY\WINDOWS\VS2015\BUILD\POVCORE\WIN32\RELEASE\POVCORE.PDB
^D:\POV-RAY\POV-RAY SOURCES\NORMAL\POVRAY\SOURCE\CORE\SHAPE\HEIGHTFIELD.CPP
D:\POV-RAY\POV-RAY SOURCES\NORMAL\POVRAY\WINDOWS\VS2015\BUILD\POVCORE\WIN32\RELEASE\POVCORE.PDB
^D:\POV-RAY\POV-RAY SOURCES\NORMAL\POVRAY\SOURCE\CORE\SHAPE\ISOSURFACE.CPP
D:\POV-RAY\POV-RAY SOURCES\NORMAL\POVRAY\WINDOWS\VS2015\BUILD\POVCORE\WIN32\RELEASE\POVCORE.PDB
^D:\POV-RAY\POV-RAY SOURCES\NORMAL\POVRAY\SOURCE\CORE\SHAPE\LATHE.CPP
D:\POV-RAY\POV-RAY SOURCES\NORMAL\POVRAY\WINDOWS\VS2015\BUILD\POVCORE\WIN32\RELEASE\POVCORE.PDB
^D:\POV-RAY\POV-RAY SOURCES\NORMAL\POVRAY\SOURCE\CORE\SHAPE\LEMON.CPP
D:\POV-RAY\POV-RAY SOURCES\NORMAL\POVRAY\WINDOWS\VS2015\BUILD\POVCORE\WIN32\RELEASE\POVCORE.PDB
^D:\POV-RAY\POV-RAY SOURCES\NORMAL\POVRAY\SOURCE\CORE\SHAPE\MESH.CPP
D:\POV-RAY\POV-RAY SOURCES\NORMAL\POVRAY\WINDOWS\VS2015\BUILD\POVCORE\WIN32\RELEASE\POVCORE.PDB
^D:\POV-RAY\POV-RAY SOURCES\NORMAL\POVRAY\SOURCE\CORE\SHAPE\OVUS.CPP
D:\POV-RAY\POV-RAY SOURCES\NORMAL\POVRAY\WINDOWS\VS2015\BUILD\POVCORE\WIN32\RELEASE\POVCORE.PDB
^D:\POV-RAY\POV-RAY SOURCES\NORMAL\POVRAY\SOURCE\CORE\SHAPE\PLANE.CPP
D:\POV-RAY\POV-RAY SOURCES\NORMAL\POVRAY\WINDOWS\VS2015\BUILD\POVCORE\WIN32\RELEASE\POVCORE.PDB
^D:\POV-RAY\POV-RAY SOURCES\NORMAL\POVRAY\SOURCE\CORE\SHAPE\POLYNOMIAL.CPP
D:\POV-RAY\POV-RAY SOURCES\NORMAL\POVRAY\WINDOWS\VS2015\BUILD\POVCORE\WIN32\RELEASE\POVCORE.PDB
^D:\POV-RAY\POV-RAY SOURCES\NORMAL\POVRAY\SOURCE\CORE\SHAPE\POLYGON.CPP
D:\POV-RAY\POV-RAY SOURCES\NORMAL\POVRAY\WINDOWS\VS2015\BUILD\POVCORE\WIN32\RELEASE\POVCORE.PDB
^D:\POV-RAY\POV-RAY SOURCES\NORMAL\POVRAY\SOURCE\CORE\SHAPE\PRISM.CPP
D:\POV-RAY\POV-RAY SOURCES\NORMAL\POVRAY\WINDOWS\VS2015\BUILD\POVCORE\WIN32\RELEASE\POVCORE.PDB
^D:\POV-RAY\POV-RAY SOURCES\NORMAL\POVRAY\SOURCE\CORE\SHAPE\QUADRIC.CPP
D:\POV-RAY\POV-RAY SOURCES\NORMAL\POVRAY\WINDOWS\VS2015\BUILD\POVCORE\WIN32\RELEASE\POVCORE.PDB
^D:\POV-RAY\POV-RAY SOURCES\NORMAL\POVRAY\SOURCE\CORE\SHAPE\SOR.CPP
D:\POV-RAY\POV-RAY SOURCES\NORMAL\POVRAY\WINDOWS\VS2015\BUILD\POVCORE\WIN32\RELEASE\POVCORE.PDB
^D:\POV-RAY\POV-RAY SOURCES\NORMAL\POVRAY\SOURCE\CORE\SHAPE\SPHERE.CPP
D:\POV-RAY\POV-RAY SOURCES\NORMAL\POVRAY\WINDOWS\VS2015\BUILD\POVCORE\WIN32\RELEASE\POVCORE.PDB
^D:\POV-RAY\POV-RAY SOURCES\NORMAL\POVRAY\SOURCE\CORE\SHAPE\SPHERESWEEP.CPP
D:\POV-RAY\POV-RAY SOURCES\NORMAL\POVRAY\WINDOWS\VS2015\BUILD\POVCORE\WIN32\RELEASE\POVCORE.PDB
^D:\POV-RAY\POV-RAY SOURCES\NORMAL\POVRAY\SOURCE\CORE\SHAPE\SUPERELLIPSOID.CPP
D:\POV-RAY\POV-RAY SOURCES\NORMAL\POVRAY\WINDOWS\VS2015\BUILD\POVCORE\WIN32\RELEASE\POVCORE.PDB
^D:\POV-RAY\POV-RAY SOURCES\NORMAL\POVRAY\SOURCE\CORE\SHAPE\TORUS.CPP
D:\POV-RAY\POV-RAY SOURCES\NORMAL\POVRAY\WINDOWS\VS2015\BUILD\POVCORE\WIN32\RELEASE\POVCORE.PDB
^D:\POV-RAY\POV-RAY SOURCES\NORMAL\POVRAY\SOURCE\CORE\SHAPE\TRIANGLE.CPP
D:\POV-RAY\POV-RAY SOURCES\NORMAL\POVRAY\WINDOWS\VS2015\BUILD\POVCORE\WIN32\RELEASE\POVCORE.PDB
^D:\POV-RAY\POV-RAY SOURCES\NORMAL\POVRAY\SOURCE\CORE\SHAPE\TRUETYPE.CPP
D:\POV-RAY\POV-RAY SOURCES\NORMAL\POVRAY\WINDOWS\VS2015\BUILD\POVCORE\WIN32\RELEASE\POVCORE.PDB
^D:\POV-RAY\POV-RAY SOURCES\NORMAL\POVRAY\SOURCE\CORE\SUPPORT\IMAGEUTIL.CPP
D:\POV-RAY\POV-RAY SOURCES\NORMAL\POVRAY\WINDOWS\VS2015\BUILD\POVCORE\WIN32\RELEASE\POVCORE.PDB
^D:\POV-RAY\POV-RAY SOURCES\NORMAL\POVRAY\SOURCE\CORE\SUPPORT\OCTREE.CPP
D:\POV-RAY\POV-RAY SOURCES\NORMAL\POVRAY\WINDOWS\VS2015\BUILD\POVCORE\WIN32\RELEASE\POVCORE.PDB
^D:\POV-RAY\POV-RAY SOURCES\NORMAL\POVRAY\SOURCE\CORE\SUPPORT\STATISTICIDS.CPP
D:\POV-RAY\POV-RAY SOURCES\NORMAL\POVRAY\WINDOWS\VS2015\BUILD\POVCORE\WIN32\RELEASE\POVCORE.PDB
^D:\POV-RAY\POV-RAY SOURCES\NORMAL\POVRAY\SOURCE\CORE\SUPPORT\STATISTICS.CPP
D:\POV-RAY\POV-RAY SOURCES\NORMAL\POVRAY\WINDOWS\VS2015\BUILD\POVCORE\WIN32\RELEASE\POVCORE.PDB
