﻿          1 file(s) copied.
  png.c
  pngerror.c
  pngget.c
  pngmem.c
  pngpread.c
  pngread.c
  pngrio.c
  pngrtran.c
  pngrutil.c
  pngset.c
  pngtrans.c
  pngwio.c
  pngwrite.c
  pngwtran.c
  pngwutil.c
  Generating Code...
  libpng.vcxproj -> C:\Users\Matthew McComb\Documents\GitHub\povray\windows\vs2015\bin32\lib\libpng32d.lib
