^C:\USERS\MATTHEW MCCOMB\DOCUMENTS\GITHUB\POVRAY\WINDOWS\VS2015\BUILD\LIBPNG\WIN32\RELEASE\PNG.SBR|C:\USERS\MATTHEW MCCOMB\DOCUMENTS\GITHUB\POVRAY\WINDOWS\VS2015\BUILD\LIBPNG\WIN32\RELEASE\PNGERROR.SBR|C:\USERS\MATTHEW MCCOMB\DOCUMENTS\GITHUB\POVRAY\WINDOWS\VS2015\BUILD\LIBPNG\WIN32\RELEASE\PNGGET.SBR|C:\USERS\MATTHEW MCCOMB\DOCUMENTS\GITHUB\POVRAY\WINDOWS\VS2015\BUILD\LIBPNG\WIN32\RELEASE\PNGMEM.SBR|C:\USERS\MATTHEW MCCOMB\DOCUMENTS\GITHUB\POVRAY\WINDOWS\VS2015\BUILD\LIBPNG\WIN32\RELEASE\PNGPREAD.SBR|C:\USERS\MATTHEW MCCOMB\DOCUMENTS\GITHUB\POVRAY\WINDOWS\VS2015\BUILD\LIBPNG\WIN32\RELEASE\PNGREAD.SBR|C:\USERS\MATTHEW MCCOMB\DOCUMENTS\GITHUB\POVRAY\WINDOWS\VS2015\BUILD\LIBPNG\WIN32\RELEASE\PNGRIO.SBR|C:\USERS\MATTHEW MCCOMB\DOCUMENTS\GITHUB\POVRAY\WINDOWS\VS2015\BUILD\LIBPNG\WIN32\RELEASE\PNGRTRAN.SBR|C:\USERS\MATTHEW MCCOMB\DOCUMENTS\GITHUB\POVRAY\WINDOWS\VS2015\BUILD\LIBPNG\WIN32\RELEASE\PNGRUTIL.SBR|C:\USERS\MATTHEW MCCOMB\DOCUMENTS\GITHUB\POVRAY\WINDOWS\VS2015\BUILD\LIBPNG\WIN32\RELEASE\PNGSET.SBR|C:\USERS\MATTHEW MCCOMB\DOCUMENTS\GITHUB\POVRAY\WINDOWS\VS2015\BUILD\LIBPNG\WIN32\RELEASE\PNGTRANS.SBR|C:\USERS\MATTHEW MCCOMB\DOCUMENTS\GITHUB\POVRAY\WINDOWS\VS2015\BUILD\LIBPNG\WIN32\RELEASE\PNGWIO.SBR|C:\USERS\MATTHEW MCCOMB\DOCUMENTS\GITHUB\POVRAY\WINDOWS\VS2015\BUILD\LIBPNG\WIN32\RELEASE\PNGWRITE.SBR|C:\USERS\MATTHEW MCCOMB\DOCUMENTS\GITHUB\POVRAY\WINDOWS\VS2015\BUILD\LIBPNG\WIN32\RELEASE\PNGWTRAN.SBR|C:\USERS\MATTHEW MCCOMB\DOCUMENTS\GITHUB\POVRAY\WINDOWS\VS2015\BUILD\LIBPNG\WIN32\RELEASE\PNGWUTIL.SBR
/nologo /o"BIN32\LIB\LIBPNG32.BSC" BUILD\LIBPNG\WIN32\RELEASE\PNG.SBR BUILD\LIBPNG\WIN32\RELEASE\PNGERROR.SBR BUILD\LIBPNG\WIN32\RELEASE\PNGGET.SBR BUILD\LIBPNG\WIN32\RELEASE\PNGMEM.SBR BUILD\LIBPNG\WIN32\RELEASE\PNGPREAD.SBR BUILD\LIBPNG\WIN32\RELEASE\PNGREAD.SBR BUILD\LIBPNG\WIN32\RELEASE\PNGRIO.SBR BUILD\LIBPNG\WIN32\RELEASE\PNGRTRAN.SBR BUILD\LIBPNG\WIN32\RELEASE\PNGRUTIL.SBR BUILD\LIBPNG\WIN32\RELEASE\PNGSET.SBR BUILD\LIBPNG\WIN32\RELEASE\PNGTRANS.SBR BUILD\LIBPNG\WIN32\RELEASE\PNGWIO.SBR BUILD\LIBPNG\WIN32\RELEASE\PNGWRITE.SBR BUILD\LIBPNG\WIN32\RELEASE\PNGWTRAN.SBR BUILD\LIBPNG\WIN32\RELEASE\PNGWUTIL.SBR
^D:\POV-RAY\POV-RAY SOURCES\NORMAL MINUS\POVRAY\WINDOWS\VS2015\BUILD\LIBPNG\WIN32\RELEASE\PNG.SBR|D:\POV-RAY\POV-RAY SOURCES\NORMAL MINUS\POVRAY\WINDOWS\VS2015\BUILD\LIBPNG\WIN32\RELEASE\PNGERROR.SBR|D:\POV-RAY\POV-RAY SOURCES\NORMAL MINUS\POVRAY\WINDOWS\VS2015\BUILD\LIBPNG\WIN32\RELEASE\PNGGET.SBR|D:\POV-RAY\POV-RAY SOURCES\NORMAL MINUS\POVRAY\WINDOWS\VS2015\BUILD\LIBPNG\WIN32\RELEASE\PNGMEM.SBR|D:\POV-RAY\POV-RAY SOURCES\NORMAL MINUS\POVRAY\WINDOWS\VS2015\BUILD\LIBPNG\WIN32\RELEASE\PNGPREAD.SBR|D:\POV-RAY\POV-RAY SOURCES\NORMAL MINUS\POVRAY\WINDOWS\VS2015\BUILD\LIBPNG\WIN32\RELEASE\PNGREAD.SBR|D:\POV-RAY\POV-RAY SOURCES\NORMAL MINUS\POVRAY\WINDOWS\VS2015\BUILD\LIBPNG\WIN32\RELEASE\PNGRIO.SBR|D:\POV-RAY\POV-RAY SOURCES\NORMAL MINUS\POVRAY\WINDOWS\VS2015\BUILD\LIBPNG\WIN32\RELEASE\PNGRTRAN.SBR|D:\POV-RAY\POV-RAY SOURCES\NORMAL MINUS\POVRAY\WINDOWS\VS2015\BUILD\LIBPNG\WIN32\RELEASE\PNGRUTIL.SBR|D:\POV-RAY\POV-RAY SOURCES\NORMAL MINUS\POVRAY\WINDOWS\VS2015\BUILD\LIBPNG\WIN32\RELEASE\PNGSET.SBR|D:\POV-RAY\POV-RAY SOURCES\NORMAL MINUS\POVRAY\WINDOWS\VS2015\BUILD\LIBPNG\WIN32\RELEASE\PNGTRANS.SBR|D:\POV-RAY\POV-RAY SOURCES\NORMAL MINUS\POVRAY\WINDOWS\VS2015\BUILD\LIBPNG\WIN32\RELEASE\PNGWIO.SBR|D:\POV-RAY\POV-RAY SOURCES\NORMAL MINUS\POVRAY\WINDOWS\VS2015\BUILD\LIBPNG\WIN32\RELEASE\PNGWRITE.SBR|D:\POV-RAY\POV-RAY SOURCES\NORMAL MINUS\POVRAY\WINDOWS\VS2015\BUILD\LIBPNG\WIN32\RELEASE\PNGWTRAN.SBR|D:\POV-RAY\POV-RAY SOURCES\NORMAL MINUS\POVRAY\WINDOWS\VS2015\BUILD\LIBPNG\WIN32\RELEASE\PNGWUTIL.SBR
/nologo /o"BIN32\LIB\LIBPNG32.BSC" BUILD\LIBPNG\WIN32\RELEASE\PNG.SBR BUILD\LIBPNG\WIN32\RELEASE\PNGERROR.SBR BUILD\LIBPNG\WIN32\RELEASE\PNGGET.SBR BUILD\LIBPNG\WIN32\RELEASE\PNGMEM.SBR BUILD\LIBPNG\WIN32\RELEASE\PNGPREAD.SBR BUILD\LIBPNG\WIN32\RELEASE\PNGREAD.SBR BUILD\LIBPNG\WIN32\RELEASE\PNGRIO.SBR BUILD\LIBPNG\WIN32\RELEASE\PNGRTRAN.SBR BUILD\LIBPNG\WIN32\RELEASE\PNGRUTIL.SBR BUILD\LIBPNG\WIN32\RELEASE\PNGSET.SBR BUILD\LIBPNG\WIN32\RELEASE\PNGTRANS.SBR BUILD\LIBPNG\WIN32\RELEASE\PNGWIO.SBR BUILD\LIBPNG\WIN32\RELEASE\PNGWRITE.SBR BUILD\LIBPNG\WIN32\RELEASE\PNGWTRAN.SBR BUILD\LIBPNG\WIN32\RELEASE\PNGWUTIL.SBR
