^C:\USERS\MATTHEW MCCOMB\DOCUMENTS\GITHUB\POVRAY\WINDOWS\VS2015\BUILD\POVMS\WIN32\RELEASE\POVMS.SBR|C:\USERS\MATTHEW MCCOMB\DOCUMENTS\GITHUB\POVRAY\WINDOWS\VS2015\BUILD\POVMS\WIN32\RELEASE\POVMSCPP.SBR|C:\USERS\MATTHEW MCCOMB\DOCUMENTS\GITHUB\POVRAY\WINDOWS\VS2015\BUILD\POVMS\WIN32\RELEASE\POVMSUTIL.SBR|C:\USERS\MATTHEW MCCOMB\DOCUMENTS\GITHUB\POVRAY\WINDOWS\VS2015\BUILD\POVMS\WIN32\RELEASE\PRECOMP.SBR
C:\WINDOWS\SYSTEM32\TZRES.DLL
C:\USERS\MATTHEW MCCOMB\DOCUMENTS\GITHUB\POVRAY\WINDOWS\VS2015\BUILD\POVMS\WIN32\RELEASE\POVMS.SBR
C:\USERS\MATTHEW MCCOMB\DOCUMENTS\GITHUB\POVRAY\WINDOWS\VS2015\BUILD\POVMS\WIN32\RELEASE\POVMSCPP.SBR
C:\USERS\MATTHEW MCCOMB\DOCUMENTS\GITHUB\POVRAY\WINDOWS\VS2015\BUILD\POVMS\WIN32\RELEASE\POVMSUTIL.SBR
C:\USERS\MATTHEW MCCOMB\DOCUMENTS\GITHUB\POVRAY\WINDOWS\VS2015\BUILD\POVMS\WIN32\RELEASE\PRECOMP.SBR
^D:\POV-RAY\POV-RAY SOURCES\MIDDLE\POVRAY\WINDOWS\VS2015\BUILD\POVMS\WIN32\RELEASE\POVMS.SBR|D:\POV-RAY\POV-RAY SOURCES\MIDDLE\POVRAY\WINDOWS\VS2015\BUILD\POVMS\WIN32\RELEASE\POVMSCPP.SBR|D:\POV-RAY\POV-RAY SOURCES\MIDDLE\POVRAY\WINDOWS\VS2015\BUILD\POVMS\WIN32\RELEASE\POVMSUTIL.SBR|D:\POV-RAY\POV-RAY SOURCES\MIDDLE\POVRAY\WINDOWS\VS2015\BUILD\POVMS\WIN32\RELEASE\PRECOMP.SBR
C:\WINDOWS\SYSTEM32\TZRES.DLL
D:\POV-RAY\POV-RAY SOURCES\MIDDLE\POVRAY\WINDOWS\VS2015\BIN32\LIB\POVMS32.BSC
D:\POV-RAY\POV-RAY SOURCES\MIDDLE\POVRAY\WINDOWS\VS2015\BUILD\POVMS\WIN32\RELEASE\POVMS.SBR
D:\POV-RAY\POV-RAY SOURCES\MIDDLE\POVRAY\WINDOWS\VS2015\BUILD\POVMS\WIN32\RELEASE\POVMSCPP.SBR
D:\POV-RAY\POV-RAY SOURCES\MIDDLE\POVRAY\WINDOWS\VS2015\BUILD\POVMS\WIN32\RELEASE\POVMSUTIL.SBR
D:\POV-RAY\POV-RAY SOURCES\MIDDLE\POVRAY\WINDOWS\VS2015\BUILD\POVMS\WIN32\RELEASE\PRECOMP.SBR
