^C:\USERS\MATTHEW MCCOMB\DOCUMENTS\GITHUB\POVRAY\SOURCE\POVMS\PRECOMP.CPP
/c /I..\..\INTERNAL\WINDOWS /I..\..\PLATFORM\X86 /I..\..\PLATFORM\WINDOWS /I..\..\WINDOWS\POVCONFIG /I..\..\LIBRARIES\OPENEXR\ILMIMF /I..\..\LIBRARIES\ILMBASE\HALF /I..\..\LIBRARIES\ILMBASE\IMATH /I..\..\LIBRARIES\ILMBASE\IEX /I..\..\LIBRARIES\BOOST /I..\..\VFE\WIN /I..\..\VFE /I..\..\SOURCE /I..\..\LIBRARIES\JPEG /I..\..\LIBRARIES\ZLIB /I..\..\LIBRARIES\PNG /I..\..\LIBRARIES\TIFF\LIBTIFF /Zi /nologo /W3 /WX- /Ox /Ob2 /Oi /Ot /Oy- /GL /D BOOST_ALL_NO_LIB /D NON_UNIX_OPENEXR_HEADERS /D NDEBUG /D WIN32 /D WIN32_LEAN_AND_MEAN /D _WINDOWS /D COMMONCTRL_VERSION=0x500 /D CLASSLIB_DEFS_H /D WINVER=0x0500 /D _WIN32_WINNT=0x0500 /D NOMINMAX /D ISOLATION_AWARE_ENABLED /D _CRT_SECURE_NO_DEPRECATE /D _SECURE_SCL=0 /GF /Gm- /EHsc /MT /GS- /fp:precise /fp:except- /Zc:wchar_t /Zc:forScope /Zc:inline /GR /Yc"precomp.h" /Fp"BUILD\POVMS\WIN32\RELEASE\PRECOMP.PCH" /Fo"BUILD\POVMS\WIN32\RELEASE\\" /Fd"BUILD\POVMS\WIN32\RELEASE\POVMS.PDB" /FR"build\povms\Win32\Release\\" /Gd /TP /wd4800 /wd4355 /FIPRECOMP.H /analyze- C:\USERS\MATTHEW MCCOMB\DOCUMENTS\GITHUB\POVRAY\SOURCE\POVMS\PRECOMP.CPP
^C:\USERS\MATTHEW MCCOMB\DOCUMENTS\GITHUB\POVRAY\SOURCE\POVMS\POVMS.CPP
/c /I..\..\INTERNAL\WINDOWS /I..\..\PLATFORM\X86 /I..\..\PLATFORM\WINDOWS /I..\..\WINDOWS\POVCONFIG /I..\..\LIBRARIES\OPENEXR\ILMIMF /I..\..\LIBRARIES\ILMBASE\HALF /I..\..\LIBRARIES\ILMBASE\IMATH /I..\..\LIBRARIES\ILMBASE\IEX /I..\..\LIBRARIES\BOOST /I..\..\VFE\WIN /I..\..\VFE /I..\..\SOURCE /I..\..\LIBRARIES\JPEG /I..\..\LIBRARIES\ZLIB /I..\..\LIBRARIES\PNG /I..\..\LIBRARIES\TIFF\LIBTIFF /Zi /nologo /W3 /WX- /Ox /Ob2 /Oi /Ot /Oy- /GL /D BOOST_ALL_NO_LIB /D NON_UNIX_OPENEXR_HEADERS /D NDEBUG /D WIN32 /D WIN32_LEAN_AND_MEAN /D _WINDOWS /D COMMONCTRL_VERSION=0x500 /D CLASSLIB_DEFS_H /D WINVER=0x0500 /D _WIN32_WINNT=0x0500 /D NOMINMAX /D ISOLATION_AWARE_ENABLED /D _CRT_SECURE_NO_DEPRECATE /D _SECURE_SCL=0 /GF /Gm- /EHsc /MT /GS- /fp:precise /fp:except- /Zc:wchar_t /Zc:forScope /Zc:inline /GR /Yu"precomp.h" /Fp"BUILD\POVMS\WIN32\RELEASE\PRECOMP.PCH" /Fo"BUILD\POVMS\WIN32\RELEASE\\" /Fd"BUILD\POVMS\WIN32\RELEASE\POVMS.PDB" /FR"build\povms\Win32\Release\\" /Gd /TP /wd4800 /wd4355 /FIPRECOMP.H /analyze- C:\USERS\MATTHEW MCCOMB\DOCUMENTS\GITHUB\POVRAY\SOURCE\POVMS\POVMS.CPP
^C:\USERS\MATTHEW MCCOMB\DOCUMENTS\GITHUB\POVRAY\SOURCE\POVMS\POVMSCPP.CPP
/c /I..\..\INTERNAL\WINDOWS /I..\..\PLATFORM\X86 /I..\..\PLATFORM\WINDOWS /I..\..\WINDOWS\POVCONFIG /I..\..\LIBRARIES\OPENEXR\ILMIMF /I..\..\LIBRARIES\ILMBASE\HALF /I..\..\LIBRARIES\ILMBASE\IMATH /I..\..\LIBRARIES\ILMBASE\IEX /I..\..\LIBRARIES\BOOST /I..\..\VFE\WIN /I..\..\VFE /I..\..\SOURCE /I..\..\LIBRARIES\JPEG /I..\..\LIBRARIES\ZLIB /I..\..\LIBRARIES\PNG /I..\..\LIBRARIES\TIFF\LIBTIFF /Zi /nologo /W3 /WX- /Ox /Ob2 /Oi /Ot /Oy- /GL /D BOOST_ALL_NO_LIB /D NON_UNIX_OPENEXR_HEADERS /D NDEBUG /D WIN32 /D WIN32_LEAN_AND_MEAN /D _WINDOWS /D COMMONCTRL_VERSION=0x500 /D CLASSLIB_DEFS_H /D WINVER=0x0500 /D _WIN32_WINNT=0x0500 /D NOMINMAX /D ISOLATION_AWARE_ENABLED /D _CRT_SECURE_NO_DEPRECATE /D _SECURE_SCL=0 /GF /Gm- /EHsc /MT /GS- /fp:precise /fp:except- /Zc:wchar_t /Zc:forScope /Zc:inline /GR /Yu"precomp.h" /Fp"BUILD\POVMS\WIN32\RELEASE\PRECOMP.PCH" /Fo"BUILD\POVMS\WIN32\RELEASE\\" /Fd"BUILD\POVMS\WIN32\RELEASE\POVMS.PDB" /FR"build\povms\Win32\Release\\" /Gd /TP /wd4800 /wd4355 /FIPRECOMP.H /analyze- C:\USERS\MATTHEW MCCOMB\DOCUMENTS\GITHUB\POVRAY\SOURCE\POVMS\POVMSCPP.CPP
^C:\USERS\MATTHEW MCCOMB\DOCUMENTS\GITHUB\POVRAY\SOURCE\POVMS\POVMSUTIL.CPP
/c /I..\..\INTERNAL\WINDOWS /I..\..\PLATFORM\X86 /I..\..\PLATFORM\WINDOWS /I..\..\WINDOWS\POVCONFIG /I..\..\LIBRARIES\OPENEXR\ILMIMF /I..\..\LIBRARIES\ILMBASE\HALF /I..\..\LIBRARIES\ILMBASE\IMATH /I..\..\LIBRARIES\ILMBASE\IEX /I..\..\LIBRARIES\BOOST /I..\..\VFE\WIN /I..\..\VFE /I..\..\SOURCE /I..\..\LIBRARIES\JPEG /I..\..\LIBRARIES\ZLIB /I..\..\LIBRARIES\PNG /I..\..\LIBRARIES\TIFF\LIBTIFF /Zi /nologo /W3 /WX- /Ox /Ob2 /Oi /Ot /Oy- /GL /D BOOST_ALL_NO_LIB /D NON_UNIX_OPENEXR_HEADERS /D NDEBUG /D WIN32 /D WIN32_LEAN_AND_MEAN /D _WINDOWS /D COMMONCTRL_VERSION=0x500 /D CLASSLIB_DEFS_H /D WINVER=0x0500 /D _WIN32_WINNT=0x0500 /D NOMINMAX /D ISOLATION_AWARE_ENABLED /D _CRT_SECURE_NO_DEPRECATE /D _SECURE_SCL=0 /GF /Gm- /EHsc /MT /GS- /fp:precise /fp:except- /Zc:wchar_t /Zc:forScope /Zc:inline /GR /Yu"precomp.h" /Fp"BUILD\POVMS\WIN32\RELEASE\PRECOMP.PCH" /Fo"BUILD\POVMS\WIN32\RELEASE\\" /Fd"BUILD\POVMS\WIN32\RELEASE\POVMS.PDB" /FR"build\povms\Win32\Release\\" /Gd /TP /wd4800 /wd4355 /FIPRECOMP.H /analyze- C:\USERS\MATTHEW MCCOMB\DOCUMENTS\GITHUB\POVRAY\SOURCE\POVMS\POVMSUTIL.CPP
^D:\POV-RAY\POV-RAY SOURCES\MIDDLE\POVRAY\SOURCE\POVMS\PRECOMP.CPP
/c /I..\..\INTERNAL\WINDOWS /I..\..\PLATFORM\X86 /I..\..\PLATFORM\WINDOWS /I..\..\WINDOWS\POVCONFIG /I..\..\LIBRARIES\OPENEXR\ILMIMF /I..\..\LIBRARIES\ILMBASE\HALF /I..\..\LIBRARIES\ILMBASE\IMATH /I..\..\LIBRARIES\ILMBASE\IEX /I..\..\LIBRARIES\BOOST /I..\..\VFE\WIN /I..\..\VFE /I..\..\SOURCE /I..\..\LIBRARIES\JPEG /I..\..\LIBRARIES\ZLIB /I..\..\LIBRARIES\PNG /I..\..\LIBRARIES\TIFF\LIBTIFF /Zi /nologo /W3 /WX- /Ox /Ob2 /Oi /Ot /Oy- /GL /D BOOST_ALL_NO_LIB /D NON_UNIX_OPENEXR_HEADERS /D NDEBUG /D WIN32 /D WIN32_LEAN_AND_MEAN /D _WINDOWS /D COMMONCTRL_VERSION=0x500 /D CLASSLIB_DEFS_H /D WINVER=0x0500 /D _WIN32_WINNT=0x0500 /D NOMINMAX /D ISOLATION_AWARE_ENABLED /D _CRT_SECURE_NO_DEPRECATE /D _SECURE_SCL=0 /GF /Gm- /EHsc /MT /GS- /fp:precise /fp:except- /Zc:wchar_t /Zc:forScope /Zc:inline /GR /Yc"precomp.h" /Fp"BUILD\POVMS\WIN32\RELEASE\PRECOMP.PCH" /Fo"BUILD\POVMS\WIN32\RELEASE\\" /Fd"BUILD\POVMS\WIN32\RELEASE\POVMS.PDB" /FR"build\povms\Win32\Release\\" /Gd /TP /wd4800 /wd4355 /FIPRECOMP.H /analyze- D:\POV-RAY\POV-RAY SOURCES\MIDDLE\POVRAY\SOURCE\POVMS\PRECOMP.CPP
^D:\POV-RAY\POV-RAY SOURCES\MIDDLE\POVRAY\SOURCE\POVMS\POVMS.CPP
/c /I..\..\INTERNAL\WINDOWS /I..\..\PLATFORM\X86 /I..\..\PLATFORM\WINDOWS /I..\..\WINDOWS\POVCONFIG /I..\..\LIBRARIES\OPENEXR\ILMIMF /I..\..\LIBRARIES\ILMBASE\HALF /I..\..\LIBRARIES\ILMBASE\IMATH /I..\..\LIBRARIES\ILMBASE\IEX /I..\..\LIBRARIES\BOOST /I..\..\VFE\WIN /I..\..\VFE /I..\..\SOURCE /I..\..\LIBRARIES\JPEG /I..\..\LIBRARIES\ZLIB /I..\..\LIBRARIES\PNG /I..\..\LIBRARIES\TIFF\LIBTIFF /Zi /nologo /W3 /WX- /Ox /Ob2 /Oi /Ot /Oy- /GL /D BOOST_ALL_NO_LIB /D NON_UNIX_OPENEXR_HEADERS /D NDEBUG /D WIN32 /D WIN32_LEAN_AND_MEAN /D _WINDOWS /D COMMONCTRL_VERSION=0x500 /D CLASSLIB_DEFS_H /D WINVER=0x0500 /D _WIN32_WINNT=0x0500 /D NOMINMAX /D ISOLATION_AWARE_ENABLED /D _CRT_SECURE_NO_DEPRECATE /D _SECURE_SCL=0 /GF /Gm- /EHsc /MT /GS- /fp:precise /fp:except- /Zc:wchar_t /Zc:forScope /Zc:inline /GR /Yu"precomp.h" /Fp"BUILD\POVMS\WIN32\RELEASE\PRECOMP.PCH" /Fo"BUILD\POVMS\WIN32\RELEASE\\" /Fd"BUILD\POVMS\WIN32\RELEASE\POVMS.PDB" /FR"build\povms\Win32\Release\\" /Gd /TP /wd4800 /wd4355 /FIPRECOMP.H /analyze- D:\POV-RAY\POV-RAY SOURCES\MIDDLE\POVRAY\SOURCE\POVMS\POVMS.CPP
^D:\POV-RAY\POV-RAY SOURCES\MIDDLE\POVRAY\SOURCE\POVMS\POVMSCPP.CPP
/c /I..\..\INTERNAL\WINDOWS /I..\..\PLATFORM\X86 /I..\..\PLATFORM\WINDOWS /I..\..\WINDOWS\POVCONFIG /I..\..\LIBRARIES\OPENEXR\ILMIMF /I..\..\LIBRARIES\ILMBASE\HALF /I..\..\LIBRARIES\ILMBASE\IMATH /I..\..\LIBRARIES\ILMBASE\IEX /I..\..\LIBRARIES\BOOST /I..\..\VFE\WIN /I..\..\VFE /I..\..\SOURCE /I..\..\LIBRARIES\JPEG /I..\..\LIBRARIES\ZLIB /I..\..\LIBRARIES\PNG /I..\..\LIBRARIES\TIFF\LIBTIFF /Zi /nologo /W3 /WX- /Ox /Ob2 /Oi /Ot /Oy- /GL /D BOOST_ALL_NO_LIB /D NON_UNIX_OPENEXR_HEADERS /D NDEBUG /D WIN32 /D WIN32_LEAN_AND_MEAN /D _WINDOWS /D COMMONCTRL_VERSION=0x500 /D CLASSLIB_DEFS_H /D WINVER=0x0500 /D _WIN32_WINNT=0x0500 /D NOMINMAX /D ISOLATION_AWARE_ENABLED /D _CRT_SECURE_NO_DEPRECATE /D _SECURE_SCL=0 /GF /Gm- /EHsc /MT /GS- /fp:precise /fp:except- /Zc:wchar_t /Zc:forScope /Zc:inline /GR /Yu"precomp.h" /Fp"BUILD\POVMS\WIN32\RELEASE\PRECOMP.PCH" /Fo"BUILD\POVMS\WIN32\RELEASE\\" /Fd"BUILD\POVMS\WIN32\RELEASE\POVMS.PDB" /FR"build\povms\Win32\Release\\" /Gd /TP /wd4800 /wd4355 /FIPRECOMP.H /analyze- D:\POV-RAY\POV-RAY SOURCES\MIDDLE\POVRAY\SOURCE\POVMS\POVMSCPP.CPP
^D:\POV-RAY\POV-RAY SOURCES\MIDDLE\POVRAY\SOURCE\POVMS\POVMSUTIL.CPP
/c /I..\..\INTERNAL\WINDOWS /I..\..\PLATFORM\X86 /I..\..\PLATFORM\WINDOWS /I..\..\WINDOWS\POVCONFIG /I..\..\LIBRARIES\OPENEXR\ILMIMF /I..\..\LIBRARIES\ILMBASE\HALF /I..\..\LIBRARIES\ILMBASE\IMATH /I..\..\LIBRARIES\ILMBASE\IEX /I..\..\LIBRARIES\BOOST /I..\..\VFE\WIN /I..\..\VFE /I..\..\SOURCE /I..\..\LIBRARIES\JPEG /I..\..\LIBRARIES\ZLIB /I..\..\LIBRARIES\PNG /I..\..\LIBRARIES\TIFF\LIBTIFF /Zi /nologo /W3 /WX- /Ox /Ob2 /Oi /Ot /Oy- /GL /D BOOST_ALL_NO_LIB /D NON_UNIX_OPENEXR_HEADERS /D NDEBUG /D WIN32 /D WIN32_LEAN_AND_MEAN /D _WINDOWS /D COMMONCTRL_VERSION=0x500 /D CLASSLIB_DEFS_H /D WINVER=0x0500 /D _WIN32_WINNT=0x0500 /D NOMINMAX /D ISOLATION_AWARE_ENABLED /D _CRT_SECURE_NO_DEPRECATE /D _SECURE_SCL=0 /GF /Gm- /EHsc /MT /GS- /fp:precise /fp:except- /Zc:wchar_t /Zc:forScope /Zc:inline /GR /Yu"precomp.h" /Fp"BUILD\POVMS\WIN32\RELEASE\PRECOMP.PCH" /Fo"BUILD\POVMS\WIN32\RELEASE\\" /Fd"BUILD\POVMS\WIN32\RELEASE\POVMS.PDB" /FR"build\povms\Win32\Release\\" /Gd /TP /wd4800 /wd4355 /FIPRECOMP.H /analyze- D:\POV-RAY\POV-RAY SOURCES\MIDDLE\POVRAY\SOURCE\POVMS\POVMSUTIL.CPP
