^C:\USERS\MATTHEW MCCOMB\DOCUMENTS\GITHUB\POVRAY\WINDOWS\VS2015\BUILD\POVMS\WIN32\RELEASE\POVMS.OBJ|C:\USERS\MATTHEW MCCOMB\DOCUMENTS\GITHUB\POVRAY\WINDOWS\VS2015\BUILD\POVMS\WIN32\RELEASE\POVMSCPP.OBJ|C:\USERS\MATTHEW MCCOMB\DOCUMENTS\GITHUB\POVRAY\WINDOWS\VS2015\BUILD\POVMS\WIN32\RELEASE\POVMSUTIL.OBJ|C:\USERS\MATTHEW MCCOMB\DOCUMENTS\GITHUB\POVRAY\WINDOWS\VS2015\BUILD\POVMS\WIN32\RELEASE\PRECOMP.OBJ
C:\USERS\MATTHEW MCCOMB\DOCUMENTS\GITHUB\POVRAY\WINDOWS\VS2015\BIN32\LIB\POVMS32.LIB
^D:\POV-RAY\POV-RAY SOURCES\MIDDLE\POVRAY\WINDOWS\VS2015\BUILD\POVMS\WIN32\RELEASE\POVMS.OBJ|D:\POV-RAY\POV-RAY SOURCES\MIDDLE\POVRAY\WINDOWS\VS2015\BUILD\POVMS\WIN32\RELEASE\POVMSCPP.OBJ|D:\POV-RAY\POV-RAY SOURCES\MIDDLE\POVRAY\WINDOWS\VS2015\BUILD\POVMS\WIN32\RELEASE\POVMSUTIL.OBJ|D:\POV-RAY\POV-RAY SOURCES\MIDDLE\POVRAY\WINDOWS\VS2015\BUILD\POVMS\WIN32\RELEASE\PRECOMP.OBJ
D:\POV-RAY\POV-RAY SOURCES\MIDDLE\POVRAY\WINDOWS\VS2015\BIN32\LIB\POVMS32.LIB
