^D:\POV-RAY\POV-RAY SOURCES\FLOAT\POVRAYFLOAT\WINDOWS\VS2015\BUILD\POVVM\WIN32\RELEASE\FNINTERN.SBR|D:\POV-RAY\POV-RAY SOURCES\FLOAT\POVRAYFLOAT\WINDOWS\VS2015\BUILD\POVVM\WIN32\RELEASE\FNPOVFPU.SBR|D:\POV-RAY\POV-RAY SOURCES\FLOAT\POVRAYFLOAT\WINDOWS\VS2015\BUILD\POVVM\WIN32\RELEASE\PRECOMP.SBR
C:\WINDOWS\SYSTEM32\TZRES.DLL
D:\POV-RAY\POV-RAY SOURCES\FLOAT\POVRAYFLOAT\WINDOWS\VS2015\BIN32\LIB\POVVM32.BSC
D:\POV-RAY\POV-RAY SOURCES\FLOAT\POVRAYFLOAT\WINDOWS\VS2015\BUILD\POVVM\WIN32\RELEASE\FNINTERN.SBR
D:\POV-RAY\POV-RAY SOURCES\FLOAT\POVRAYFLOAT\WINDOWS\VS2015\BUILD\POVVM\WIN32\RELEASE\FNPOVFPU.SBR
D:\POV-RAY\POV-RAY SOURCES\FLOAT\POVRAYFLOAT\WINDOWS\VS2015\BUILD\POVVM\WIN32\RELEASE\PRECOMP.SBR
