^D:\POV-RAY\POV-RAY SOURCES\FLOAT\POVRAYFLOAT\WINDOWS\VS2015\BUILD\POVVM\WIN32\RELEASE\FNINTERN.OBJ|D:\POV-RAY\POV-RAY SOURCES\FLOAT\POVRAYFLOAT\WINDOWS\VS2015\BUILD\POVVM\WIN32\RELEASE\FNPOVFPU.OBJ|D:\POV-RAY\POV-RAY SOURCES\FLOAT\POVRAYFLOAT\WINDOWS\VS2015\BUILD\POVVM\WIN32\RELEASE\PRECOMP.OBJ
C:\PROGRAM FILES (X86)\MICROSOFT VISUAL STUDIO 14.0\VC\BIN\VCTIP.EXE
C:\WINDOWS\SYSTEM32\TZRES.DLL
C:\WINDOWS\GLOBALIZATION\SORTING\SORTDEFAULT.NLS
D:\POV-RAY\POV-RAY SOURCES\FLOAT\POVRAYFLOAT\WINDOWS\VS2015\BUILD\POVVM\WIN32\RELEASE\FNINTERN.OBJ
D:\POV-RAY\POV-RAY SOURCES\FLOAT\POVRAYFLOAT\WINDOWS\VS2015\BUILD\POVVM\WIN32\RELEASE\FNPOVFPU.OBJ
D:\POV-RAY\POV-RAY SOURCES\FLOAT\POVRAYFLOAT\WINDOWS\VS2015\BUILD\POVVM\WIN32\RELEASE\PRECOMP.OBJ
