^C:\USERS\MATTHEW MCCOMB\DOCUMENTS\GITHUB\POVRAY\LIBRARIES\TIFF\LIBTIFF\TIF_AUX.C
C:\USERS\MATTHEW MCCOMB\DOCUMENTS\GITHUB\POVRAY\WINDOWS\VS2015\BUILD\TIFF\WIN32\RELEASE\TIFF.PDB
^C:\USERS\MATTHEW MCCOMB\DOCUMENTS\GITHUB\POVRAY\LIBRARIES\TIFF\LIBTIFF\TIF_CLOSE.C
C:\USERS\MATTHEW MCCOMB\DOCUMENTS\GITHUB\POVRAY\WINDOWS\VS2015\BUILD\TIFF\WIN32\RELEASE\TIFF.PDB
^C:\USERS\MATTHEW MCCOMB\DOCUMENTS\GITHUB\POVRAY\LIBRARIES\TIFF\LIBTIFF\TIF_CODEC.C
C:\USERS\MATTHEW MCCOMB\DOCUMENTS\GITHUB\POVRAY\WINDOWS\VS2015\BUILD\TIFF\WIN32\RELEASE\TIFF.PDB
^C:\USERS\MATTHEW MCCOMB\DOCUMENTS\GITHUB\POVRAY\LIBRARIES\TIFF\LIBTIFF\TIF_COLOR.C
C:\USERS\MATTHEW MCCOMB\DOCUMENTS\GITHUB\POVRAY\WINDOWS\VS2015\BUILD\TIFF\WIN32\RELEASE\TIFF.PDB
^C:\USERS\MATTHEW MCCOMB\DOCUMENTS\GITHUB\POVRAY\LIBRARIES\TIFF\LIBTIFF\TIF_COMPRESS.C
C:\USERS\MATTHEW MCCOMB\DOCUMENTS\GITHUB\POVRAY\WINDOWS\VS2015\BUILD\TIFF\WIN32\RELEASE\TIFF.PDB
^C:\USERS\MATTHEW MCCOMB\DOCUMENTS\GITHUB\POVRAY\LIBRARIES\TIFF\LIBTIFF\TIF_DIR.C
C:\USERS\MATTHEW MCCOMB\DOCUMENTS\GITHUB\POVRAY\WINDOWS\VS2015\BUILD\TIFF\WIN32\RELEASE\TIFF.PDB
^C:\USERS\MATTHEW MCCOMB\DOCUMENTS\GITHUB\POVRAY\LIBRARIES\TIFF\LIBTIFF\TIF_DIRINFO.C
C:\USERS\MATTHEW MCCOMB\DOCUMENTS\GITHUB\POVRAY\WINDOWS\VS2015\BUILD\TIFF\WIN32\RELEASE\TIFF.PDB
^C:\USERS\MATTHEW MCCOMB\DOCUMENTS\GITHUB\POVRAY\LIBRARIES\TIFF\LIBTIFF\TIF_DIRREAD.C
C:\USERS\MATTHEW MCCOMB\DOCUMENTS\GITHUB\POVRAY\WINDOWS\VS2015\BUILD\TIFF\WIN32\RELEASE\TIFF.PDB
^C:\USERS\MATTHEW MCCOMB\DOCUMENTS\GITHUB\POVRAY\LIBRARIES\TIFF\LIBTIFF\TIF_DIRWRITE.C
C:\USERS\MATTHEW MCCOMB\DOCUMENTS\GITHUB\POVRAY\WINDOWS\VS2015\BUILD\TIFF\WIN32\RELEASE\TIFF.PDB
^C:\USERS\MATTHEW MCCOMB\DOCUMENTS\GITHUB\POVRAY\LIBRARIES\TIFF\LIBTIFF\TIF_DUMPMODE.C
C:\USERS\MATTHEW MCCOMB\DOCUMENTS\GITHUB\POVRAY\WINDOWS\VS2015\BUILD\TIFF\WIN32\RELEASE\TIFF.PDB
^C:\USERS\MATTHEW MCCOMB\DOCUMENTS\GITHUB\POVRAY\LIBRARIES\TIFF\LIBTIFF\TIF_ERROR.C
C:\USERS\MATTHEW MCCOMB\DOCUMENTS\GITHUB\POVRAY\WINDOWS\VS2015\BUILD\TIFF\WIN32\RELEASE\TIFF.PDB
^C:\USERS\MATTHEW MCCOMB\DOCUMENTS\GITHUB\POVRAY\LIBRARIES\TIFF\LIBTIFF\TIF_FAX3.C
C:\USERS\MATTHEW MCCOMB\DOCUMENTS\GITHUB\POVRAY\WINDOWS\VS2015\BUILD\TIFF\WIN32\RELEASE\TIFF.PDB
^C:\USERS\MATTHEW MCCOMB\DOCUMENTS\GITHUB\POVRAY\LIBRARIES\TIFF\LIBTIFF\TIF_FAX3SM.C
C:\USERS\MATTHEW MCCOMB\DOCUMENTS\GITHUB\POVRAY\WINDOWS\VS2015\BUILD\TIFF\WIN32\RELEASE\TIFF.PDB
^C:\USERS\MATTHEW MCCOMB\DOCUMENTS\GITHUB\POVRAY\LIBRARIES\TIFF\LIBTIFF\TIF_FLUSH.C
C:\USERS\MATTHEW MCCOMB\DOCUMENTS\GITHUB\POVRAY\WINDOWS\VS2015\BUILD\TIFF\WIN32\RELEASE\TIFF.PDB
^C:\USERS\MATTHEW MCCOMB\DOCUMENTS\GITHUB\POVRAY\LIBRARIES\TIFF\LIBTIFF\TIF_GETIMAGE.C
C:\USERS\MATTHEW MCCOMB\DOCUMENTS\GITHUB\POVRAY\WINDOWS\VS2015\BUILD\TIFF\WIN32\RELEASE\TIFF.PDB
^C:\USERS\MATTHEW MCCOMB\DOCUMENTS\GITHUB\POVRAY\LIBRARIES\TIFF\LIBTIFF\TIF_JPEG.C
C:\USERS\MATTHEW MCCOMB\DOCUMENTS\GITHUB\POVRAY\WINDOWS\VS2015\BUILD\TIFF\WIN32\RELEASE\TIFF.PDB
^C:\USERS\MATTHEW MCCOMB\DOCUMENTS\GITHUB\POVRAY\LIBRARIES\TIFF\LIBTIFF\TIF_LUV.C
C:\USERS\MATTHEW MCCOMB\DOCUMENTS\GITHUB\POVRAY\WINDOWS\VS2015\BUILD\TIFF\WIN32\RELEASE\TIFF.PDB
^C:\USERS\MATTHEW MCCOMB\DOCUMENTS\GITHUB\POVRAY\LIBRARIES\TIFF\LIBTIFF\TIF_LZW.C
C:\USERS\MATTHEW MCCOMB\DOCUMENTS\GITHUB\POVRAY\WINDOWS\VS2015\BUILD\TIFF\WIN32\RELEASE\TIFF.PDB
^C:\USERS\MATTHEW MCCOMB\DOCUMENTS\GITHUB\POVRAY\LIBRARIES\TIFF\LIBTIFF\TIF_NEXT.C
C:\USERS\MATTHEW MCCOMB\DOCUMENTS\GITHUB\POVRAY\WINDOWS\VS2015\BUILD\TIFF\WIN32\RELEASE\TIFF.PDB
^C:\USERS\MATTHEW MCCOMB\DOCUMENTS\GITHUB\POVRAY\LIBRARIES\TIFF\LIBTIFF\TIF_OPEN.C
C:\USERS\MATTHEW MCCOMB\DOCUMENTS\GITHUB\POVRAY\WINDOWS\VS2015\BUILD\TIFF\WIN32\RELEASE\TIFF.PDB
^C:\USERS\MATTHEW MCCOMB\DOCUMENTS\GITHUB\POVRAY\LIBRARIES\TIFF\LIBTIFF\TIF_PACKBITS.C
C:\USERS\MATTHEW MCCOMB\DOCUMENTS\GITHUB\POVRAY\WINDOWS\VS2015\BUILD\TIFF\WIN32\RELEASE\TIFF.PDB
^C:\USERS\MATTHEW MCCOMB\DOCUMENTS\GITHUB\POVRAY\LIBRARIES\TIFF\LIBTIFF\TIF_PIXARLOG.C
C:\USERS\MATTHEW MCCOMB\DOCUMENTS\GITHUB\POVRAY\WINDOWS\VS2015\BUILD\TIFF\WIN32\RELEASE\TIFF.PDB
^C:\USERS\MATTHEW MCCOMB\DOCUMENTS\GITHUB\POVRAY\LIBRARIES\TIFF\LIBTIFF\TIF_PREDICT.C
C:\USERS\MATTHEW MCCOMB\DOCUMENTS\GITHUB\POVRAY\WINDOWS\VS2015\BUILD\TIFF\WIN32\RELEASE\TIFF.PDB
^C:\USERS\MATTHEW MCCOMB\DOCUMENTS\GITHUB\POVRAY\LIBRARIES\TIFF\LIBTIFF\TIF_PRINT.C
C:\USERS\MATTHEW MCCOMB\DOCUMENTS\GITHUB\POVRAY\WINDOWS\VS2015\BUILD\TIFF\WIN32\RELEASE\TIFF.PDB
^C:\USERS\MATTHEW MCCOMB\DOCUMENTS\GITHUB\POVRAY\LIBRARIES\TIFF\LIBTIFF\TIF_READ.C
C:\USERS\MATTHEW MCCOMB\DOCUMENTS\GITHUB\POVRAY\WINDOWS\VS2015\BUILD\TIFF\WIN32\RELEASE\TIFF.PDB
^C:\USERS\MATTHEW MCCOMB\DOCUMENTS\GITHUB\POVRAY\LIBRARIES\TIFF\LIBTIFF\TIF_STRIP.C
C:\USERS\MATTHEW MCCOMB\DOCUMENTS\GITHUB\POVRAY\WINDOWS\VS2015\BUILD\TIFF\WIN32\RELEASE\TIFF.PDB
^C:\USERS\MATTHEW MCCOMB\DOCUMENTS\GITHUB\POVRAY\LIBRARIES\TIFF\LIBTIFF\TIF_SWAB.C
C:\USERS\MATTHEW MCCOMB\DOCUMENTS\GITHUB\POVRAY\WINDOWS\VS2015\BUILD\TIFF\WIN32\RELEASE\TIFF.PDB
^C:\USERS\MATTHEW MCCOMB\DOCUMENTS\GITHUB\POVRAY\LIBRARIES\TIFF\LIBTIFF\TIF_THUNDER.C
C:\USERS\MATTHEW MCCOMB\DOCUMENTS\GITHUB\POVRAY\WINDOWS\VS2015\BUILD\TIFF\WIN32\RELEASE\TIFF.PDB
^C:\USERS\MATTHEW MCCOMB\DOCUMENTS\GITHUB\POVRAY\LIBRARIES\TIFF\LIBTIFF\TIF_TILE.C
C:\USERS\MATTHEW MCCOMB\DOCUMENTS\GITHUB\POVRAY\WINDOWS\VS2015\BUILD\TIFF\WIN32\RELEASE\TIFF.PDB
^C:\USERS\MATTHEW MCCOMB\DOCUMENTS\GITHUB\POVRAY\LIBRARIES\TIFF\LIBTIFF\TIF_VERSION.C
C:\USERS\MATTHEW MCCOMB\DOCUMENTS\GITHUB\POVRAY\WINDOWS\VS2015\BUILD\TIFF\WIN32\RELEASE\TIFF.PDB
^C:\USERS\MATTHEW MCCOMB\DOCUMENTS\GITHUB\POVRAY\LIBRARIES\TIFF\LIBTIFF\TIF_WARNING.C
C:\USERS\MATTHEW MCCOMB\DOCUMENTS\GITHUB\POVRAY\WINDOWS\VS2015\BUILD\TIFF\WIN32\RELEASE\TIFF.PDB
^C:\USERS\MATTHEW MCCOMB\DOCUMENTS\GITHUB\POVRAY\LIBRARIES\TIFF\LIBTIFF\TIF_WIN32.C
C:\USERS\MATTHEW MCCOMB\DOCUMENTS\GITHUB\POVRAY\WINDOWS\VS2015\BUILD\TIFF\WIN32\RELEASE\TIFF.PDB
^C:\USERS\MATTHEW MCCOMB\DOCUMENTS\GITHUB\POVRAY\LIBRARIES\TIFF\LIBTIFF\TIF_WRITE.C
C:\USERS\MATTHEW MCCOMB\DOCUMENTS\GITHUB\POVRAY\WINDOWS\VS2015\BUILD\TIFF\WIN32\RELEASE\TIFF.PDB
^C:\USERS\MATTHEW MCCOMB\DOCUMENTS\GITHUB\POVRAY\LIBRARIES\TIFF\LIBTIFF\TIF_ZIP.C
C:\USERS\MATTHEW MCCOMB\DOCUMENTS\GITHUB\POVRAY\WINDOWS\VS2015\BUILD\TIFF\WIN32\RELEASE\TIFF.PDB
^C:\USERS\MATTHEW MCCOMB\DOCUMENTS\GITHUB\POVRAY\LIBRARIES\TIFF\LIBTIFF\TIF_AUX.C|C:\USERS\MATTHEW MCCOMB\DOCUMENTS\GITHUB\POVRAY\LIBRARIES\TIFF\LIBTIFF\TIF_CLOSE.C|C:\USERS\MATTHEW MCCOMB\DOCUMENTS\GITHUB\POVRAY\LIBRARIES\TIFF\LIBTIFF\TIF_CODEC.C|C:\USERS\MATTHEW MCCOMB\DOCUMENTS\GITHUB\POVRAY\LIBRARIES\TIFF\LIBTIFF\TIF_COLOR.C|C:\USERS\MATTHEW MCCOMB\DOCUMENTS\GITHUB\POVRAY\LIBRARIES\TIFF\LIBTIFF\TIF_COMPRESS.C|C:\USERS\MATTHEW MCCOMB\DOCUMENTS\GITHUB\POVRAY\LIBRARIES\TIFF\LIBTIFF\TIF_DIR.C|C:\USERS\MATTHEW MCCOMB\DOCUMENTS\GITHUB\POVRAY\LIBRARIES\TIFF\LIBTIFF\TIF_DIRINFO.C|C:\USERS\MATTHEW MCCOMB\DOCUMENTS\GITHUB\POVRAY\LIBRARIES\TIFF\LIBTIFF\TIF_DIRREAD.C|C:\USERS\MATTHEW MCCOMB\DOCUMENTS\GITHUB\POVRAY\LIBRARIES\TIFF\LIBTIFF\TIF_DIRWRITE.C|C:\USERS\MATTHEW MCCOMB\DOCUMENTS\GITHUB\POVRAY\LIBRARIES\TIFF\LIBTIFF\TIF_DUMPMODE.C|C:\USERS\MATTHEW MCCOMB\DOCUMENTS\GITHUB\POVRAY\LIBRARIES\TIFF\LIBTIFF\TIF_ERROR.C|C:\USERS\MATTHEW MCCOMB\DOCUMENTS\GITHUB\POVRAY\LIBRARIES\TIFF\LIBTIFF\TIF_FAX3.C|C:\USERS\MATTHEW MCCOMB\DOCUMENTS\GITHUB\POVRAY\LIBRARIES\TIFF\LIBTIFF\TIF_FAX3SM.C|C:\USERS\MATTHEW MCCOMB\DOCUMENTS\GITHUB\POVRAY\LIBRARIES\TIFF\LIBTIFF\TIF_FLUSH.C|C:\USERS\MATTHEW MCCOMB\DOCUMENTS\GITHUB\POVRAY\LIBRARIES\TIFF\LIBTIFF\TIF_GETIMAGE.C|C:\USERS\MATTHEW MCCOMB\DOCUMENTS\GITHUB\POVRAY\LIBRARIES\TIFF\LIBTIFF\TIF_JPEG.C|C:\USERS\MATTHEW MCCOMB\DOCUMENTS\GITHUB\POVRAY\LIBRARIES\TIFF\LIBTIFF\TIF_LUV.C|C:\USERS\MATTHEW MCCOMB\DOCUMENTS\GITHUB\POVRAY\LIBRARIES\TIFF\LIBTIFF\TIF_LZW.C|C:\USERS\MATTHEW MCCOMB\DOCUMENTS\GITHUB\POVRAY\LIBRARIES\TIFF\LIBTIFF\TIF_NEXT.C|C:\USERS\MATTHEW MCCOMB\DOCUMENTS\GITHUB\POVRAY\LIBRARIES\TIFF\LIBTIFF\TIF_OPEN.C|C:\USERS\MATTHEW MCCOMB\DOCUMENTS\GITHUB\POVRAY\LIBRARIES\TIFF\LIBTIFF\TIF_PACKBITS.C|C:\USERS\MATTHEW MCCOMB\DOCUMENTS\GITHUB\POVRAY\LIBRARIES\TIFF\LIBTIFF\TIF_PIXARLOG.C|C:\USERS\MATTHEW MCCOMB\DOCUMENTS\GITHUB\POVRAY\LIBRARIES\TIFF\LIBTIFF\TIF_PREDICT.C|C:\USERS\MATTHEW MCCOMB\DOCUMENTS\GITHUB\POVRAY\LIBRARIES\TIFF\LIBTIFF\TIF_PRINT.C|C:\USERS\MATTHEW MCCOMB\DOCUMENTS\GITHUB\POVRAY\LIBRARIES\TIFF\LIBTIFF\TIF_READ.C|C:\USERS\MATTHEW MCCOMB\DOCUMENTS\GITHUB\POVRAY\LIBRARIES\TIFF\LIBTIFF\TIF_STRIP.C|C:\USERS\MATTHEW MCCOMB\DOCUMENTS\GITHUB\POVRAY\LIBRARIES\TIFF\LIBTIFF\TIF_SWAB.C|C:\USERS\MATTHEW MCCOMB\DOCUMENTS\GITHUB\POVRAY\LIBRARIES\TIFF\LIBTIFF\TIF_THUNDER.C|C:\USERS\MATTHEW MCCOMB\DOCUMENTS\GITHUB\POVRAY\LIBRARIES\TIFF\LIBTIFF\TIF_TILE.C|C:\USERS\MATTHEW MCCOMB\DOCUMENTS\GITHUB\POVRAY\LIBRARIES\TIFF\LIBTIFF\TIF_VERSION.C|C:\USERS\MATTHEW MCCOMB\DOCUMENTS\GITHUB\POVRAY\LIBRARIES\TIFF\LIBTIFF\TIF_WARNING.C|C:\USERS\MATTHEW MCCOMB\DOCUMENTS\GITHUB\POVRAY\LIBRARIES\TIFF\LIBTIFF\TIF_WIN32.C|C:\USERS\MATTHEW MCCOMB\DOCUMENTS\GITHUB\POVRAY\LIBRARIES\TIFF\LIBTIFF\TIF_WRITE.C|C:\USERS\MATTHEW MCCOMB\DOCUMENTS\GITHUB\POVRAY\LIBRARIES\TIFF\LIBTIFF\TIF_ZIP.C
C:\USERS\MATTHEW MCCOMB\DOCUMENTS\GITHUB\POVRAY\WINDOWS\VS2015\BUILD\TIFF\WIN32\RELEASE\TIFF.PDB
C:\USERS\MATTHEW MCCOMB\DOCUMENTS\GITHUB\POVRAY\WINDOWS\VS2015\BUILD\TIFF\WIN32\RELEASE\TIF_AUX.SBR
C:\USERS\MATTHEW MCCOMB\DOCUMENTS\GITHUB\POVRAY\WINDOWS\VS2015\BUILD\TIFF\WIN32\RELEASE\TIF_CLOSE.SBR
C:\USERS\MATTHEW MCCOMB\DOCUMENTS\GITHUB\POVRAY\WINDOWS\VS2015\BUILD\TIFF\WIN32\RELEASE\TIF_CODEC.SBR
C:\USERS\MATTHEW MCCOMB\DOCUMENTS\GITHUB\POVRAY\WINDOWS\VS2015\BUILD\TIFF\WIN32\RELEASE\TIF_COLOR.SBR
C:\USERS\MATTHEW MCCOMB\DOCUMENTS\GITHUB\POVRAY\WINDOWS\VS2015\BUILD\TIFF\WIN32\RELEASE\TIF_COMPRESS.SBR
C:\USERS\MATTHEW MCCOMB\DOCUMENTS\GITHUB\POVRAY\WINDOWS\VS2015\BUILD\TIFF\WIN32\RELEASE\TIF_DIR.SBR
C:\USERS\MATTHEW MCCOMB\DOCUMENTS\GITHUB\POVRAY\WINDOWS\VS2015\BUILD\TIFF\WIN32\RELEASE\TIF_DIRINFO.SBR
C:\USERS\MATTHEW MCCOMB\DOCUMENTS\GITHUB\POVRAY\WINDOWS\VS2015\BUILD\TIFF\WIN32\RELEASE\TIF_DIRREAD.SBR
C:\USERS\MATTHEW MCCOMB\DOCUMENTS\GITHUB\POVRAY\WINDOWS\VS2015\BUILD\TIFF\WIN32\RELEASE\TIF_DIRWRITE.SBR
C:\USERS\MATTHEW MCCOMB\DOCUMENTS\GITHUB\POVRAY\WINDOWS\VS2015\BUILD\TIFF\WIN32\RELEASE\TIF_DUMPMODE.SBR
C:\USERS\MATTHEW MCCOMB\DOCUMENTS\GITHUB\POVRAY\WINDOWS\VS2015\BUILD\TIFF\WIN32\RELEASE\TIF_ERROR.SBR
C:\USERS\MATTHEW MCCOMB\DOCUMENTS\GITHUB\POVRAY\WINDOWS\VS2015\BUILD\TIFF\WIN32\RELEASE\TIF_FAX3.SBR
C:\USERS\MATTHEW MCCOMB\DOCUMENTS\GITHUB\POVRAY\WINDOWS\VS2015\BUILD\TIFF\WIN32\RELEASE\TIF_FAX3SM.SBR
C:\USERS\MATTHEW MCCOMB\DOCUMENTS\GITHUB\POVRAY\WINDOWS\VS2015\BUILD\TIFF\WIN32\RELEASE\TIF_FLUSH.SBR
C:\USERS\MATTHEW MCCOMB\DOCUMENTS\GITHUB\POVRAY\WINDOWS\VS2015\BUILD\TIFF\WIN32\RELEASE\TIF_GETIMAGE.SBR
C:\USERS\MATTHEW MCCOMB\DOCUMENTS\GITHUB\POVRAY\WINDOWS\VS2015\BUILD\TIFF\WIN32\RELEASE\TIF_JPEG.SBR
C:\USERS\MATTHEW MCCOMB\DOCUMENTS\GITHUB\POVRAY\WINDOWS\VS2015\BUILD\TIFF\WIN32\RELEASE\TIF_LUV.SBR
C:\USERS\MATTHEW MCCOMB\DOCUMENTS\GITHUB\POVRAY\WINDOWS\VS2015\BUILD\TIFF\WIN32\RELEASE\TIF_LZW.SBR
C:\USERS\MATTHEW MCCOMB\DOCUMENTS\GITHUB\POVRAY\WINDOWS\VS2015\BUILD\TIFF\WIN32\RELEASE\TIF_NEXT.SBR
C:\USERS\MATTHEW MCCOMB\DOCUMENTS\GITHUB\POVRAY\WINDOWS\VS2015\BUILD\TIFF\WIN32\RELEASE\TIF_OPEN.SBR
C:\USERS\MATTHEW MCCOMB\DOCUMENTS\GITHUB\POVRAY\WINDOWS\VS2015\BUILD\TIFF\WIN32\RELEASE\TIF_OPEN.OBJ
C:\USERS\MATTHEW MCCOMB\DOCUMENTS\GITHUB\POVRAY\WINDOWS\VS2015\BUILD\TIFF\WIN32\RELEASE\TIF_NEXT.OBJ
C:\USERS\MATTHEW MCCOMB\DOCUMENTS\GITHUB\POVRAY\WINDOWS\VS2015\BUILD\TIFF\WIN32\RELEASE\TIF_LZW.OBJ
C:\USERS\MATTHEW MCCOMB\DOCUMENTS\GITHUB\POVRAY\WINDOWS\VS2015\BUILD\TIFF\WIN32\RELEASE\TIF_LUV.OBJ
C:\USERS\MATTHEW MCCOMB\DOCUMENTS\GITHUB\POVRAY\WINDOWS\VS2015\BUILD\TIFF\WIN32\RELEASE\TIF_JPEG.OBJ
C:\USERS\MATTHEW MCCOMB\DOCUMENTS\GITHUB\POVRAY\WINDOWS\VS2015\BUILD\TIFF\WIN32\RELEASE\TIF_GETIMAGE.OBJ
C:\USERS\MATTHEW MCCOMB\DOCUMENTS\GITHUB\POVRAY\WINDOWS\VS2015\BUILD\TIFF\WIN32\RELEASE\TIF_FLUSH.OBJ
C:\USERS\MATTHEW MCCOMB\DOCUMENTS\GITHUB\POVRAY\WINDOWS\VS2015\BUILD\TIFF\WIN32\RELEASE\TIF_FAX3SM.OBJ
C:\USERS\MATTHEW MCCOMB\DOCUMENTS\GITHUB\POVRAY\WINDOWS\VS2015\BUILD\TIFF\WIN32\RELEASE\TIF_FAX3.OBJ
C:\USERS\MATTHEW MCCOMB\DOCUMENTS\GITHUB\POVRAY\WINDOWS\VS2015\BUILD\TIFF\WIN32\RELEASE\TIF_ERROR.OBJ
C:\USERS\MATTHEW MCCOMB\DOCUMENTS\GITHUB\POVRAY\WINDOWS\VS2015\BUILD\TIFF\WIN32\RELEASE\TIF_DUMPMODE.OBJ
C:\USERS\MATTHEW MCCOMB\DOCUMENTS\GITHUB\POVRAY\WINDOWS\VS2015\BUILD\TIFF\WIN32\RELEASE\TIF_DIRWRITE.OBJ
C:\USERS\MATTHEW MCCOMB\DOCUMENTS\GITHUB\POVRAY\WINDOWS\VS2015\BUILD\TIFF\WIN32\RELEASE\TIF_DIRREAD.OBJ
C:\USERS\MATTHEW MCCOMB\DOCUMENTS\GITHUB\POVRAY\WINDOWS\VS2015\BUILD\TIFF\WIN32\RELEASE\TIF_DIRINFO.OBJ
C:\USERS\MATTHEW MCCOMB\DOCUMENTS\GITHUB\POVRAY\WINDOWS\VS2015\BUILD\TIFF\WIN32\RELEASE\TIF_DIR.OBJ
C:\USERS\MATTHEW MCCOMB\DOCUMENTS\GITHUB\POVRAY\WINDOWS\VS2015\BUILD\TIFF\WIN32\RELEASE\TIF_COMPRESS.OBJ
C:\USERS\MATTHEW MCCOMB\DOCUMENTS\GITHUB\POVRAY\WINDOWS\VS2015\BUILD\TIFF\WIN32\RELEASE\TIF_COLOR.OBJ
C:\USERS\MATTHEW MCCOMB\DOCUMENTS\GITHUB\POVRAY\WINDOWS\VS2015\BUILD\TIFF\WIN32\RELEASE\TIF_CODEC.OBJ
C:\USERS\MATTHEW MCCOMB\DOCUMENTS\GITHUB\POVRAY\WINDOWS\VS2015\BUILD\TIFF\WIN32\RELEASE\TIF_CLOSE.OBJ
C:\USERS\MATTHEW MCCOMB\DOCUMENTS\GITHUB\POVRAY\WINDOWS\VS2015\BUILD\TIFF\WIN32\RELEASE\TIF_AUX.OBJ
C:\USERS\MATTHEW MCCOMB\DOCUMENTS\GITHUB\POVRAY\WINDOWS\VS2015\BUILD\TIFF\WIN32\RELEASE\TIF_PACKBITS.SBR
C:\USERS\MATTHEW MCCOMB\DOCUMENTS\GITHUB\POVRAY\WINDOWS\VS2015\BUILD\TIFF\WIN32\RELEASE\TIF_PIXARLOG.SBR
C:\USERS\MATTHEW MCCOMB\DOCUMENTS\GITHUB\POVRAY\WINDOWS\VS2015\BUILD\TIFF\WIN32\RELEASE\TIF_PREDICT.SBR
C:\USERS\MATTHEW MCCOMB\DOCUMENTS\GITHUB\POVRAY\WINDOWS\VS2015\BUILD\TIFF\WIN32\RELEASE\TIF_PRINT.SBR
C:\USERS\MATTHEW MCCOMB\DOCUMENTS\GITHUB\POVRAY\WINDOWS\VS2015\BUILD\TIFF\WIN32\RELEASE\TIF_READ.SBR
C:\USERS\MATTHEW MCCOMB\DOCUMENTS\GITHUB\POVRAY\WINDOWS\VS2015\BUILD\TIFF\WIN32\RELEASE\TIF_STRIP.SBR
C:\USERS\MATTHEW MCCOMB\DOCUMENTS\GITHUB\POVRAY\WINDOWS\VS2015\BUILD\TIFF\WIN32\RELEASE\TIF_SWAB.SBR
C:\USERS\MATTHEW MCCOMB\DOCUMENTS\GITHUB\POVRAY\WINDOWS\VS2015\BUILD\TIFF\WIN32\RELEASE\TIF_THUNDER.SBR
C:\USERS\MATTHEW MCCOMB\DOCUMENTS\GITHUB\POVRAY\WINDOWS\VS2015\BUILD\TIFF\WIN32\RELEASE\TIF_TILE.SBR
C:\USERS\MATTHEW MCCOMB\DOCUMENTS\GITHUB\POVRAY\WINDOWS\VS2015\BUILD\TIFF\WIN32\RELEASE\TIF_VERSION.SBR
C:\USERS\MATTHEW MCCOMB\DOCUMENTS\GITHUB\POVRAY\WINDOWS\VS2015\BUILD\TIFF\WIN32\RELEASE\TIF_WARNING.SBR
C:\USERS\MATTHEW MCCOMB\DOCUMENTS\GITHUB\POVRAY\WINDOWS\VS2015\BUILD\TIFF\WIN32\RELEASE\TIF_WIN32.SBR
C:\USERS\MATTHEW MCCOMB\DOCUMENTS\GITHUB\POVRAY\WINDOWS\VS2015\BUILD\TIFF\WIN32\RELEASE\TIF_WRITE.SBR
C:\USERS\MATTHEW MCCOMB\DOCUMENTS\GITHUB\POVRAY\WINDOWS\VS2015\BUILD\TIFF\WIN32\RELEASE\TIF_ZIP.SBR
C:\USERS\MATTHEW MCCOMB\DOCUMENTS\GITHUB\POVRAY\WINDOWS\VS2015\BUILD\TIFF\WIN32\RELEASE\TIF_ZIP.OBJ
C:\USERS\MATTHEW MCCOMB\DOCUMENTS\GITHUB\POVRAY\WINDOWS\VS2015\BUILD\TIFF\WIN32\RELEASE\TIF_WRITE.OBJ
C:\USERS\MATTHEW MCCOMB\DOCUMENTS\GITHUB\POVRAY\WINDOWS\VS2015\BUILD\TIFF\WIN32\RELEASE\TIF_WIN32.OBJ
C:\USERS\MATTHEW MCCOMB\DOCUMENTS\GITHUB\POVRAY\WINDOWS\VS2015\BUILD\TIFF\WIN32\RELEASE\TIF_WARNING.OBJ
C:\USERS\MATTHEW MCCOMB\DOCUMENTS\GITHUB\POVRAY\WINDOWS\VS2015\BUILD\TIFF\WIN32\RELEASE\TIF_VERSION.OBJ
C:\USERS\MATTHEW MCCOMB\DOCUMENTS\GITHUB\POVRAY\WINDOWS\VS2015\BUILD\TIFF\WIN32\RELEASE\TIF_TILE.OBJ
C:\USERS\MATTHEW MCCOMB\DOCUMENTS\GITHUB\POVRAY\WINDOWS\VS2015\BUILD\TIFF\WIN32\RELEASE\TIF_THUNDER.OBJ
C:\USERS\MATTHEW MCCOMB\DOCUMENTS\GITHUB\POVRAY\WINDOWS\VS2015\BUILD\TIFF\WIN32\RELEASE\TIF_SWAB.OBJ
C:\USERS\MATTHEW MCCOMB\DOCUMENTS\GITHUB\POVRAY\WINDOWS\VS2015\BUILD\TIFF\WIN32\RELEASE\TIF_STRIP.OBJ
C:\USERS\MATTHEW MCCOMB\DOCUMENTS\GITHUB\POVRAY\WINDOWS\VS2015\BUILD\TIFF\WIN32\RELEASE\TIF_READ.OBJ
C:\USERS\MATTHEW MCCOMB\DOCUMENTS\GITHUB\POVRAY\WINDOWS\VS2015\BUILD\TIFF\WIN32\RELEASE\TIF_PRINT.OBJ
C:\USERS\MATTHEW MCCOMB\DOCUMENTS\GITHUB\POVRAY\WINDOWS\VS2015\BUILD\TIFF\WIN32\RELEASE\TIF_PREDICT.OBJ
C:\USERS\MATTHEW MCCOMB\DOCUMENTS\GITHUB\POVRAY\WINDOWS\VS2015\BUILD\TIFF\WIN32\RELEASE\TIF_PIXARLOG.OBJ
C:\USERS\MATTHEW MCCOMB\DOCUMENTS\GITHUB\POVRAY\WINDOWS\VS2015\BUILD\TIFF\WIN32\RELEASE\TIF_PACKBITS.OBJ
^D:\POV-RAY\POV-RAY SOURCES\PLUSMINUS\POVRAY\LIBRARIES\TIFF\LIBTIFF\TIF_AUX.C|D:\POV-RAY\POV-RAY SOURCES\PLUSMINUS\POVRAY\LIBRARIES\TIFF\LIBTIFF\TIF_CLOSE.C|D:\POV-RAY\POV-RAY SOURCES\PLUSMINUS\POVRAY\LIBRARIES\TIFF\LIBTIFF\TIF_CODEC.C|D:\POV-RAY\POV-RAY SOURCES\PLUSMINUS\POVRAY\LIBRARIES\TIFF\LIBTIFF\TIF_COLOR.C|D:\POV-RAY\POV-RAY SOURCES\PLUSMINUS\POVRAY\LIBRARIES\TIFF\LIBTIFF\TIF_COMPRESS.C|D:\POV-RAY\POV-RAY SOURCES\PLUSMINUS\POVRAY\LIBRARIES\TIFF\LIBTIFF\TIF_DIR.C|D:\POV-RAY\POV-RAY SOURCES\PLUSMINUS\POVRAY\LIBRARIES\TIFF\LIBTIFF\TIF_DIRINFO.C|D:\POV-RAY\POV-RAY SOURCES\PLUSMINUS\POVRAY\LIBRARIES\TIFF\LIBTIFF\TIF_DIRREAD.C|D:\POV-RAY\POV-RAY SOURCES\PLUSMINUS\POVRAY\LIBRARIES\TIFF\LIBTIFF\TIF_DIRWRITE.C|D:\POV-RAY\POV-RAY SOURCES\PLUSMINUS\POVRAY\LIBRARIES\TIFF\LIBTIFF\TIF_DUMPMODE.C|D:\POV-RAY\POV-RAY SOURCES\PLUSMINUS\POVRAY\LIBRARIES\TIFF\LIBTIFF\TIF_ERROR.C|D:\POV-RAY\POV-RAY SOURCES\PLUSMINUS\POVRAY\LIBRARIES\TIFF\LIBTIFF\TIF_FAX3.C|D:\POV-RAY\POV-RAY SOURCES\PLUSMINUS\POVRAY\LIBRARIES\TIFF\LIBTIFF\TIF_FAX3SM.C|D:\POV-RAY\POV-RAY SOURCES\PLUSMINUS\POVRAY\LIBRARIES\TIFF\LIBTIFF\TIF_FLUSH.C|D:\POV-RAY\POV-RAY SOURCES\PLUSMINUS\POVRAY\LIBRARIES\TIFF\LIBTIFF\TIF_GETIMAGE.C|D:\POV-RAY\POV-RAY SOURCES\PLUSMINUS\POVRAY\LIBRARIES\TIFF\LIBTIFF\TIF_JPEG.C|D:\POV-RAY\POV-RAY SOURCES\PLUSMINUS\POVRAY\LIBRARIES\TIFF\LIBTIFF\TIF_LUV.C|D:\POV-RAY\POV-RAY SOURCES\PLUSMINUS\POVRAY\LIBRARIES\TIFF\LIBTIFF\TIF_LZW.C|D:\POV-RAY\POV-RAY SOURCES\PLUSMINUS\POVRAY\LIBRARIES\TIFF\LIBTIFF\TIF_NEXT.C|D:\POV-RAY\POV-RAY SOURCES\PLUSMINUS\POVRAY\LIBRARIES\TIFF\LIBTIFF\TIF_OPEN.C|D:\POV-RAY\POV-RAY SOURCES\PLUSMINUS\POVRAY\LIBRARIES\TIFF\LIBTIFF\TIF_PACKBITS.C|D:\POV-RAY\POV-RAY SOURCES\PLUSMINUS\POVRAY\LIBRARIES\TIFF\LIBTIFF\TIF_PIXARLOG.C|D:\POV-RAY\POV-RAY SOURCES\PLUSMINUS\POVRAY\LIBRARIES\TIFF\LIBTIFF\TIF_PREDICT.C|D:\POV-RAY\POV-RAY SOURCES\PLUSMINUS\POVRAY\LIBRARIES\TIFF\LIBTIFF\TIF_PRINT.C|D:\POV-RAY\POV-RAY SOURCES\PLUSMINUS\POVRAY\LIBRARIES\TIFF\LIBTIFF\TIF_READ.C|D:\POV-RAY\POV-RAY SOURCES\PLUSMINUS\POVRAY\LIBRARIES\TIFF\LIBTIFF\TIF_STRIP.C|D:\POV-RAY\POV-RAY SOURCES\PLUSMINUS\POVRAY\LIBRARIES\TIFF\LIBTIFF\TIF_SWAB.C|D:\POV-RAY\POV-RAY SOURCES\PLUSMINUS\POVRAY\LIBRARIES\TIFF\LIBTIFF\TIF_THUNDER.C|D:\POV-RAY\POV-RAY SOURCES\PLUSMINUS\POVRAY\LIBRARIES\TIFF\LIBTIFF\TIF_TILE.C|D:\POV-RAY\POV-RAY SOURCES\PLUSMINUS\POVRAY\LIBRARIES\TIFF\LIBTIFF\TIF_VERSION.C|D:\POV-RAY\POV-RAY SOURCES\PLUSMINUS\POVRAY\LIBRARIES\TIFF\LIBTIFF\TIF_WARNING.C|D:\POV-RAY\POV-RAY SOURCES\PLUSMINUS\POVRAY\LIBRARIES\TIFF\LIBTIFF\TIF_WIN32.C|D:\POV-RAY\POV-RAY SOURCES\PLUSMINUS\POVRAY\LIBRARIES\TIFF\LIBTIFF\TIF_WRITE.C|D:\POV-RAY\POV-RAY SOURCES\PLUSMINUS\POVRAY\LIBRARIES\TIFF\LIBTIFF\TIF_ZIP.C
D:\POV-RAY\POV-RAY SOURCES\PLUSMINUS\POVRAY\WINDOWS\VS2015\BUILD\TIFF\WIN32\RELEASE\TIFF.PDB
D:\POV-RAY\POV-RAY SOURCES\PLUSMINUS\POVRAY\WINDOWS\VS2015\BUILD\TIFF\WIN32\RELEASE\TIF_AUX.SBR
D:\POV-RAY\POV-RAY SOURCES\PLUSMINUS\POVRAY\WINDOWS\VS2015\BUILD\TIFF\WIN32\RELEASE\TIF_CLOSE.SBR
D:\POV-RAY\POV-RAY SOURCES\PLUSMINUS\POVRAY\WINDOWS\VS2015\BUILD\TIFF\WIN32\RELEASE\TIF_CODEC.SBR
D:\POV-RAY\POV-RAY SOURCES\PLUSMINUS\POVRAY\WINDOWS\VS2015\BUILD\TIFF\WIN32\RELEASE\TIF_COLOR.SBR
D:\POV-RAY\POV-RAY SOURCES\PLUSMINUS\POVRAY\WINDOWS\VS2015\BUILD\TIFF\WIN32\RELEASE\TIF_COMPRESS.SBR
D:\POV-RAY\POV-RAY SOURCES\PLUSMINUS\POVRAY\WINDOWS\VS2015\BUILD\TIFF\WIN32\RELEASE\TIF_DIR.SBR
D:\POV-RAY\POV-RAY SOURCES\PLUSMINUS\POVRAY\WINDOWS\VS2015\BUILD\TIFF\WIN32\RELEASE\TIF_DIRINFO.SBR
D:\POV-RAY\POV-RAY SOURCES\PLUSMINUS\POVRAY\WINDOWS\VS2015\BUILD\TIFF\WIN32\RELEASE\TIF_DIRREAD.SBR
D:\POV-RAY\POV-RAY SOURCES\PLUSMINUS\POVRAY\WINDOWS\VS2015\BUILD\TIFF\WIN32\RELEASE\TIF_DIRWRITE.SBR
D:\POV-RAY\POV-RAY SOURCES\PLUSMINUS\POVRAY\WINDOWS\VS2015\BUILD\TIFF\WIN32\RELEASE\TIF_DUMPMODE.SBR
D:\POV-RAY\POV-RAY SOURCES\PLUSMINUS\POVRAY\WINDOWS\VS2015\BUILD\TIFF\WIN32\RELEASE\TIF_ERROR.SBR
D:\POV-RAY\POV-RAY SOURCES\PLUSMINUS\POVRAY\WINDOWS\VS2015\BUILD\TIFF\WIN32\RELEASE\TIF_FAX3.SBR
D:\POV-RAY\POV-RAY SOURCES\PLUSMINUS\POVRAY\WINDOWS\VS2015\BUILD\TIFF\WIN32\RELEASE\TIF_FAX3SM.SBR
D:\POV-RAY\POV-RAY SOURCES\PLUSMINUS\POVRAY\WINDOWS\VS2015\BUILD\TIFF\WIN32\RELEASE\TIF_FLUSH.SBR
D:\POV-RAY\POV-RAY SOURCES\PLUSMINUS\POVRAY\WINDOWS\VS2015\BUILD\TIFF\WIN32\RELEASE\TIF_GETIMAGE.SBR
D:\POV-RAY\POV-RAY SOURCES\PLUSMINUS\POVRAY\WINDOWS\VS2015\BUILD\TIFF\WIN32\RELEASE\TIF_JPEG.SBR
D:\POV-RAY\POV-RAY SOURCES\PLUSMINUS\POVRAY\WINDOWS\VS2015\BUILD\TIFF\WIN32\RELEASE\TIF_LUV.SBR
D:\POV-RAY\POV-RAY SOURCES\PLUSMINUS\POVRAY\WINDOWS\VS2015\BUILD\TIFF\WIN32\RELEASE\TIF_LZW.SBR
D:\POV-RAY\POV-RAY SOURCES\PLUSMINUS\POVRAY\WINDOWS\VS2015\BUILD\TIFF\WIN32\RELEASE\TIF_NEXT.SBR
D:\POV-RAY\POV-RAY SOURCES\PLUSMINUS\POVRAY\WINDOWS\VS2015\BUILD\TIFF\WIN32\RELEASE\TIF_OPEN.SBR
D:\POV-RAY\POV-RAY SOURCES\PLUSMINUS\POVRAY\WINDOWS\VS2015\BUILD\TIFF\WIN32\RELEASE\TIF_OPEN.OBJ
D:\POV-RAY\POV-RAY SOURCES\PLUSMINUS\POVRAY\WINDOWS\VS2015\BUILD\TIFF\WIN32\RELEASE\TIF_NEXT.OBJ
D:\POV-RAY\POV-RAY SOURCES\PLUSMINUS\POVRAY\WINDOWS\VS2015\BUILD\TIFF\WIN32\RELEASE\TIF_LZW.OBJ
D:\POV-RAY\POV-RAY SOURCES\PLUSMINUS\POVRAY\WINDOWS\VS2015\BUILD\TIFF\WIN32\RELEASE\TIF_LUV.OBJ
D:\POV-RAY\POV-RAY SOURCES\PLUSMINUS\POVRAY\WINDOWS\VS2015\BUILD\TIFF\WIN32\RELEASE\TIF_JPEG.OBJ
D:\POV-RAY\POV-RAY SOURCES\PLUSMINUS\POVRAY\WINDOWS\VS2015\BUILD\TIFF\WIN32\RELEASE\TIF_GETIMAGE.OBJ
D:\POV-RAY\POV-RAY SOURCES\PLUSMINUS\POVRAY\WINDOWS\VS2015\BUILD\TIFF\WIN32\RELEASE\TIF_FLUSH.OBJ
D:\POV-RAY\POV-RAY SOURCES\PLUSMINUS\POVRAY\WINDOWS\VS2015\BUILD\TIFF\WIN32\RELEASE\TIF_FAX3SM.OBJ
D:\POV-RAY\POV-RAY SOURCES\PLUSMINUS\POVRAY\WINDOWS\VS2015\BUILD\TIFF\WIN32\RELEASE\TIF_FAX3.OBJ
D:\POV-RAY\POV-RAY SOURCES\PLUSMINUS\POVRAY\WINDOWS\VS2015\BUILD\TIFF\WIN32\RELEASE\TIF_ERROR.OBJ
D:\POV-RAY\POV-RAY SOURCES\PLUSMINUS\POVRAY\WINDOWS\VS2015\BUILD\TIFF\WIN32\RELEASE\TIF_DUMPMODE.OBJ
D:\POV-RAY\POV-RAY SOURCES\PLUSMINUS\POVRAY\WINDOWS\VS2015\BUILD\TIFF\WIN32\RELEASE\TIF_DIRWRITE.OBJ
D:\POV-RAY\POV-RAY SOURCES\PLUSMINUS\POVRAY\WINDOWS\VS2015\BUILD\TIFF\WIN32\RELEASE\TIF_DIRREAD.OBJ
D:\POV-RAY\POV-RAY SOURCES\PLUSMINUS\POVRAY\WINDOWS\VS2015\BUILD\TIFF\WIN32\RELEASE\TIF_DIRINFO.OBJ
D:\POV-RAY\POV-RAY SOURCES\PLUSMINUS\POVRAY\WINDOWS\VS2015\BUILD\TIFF\WIN32\RELEASE\TIF_DIR.OBJ
D:\POV-RAY\POV-RAY SOURCES\PLUSMINUS\POVRAY\WINDOWS\VS2015\BUILD\TIFF\WIN32\RELEASE\TIF_COMPRESS.OBJ
D:\POV-RAY\POV-RAY SOURCES\PLUSMINUS\POVRAY\WINDOWS\VS2015\BUILD\TIFF\WIN32\RELEASE\TIF_COLOR.OBJ
D:\POV-RAY\POV-RAY SOURCES\PLUSMINUS\POVRAY\WINDOWS\VS2015\BUILD\TIFF\WIN32\RELEASE\TIF_CODEC.OBJ
D:\POV-RAY\POV-RAY SOURCES\PLUSMINUS\POVRAY\WINDOWS\VS2015\BUILD\TIFF\WIN32\RELEASE\TIF_CLOSE.OBJ
D:\POV-RAY\POV-RAY SOURCES\PLUSMINUS\POVRAY\WINDOWS\VS2015\BUILD\TIFF\WIN32\RELEASE\TIF_AUX.OBJ
D:\POV-RAY\POV-RAY SOURCES\PLUSMINUS\POVRAY\WINDOWS\VS2015\BUILD\TIFF\WIN32\RELEASE\TIF_PACKBITS.SBR
D:\POV-RAY\POV-RAY SOURCES\PLUSMINUS\POVRAY\WINDOWS\VS2015\BUILD\TIFF\WIN32\RELEASE\TIF_PIXARLOG.SBR
D:\POV-RAY\POV-RAY SOURCES\PLUSMINUS\POVRAY\WINDOWS\VS2015\BUILD\TIFF\WIN32\RELEASE\TIF_PREDICT.SBR
D:\POV-RAY\POV-RAY SOURCES\PLUSMINUS\POVRAY\WINDOWS\VS2015\BUILD\TIFF\WIN32\RELEASE\TIF_PRINT.SBR
D:\POV-RAY\POV-RAY SOURCES\PLUSMINUS\POVRAY\WINDOWS\VS2015\BUILD\TIFF\WIN32\RELEASE\TIF_READ.SBR
D:\POV-RAY\POV-RAY SOURCES\PLUSMINUS\POVRAY\WINDOWS\VS2015\BUILD\TIFF\WIN32\RELEASE\TIF_STRIP.SBR
D:\POV-RAY\POV-RAY SOURCES\PLUSMINUS\POVRAY\WINDOWS\VS2015\BUILD\TIFF\WIN32\RELEASE\TIF_SWAB.SBR
D:\POV-RAY\POV-RAY SOURCES\PLUSMINUS\POVRAY\WINDOWS\VS2015\BUILD\TIFF\WIN32\RELEASE\TIF_THUNDER.SBR
D:\POV-RAY\POV-RAY SOURCES\PLUSMINUS\POVRAY\WINDOWS\VS2015\BUILD\TIFF\WIN32\RELEASE\TIF_TILE.SBR
D:\POV-RAY\POV-RAY SOURCES\PLUSMINUS\POVRAY\WINDOWS\VS2015\BUILD\TIFF\WIN32\RELEASE\TIF_VERSION.SBR
D:\POV-RAY\POV-RAY SOURCES\PLUSMINUS\POVRAY\WINDOWS\VS2015\BUILD\TIFF\WIN32\RELEASE\TIF_WARNING.SBR
D:\POV-RAY\POV-RAY SOURCES\PLUSMINUS\POVRAY\WINDOWS\VS2015\BUILD\TIFF\WIN32\RELEASE\TIF_WIN32.SBR
D:\POV-RAY\POV-RAY SOURCES\PLUSMINUS\POVRAY\WINDOWS\VS2015\BUILD\TIFF\WIN32\RELEASE\TIF_WRITE.SBR
D:\POV-RAY\POV-RAY SOURCES\PLUSMINUS\POVRAY\WINDOWS\VS2015\BUILD\TIFF\WIN32\RELEASE\TIF_ZIP.SBR
D:\POV-RAY\POV-RAY SOURCES\PLUSMINUS\POVRAY\WINDOWS\VS2015\BUILD\TIFF\WIN32\RELEASE\TIF_ZIP.OBJ
D:\POV-RAY\POV-RAY SOURCES\PLUSMINUS\POVRAY\WINDOWS\VS2015\BUILD\TIFF\WIN32\RELEASE\TIF_WRITE.OBJ
D:\POV-RAY\POV-RAY SOURCES\PLUSMINUS\POVRAY\WINDOWS\VS2015\BUILD\TIFF\WIN32\RELEASE\TIF_WIN32.OBJ
D:\POV-RAY\POV-RAY SOURCES\PLUSMINUS\POVRAY\WINDOWS\VS2015\BUILD\TIFF\WIN32\RELEASE\TIF_WARNING.OBJ
D:\POV-RAY\POV-RAY SOURCES\PLUSMINUS\POVRAY\WINDOWS\VS2015\BUILD\TIFF\WIN32\RELEASE\TIF_VERSION.OBJ
D:\POV-RAY\POV-RAY SOURCES\PLUSMINUS\POVRAY\WINDOWS\VS2015\BUILD\TIFF\WIN32\RELEASE\TIF_TILE.OBJ
D:\POV-RAY\POV-RAY SOURCES\PLUSMINUS\POVRAY\WINDOWS\VS2015\BUILD\TIFF\WIN32\RELEASE\TIF_THUNDER.OBJ
D:\POV-RAY\POV-RAY SOURCES\PLUSMINUS\POVRAY\WINDOWS\VS2015\BUILD\TIFF\WIN32\RELEASE\TIF_SWAB.OBJ
D:\POV-RAY\POV-RAY SOURCES\PLUSMINUS\POVRAY\WINDOWS\VS2015\BUILD\TIFF\WIN32\RELEASE\TIF_STRIP.OBJ
D:\POV-RAY\POV-RAY SOURCES\PLUSMINUS\POVRAY\WINDOWS\VS2015\BUILD\TIFF\WIN32\RELEASE\TIF_READ.OBJ
D:\POV-RAY\POV-RAY SOURCES\PLUSMINUS\POVRAY\WINDOWS\VS2015\BUILD\TIFF\WIN32\RELEASE\TIF_PRINT.OBJ
D:\POV-RAY\POV-RAY SOURCES\PLUSMINUS\POVRAY\WINDOWS\VS2015\BUILD\TIFF\WIN32\RELEASE\TIF_PREDICT.OBJ
D:\POV-RAY\POV-RAY SOURCES\PLUSMINUS\POVRAY\WINDOWS\VS2015\BUILD\TIFF\WIN32\RELEASE\TIF_PIXARLOG.OBJ
D:\POV-RAY\POV-RAY SOURCES\PLUSMINUS\POVRAY\WINDOWS\VS2015\BUILD\TIFF\WIN32\RELEASE\TIF_PACKBITS.OBJ
^D:\POV-RAY\POV-RAY SOURCES\PLUSMINUS\POVRAY\LIBRARIES\TIFF\LIBTIFF\TIF_AUX.C
D:\POV-RAY\POV-RAY SOURCES\PLUSMINUS\POVRAY\WINDOWS\VS2015\BUILD\TIFF\WIN32\RELEASE\TIFF.PDB
^D:\POV-RAY\POV-RAY SOURCES\PLUSMINUS\POVRAY\LIBRARIES\TIFF\LIBTIFF\TIF_CLOSE.C
D:\POV-RAY\POV-RAY SOURCES\PLUSMINUS\POVRAY\WINDOWS\VS2015\BUILD\TIFF\WIN32\RELEASE\TIFF.PDB
^D:\POV-RAY\POV-RAY SOURCES\PLUSMINUS\POVRAY\LIBRARIES\TIFF\LIBTIFF\TIF_CODEC.C
D:\POV-RAY\POV-RAY SOURCES\PLUSMINUS\POVRAY\WINDOWS\VS2015\BUILD\TIFF\WIN32\RELEASE\TIFF.PDB
^D:\POV-RAY\POV-RAY SOURCES\PLUSMINUS\POVRAY\LIBRARIES\TIFF\LIBTIFF\TIF_COLOR.C
D:\POV-RAY\POV-RAY SOURCES\PLUSMINUS\POVRAY\WINDOWS\VS2015\BUILD\TIFF\WIN32\RELEASE\TIFF.PDB
^D:\POV-RAY\POV-RAY SOURCES\PLUSMINUS\POVRAY\LIBRARIES\TIFF\LIBTIFF\TIF_COMPRESS.C
D:\POV-RAY\POV-RAY SOURCES\PLUSMINUS\POVRAY\WINDOWS\VS2015\BUILD\TIFF\WIN32\RELEASE\TIFF.PDB
^D:\POV-RAY\POV-RAY SOURCES\PLUSMINUS\POVRAY\LIBRARIES\TIFF\LIBTIFF\TIF_DIR.C
D:\POV-RAY\POV-RAY SOURCES\PLUSMINUS\POVRAY\WINDOWS\VS2015\BUILD\TIFF\WIN32\RELEASE\TIFF.PDB
^D:\POV-RAY\POV-RAY SOURCES\PLUSMINUS\POVRAY\LIBRARIES\TIFF\LIBTIFF\TIF_DIRINFO.C
D:\POV-RAY\POV-RAY SOURCES\PLUSMINUS\POVRAY\WINDOWS\VS2015\BUILD\TIFF\WIN32\RELEASE\TIFF.PDB
^D:\POV-RAY\POV-RAY SOURCES\PLUSMINUS\POVRAY\LIBRARIES\TIFF\LIBTIFF\TIF_DIRREAD.C
D:\POV-RAY\POV-RAY SOURCES\PLUSMINUS\POVRAY\WINDOWS\VS2015\BUILD\TIFF\WIN32\RELEASE\TIFF.PDB
^D:\POV-RAY\POV-RAY SOURCES\PLUSMINUS\POVRAY\LIBRARIES\TIFF\LIBTIFF\TIF_DIRWRITE.C
D:\POV-RAY\POV-RAY SOURCES\PLUSMINUS\POVRAY\WINDOWS\VS2015\BUILD\TIFF\WIN32\RELEASE\TIFF.PDB
^D:\POV-RAY\POV-RAY SOURCES\PLUSMINUS\POVRAY\LIBRARIES\TIFF\LIBTIFF\TIF_DUMPMODE.C
D:\POV-RAY\POV-RAY SOURCES\PLUSMINUS\POVRAY\WINDOWS\VS2015\BUILD\TIFF\WIN32\RELEASE\TIFF.PDB
^D:\POV-RAY\POV-RAY SOURCES\PLUSMINUS\POVRAY\LIBRARIES\TIFF\LIBTIFF\TIF_ERROR.C
D:\POV-RAY\POV-RAY SOURCES\PLUSMINUS\POVRAY\WINDOWS\VS2015\BUILD\TIFF\WIN32\RELEASE\TIFF.PDB
^D:\POV-RAY\POV-RAY SOURCES\PLUSMINUS\POVRAY\LIBRARIES\TIFF\LIBTIFF\TIF_FAX3.C
D:\POV-RAY\POV-RAY SOURCES\PLUSMINUS\POVRAY\WINDOWS\VS2015\BUILD\TIFF\WIN32\RELEASE\TIFF.PDB
^D:\POV-RAY\POV-RAY SOURCES\PLUSMINUS\POVRAY\LIBRARIES\TIFF\LIBTIFF\TIF_FAX3SM.C
D:\POV-RAY\POV-RAY SOURCES\PLUSMINUS\POVRAY\WINDOWS\VS2015\BUILD\TIFF\WIN32\RELEASE\TIFF.PDB
^D:\POV-RAY\POV-RAY SOURCES\PLUSMINUS\POVRAY\LIBRARIES\TIFF\LIBTIFF\TIF_FLUSH.C
D:\POV-RAY\POV-RAY SOURCES\PLUSMINUS\POVRAY\WINDOWS\VS2015\BUILD\TIFF\WIN32\RELEASE\TIFF.PDB
^D:\POV-RAY\POV-RAY SOURCES\PLUSMINUS\POVRAY\LIBRARIES\TIFF\LIBTIFF\TIF_GETIMAGE.C
D:\POV-RAY\POV-RAY SOURCES\PLUSMINUS\POVRAY\WINDOWS\VS2015\BUILD\TIFF\WIN32\RELEASE\TIFF.PDB
^D:\POV-RAY\POV-RAY SOURCES\PLUSMINUS\POVRAY\LIBRARIES\TIFF\LIBTIFF\TIF_JPEG.C
D:\POV-RAY\POV-RAY SOURCES\PLUSMINUS\POVRAY\WINDOWS\VS2015\BUILD\TIFF\WIN32\RELEASE\TIFF.PDB
^D:\POV-RAY\POV-RAY SOURCES\PLUSMINUS\POVRAY\LIBRARIES\TIFF\LIBTIFF\TIF_LUV.C
D:\POV-RAY\POV-RAY SOURCES\PLUSMINUS\POVRAY\WINDOWS\VS2015\BUILD\TIFF\WIN32\RELEASE\TIFF.PDB
^D:\POV-RAY\POV-RAY SOURCES\PLUSMINUS\POVRAY\LIBRARIES\TIFF\LIBTIFF\TIF_LZW.C
D:\POV-RAY\POV-RAY SOURCES\PLUSMINUS\POVRAY\WINDOWS\VS2015\BUILD\TIFF\WIN32\RELEASE\TIFF.PDB
^D:\POV-RAY\POV-RAY SOURCES\PLUSMINUS\POVRAY\LIBRARIES\TIFF\LIBTIFF\TIF_NEXT.C
D:\POV-RAY\POV-RAY SOURCES\PLUSMINUS\POVRAY\WINDOWS\VS2015\BUILD\TIFF\WIN32\RELEASE\TIFF.PDB
^D:\POV-RAY\POV-RAY SOURCES\PLUSMINUS\POVRAY\LIBRARIES\TIFF\LIBTIFF\TIF_OPEN.C
D:\POV-RAY\POV-RAY SOURCES\PLUSMINUS\POVRAY\WINDOWS\VS2015\BUILD\TIFF\WIN32\RELEASE\TIFF.PDB
^D:\POV-RAY\POV-RAY SOURCES\PLUSMINUS\POVRAY\LIBRARIES\TIFF\LIBTIFF\TIF_PACKBITS.C
D:\POV-RAY\POV-RAY SOURCES\PLUSMINUS\POVRAY\WINDOWS\VS2015\BUILD\TIFF\WIN32\RELEASE\TIFF.PDB
^D:\POV-RAY\POV-RAY SOURCES\PLUSMINUS\POVRAY\LIBRARIES\TIFF\LIBTIFF\TIF_PIXARLOG.C
D:\POV-RAY\POV-RAY SOURCES\PLUSMINUS\POVRAY\WINDOWS\VS2015\BUILD\TIFF\WIN32\RELEASE\TIFF.PDB
^D:\POV-RAY\POV-RAY SOURCES\PLUSMINUS\POVRAY\LIBRARIES\TIFF\LIBTIFF\TIF_PREDICT.C
D:\POV-RAY\POV-RAY SOURCES\PLUSMINUS\POVRAY\WINDOWS\VS2015\BUILD\TIFF\WIN32\RELEASE\TIFF.PDB
^D:\POV-RAY\POV-RAY SOURCES\PLUSMINUS\POVRAY\LIBRARIES\TIFF\LIBTIFF\TIF_PRINT.C
D:\POV-RAY\POV-RAY SOURCES\PLUSMINUS\POVRAY\WINDOWS\VS2015\BUILD\TIFF\WIN32\RELEASE\TIFF.PDB
^D:\POV-RAY\POV-RAY SOURCES\PLUSMINUS\POVRAY\LIBRARIES\TIFF\LIBTIFF\TIF_READ.C
D:\POV-RAY\POV-RAY SOURCES\PLUSMINUS\POVRAY\WINDOWS\VS2015\BUILD\TIFF\WIN32\RELEASE\TIFF.PDB
^D:\POV-RAY\POV-RAY SOURCES\PLUSMINUS\POVRAY\LIBRARIES\TIFF\LIBTIFF\TIF_STRIP.C
D:\POV-RAY\POV-RAY SOURCES\PLUSMINUS\POVRAY\WINDOWS\VS2015\BUILD\TIFF\WIN32\RELEASE\TIFF.PDB
^D:\POV-RAY\POV-RAY SOURCES\PLUSMINUS\POVRAY\LIBRARIES\TIFF\LIBTIFF\TIF_SWAB.C
D:\POV-RAY\POV-RAY SOURCES\PLUSMINUS\POVRAY\WINDOWS\VS2015\BUILD\TIFF\WIN32\RELEASE\TIFF.PDB
^D:\POV-RAY\POV-RAY SOURCES\PLUSMINUS\POVRAY\LIBRARIES\TIFF\LIBTIFF\TIF_THUNDER.C
D:\POV-RAY\POV-RAY SOURCES\PLUSMINUS\POVRAY\WINDOWS\VS2015\BUILD\TIFF\WIN32\RELEASE\TIFF.PDB
^D:\POV-RAY\POV-RAY SOURCES\PLUSMINUS\POVRAY\LIBRARIES\TIFF\LIBTIFF\TIF_TILE.C
D:\POV-RAY\POV-RAY SOURCES\PLUSMINUS\POVRAY\WINDOWS\VS2015\BUILD\TIFF\WIN32\RELEASE\TIFF.PDB
^D:\POV-RAY\POV-RAY SOURCES\PLUSMINUS\POVRAY\LIBRARIES\TIFF\LIBTIFF\TIF_VERSION.C
D:\POV-RAY\POV-RAY SOURCES\PLUSMINUS\POVRAY\WINDOWS\VS2015\BUILD\TIFF\WIN32\RELEASE\TIFF.PDB
^D:\POV-RAY\POV-RAY SOURCES\PLUSMINUS\POVRAY\LIBRARIES\TIFF\LIBTIFF\TIF_WARNING.C
D:\POV-RAY\POV-RAY SOURCES\PLUSMINUS\POVRAY\WINDOWS\VS2015\BUILD\TIFF\WIN32\RELEASE\TIFF.PDB
^D:\POV-RAY\POV-RAY SOURCES\PLUSMINUS\POVRAY\LIBRARIES\TIFF\LIBTIFF\TIF_WIN32.C
D:\POV-RAY\POV-RAY SOURCES\PLUSMINUS\POVRAY\WINDOWS\VS2015\BUILD\TIFF\WIN32\RELEASE\TIFF.PDB
^D:\POV-RAY\POV-RAY SOURCES\PLUSMINUS\POVRAY\LIBRARIES\TIFF\LIBTIFF\TIF_WRITE.C
D:\POV-RAY\POV-RAY SOURCES\PLUSMINUS\POVRAY\WINDOWS\VS2015\BUILD\TIFF\WIN32\RELEASE\TIFF.PDB
^D:\POV-RAY\POV-RAY SOURCES\PLUSMINUS\POVRAY\LIBRARIES\TIFF\LIBTIFF\TIF_ZIP.C
D:\POV-RAY\POV-RAY SOURCES\PLUSMINUS\POVRAY\WINDOWS\VS2015\BUILD\TIFF\WIN32\RELEASE\TIFF.PDB
