^C:\USERS\MATTHEW MCCOMB\DOCUMENTS\GITHUB\POVRAY\WINDOWS\VS2015\BUILD\POVFRONTEND\WIN32\RELEASE\ANIMATIONPROCESSING.OBJ|C:\USERS\MATTHEW MCCOMB\DOCUMENTS\GITHUB\POVRAY\WINDOWS\VS2015\BUILD\POVFRONTEND\WIN32\RELEASE\CONSOLE.OBJ|C:\USERS\MATTHEW MCCOMB\DOCUMENTS\GITHUB\POVRAY\WINDOWS\VS2015\BUILD\POVFRONTEND\WIN32\RELEASE\DISPLAY.OBJ|C:\USERS\MATTHEW MCCOMB\DOCUMENTS\GITHUB\POVRAY\WINDOWS\VS2015\BUILD\POVFRONTEND\WIN32\RELEASE\FILEMESSAGEHANDLER.OBJ|C:\USERS\MATTHEW MCCOMB\DOCUMENTS\GITHUB\POVRAY\WINDOWS\VS2015\BUILD\POVFRONTEND\WIN32\RELEASE\IMAGEMESSAGEHANDLER.OBJ|C:\USERS\MATTHEW MCCOMB\DOCUMENTS\GITHUB\POVRAY\WINDOWS\VS2015\BUILD\POVFRONTEND\WIN32\RELEASE\IMAGEPROCESSING.OBJ|C:\USERS\MATTHEW MCCOMB\DOCUMENTS\GITHUB\POVRAY\WINDOWS\VS2015\BUILD\POVFRONTEND\WIN32\RELEASE\PARSERMESSAGEHANDLER.OBJ|C:\USERS\MATTHEW MCCOMB\DOCUMENTS\GITHUB\POVRAY\WINDOWS\VS2015\BUILD\POVFRONTEND\WIN32\RELEASE\POVMAIN.OBJ|C:\USERS\MATTHEW MCCOMB\DOCUMENTS\GITHUB\POVRAY\WINDOWS\VS2015\BUILD\POVFRONTEND\WIN32\RELEASE\PRECOMP.OBJ|C:\USERS\MATTHEW MCCOMB\DOCUMENTS\GITHUB\POVRAY\WINDOWS\VS2015\BUILD\POVFRONTEND\WIN32\RELEASE\PROCESSOPTIONS.OBJ|C:\USERS\MATTHEW MCCOMB\DOCUMENTS\GITHUB\POVRAY\WINDOWS\VS2015\BUILD\POVFRONTEND\WIN32\RELEASE\PROCESSRENDEROPTIONS.OBJ|C:\USERS\MATTHEW MCCOMB\DOCUMENTS\GITHUB\POVRAY\WINDOWS\VS2015\BUILD\POVFRONTEND\WIN32\RELEASE\RENDERFRONTEND.OBJ|C:\USERS\MATTHEW MCCOMB\DOCUMENTS\GITHUB\POVRAY\WINDOWS\VS2015\BUILD\POVFRONTEND\WIN32\RELEASE\RENDERMESSAGEHANDLER.OBJ|C:\USERS\MATTHEW MCCOMB\DOCUMENTS\GITHUB\POVRAY\WINDOWS\VS2015\BUILD\POVFRONTEND\WIN32\RELEASE\SHELLOUTPROCESSING.OBJ
/OUT:"BIN32\LIB\POVFRONTEND32.LIB" /NOLOGO /LTCG BUILD\POVFRONTEND\WIN32\RELEASE\ANIMATIONPROCESSING.OBJBUILD\POVFRONTEND\WIN32\RELEASE\CONSOLE.OBJBUILD\POVFRONTEND\WIN32\RELEASE\DISPLAY.OBJBUILD\POVFRONTEND\WIN32\RELEASE\FILEMESSAGEHANDLER.OBJBUILD\POVFRONTEND\WIN32\RELEASE\IMAGEMESSAGEHANDLER.OBJBUILD\POVFRONTEND\WIN32\RELEASE\IMAGEPROCESSING.OBJBUILD\POVFRONTEND\WIN32\RELEASE\PARSERMESSAGEHANDLER.OBJBUILD\POVFRONTEND\WIN32\RELEASE\PROCESSOPTIONS.OBJBUILD\POVFRONTEND\WIN32\RELEASE\PROCESSRENDEROPTIONS.OBJBUILD\POVFRONTEND\WIN32\RELEASE\RENDERFRONTEND.OBJBUILD\POVFRONTEND\WIN32\RELEASE\RENDERMESSAGEHANDLER.OBJBUILD\POVFRONTEND\WIN32\RELEASE\SHELLOUTPROCESSING.OBJBUILD\POVFRONTEND\WIN32\RELEASE\POVMAIN.OBJBUILD\POVFRONTEND\WIN32\RELEASE\PRECOMP.OBJ
^D:\POV-RAY\POV-RAY SOURCES\PLUSMINUS\POVRAY\WINDOWS\VS2015\BUILD\POVFRONTEND\WIN32\RELEASE\ANIMATIONPROCESSING.OBJ|D:\POV-RAY\POV-RAY SOURCES\PLUSMINUS\POVRAY\WINDOWS\VS2015\BUILD\POVFRONTEND\WIN32\RELEASE\CONSOLE.OBJ|D:\POV-RAY\POV-RAY SOURCES\PLUSMINUS\POVRAY\WINDOWS\VS2015\BUILD\POVFRONTEND\WIN32\RELEASE\DISPLAY.OBJ|D:\POV-RAY\POV-RAY SOURCES\PLUSMINUS\POVRAY\WINDOWS\VS2015\BUILD\POVFRONTEND\WIN32\RELEASE\FILEMESSAGEHANDLER.OBJ|D:\POV-RAY\POV-RAY SOURCES\PLUSMINUS\POVRAY\WINDOWS\VS2015\BUILD\POVFRONTEND\WIN32\RELEASE\IMAGEMESSAGEHANDLER.OBJ|D:\POV-RAY\POV-RAY SOURCES\PLUSMINUS\POVRAY\WINDOWS\VS2015\BUILD\POVFRONTEND\WIN32\RELEASE\IMAGEPROCESSING.OBJ|D:\POV-RAY\POV-RAY SOURCES\PLUSMINUS\POVRAY\WINDOWS\VS2015\BUILD\POVFRONTEND\WIN32\RELEASE\PARSERMESSAGEHANDLER.OBJ|D:\POV-RAY\POV-RAY SOURCES\PLUSMINUS\POVRAY\WINDOWS\VS2015\BUILD\POVFRONTEND\WIN32\RELEASE\POVMAIN.OBJ|D:\POV-RAY\POV-RAY SOURCES\PLUSMINUS\POVRAY\WINDOWS\VS2015\BUILD\POVFRONTEND\WIN32\RELEASE\PRECOMP.OBJ|D:\POV-RAY\POV-RAY SOURCES\PLUSMINUS\POVRAY\WINDOWS\VS2015\BUILD\POVFRONTEND\WIN32\RELEASE\PROCESSOPTIONS.OBJ|D:\POV-RAY\POV-RAY SOURCES\PLUSMINUS\POVRAY\WINDOWS\VS2015\BUILD\POVFRONTEND\WIN32\RELEASE\PROCESSRENDEROPTIONS.OBJ|D:\POV-RAY\POV-RAY SOURCES\PLUSMINUS\POVRAY\WINDOWS\VS2015\BUILD\POVFRONTEND\WIN32\RELEASE\RENDERFRONTEND.OBJ|D:\POV-RAY\POV-RAY SOURCES\PLUSMINUS\POVRAY\WINDOWS\VS2015\BUILD\POVFRONTEND\WIN32\RELEASE\RENDERMESSAGEHANDLER.OBJ|D:\POV-RAY\POV-RAY SOURCES\PLUSMINUS\POVRAY\WINDOWS\VS2015\BUILD\POVFRONTEND\WIN32\RELEASE\SHELLOUTPROCESSING.OBJ
/OUT:"BIN32\LIB\POVFRONTEND32.LIB" /NOLOGO /LTCG BUILD\POVFRONTEND\WIN32\RELEASE\ANIMATIONPROCESSING.OBJBUILD\POVFRONTEND\WIN32\RELEASE\CONSOLE.OBJBUILD\POVFRONTEND\WIN32\RELEASE\DISPLAY.OBJBUILD\POVFRONTEND\WIN32\RELEASE\FILEMESSAGEHANDLER.OBJBUILD\POVFRONTEND\WIN32\RELEASE\IMAGEMESSAGEHANDLER.OBJBUILD\POVFRONTEND\WIN32\RELEASE\IMAGEPROCESSING.OBJBUILD\POVFRONTEND\WIN32\RELEASE\PARSERMESSAGEHANDLER.OBJBUILD\POVFRONTEND\WIN32\RELEASE\PROCESSOPTIONS.OBJBUILD\POVFRONTEND\WIN32\RELEASE\PROCESSRENDEROPTIONS.OBJBUILD\POVFRONTEND\WIN32\RELEASE\RENDERFRONTEND.OBJBUILD\POVFRONTEND\WIN32\RELEASE\RENDERMESSAGEHANDLER.OBJBUILD\POVFRONTEND\WIN32\RELEASE\SHELLOUTPROCESSING.OBJBUILD\POVFRONTEND\WIN32\RELEASE\POVMAIN.OBJBUILD\POVFRONTEND\WIN32\RELEASE\PRECOMP.OBJ
