^C:\USERS\MATTHEW MCCOMB\DOCUMENTS\GITHUB\POVRAY\WINDOWS\RTRSUPPORT\RTRSUPPORT.CPP
/c /I..\..\LIBRARIES\BOOST /I..\..\VFE\WIN /I..\..\VFE /I..\ /I..\..\SOURCE /I..\..\SOURCE\BASE /I..\..\SOURCE\BACKEND /I..\..\SOURCE\FRONTEND /I..\..\LIBRARIES\JPEG /I..\..\LIBRARIES\ZLIB /I..\..\LIBRARIES\PNG /I..\..\LIBRARIES\TIFF\LIBTIFF /Zi /nologo /W3 /WX- /diagnostics:classic /Od /Oy- /D BOOST_ALL_NO_LIB /D WIN32 /D WIN32_LEAN_AND_MEAN /D _WINDOWS /D _DEBUG /D ISOLATION_AWARE_ENABLED /D _CRT_SECURE_NO_DEPRECATE /D _HAS_ITERATOR_DEBUGGING=0 /D _CRT_NON_CONFORMING_SWPRINTFS /D _WIN32_DCOM /D WINVER=0x0500 /D _WIN32_WINNT=0x0500 /D COMMONCTRL_VERSION=0x500 /D CLASSLIB_DEFS_H /D NOMINMAX /D _SECURE_SCL=0 /D _VC80_UPGRADE=0x0710 /GF /Gm /EHsc /MTd /GS- /arch:SSE2 /fp:precise /Zc:wchar_t /Zc:forScope /Zc:inline /Fo"BUILD\RTRSUPPORT\WIN32\DEBUG\\" /Fd"BUILD\RTRSUPPORT\WIN32\DEBUG\RTRSUPPORT.PDB" /FR"build\rtrsupport\Win32\Debug\\" /Gd /TP /wd4995 /analyze- /FC C:\USERS\MATTHEW MCCOMB\DOCUMENTS\GITHUB\POVRAY\WINDOWS\RTRSUPPORT\RTRSUPPORT.CPP
^C:\USERS\MATTHEW MCCOMB\DOCUMENTS\GITHUB\POVRAY\WINDOWS\RTRSUPPORT\VIDCAP.CPP
/c /I..\..\LIBRARIES\BOOST /I..\..\VFE\WIN /I..\..\VFE /I..\ /I..\..\SOURCE /I..\..\SOURCE\BASE /I..\..\SOURCE\BACKEND /I..\..\SOURCE\FRONTEND /I..\..\LIBRARIES\JPEG /I..\..\LIBRARIES\ZLIB /I..\..\LIBRARIES\PNG /I..\..\LIBRARIES\TIFF\LIBTIFF /Zi /nologo /W3 /WX- /diagnostics:classic /Od /Oy- /D BOOST_ALL_NO_LIB /D WIN32 /D WIN32_LEAN_AND_MEAN /D _WINDOWS /D _DEBUG /D ISOLATION_AWARE_ENABLED /D _CRT_SECURE_NO_DEPRECATE /D _HAS_ITERATOR_DEBUGGING=0 /D _CRT_NON_CONFORMING_SWPRINTFS /D _WIN32_DCOM /D WINVER=0x0500 /D _WIN32_WINNT=0x0500 /D COMMONCTRL_VERSION=0x500 /D CLASSLIB_DEFS_H /D NOMINMAX /D _SECURE_SCL=0 /D _VC80_UPGRADE=0x0710 /GF /Gm /EHsc /MTd /GS- /arch:SSE2 /fp:precise /Zc:wchar_t /Zc:forScope /Zc:inline /Fo"BUILD\RTRSUPPORT\WIN32\DEBUG\\" /Fd"BUILD\RTRSUPPORT\WIN32\DEBUG\RTRSUPPORT.PDB" /FR"build\rtrsupport\Win32\Debug\\" /Gd /TP /wd4995 /analyze- /FC C:\USERS\MATTHEW MCCOMB\DOCUMENTS\GITHUB\POVRAY\WINDOWS\RTRSUPPORT\VIDCAP.CPP
^C:\USERS\MATTHEW MCCOMB\DOCUMENTS\GITHUB\POVRAY\WINDOWS\RTRSUPPORT\VIDCAPIMPL.CPP
/c /I..\..\LIBRARIES\BOOST /I..\..\VFE\WIN /I..\..\VFE /I..\ /I..\..\SOURCE /I..\..\SOURCE\BASE /I..\..\SOURCE\BACKEND /I..\..\SOURCE\FRONTEND /I..\..\LIBRARIES\JPEG /I..\..\LIBRARIES\ZLIB /I..\..\LIBRARIES\PNG /I..\..\LIBRARIES\TIFF\LIBTIFF /Zi /nologo /W3 /WX- /diagnostics:classic /Od /Oy- /D BOOST_ALL_NO_LIB /D WIN32 /D WIN32_LEAN_AND_MEAN /D _WINDOWS /D _DEBUG /D ISOLATION_AWARE_ENABLED /D _CRT_SECURE_NO_DEPRECATE /D _HAS_ITERATOR_DEBUGGING=0 /D _CRT_NON_CONFORMING_SWPRINTFS /D _WIN32_DCOM /D WINVER=0x0500 /D _WIN32_WINNT=0x0500 /D COMMONCTRL_VERSION=0x500 /D CLASSLIB_DEFS_H /D NOMINMAX /D _SECURE_SCL=0 /D _VC80_UPGRADE=0x0710 /GF /Gm /EHsc /MTd /GS- /arch:SSE2 /fp:precise /Zc:wchar_t /Zc:forScope /Zc:inline /Fo"BUILD\RTRSUPPORT\WIN32\DEBUG\\" /Fd"BUILD\RTRSUPPORT\WIN32\DEBUG\RTRSUPPORT.PDB" /FR"build\rtrsupport\Win32\Debug\\" /Gd /TP /wd4995 /analyze- /FC C:\USERS\MATTHEW MCCOMB\DOCUMENTS\GITHUB\POVRAY\WINDOWS\RTRSUPPORT\VIDCAPIMPL.CPP
