c:\users\matthew mccomb\documents\github\povray\windows\vs2015\bin32\lib\povfrontend32.bsc
c:\users\matthew mccomb\documents\github\povraytesting\windows\vs2015\bin32\lib\povfrontend32.bsc
c:\users\matthew mccomb\documents\github\povrayonlysphere\windows\vs2015\bin32\lib\povfrontend32.bsc
c:\users\matthew mccomb\documents\github\povray\windows\vs2015\build\povfrontend\win32\release\precomp.pch
c:\users\matthew mccomb\documents\github\povray\windows\vs2015\build\povfrontend\win32\release\povfrontend.pdb
c:\users\matthew mccomb\documents\github\povray\windows\vs2015\build\povfrontend\win32\release\precomp.sbr
c:\users\matthew mccomb\documents\github\povray\windows\vs2015\build\povfrontend\win32\release\precomp.obj
c:\users\matthew mccomb\documents\github\povray\windows\vs2015\build\povfrontend\win32\release\animationprocessing.sbr
c:\users\matthew mccomb\documents\github\povray\windows\vs2015\build\povfrontend\win32\release\console.sbr
c:\users\matthew mccomb\documents\github\povray\windows\vs2015\build\povfrontend\win32\release\display.sbr
c:\users\matthew mccomb\documents\github\povray\windows\vs2015\build\povfrontend\win32\release\filemessagehandler.sbr
c:\users\matthew mccomb\documents\github\povray\windows\vs2015\build\povfrontend\win32\release\imagemessagehandler.sbr
c:\users\matthew mccomb\documents\github\povray\windows\vs2015\build\povfrontend\win32\release\imageprocessing.sbr
c:\users\matthew mccomb\documents\github\povray\windows\vs2015\build\povfrontend\win32\release\parsermessagehandler.sbr
c:\users\matthew mccomb\documents\github\povray\windows\vs2015\build\povfrontend\win32\release\processoptions.sbr
c:\users\matthew mccomb\documents\github\povray\windows\vs2015\build\povfrontend\win32\release\processrenderoptions.sbr
c:\users\matthew mccomb\documents\github\povray\windows\vs2015\build\povfrontend\win32\release\renderfrontend.sbr
c:\users\matthew mccomb\documents\github\povray\windows\vs2015\build\povfrontend\win32\release\rendermessagehandler.sbr
c:\users\matthew mccomb\documents\github\povray\windows\vs2015\build\povfrontend\win32\release\shelloutprocessing.sbr
c:\users\matthew mccomb\documents\github\povray\windows\vs2015\build\povfrontend\win32\release\povmain.obj
c:\users\matthew mccomb\documents\github\povray\windows\vs2015\build\povfrontend\win32\release\shelloutprocessing.obj
c:\users\matthew mccomb\documents\github\povray\windows\vs2015\build\povfrontend\win32\release\rendermessagehandler.obj
c:\users\matthew mccomb\documents\github\povray\windows\vs2015\build\povfrontend\win32\release\renderfrontend.obj
c:\users\matthew mccomb\documents\github\povray\windows\vs2015\build\povfrontend\win32\release\processrenderoptions.obj
c:\users\matthew mccomb\documents\github\povray\windows\vs2015\build\povfrontend\win32\release\processoptions.obj
c:\users\matthew mccomb\documents\github\povray\windows\vs2015\build\povfrontend\win32\release\parsermessagehandler.obj
c:\users\matthew mccomb\documents\github\povray\windows\vs2015\build\povfrontend\win32\release\imageprocessing.obj
c:\users\matthew mccomb\documents\github\povray\windows\vs2015\build\povfrontend\win32\release\imagemessagehandler.obj
c:\users\matthew mccomb\documents\github\povray\windows\vs2015\build\povfrontend\win32\release\filemessagehandler.obj
c:\users\matthew mccomb\documents\github\povray\windows\vs2015\build\povfrontend\win32\release\display.obj
c:\users\matthew mccomb\documents\github\povray\windows\vs2015\build\povfrontend\win32\release\console.obj
c:\users\matthew mccomb\documents\github\povray\windows\vs2015\build\povfrontend\win32\release\animationprocessing.obj
c:\users\matthew mccomb\documents\github\povray\windows\vs2015\build\povfrontend\win32\release\
c:\users\matthew mccomb\documents\github\povray\windows\vs2015\build\povfrontend\win32\release\povmain.sbr
c:\users\matthew mccomb\documents\github\povraytesting\windows\vs2015\build\povfrontend\win32\release\precomp.pch
c:\users\matthew mccomb\documents\github\povraytesting\windows\vs2015\build\povfrontend\win32\release\povfrontend.pdb
c:\users\matthew mccomb\documents\github\povraytesting\windows\vs2015\build\povfrontend\win32\release\precomp.sbr
c:\users\matthew mccomb\documents\github\povraytesting\windows\vs2015\build\povfrontend\win32\release\precomp.obj
c:\users\matthew mccomb\documents\github\povraytesting\windows\vs2015\build\povfrontend\win32\release\animationprocessing.sbr
c:\users\matthew mccomb\documents\github\povraytesting\windows\vs2015\build\povfrontend\win32\release\console.sbr
c:\users\matthew mccomb\documents\github\povraytesting\windows\vs2015\build\povfrontend\win32\release\display.sbr
c:\users\matthew mccomb\documents\github\povraytesting\windows\vs2015\build\povfrontend\win32\release\filemessagehandler.sbr
c:\users\matthew mccomb\documents\github\povraytesting\windows\vs2015\build\povfrontend\win32\release\imagemessagehandler.sbr
c:\users\matthew mccomb\documents\github\povraytesting\windows\vs2015\build\povfrontend\win32\release\imageprocessing.sbr
c:\users\matthew mccomb\documents\github\povraytesting\windows\vs2015\build\povfrontend\win32\release\parsermessagehandler.sbr
c:\users\matthew mccomb\documents\github\povraytesting\windows\vs2015\build\povfrontend\win32\release\processoptions.sbr
c:\users\matthew mccomb\documents\github\povraytesting\windows\vs2015\build\povfrontend\win32\release\processrenderoptions.sbr
c:\users\matthew mccomb\documents\github\povraytesting\windows\vs2015\build\povfrontend\win32\release\renderfrontend.sbr
c:\users\matthew mccomb\documents\github\povraytesting\windows\vs2015\build\povfrontend\win32\release\rendermessagehandler.sbr
c:\users\matthew mccomb\documents\github\povraytesting\windows\vs2015\build\povfrontend\win32\release\shelloutprocessing.sbr
c:\users\matthew mccomb\documents\github\povraytesting\windows\vs2015\build\povfrontend\win32\release\povmain.sbr
c:\users\matthew mccomb\documents\github\povraytesting\windows\vs2015\build\povfrontend\win32\release\povmain.obj
c:\users\matthew mccomb\documents\github\povraytesting\windows\vs2015\build\povfrontend\win32\release\shelloutprocessing.obj
c:\users\matthew mccomb\documents\github\povraytesting\windows\vs2015\build\povfrontend\win32\release\rendermessagehandler.obj
c:\users\matthew mccomb\documents\github\povraytesting\windows\vs2015\build\povfrontend\win32\release\renderfrontend.obj
c:\users\matthew mccomb\documents\github\povraytesting\windows\vs2015\build\povfrontend\win32\release\processrenderoptions.obj
c:\users\matthew mccomb\documents\github\povraytesting\windows\vs2015\build\povfrontend\win32\release\processoptions.obj
c:\users\matthew mccomb\documents\github\povraytesting\windows\vs2015\build\povfrontend\win32\release\parsermessagehandler.obj
c:\users\matthew mccomb\documents\github\povraytesting\windows\vs2015\build\povfrontend\win32\release\imageprocessing.obj
c:\users\matthew mccomb\documents\github\povraytesting\windows\vs2015\build\povfrontend\win32\release\imagemessagehandler.obj
c:\users\matthew mccomb\documents\github\povraytesting\windows\vs2015\build\povfrontend\win32\release\filemessagehandler.obj
c:\users\matthew mccomb\documents\github\povraytesting\windows\vs2015\build\povfrontend\win32\release\display.obj
c:\users\matthew mccomb\documents\github\povraytesting\windows\vs2015\build\povfrontend\win32\release\console.obj
c:\users\matthew mccomb\documents\github\povraytesting\windows\vs2015\build\povfrontend\win32\release\animationprocessing.obj
c:\users\matthew mccomb\documents\github\povrayonlysphere\windows\vs2015\build\povfrontend\win32\release\precomp.pch
c:\users\matthew mccomb\documents\github\povrayonlysphere\windows\vs2015\build\povfrontend\win32\release\povfrontend.pdb
c:\users\matthew mccomb\documents\github\povrayonlysphere\windows\vs2015\build\povfrontend\win32\release\precomp.sbr
c:\users\matthew mccomb\documents\github\povrayonlysphere\windows\vs2015\build\povfrontend\win32\release\precomp.obj
c:\users\matthew mccomb\documents\github\povrayonlysphere\windows\vs2015\build\povfrontend\win32\release\animationprocessing.sbr
c:\users\matthew mccomb\documents\github\povrayonlysphere\windows\vs2015\build\povfrontend\win32\release\console.sbr
c:\users\matthew mccomb\documents\github\povrayonlysphere\windows\vs2015\build\povfrontend\win32\release\display.sbr
c:\users\matthew mccomb\documents\github\povrayonlysphere\windows\vs2015\build\povfrontend\win32\release\filemessagehandler.sbr
c:\users\matthew mccomb\documents\github\povrayonlysphere\windows\vs2015\build\povfrontend\win32\release\imagemessagehandler.sbr
c:\users\matthew mccomb\documents\github\povrayonlysphere\windows\vs2015\build\povfrontend\win32\release\imageprocessing.sbr
c:\users\matthew mccomb\documents\github\povrayonlysphere\windows\vs2015\build\povfrontend\win32\release\parsermessagehandler.sbr
c:\users\matthew mccomb\documents\github\povrayonlysphere\windows\vs2015\build\povfrontend\win32\release\processoptions.sbr
c:\users\matthew mccomb\documents\github\povrayonlysphere\windows\vs2015\build\povfrontend\win32\release\processrenderoptions.sbr
c:\users\matthew mccomb\documents\github\povrayonlysphere\windows\vs2015\build\povfrontend\win32\release\renderfrontend.sbr
c:\users\matthew mccomb\documents\github\povrayonlysphere\windows\vs2015\build\povfrontend\win32\release\rendermessagehandler.sbr
c:\users\matthew mccomb\documents\github\povrayonlysphere\windows\vs2015\build\povfrontend\win32\release\shelloutprocessing.sbr
c:\users\matthew mccomb\documents\github\povrayonlysphere\windows\vs2015\build\povfrontend\win32\release\povmain.sbr
c:\users\matthew mccomb\documents\github\povrayonlysphere\windows\vs2015\build\povfrontend\win32\release\povmain.obj
c:\users\matthew mccomb\documents\github\povrayonlysphere\windows\vs2015\build\povfrontend\win32\release\shelloutprocessing.obj
c:\users\matthew mccomb\documents\github\povrayonlysphere\windows\vs2015\build\povfrontend\win32\release\rendermessagehandler.obj
c:\users\matthew mccomb\documents\github\povrayonlysphere\windows\vs2015\build\povfrontend\win32\release\renderfrontend.obj
c:\users\matthew mccomb\documents\github\povrayonlysphere\windows\vs2015\build\povfrontend\win32\release\processrenderoptions.obj
c:\users\matthew mccomb\documents\github\povrayonlysphere\windows\vs2015\build\povfrontend\win32\release\processoptions.obj
c:\users\matthew mccomb\documents\github\povrayonlysphere\windows\vs2015\build\povfrontend\win32\release\parsermessagehandler.obj
c:\users\matthew mccomb\documents\github\povrayonlysphere\windows\vs2015\build\povfrontend\win32\release\imageprocessing.obj
c:\users\matthew mccomb\documents\github\povrayonlysphere\windows\vs2015\build\povfrontend\win32\release\imagemessagehandler.obj
c:\users\matthew mccomb\documents\github\povrayonlysphere\windows\vs2015\build\povfrontend\win32\release\filemessagehandler.obj
c:\users\matthew mccomb\documents\github\povrayonlysphere\windows\vs2015\build\povfrontend\win32\release\display.obj
c:\users\matthew mccomb\documents\github\povrayonlysphere\windows\vs2015\build\povfrontend\win32\release\console.obj
c:\users\matthew mccomb\documents\github\povrayonlysphere\windows\vs2015\build\povfrontend\win32\release\animationprocessing.obj
c:\users\matthew mccomb\documents\github\povray\windows\vs2015\bin32\lib\povfrontend32.lib
c:\users\matthew mccomb\documents\github\povraytesting\windows\vs2015\bin32\lib\povfrontend32.lib
c:\users\matthew mccomb\documents\github\povrayonlysphere\windows\vs2015\bin32\lib\povfrontend32.lib
c:\users\matthew mccomb\documents\github\povrayonlysphere\windows\vs2015\build\povfrontend\win32\release\povfrontend.tlog\bscmake.command.1.tlog
c:\users\matthew mccomb\documents\github\povrayonlysphere\windows\vs2015\build\povfrontend\win32\release\povfrontend.tlog\bscmake.read.1.tlog
c:\users\matthew mccomb\documents\github\povrayonlysphere\windows\vs2015\build\povfrontend\win32\release\povfrontend.tlog\bscmake.write.1.tlog
c:\users\matthew mccomb\documents\github\povrayonlysphere\windows\vs2015\build\povfrontend\win32\release\povfrontend.tlog\cl.command.1.tlog
c:\users\matthew mccomb\documents\github\povrayonlysphere\windows\vs2015\build\povfrontend\win32\release\povfrontend.tlog\cl.read.1.tlog
c:\users\matthew mccomb\documents\github\povrayonlysphere\windows\vs2015\build\povfrontend\win32\release\povfrontend.tlog\cl.write.1.tlog
c:\users\matthew mccomb\documents\github\povrayonlysphere\windows\vs2015\build\povfrontend\win32\release\povfrontend.tlog\lib-link.read.1.tlog
c:\users\matthew mccomb\documents\github\povrayonlysphere\windows\vs2015\build\povfrontend\win32\release\povfrontend.tlog\lib-link.write.1.tlog
c:\users\matthew mccomb\documents\github\povrayonlysphere\windows\vs2015\build\povfrontend\win32\release\povfrontend.tlog\lib.command.1.tlog
