^C:\USERS\MATTHEW MCCOMB\DOCUMENTS\GITHUB\POVRAY\LIBRARIES\ILMBASE\IEX\IEXBASEEXC.CPP|C:\USERS\MATTHEW MCCOMB\DOCUMENTS\GITHUB\POVRAY\LIBRARIES\ILMBASE\IEX\IEXTHROWERRNOEXC.CPP
C:\USERS\MATTHEW MCCOMB\DOCUMENTS\GITHUB\POVRAY\WINDOWS\VS10\BUILD\IEX\WIN32\DEBUG\IEX.PDB
C:\USERS\MATTHEW MCCOMB\DOCUMENTS\GITHUB\POVRAY\WINDOWS\VS10\BUILD\IEX\WIN32\DEBUG\IEX.IDB
C:\USERS\MATTHEW MCCOMB\DOCUMENTS\GITHUB\POVRAY\WINDOWS\VS10\BUILD\IEX\WIN32\DEBUG\IEXTHROWERRNOEXC.SBR
C:\USERS\MATTHEW MCCOMB\DOCUMENTS\GITHUB\POVRAY\WINDOWS\VS10\BUILD\IEX\WIN32\DEBUG\IEXBASEEXC.SBR
C:\USERS\MATTHEW MCCOMB\DOCUMENTS\GITHUB\POVRAY\WINDOWS\VS10\BUILD\IEX\WIN32\DEBUG\IEXBASEEXC.OBJ
C:\USERS\MATTHEW MCCOMB\DOCUMENTS\GITHUB\POVRAY\WINDOWS\VS10\BUILD\IEX\WIN32\DEBUG\IEXTHROWERRNOEXC.OBJ
^C:\USERS\MATTHEW MCCOMB\DOCUMENTS\GITHUB\POVRAY\LIBRARIES\ILMBASE\IEX\IEXBASEEXC.CPP
C:\USERS\MATTHEW MCCOMB\DOCUMENTS\GITHUB\POVRAY\WINDOWS\VS10\BUILD\IEX\WIN32\DEBUG\IEX.PDB
^C:\USERS\MATTHEW MCCOMB\DOCUMENTS\GITHUB\POVRAY\LIBRARIES\ILMBASE\IEX\IEXTHROWERRNOEXC.CPP
C:\USERS\MATTHEW MCCOMB\DOCUMENTS\GITHUB\POVRAY\WINDOWS\VS10\BUILD\IEX\WIN32\DEBUG\IEX.PDB
