^C:\USERS\MATTHEW MCCOMB\DOCUMENTS\GITHUB\POVRAY\PLATFORM\WINDOWS\OSVERSIONINFO.CPP
/c /I..\..\INTERNAL\WINDOWS /I..\..\PLATFORM\X86 /I..\..\PLATFORM\WINDOWS /I..\..\WINDOWS\POVCONFIG /I..\..\LIBRARIES\BOOST /I..\..\VFE\WIN\ /I..\..\VFE\ /I..\..\SOURCE /I..\..\LIBRARIES\JPEG /I..\..\LIBRARIES\ZLIB /I..\..\LIBRARIES\PNG /I..\..\LIBRARIES\TIFF\LIBTIFF /Zi /nologo /W3 /WX- /diagnostics:classic /Od /Oi /Oy- /D BOOST_ALL_NO_LIB /D _DEBUG /D WIN32 /D WIN32_LEAN_AND_MEAN /D _WINDOWS /D WINVER=0x0500 /D _WIN32_WINNT=0x0500 /D COMMONCTRL_VERSION=0x500 /D CLASSLIB_DEFS_H /D NOMINMAX /D ISOLATION_AWARE_ENABLED /D _CRT_SECURE_NO_DEPRECATE /D _HAS_ITERATOR_DEBUGGING=0 /GF /Gm- /EHsc /MTd /GS- /arch:SSE2 /fp:precise /Zc:wchar_t /Zc:forScope /Zc:inline /GR /Fo"BUILD\POVPLATFORM\WIN32\DEBUG\\" /Fd"BUILD\POVPLATFORM\WIN32\DEBUG\POVPLATFORM.PDB" /FR"build\povplatform\Win32\Debug\\" /Gd /TP /wd4800 /wd4355 /analyze- /FC C:\USERS\MATTHEW MCCOMB\DOCUMENTS\GITHUB\POVRAY\PLATFORM\WINDOWS\OSVERSIONINFO.CPP
^C:\USERS\MATTHEW MCCOMB\DOCUMENTS\GITHUB\POVRAY\PLATFORM\WINDOWS\SYSPOVPATH.CPP
/c /I..\..\INTERNAL\WINDOWS /I..\..\PLATFORM\X86 /I..\..\PLATFORM\WINDOWS /I..\..\WINDOWS\POVCONFIG /I..\..\LIBRARIES\BOOST /I..\..\VFE\WIN\ /I..\..\VFE\ /I..\..\SOURCE /I..\..\LIBRARIES\JPEG /I..\..\LIBRARIES\ZLIB /I..\..\LIBRARIES\PNG /I..\..\LIBRARIES\TIFF\LIBTIFF /Zi /nologo /W3 /WX- /diagnostics:classic /Od /Oi /Oy- /D BOOST_ALL_NO_LIB /D _DEBUG /D WIN32 /D WIN32_LEAN_AND_MEAN /D _WINDOWS /D WINVER=0x0500 /D _WIN32_WINNT=0x0500 /D COMMONCTRL_VERSION=0x500 /D CLASSLIB_DEFS_H /D NOMINMAX /D ISOLATION_AWARE_ENABLED /D _CRT_SECURE_NO_DEPRECATE /D _HAS_ITERATOR_DEBUGGING=0 /GF /Gm- /EHsc /MTd /GS- /arch:SSE2 /fp:precise /Zc:wchar_t /Zc:forScope /Zc:inline /GR /Fo"BUILD\POVPLATFORM\WIN32\DEBUG\\" /Fd"BUILD\POVPLATFORM\WIN32\DEBUG\POVPLATFORM.PDB" /FR"build\povplatform\Win32\Debug\\" /Gd /TP /wd4800 /wd4355 /analyze- /FC C:\USERS\MATTHEW MCCOMB\DOCUMENTS\GITHUB\POVRAY\PLATFORM\WINDOWS\SYSPOVPATH.CPP
^C:\USERS\MATTHEW MCCOMB\DOCUMENTS\GITHUB\POVRAY\PLATFORM\WINDOWS\SYSPOVTASK.CPP
/c /I..\..\INTERNAL\WINDOWS /I..\..\PLATFORM\X86 /I..\..\PLATFORM\WINDOWS /I..\..\WINDOWS\POVCONFIG /I..\..\LIBRARIES\BOOST /I..\..\VFE\WIN\ /I..\..\VFE\ /I..\..\SOURCE /I..\..\LIBRARIES\JPEG /I..\..\LIBRARIES\ZLIB /I..\..\LIBRARIES\PNG /I..\..\LIBRARIES\TIFF\LIBTIFF /Zi /nologo /W3 /WX- /diagnostics:classic /Od /Oi /Oy- /D BOOST_ALL_NO_LIB /D _DEBUG /D WIN32 /D WIN32_LEAN_AND_MEAN /D _WINDOWS /D WINVER=0x0500 /D _WIN32_WINNT=0x0500 /D COMMONCTRL_VERSION=0x500 /D CLASSLIB_DEFS_H /D NOMINMAX /D ISOLATION_AWARE_ENABLED /D _CRT_SECURE_NO_DEPRECATE /D _HAS_ITERATOR_DEBUGGING=0 /GF /Gm- /EHsc /MTd /GS- /arch:SSE2 /fp:precise /Zc:wchar_t /Zc:forScope /Zc:inline /GR /Fo"BUILD\POVPLATFORM\WIN32\DEBUG\\" /Fd"BUILD\POVPLATFORM\WIN32\DEBUG\POVPLATFORM.PDB" /FR"build\povplatform\Win32\Debug\\" /Gd /TP /wd4800 /wd4355 /analyze- /FC C:\USERS\MATTHEW MCCOMB\DOCUMENTS\GITHUB\POVRAY\PLATFORM\WINDOWS\SYSPOVTASK.CPP
^C:\USERS\MATTHEW MCCOMB\DOCUMENTS\GITHUB\POVRAY\PLATFORM\WINDOWS\SYSPOVTIMER.CPP
/c /I..\..\INTERNAL\WINDOWS /I..\..\PLATFORM\X86 /I..\..\PLATFORM\WINDOWS /I..\..\WINDOWS\POVCONFIG /I..\..\LIBRARIES\BOOST /I..\..\VFE\WIN\ /I..\..\VFE\ /I..\..\SOURCE /I..\..\LIBRARIES\JPEG /I..\..\LIBRARIES\ZLIB /I..\..\LIBRARIES\PNG /I..\..\LIBRARIES\TIFF\LIBTIFF /Zi /nologo /W3 /WX- /diagnostics:classic /Od /Oi /Oy- /D BOOST_ALL_NO_LIB /D _DEBUG /D WIN32 /D WIN32_LEAN_AND_MEAN /D _WINDOWS /D WINVER=0x0500 /D _WIN32_WINNT=0x0500 /D COMMONCTRL_VERSION=0x500 /D CLASSLIB_DEFS_H /D NOMINMAX /D ISOLATION_AWARE_ENABLED /D _CRT_SECURE_NO_DEPRECATE /D _HAS_ITERATOR_DEBUGGING=0 /GF /Gm- /EHsc /MTd /GS- /arch:SSE2 /fp:precise /Zc:wchar_t /Zc:forScope /Zc:inline /GR /Fo"BUILD\POVPLATFORM\WIN32\DEBUG\\" /Fd"BUILD\POVPLATFORM\WIN32\DEBUG\POVPLATFORM.PDB" /FR"build\povplatform\Win32\Debug\\" /Gd /TP /wd4800 /wd4355 /analyze- /FC C:\USERS\MATTHEW MCCOMB\DOCUMENTS\GITHUB\POVRAY\PLATFORM\WINDOWS\SYSPOVTIMER.CPP
^C:\USERS\MATTHEW MCCOMB\DOCUMENTS\GITHUB\POVRAY\PLATFORM\X86\AVX2FMA3\AVX2FMA3NOISE.CPP
/c /I..\..\INTERNAL\WINDOWS /I..\..\PLATFORM\X86 /I..\..\PLATFORM\WINDOWS /I..\..\WINDOWS\POVCONFIG /I..\..\LIBRARIES\BOOST /I..\..\VFE\WIN\ /I..\..\VFE\ /I..\..\SOURCE /I..\..\LIBRARIES\JPEG /I..\..\LIBRARIES\ZLIB /I..\..\LIBRARIES\PNG /I..\..\LIBRARIES\TIFF\LIBTIFF /Zi /nologo /W3 /WX- /diagnostics:classic /Od /Oi /Oy- /D BOOST_ALL_NO_LIB /D _DEBUG /D WIN32 /D WIN32_LEAN_AND_MEAN /D _WINDOWS /D WINVER=0x0500 /D _WIN32_WINNT=0x0500 /D COMMONCTRL_VERSION=0x500 /D CLASSLIB_DEFS_H /D NOMINMAX /D ISOLATION_AWARE_ENABLED /D _CRT_SECURE_NO_DEPRECATE /D _HAS_ITERATOR_DEBUGGING=0 /GF /Gm- /EHsc /MTd /GS- /arch:SSE2 /fp:precise /Zc:wchar_t /Zc:forScope /Zc:inline /GR /Fo"BUILD\POVPLATFORM\WIN32\DEBUG\\" /Fd"BUILD\POVPLATFORM\WIN32\DEBUG\POVPLATFORM.PDB" /FR"build\povplatform\Win32\Debug\\" /Gd /TP /wd4800 /wd4355 /analyze- /FC C:\USERS\MATTHEW MCCOMB\DOCUMENTS\GITHUB\POVRAY\PLATFORM\X86\AVX2FMA3\AVX2FMA3NOISE.CPP
^C:\USERS\MATTHEW MCCOMB\DOCUMENTS\GITHUB\POVRAY\PLATFORM\X86\AVXFMA4\AVXFMA4NOISE.CPP
/c /I..\..\INTERNAL\WINDOWS /I..\..\PLATFORM\X86 /I..\..\PLATFORM\WINDOWS /I..\..\WINDOWS\POVCONFIG /I..\..\LIBRARIES\BOOST /I..\..\VFE\WIN\ /I..\..\VFE\ /I..\..\SOURCE /I..\..\LIBRARIES\JPEG /I..\..\LIBRARIES\ZLIB /I..\..\LIBRARIES\PNG /I..\..\LIBRARIES\TIFF\LIBTIFF /Zi /nologo /W3 /WX- /diagnostics:classic /Od /Oi /Oy- /D BOOST_ALL_NO_LIB /D _DEBUG /D WIN32 /D WIN32_LEAN_AND_MEAN /D _WINDOWS /D WINVER=0x0500 /D _WIN32_WINNT=0x0500 /D COMMONCTRL_VERSION=0x500 /D CLASSLIB_DEFS_H /D NOMINMAX /D ISOLATION_AWARE_ENABLED /D _CRT_SECURE_NO_DEPRECATE /D _HAS_ITERATOR_DEBUGGING=0 /GF /Gm- /EHsc /MTd /GS- /arch:SSE2 /fp:precise /Zc:wchar_t /Zc:forScope /Zc:inline /GR /Fo"BUILD\POVPLATFORM\WIN32\DEBUG\\" /Fd"BUILD\POVPLATFORM\WIN32\DEBUG\POVPLATFORM.PDB" /FR"build\povplatform\Win32\Debug\\" /Gd /TP /wd4800 /wd4355 /analyze- /FC C:\USERS\MATTHEW MCCOMB\DOCUMENTS\GITHUB\POVRAY\PLATFORM\X86\AVXFMA4\AVXFMA4NOISE.CPP
^C:\USERS\MATTHEW MCCOMB\DOCUMENTS\GITHUB\POVRAY\PLATFORM\X86\AVX\AVXNOISE.CPP
/c /I..\..\INTERNAL\WINDOWS /I..\..\PLATFORM\X86 /I..\..\PLATFORM\WINDOWS /I..\..\WINDOWS\POVCONFIG /I..\..\LIBRARIES\BOOST /I..\..\VFE\WIN\ /I..\..\VFE\ /I..\..\SOURCE /I..\..\LIBRARIES\JPEG /I..\..\LIBRARIES\ZLIB /I..\..\LIBRARIES\PNG /I..\..\LIBRARIES\TIFF\LIBTIFF /Zi /nologo /W3 /WX- /diagnostics:classic /Od /Oi /Oy- /D BOOST_ALL_NO_LIB /D _DEBUG /D WIN32 /D WIN32_LEAN_AND_MEAN /D _WINDOWS /D WINVER=0x0500 /D _WIN32_WINNT=0x0500 /D COMMONCTRL_VERSION=0x500 /D CLASSLIB_DEFS_H /D NOMINMAX /D ISOLATION_AWARE_ENABLED /D _CRT_SECURE_NO_DEPRECATE /D _HAS_ITERATOR_DEBUGGING=0 /GF /Gm- /EHsc /MTd /GS- /arch:SSE2 /fp:precise /Zc:wchar_t /Zc:forScope /Zc:inline /GR /Fo"BUILD\POVPLATFORM\WIN32\DEBUG\\" /Fd"BUILD\POVPLATFORM\WIN32\DEBUG\POVPLATFORM.PDB" /FR"build\povplatform\Win32\Debug\\" /Gd /TP /wd4800 /wd4355 /analyze- /FC C:\USERS\MATTHEW MCCOMB\DOCUMENTS\GITHUB\POVRAY\PLATFORM\X86\AVX\AVXNOISE.CPP
^C:\USERS\MATTHEW MCCOMB\DOCUMENTS\GITHUB\POVRAY\PLATFORM\X86\AVX\AVXPORTABLENOISE.CPP
/c /I..\..\INTERNAL\WINDOWS /I..\..\PLATFORM\X86 /I..\..\PLATFORM\WINDOWS /I..\..\WINDOWS\POVCONFIG /I..\..\LIBRARIES\BOOST /I..\..\VFE\WIN\ /I..\..\VFE\ /I..\..\SOURCE /I..\..\LIBRARIES\JPEG /I..\..\LIBRARIES\ZLIB /I..\..\LIBRARIES\PNG /I..\..\LIBRARIES\TIFF\LIBTIFF /Zi /nologo /W3 /WX- /diagnostics:classic /Od /Oi /Oy- /D BOOST_ALL_NO_LIB /D _DEBUG /D WIN32 /D WIN32_LEAN_AND_MEAN /D _WINDOWS /D WINVER=0x0500 /D _WIN32_WINNT=0x0500 /D COMMONCTRL_VERSION=0x500 /D CLASSLIB_DEFS_H /D NOMINMAX /D ISOLATION_AWARE_ENABLED /D _CRT_SECURE_NO_DEPRECATE /D _HAS_ITERATOR_DEBUGGING=0 /GF /Gm- /EHsc /MTd /GS- /arch:SSE2 /fp:precise /Zc:wchar_t /Zc:forScope /Zc:inline /GR /Fo"BUILD\POVPLATFORM\WIN32\DEBUG\\" /Fd"BUILD\POVPLATFORM\WIN32\DEBUG\POVPLATFORM.PDB" /FR"build\povplatform\Win32\Debug\\" /Gd /TP /wd4800 /wd4355 /analyze- /FC C:\USERS\MATTHEW MCCOMB\DOCUMENTS\GITHUB\POVRAY\PLATFORM\X86\AVX\AVXPORTABLENOISE.CPP
^C:\USERS\MATTHEW MCCOMB\DOCUMENTS\GITHUB\POVRAY\PLATFORM\X86\CPUID.CPP
/c /I..\..\INTERNAL\WINDOWS /I..\..\PLATFORM\X86 /I..\..\PLATFORM\WINDOWS /I..\..\WINDOWS\POVCONFIG /I..\..\LIBRARIES\BOOST /I..\..\VFE\WIN\ /I..\..\VFE\ /I..\..\SOURCE /I..\..\LIBRARIES\JPEG /I..\..\LIBRARIES\ZLIB /I..\..\LIBRARIES\PNG /I..\..\LIBRARIES\TIFF\LIBTIFF /Zi /nologo /W3 /WX- /diagnostics:classic /Od /Oi /Oy- /D BOOST_ALL_NO_LIB /D _DEBUG /D WIN32 /D WIN32_LEAN_AND_MEAN /D _WINDOWS /D WINVER=0x0500 /D _WIN32_WINNT=0x0500 /D COMMONCTRL_VERSION=0x500 /D CLASSLIB_DEFS_H /D NOMINMAX /D ISOLATION_AWARE_ENABLED /D _CRT_SECURE_NO_DEPRECATE /D _HAS_ITERATOR_DEBUGGING=0 /GF /Gm- /EHsc /MTd /GS- /arch:SSE2 /fp:precise /Zc:wchar_t /Zc:forScope /Zc:inline /GR /Fo"BUILD\POVPLATFORM\WIN32\DEBUG\\" /Fd"BUILD\POVPLATFORM\WIN32\DEBUG\POVPLATFORM.PDB" /FR"build\povplatform\Win32\Debug\\" /Gd /TP /wd4800 /wd4355 /analyze- /FC C:\USERS\MATTHEW MCCOMB\DOCUMENTS\GITHUB\POVRAY\PLATFORM\X86\CPUID.CPP
^C:\USERS\MATTHEW MCCOMB\DOCUMENTS\GITHUB\POVRAY\PLATFORM\X86\OPTIMIZEDNOISE.CPP
/c /I..\..\INTERNAL\WINDOWS /I..\..\PLATFORM\X86 /I..\..\PLATFORM\WINDOWS /I..\..\WINDOWS\POVCONFIG /I..\..\LIBRARIES\BOOST /I..\..\VFE\WIN\ /I..\..\VFE\ /I..\..\SOURCE /I..\..\LIBRARIES\JPEG /I..\..\LIBRARIES\ZLIB /I..\..\LIBRARIES\PNG /I..\..\LIBRARIES\TIFF\LIBTIFF /Zi /nologo /W3 /WX- /diagnostics:classic /Od /Oi /Oy- /D BOOST_ALL_NO_LIB /D _DEBUG /D WIN32 /D WIN32_LEAN_AND_MEAN /D _WINDOWS /D WINVER=0x0500 /D _WIN32_WINNT=0x0500 /D COMMONCTRL_VERSION=0x500 /D CLASSLIB_DEFS_H /D NOMINMAX /D ISOLATION_AWARE_ENABLED /D _CRT_SECURE_NO_DEPRECATE /D _HAS_ITERATOR_DEBUGGING=0 /GF /Gm- /EHsc /MTd /GS- /arch:SSE2 /fp:precise /Zc:wchar_t /Zc:forScope /Zc:inline /GR /Fo"BUILD\POVPLATFORM\WIN32\DEBUG\\" /Fd"BUILD\POVPLATFORM\WIN32\DEBUG\POVPLATFORM.PDB" /FR"build\povplatform\Win32\Debug\\" /Gd /TP /wd4800 /wd4355 /analyze- /FC C:\USERS\MATTHEW MCCOMB\DOCUMENTS\GITHUB\POVRAY\PLATFORM\X86\OPTIMIZEDNOISE.CPP
