^C:\USERS\MATTHEW MCCOMB\DOCUMENTS\GITHUB\POVRAY\WINDOWS\VS2015\BUILD\GUI\WIN32\RELEASE\PVBITMAP.SBR|C:\USERS\MATTHEW MCCOMB\DOCUMENTS\GITHUB\POVRAY\WINDOWS\VS2015\BUILD\GUI\WIN32\RELEASE\PVDIALOG.SBR|C:\USERS\MATTHEW MCCOMB\DOCUMENTS\GITHUB\POVRAY\WINDOWS\VS2015\BUILD\GUI\WIN32\RELEASE\PVDISPLAY.SBR|C:\USERS\MATTHEW MCCOMB\DOCUMENTS\GITHUB\POVRAY\WINDOWS\VS2015\BUILD\GUI\WIN32\RELEASE\PVEDIT.SBR|C:\USERS\MATTHEW MCCOMB\DOCUMENTS\GITHUB\POVRAY\WINDOWS\VS2015\BUILD\GUI\WIN32\RELEASE\PVENGINE.SBR|C:\USERS\MATTHEW MCCOMB\DOCUMENTS\GITHUB\POVRAY\WINDOWS\VS2015\BUILD\GUI\WIN32\RELEASE\PVFILES.SBR|C:\USERS\MATTHEW MCCOMB\DOCUMENTS\GITHUB\POVRAY\WINDOWS\VS2015\BUILD\GUI\WIN32\RELEASE\PVFRONTEND.SBR|C:\USERS\MATTHEW MCCOMB\DOCUMENTS\GITHUB\POVRAY\WINDOWS\VS2015\BUILD\GUI\WIN32\RELEASE\PVGUIEXT.SBR|C:\USERS\MATTHEW MCCOMB\DOCUMENTS\GITHUB\POVRAY\WINDOWS\VS2015\BUILD\GUI\WIN32\RELEASE\PVMEM.SBR|C:\USERS\MATTHEW MCCOMB\DOCUMENTS\GITHUB\POVRAY\WINDOWS\VS2015\BUILD\GUI\WIN32\RELEASE\PVMENU.SBR|C:\USERS\MATTHEW MCCOMB\DOCUMENTS\GITHUB\POVRAY\WINDOWS\VS2015\BUILD\GUI\WIN32\RELEASE\PVMISC.SBR|C:\USERS\MATTHEW MCCOMB\DOCUMENTS\GITHUB\POVRAY\WINDOWS\VS2015\BUILD\GUI\WIN32\RELEASE\PVTEXT.SBR|C:\USERS\MATTHEW MCCOMB\DOCUMENTS\GITHUB\POVRAY\WINDOWS\VS2015\BUILD\GUI\WIN32\RELEASE\PVUPDATE.SBR|C:\USERS\MATTHEW MCCOMB\DOCUMENTS\GITHUB\POVRAY\WINDOWS\VS2015\BUILD\GUI\WIN32\RELEASE\WINPRECOMP.SBR
/nologo /o"BIN32\PVENGINE32.BSC" BUILD\GUI\WIN32\RELEASE\PVBITMAP.SBR BUILD\GUI\WIN32\RELEASE\PVDIALOG.SBR BUILD\GUI\WIN32\RELEASE\PVDISPLAY.SBR BUILD\GUI\WIN32\RELEASE\PVEDIT.SBR BUILD\GUI\WIN32\RELEASE\PVENGINE.SBR BUILD\GUI\WIN32\RELEASE\PVFILES.SBR BUILD\GUI\WIN32\RELEASE\PVFRONTEND.SBR BUILD\GUI\WIN32\RELEASE\PVGUIEXT.SBR BUILD\GUI\WIN32\RELEASE\PVMEM.SBR BUILD\GUI\WIN32\RELEASE\PVMENU.SBR BUILD\GUI\WIN32\RELEASE\PVMISC.SBR BUILD\GUI\WIN32\RELEASE\PVTEXT.SBR BUILD\GUI\WIN32\RELEASE\PVUPDATE.SBR BUILD\GUI\WIN32\RELEASE\WINPRECOMP.SBR
^D:\POV-RAY\POV-RAY SOURCES\PLUSMINUS\POVRAY\WINDOWS\VS2015\BUILD\GUI\WIN32\RELEASE\PVBITMAP.SBR|D:\POV-RAY\POV-RAY SOURCES\PLUSMINUS\POVRAY\WINDOWS\VS2015\BUILD\GUI\WIN32\RELEASE\PVDIALOG.SBR|D:\POV-RAY\POV-RAY SOURCES\PLUSMINUS\POVRAY\WINDOWS\VS2015\BUILD\GUI\WIN32\RELEASE\PVDISPLAY.SBR|D:\POV-RAY\POV-RAY SOURCES\PLUSMINUS\POVRAY\WINDOWS\VS2015\BUILD\GUI\WIN32\RELEASE\PVEDIT.SBR|D:\POV-RAY\POV-RAY SOURCES\PLUSMINUS\POVRAY\WINDOWS\VS2015\BUILD\GUI\WIN32\RELEASE\PVENGINE.SBR|D:\POV-RAY\POV-RAY SOURCES\PLUSMINUS\POVRAY\WINDOWS\VS2015\BUILD\GUI\WIN32\RELEASE\PVFILES.SBR|D:\POV-RAY\POV-RAY SOURCES\PLUSMINUS\POVRAY\WINDOWS\VS2015\BUILD\GUI\WIN32\RELEASE\PVFRONTEND.SBR|D:\POV-RAY\POV-RAY SOURCES\PLUSMINUS\POVRAY\WINDOWS\VS2015\BUILD\GUI\WIN32\RELEASE\PVGUIEXT.SBR|D:\POV-RAY\POV-RAY SOURCES\PLUSMINUS\POVRAY\WINDOWS\VS2015\BUILD\GUI\WIN32\RELEASE\PVMEM.SBR|D:\POV-RAY\POV-RAY SOURCES\PLUSMINUS\POVRAY\WINDOWS\VS2015\BUILD\GUI\WIN32\RELEASE\PVMENU.SBR|D:\POV-RAY\POV-RAY SOURCES\PLUSMINUS\POVRAY\WINDOWS\VS2015\BUILD\GUI\WIN32\RELEASE\PVMISC.SBR|D:\POV-RAY\POV-RAY SOURCES\PLUSMINUS\POVRAY\WINDOWS\VS2015\BUILD\GUI\WIN32\RELEASE\PVTEXT.SBR|D:\POV-RAY\POV-RAY SOURCES\PLUSMINUS\POVRAY\WINDOWS\VS2015\BUILD\GUI\WIN32\RELEASE\PVUPDATE.SBR|D:\POV-RAY\POV-RAY SOURCES\PLUSMINUS\POVRAY\WINDOWS\VS2015\BUILD\GUI\WIN32\RELEASE\WINPRECOMP.SBR
/nologo /o"BIN32\PVENGINE32.BSC" BUILD\GUI\WIN32\RELEASE\PVBITMAP.SBR BUILD\GUI\WIN32\RELEASE\PVDIALOG.SBR BUILD\GUI\WIN32\RELEASE\PVDISPLAY.SBR BUILD\GUI\WIN32\RELEASE\PVEDIT.SBR BUILD\GUI\WIN32\RELEASE\PVENGINE.SBR BUILD\GUI\WIN32\RELEASE\PVFILES.SBR BUILD\GUI\WIN32\RELEASE\PVFRONTEND.SBR BUILD\GUI\WIN32\RELEASE\PVGUIEXT.SBR BUILD\GUI\WIN32\RELEASE\PVMEM.SBR BUILD\GUI\WIN32\RELEASE\PVMENU.SBR BUILD\GUI\WIN32\RELEASE\PVMISC.SBR BUILD\GUI\WIN32\RELEASE\PVTEXT.SBR BUILD\GUI\WIN32\RELEASE\PVUPDATE.SBR BUILD\GUI\WIN32\RELEASE\WINPRECOMP.SBR
