^D:\POV-RAY\POV-RAY SOURCES\FLOAT\POVRAYFLOAT\LIBRARIES\ZLIB\ADLER32.C|D:\POV-RAY\POV-RAY SOURCES\FLOAT\POVRAYFLOAT\LIBRARIES\ZLIB\COMPRESS.C|D:\POV-RAY\POV-RAY SOURCES\FLOAT\POVRAYFLOAT\LIBRARIES\ZLIB\CRC32.C|D:\POV-RAY\POV-RAY SOURCES\FLOAT\POVRAYFLOAT\LIBRARIES\ZLIB\DEFLATE.C|D:\POV-RAY\POV-RAY SOURCES\FLOAT\POVRAYFLOAT\LIBRARIES\ZLIB\GZCLOSE.C|D:\POV-RAY\POV-RAY SOURCES\FLOAT\POVRAYFLOAT\LIBRARIES\ZLIB\GZLIB.C|D:\POV-RAY\POV-RAY SOURCES\FLOAT\POVRAYFLOAT\LIBRARIES\ZLIB\GZREAD.C|D:\POV-RAY\POV-RAY SOURCES\FLOAT\POVRAYFLOAT\LIBRARIES\ZLIB\GZWRITE.C|D:\POV-RAY\POV-RAY SOURCES\FLOAT\POVRAYFLOAT\LIBRARIES\ZLIB\INFBACK.C|D:\POV-RAY\POV-RAY SOURCES\FLOAT\POVRAYFLOAT\LIBRARIES\ZLIB\INFFAST.C|D:\POV-RAY\POV-RAY SOURCES\FLOAT\POVRAYFLOAT\LIBRARIES\ZLIB\INFLATE.C|D:\POV-RAY\POV-RAY SOURCES\FLOAT\POVRAYFLOAT\LIBRARIES\ZLIB\INFTREES.C|D:\POV-RAY\POV-RAY SOURCES\FLOAT\POVRAYFLOAT\LIBRARIES\ZLIB\TREES.C|D:\POV-RAY\POV-RAY SOURCES\FLOAT\POVRAYFLOAT\LIBRARIES\ZLIB\UNCOMPR.C|D:\POV-RAY\POV-RAY SOURCES\FLOAT\POVRAYFLOAT\LIBRARIES\ZLIB\ZUTIL.C
D:\POV-RAY\POV-RAY SOURCES\FLOAT\POVRAYFLOAT\WINDOWS\VS2015\BUILD\ZLIB\WIN32\RELEASE\ZLIB.PDB
D:\POV-RAY\POV-RAY SOURCES\FLOAT\POVRAYFLOAT\WINDOWS\VS2015\BUILD\ZLIB\WIN32\RELEASE\ADLER32.SBR
D:\POV-RAY\POV-RAY SOURCES\FLOAT\POVRAYFLOAT\WINDOWS\VS2015\BUILD\ZLIB\WIN32\RELEASE\COMPRESS.SBR
D:\POV-RAY\POV-RAY SOURCES\FLOAT\POVRAYFLOAT\WINDOWS\VS2015\BUILD\ZLIB\WIN32\RELEASE\CRC32.SBR
D:\POV-RAY\POV-RAY SOURCES\FLOAT\POVRAYFLOAT\WINDOWS\VS2015\BUILD\ZLIB\WIN32\RELEASE\DEFLATE.SBR
D:\POV-RAY\POV-RAY SOURCES\FLOAT\POVRAYFLOAT\WINDOWS\VS2015\BUILD\ZLIB\WIN32\RELEASE\GZCLOSE.SBR
D:\POV-RAY\POV-RAY SOURCES\FLOAT\POVRAYFLOAT\WINDOWS\VS2015\BUILD\ZLIB\WIN32\RELEASE\GZLIB.SBR
D:\POV-RAY\POV-RAY SOURCES\FLOAT\POVRAYFLOAT\WINDOWS\VS2015\BUILD\ZLIB\WIN32\RELEASE\GZREAD.SBR
D:\POV-RAY\POV-RAY SOURCES\FLOAT\POVRAYFLOAT\WINDOWS\VS2015\BUILD\ZLIB\WIN32\RELEASE\GZWRITE.SBR
D:\POV-RAY\POV-RAY SOURCES\FLOAT\POVRAYFLOAT\WINDOWS\VS2015\BUILD\ZLIB\WIN32\RELEASE\INFBACK.SBR
D:\POV-RAY\POV-RAY SOURCES\FLOAT\POVRAYFLOAT\WINDOWS\VS2015\BUILD\ZLIB\WIN32\RELEASE\INFFAST.SBR
D:\POV-RAY\POV-RAY SOURCES\FLOAT\POVRAYFLOAT\WINDOWS\VS2015\BUILD\ZLIB\WIN32\RELEASE\INFLATE.SBR
D:\POV-RAY\POV-RAY SOURCES\FLOAT\POVRAYFLOAT\WINDOWS\VS2015\BUILD\ZLIB\WIN32\RELEASE\INFTREES.SBR
D:\POV-RAY\POV-RAY SOURCES\FLOAT\POVRAYFLOAT\WINDOWS\VS2015\BUILD\ZLIB\WIN32\RELEASE\TREES.SBR
D:\POV-RAY\POV-RAY SOURCES\FLOAT\POVRAYFLOAT\WINDOWS\VS2015\BUILD\ZLIB\WIN32\RELEASE\UNCOMPR.SBR
D:\POV-RAY\POV-RAY SOURCES\FLOAT\POVRAYFLOAT\WINDOWS\VS2015\BUILD\ZLIB\WIN32\RELEASE\ZUTIL.SBR
D:\POV-RAY\POV-RAY SOURCES\FLOAT\POVRAYFLOAT\WINDOWS\VS2015\BUILD\ZLIB\WIN32\RELEASE\ZUTIL.OBJ
D:\POV-RAY\POV-RAY SOURCES\FLOAT\POVRAYFLOAT\WINDOWS\VS2015\BUILD\ZLIB\WIN32\RELEASE\UNCOMPR.OBJ
D:\POV-RAY\POV-RAY SOURCES\FLOAT\POVRAYFLOAT\WINDOWS\VS2015\BUILD\ZLIB\WIN32\RELEASE\TREES.OBJ
D:\POV-RAY\POV-RAY SOURCES\FLOAT\POVRAYFLOAT\WINDOWS\VS2015\BUILD\ZLIB\WIN32\RELEASE\INFTREES.OBJ
D:\POV-RAY\POV-RAY SOURCES\FLOAT\POVRAYFLOAT\WINDOWS\VS2015\BUILD\ZLIB\WIN32\RELEASE\INFLATE.OBJ
D:\POV-RAY\POV-RAY SOURCES\FLOAT\POVRAYFLOAT\WINDOWS\VS2015\BUILD\ZLIB\WIN32\RELEASE\INFFAST.OBJ
D:\POV-RAY\POV-RAY SOURCES\FLOAT\POVRAYFLOAT\WINDOWS\VS2015\BUILD\ZLIB\WIN32\RELEASE\INFBACK.OBJ
D:\POV-RAY\POV-RAY SOURCES\FLOAT\POVRAYFLOAT\WINDOWS\VS2015\BUILD\ZLIB\WIN32\RELEASE\GZWRITE.OBJ
D:\POV-RAY\POV-RAY SOURCES\FLOAT\POVRAYFLOAT\WINDOWS\VS2015\BUILD\ZLIB\WIN32\RELEASE\GZREAD.OBJ
D:\POV-RAY\POV-RAY SOURCES\FLOAT\POVRAYFLOAT\WINDOWS\VS2015\BUILD\ZLIB\WIN32\RELEASE\GZLIB.OBJ
D:\POV-RAY\POV-RAY SOURCES\FLOAT\POVRAYFLOAT\WINDOWS\VS2015\BUILD\ZLIB\WIN32\RELEASE\GZCLOSE.OBJ
D:\POV-RAY\POV-RAY SOURCES\FLOAT\POVRAYFLOAT\WINDOWS\VS2015\BUILD\ZLIB\WIN32\RELEASE\DEFLATE.OBJ
D:\POV-RAY\POV-RAY SOURCES\FLOAT\POVRAYFLOAT\WINDOWS\VS2015\BUILD\ZLIB\WIN32\RELEASE\CRC32.OBJ
D:\POV-RAY\POV-RAY SOURCES\FLOAT\POVRAYFLOAT\WINDOWS\VS2015\BUILD\ZLIB\WIN32\RELEASE\COMPRESS.OBJ
D:\POV-RAY\POV-RAY SOURCES\FLOAT\POVRAYFLOAT\WINDOWS\VS2015\BUILD\ZLIB\WIN32\RELEASE\ADLER32.OBJ
^D:\POV-RAY\POV-RAY SOURCES\FLOAT\POVRAYFLOAT\LIBRARIES\ZLIB\ADLER32.C
D:\POV-RAY\POV-RAY SOURCES\FLOAT\POVRAYFLOAT\WINDOWS\VS2015\BUILD\ZLIB\WIN32\RELEASE\ZLIB.PDB
^D:\POV-RAY\POV-RAY SOURCES\FLOAT\POVRAYFLOAT\LIBRARIES\ZLIB\COMPRESS.C
D:\POV-RAY\POV-RAY SOURCES\FLOAT\POVRAYFLOAT\WINDOWS\VS2015\BUILD\ZLIB\WIN32\RELEASE\ZLIB.PDB
^D:\POV-RAY\POV-RAY SOURCES\FLOAT\POVRAYFLOAT\LIBRARIES\ZLIB\CRC32.C
D:\POV-RAY\POV-RAY SOURCES\FLOAT\POVRAYFLOAT\WINDOWS\VS2015\BUILD\ZLIB\WIN32\RELEASE\ZLIB.PDB
^D:\POV-RAY\POV-RAY SOURCES\FLOAT\POVRAYFLOAT\LIBRARIES\ZLIB\DEFLATE.C
D:\POV-RAY\POV-RAY SOURCES\FLOAT\POVRAYFLOAT\WINDOWS\VS2015\BUILD\ZLIB\WIN32\RELEASE\ZLIB.PDB
^D:\POV-RAY\POV-RAY SOURCES\FLOAT\POVRAYFLOAT\LIBRARIES\ZLIB\GZCLOSE.C
D:\POV-RAY\POV-RAY SOURCES\FLOAT\POVRAYFLOAT\WINDOWS\VS2015\BUILD\ZLIB\WIN32\RELEASE\ZLIB.PDB
^D:\POV-RAY\POV-RAY SOURCES\FLOAT\POVRAYFLOAT\LIBRARIES\ZLIB\GZLIB.C
D:\POV-RAY\POV-RAY SOURCES\FLOAT\POVRAYFLOAT\WINDOWS\VS2015\BUILD\ZLIB\WIN32\RELEASE\ZLIB.PDB
^D:\POV-RAY\POV-RAY SOURCES\FLOAT\POVRAYFLOAT\LIBRARIES\ZLIB\GZREAD.C
D:\POV-RAY\POV-RAY SOURCES\FLOAT\POVRAYFLOAT\WINDOWS\VS2015\BUILD\ZLIB\WIN32\RELEASE\ZLIB.PDB
^D:\POV-RAY\POV-RAY SOURCES\FLOAT\POVRAYFLOAT\LIBRARIES\ZLIB\GZWRITE.C
D:\POV-RAY\POV-RAY SOURCES\FLOAT\POVRAYFLOAT\WINDOWS\VS2015\BUILD\ZLIB\WIN32\RELEASE\ZLIB.PDB
^D:\POV-RAY\POV-RAY SOURCES\FLOAT\POVRAYFLOAT\LIBRARIES\ZLIB\INFBACK.C
D:\POV-RAY\POV-RAY SOURCES\FLOAT\POVRAYFLOAT\WINDOWS\VS2015\BUILD\ZLIB\WIN32\RELEASE\ZLIB.PDB
^D:\POV-RAY\POV-RAY SOURCES\FLOAT\POVRAYFLOAT\LIBRARIES\ZLIB\INFFAST.C
D:\POV-RAY\POV-RAY SOURCES\FLOAT\POVRAYFLOAT\WINDOWS\VS2015\BUILD\ZLIB\WIN32\RELEASE\ZLIB.PDB
^D:\POV-RAY\POV-RAY SOURCES\FLOAT\POVRAYFLOAT\LIBRARIES\ZLIB\INFLATE.C
D:\POV-RAY\POV-RAY SOURCES\FLOAT\POVRAYFLOAT\WINDOWS\VS2015\BUILD\ZLIB\WIN32\RELEASE\ZLIB.PDB
^D:\POV-RAY\POV-RAY SOURCES\FLOAT\POVRAYFLOAT\LIBRARIES\ZLIB\INFTREES.C
D:\POV-RAY\POV-RAY SOURCES\FLOAT\POVRAYFLOAT\WINDOWS\VS2015\BUILD\ZLIB\WIN32\RELEASE\ZLIB.PDB
^D:\POV-RAY\POV-RAY SOURCES\FLOAT\POVRAYFLOAT\LIBRARIES\ZLIB\TREES.C
D:\POV-RAY\POV-RAY SOURCES\FLOAT\POVRAYFLOAT\WINDOWS\VS2015\BUILD\ZLIB\WIN32\RELEASE\ZLIB.PDB
^D:\POV-RAY\POV-RAY SOURCES\FLOAT\POVRAYFLOAT\LIBRARIES\ZLIB\UNCOMPR.C
D:\POV-RAY\POV-RAY SOURCES\FLOAT\POVRAYFLOAT\WINDOWS\VS2015\BUILD\ZLIB\WIN32\RELEASE\ZLIB.PDB
^D:\POV-RAY\POV-RAY SOURCES\FLOAT\POVRAYFLOAT\LIBRARIES\ZLIB\ZUTIL.C
D:\POV-RAY\POV-RAY SOURCES\FLOAT\POVRAYFLOAT\WINDOWS\VS2015\BUILD\ZLIB\WIN32\RELEASE\ZLIB.PDB
