^C:\USERS\MATTHEW MCCOMB\DOCUMENTS\GITHUB\POVRAY\WINDOWS\VS2015\BUILD\POVFRONTEND\WIN32\RELEASE\ANIMATIONPROCESSING.SBR|C:\USERS\MATTHEW MCCOMB\DOCUMENTS\GITHUB\POVRAY\WINDOWS\VS2015\BUILD\POVFRONTEND\WIN32\RELEASE\CONSOLE.SBR|C:\USERS\MATTHEW MCCOMB\DOCUMENTS\GITHUB\POVRAY\WINDOWS\VS2015\BUILD\POVFRONTEND\WIN32\RELEASE\DISPLAY.SBR|C:\USERS\MATTHEW MCCOMB\DOCUMENTS\GITHUB\POVRAY\WINDOWS\VS2015\BUILD\POVFRONTEND\WIN32\RELEASE\FILEMESSAGEHANDLER.SBR|C:\USERS\MATTHEW MCCOMB\DOCUMENTS\GITHUB\POVRAY\WINDOWS\VS2015\BUILD\POVFRONTEND\WIN32\RELEASE\IMAGEMESSAGEHANDLER.SBR|C:\USERS\MATTHEW MCCOMB\DOCUMENTS\GITHUB\POVRAY\WINDOWS\VS2015\BUILD\POVFRONTEND\WIN32\RELEASE\IMAGEPROCESSING.SBR|C:\USERS\MATTHEW MCCOMB\DOCUMENTS\GITHUB\POVRAY\WINDOWS\VS2015\BUILD\POVFRONTEND\WIN32\RELEASE\PARSERMESSAGEHANDLER.SBR|C:\USERS\MATTHEW MCCOMB\DOCUMENTS\GITHUB\POVRAY\WINDOWS\VS2015\BUILD\POVFRONTEND\WIN32\RELEASE\POVMAIN.SBR|C:\USERS\MATTHEW MCCOMB\DOCUMENTS\GITHUB\POVRAY\WINDOWS\VS2015\BUILD\POVFRONTEND\WIN32\RELEASE\PRECOMP.SBR|C:\USERS\MATTHEW MCCOMB\DOCUMENTS\GITHUB\POVRAY\WINDOWS\VS2015\BUILD\POVFRONTEND\WIN32\RELEASE\PROCESSOPTIONS.SBR|C:\USERS\MATTHEW MCCOMB\DOCUMENTS\GITHUB\POVRAY\WINDOWS\VS2015\BUILD\POVFRONTEND\WIN32\RELEASE\PROCESSRENDEROPTIONS.SBR|C:\USERS\MATTHEW MCCOMB\DOCUMENTS\GITHUB\POVRAY\WINDOWS\VS2015\BUILD\POVFRONTEND\WIN32\RELEASE\RENDERFRONTEND.SBR|C:\USERS\MATTHEW MCCOMB\DOCUMENTS\GITHUB\POVRAY\WINDOWS\VS2015\BUILD\POVFRONTEND\WIN32\RELEASE\RENDERMESSAGEHANDLER.SBR|C:\USERS\MATTHEW MCCOMB\DOCUMENTS\GITHUB\POVRAY\WINDOWS\VS2015\BUILD\POVFRONTEND\WIN32\RELEASE\SHELLOUTPROCESSING.SBR
C:\USERS\MATTHEW MCCOMB\DOCUMENTS\GITHUB\POVRAY\WINDOWS\VS2015\BIN32\LIB\POVFRONTEND32.BSC
^D:\POV-RAY\POV-RAY SOURCES\NORMAL\POVRAY\WINDOWS\VS2015\BUILD\POVFRONTEND\WIN32\RELEASE\ANIMATIONPROCESSING.SBR|D:\POV-RAY\POV-RAY SOURCES\NORMAL\POVRAY\WINDOWS\VS2015\BUILD\POVFRONTEND\WIN32\RELEASE\CONSOLE.SBR|D:\POV-RAY\POV-RAY SOURCES\NORMAL\POVRAY\WINDOWS\VS2015\BUILD\POVFRONTEND\WIN32\RELEASE\DISPLAY.SBR|D:\POV-RAY\POV-RAY SOURCES\NORMAL\POVRAY\WINDOWS\VS2015\BUILD\POVFRONTEND\WIN32\RELEASE\FILEMESSAGEHANDLER.SBR|D:\POV-RAY\POV-RAY SOURCES\NORMAL\POVRAY\WINDOWS\VS2015\BUILD\POVFRONTEND\WIN32\RELEASE\IMAGEMESSAGEHANDLER.SBR|D:\POV-RAY\POV-RAY SOURCES\NORMAL\POVRAY\WINDOWS\VS2015\BUILD\POVFRONTEND\WIN32\RELEASE\IMAGEPROCESSING.SBR|D:\POV-RAY\POV-RAY SOURCES\NORMAL\POVRAY\WINDOWS\VS2015\BUILD\POVFRONTEND\WIN32\RELEASE\PARSERMESSAGEHANDLER.SBR|D:\POV-RAY\POV-RAY SOURCES\NORMAL\POVRAY\WINDOWS\VS2015\BUILD\POVFRONTEND\WIN32\RELEASE\POVMAIN.SBR|D:\POV-RAY\POV-RAY SOURCES\NORMAL\POVRAY\WINDOWS\VS2015\BUILD\POVFRONTEND\WIN32\RELEASE\PRECOMP.SBR|D:\POV-RAY\POV-RAY SOURCES\NORMAL\POVRAY\WINDOWS\VS2015\BUILD\POVFRONTEND\WIN32\RELEASE\PROCESSOPTIONS.SBR|D:\POV-RAY\POV-RAY SOURCES\NORMAL\POVRAY\WINDOWS\VS2015\BUILD\POVFRONTEND\WIN32\RELEASE\PROCESSRENDEROPTIONS.SBR|D:\POV-RAY\POV-RAY SOURCES\NORMAL\POVRAY\WINDOWS\VS2015\BUILD\POVFRONTEND\WIN32\RELEASE\RENDERFRONTEND.SBR|D:\POV-RAY\POV-RAY SOURCES\NORMAL\POVRAY\WINDOWS\VS2015\BUILD\POVFRONTEND\WIN32\RELEASE\RENDERMESSAGEHANDLER.SBR|D:\POV-RAY\POV-RAY SOURCES\NORMAL\POVRAY\WINDOWS\VS2015\BUILD\POVFRONTEND\WIN32\RELEASE\SHELLOUTPROCESSING.SBR
D:\POV-RAY\POV-RAY SOURCES\NORMAL\POVRAY\WINDOWS\VS2015\BIN32\LIB\POVFRONTEND32.BSC
