^C:\USERS\MATTHEW MCCOMB\DOCUMENTS\GITHUB\POVRAY\LIBRARIES\ILMBASE\ILMTHREAD\ILMTHREAD.CPP
C:\USERS\MATTHEW MCCOMB\DOCUMENTS\GITHUB\POVRAY\WINDOWS\VS2015\BUILD\OPENEXR ILMBASE ILMTHREAD\WIN32\RELEASE\OPENEXR ILMBASE ILMTHREAD.PDB
^C:\USERS\MATTHEW MCCOMB\DOCUMENTS\GITHUB\POVRAY\LIBRARIES\ILMBASE\ILMTHREAD\ILMTHREADMUTEX.CPP
C:\USERS\MATTHEW MCCOMB\DOCUMENTS\GITHUB\POVRAY\WINDOWS\VS2015\BUILD\OPENEXR ILMBASE ILMTHREAD\WIN32\RELEASE\OPENEXR ILMBASE ILMTHREAD.PDB
^C:\USERS\MATTHEW MCCOMB\DOCUMENTS\GITHUB\POVRAY\LIBRARIES\ILMBASE\ILMTHREAD\ILMTHREADMUTEXPOSIX.CPP
C:\USERS\MATTHEW MCCOMB\DOCUMENTS\GITHUB\POVRAY\WINDOWS\VS2015\BUILD\OPENEXR ILMBASE ILMTHREAD\WIN32\RELEASE\OPENEXR ILMBASE ILMTHREAD.PDB
^C:\USERS\MATTHEW MCCOMB\DOCUMENTS\GITHUB\POVRAY\LIBRARIES\ILMBASE\ILMTHREAD\ILMTHREADMUTEXWIN32.CPP
C:\USERS\MATTHEW MCCOMB\DOCUMENTS\GITHUB\POVRAY\WINDOWS\VS2015\BUILD\OPENEXR ILMBASE ILMTHREAD\WIN32\RELEASE\OPENEXR ILMBASE ILMTHREAD.PDB
^C:\USERS\MATTHEW MCCOMB\DOCUMENTS\GITHUB\POVRAY\LIBRARIES\ILMBASE\ILMTHREAD\ILMTHREADPOOL.CPP
C:\USERS\MATTHEW MCCOMB\DOCUMENTS\GITHUB\POVRAY\WINDOWS\VS2015\BUILD\OPENEXR ILMBASE ILMTHREAD\WIN32\RELEASE\OPENEXR ILMBASE ILMTHREAD.PDB
^C:\USERS\MATTHEW MCCOMB\DOCUMENTS\GITHUB\POVRAY\LIBRARIES\ILMBASE\ILMTHREAD\ILMTHREADPOSIX.CPP
C:\USERS\MATTHEW MCCOMB\DOCUMENTS\GITHUB\POVRAY\WINDOWS\VS2015\BUILD\OPENEXR ILMBASE ILMTHREAD\WIN32\RELEASE\OPENEXR ILMBASE ILMTHREAD.PDB
^C:\USERS\MATTHEW MCCOMB\DOCUMENTS\GITHUB\POVRAY\LIBRARIES\ILMBASE\ILMTHREAD\ILMTHREADSEMAPHORE.CPP
C:\USERS\MATTHEW MCCOMB\DOCUMENTS\GITHUB\POVRAY\WINDOWS\VS2015\BUILD\OPENEXR ILMBASE ILMTHREAD\WIN32\RELEASE\OPENEXR ILMBASE ILMTHREAD.PDB
^C:\USERS\MATTHEW MCCOMB\DOCUMENTS\GITHUB\POVRAY\LIBRARIES\ILMBASE\ILMTHREAD\ILMTHREADSEMAPHOREPOSIX.CPP
C:\USERS\MATTHEW MCCOMB\DOCUMENTS\GITHUB\POVRAY\WINDOWS\VS2015\BUILD\OPENEXR ILMBASE ILMTHREAD\WIN32\RELEASE\OPENEXR ILMBASE ILMTHREAD.PDB
^C:\USERS\MATTHEW MCCOMB\DOCUMENTS\GITHUB\POVRAY\LIBRARIES\ILMBASE\ILMTHREAD\ILMTHREADSEMAPHOREPOSIXCOMPAT.CPP
C:\USERS\MATTHEW MCCOMB\DOCUMENTS\GITHUB\POVRAY\WINDOWS\VS2015\BUILD\OPENEXR ILMBASE ILMTHREAD\WIN32\RELEASE\OPENEXR ILMBASE ILMTHREAD.PDB
^C:\USERS\MATTHEW MCCOMB\DOCUMENTS\GITHUB\POVRAY\LIBRARIES\ILMBASE\ILMTHREAD\ILMTHREADSEMAPHOREWIN32.CPP
C:\USERS\MATTHEW MCCOMB\DOCUMENTS\GITHUB\POVRAY\WINDOWS\VS2015\BUILD\OPENEXR ILMBASE ILMTHREAD\WIN32\RELEASE\OPENEXR ILMBASE ILMTHREAD.PDB
^C:\USERS\MATTHEW MCCOMB\DOCUMENTS\GITHUB\POVRAY\LIBRARIES\ILMBASE\ILMTHREAD\ILMTHREADWIN32.CPP
C:\USERS\MATTHEW MCCOMB\DOCUMENTS\GITHUB\POVRAY\WINDOWS\VS2015\BUILD\OPENEXR ILMBASE ILMTHREAD\WIN32\RELEASE\OPENEXR ILMBASE ILMTHREAD.PDB
^C:\USERS\MATTHEW MCCOMB\DOCUMENTS\GITHUB\POVRAY\LIBRARIES\ILMBASE\ILMTHREAD\ILMTHREAD.CPP|C:\USERS\MATTHEW MCCOMB\DOCUMENTS\GITHUB\POVRAY\LIBRARIES\ILMBASE\ILMTHREAD\ILMTHREADMUTEX.CPP|C:\USERS\MATTHEW MCCOMB\DOCUMENTS\GITHUB\POVRAY\LIBRARIES\ILMBASE\ILMTHREAD\ILMTHREADMUTEXPOSIX.CPP|C:\USERS\MATTHEW MCCOMB\DOCUMENTS\GITHUB\POVRAY\LIBRARIES\ILMBASE\ILMTHREAD\ILMTHREADMUTEXWIN32.CPP|C:\USERS\MATTHEW MCCOMB\DOCUMENTS\GITHUB\POVRAY\LIBRARIES\ILMBASE\ILMTHREAD\ILMTHREADPOOL.CPP|C:\USERS\MATTHEW MCCOMB\DOCUMENTS\GITHUB\POVRAY\LIBRARIES\ILMBASE\ILMTHREAD\ILMTHREADPOSIX.CPP|C:\USERS\MATTHEW MCCOMB\DOCUMENTS\GITHUB\POVRAY\LIBRARIES\ILMBASE\ILMTHREAD\ILMTHREADSEMAPHORE.CPP|C:\USERS\MATTHEW MCCOMB\DOCUMENTS\GITHUB\POVRAY\LIBRARIES\ILMBASE\ILMTHREAD\ILMTHREADSEMAPHOREPOSIX.CPP|C:\USERS\MATTHEW MCCOMB\DOCUMENTS\GITHUB\POVRAY\LIBRARIES\ILMBASE\ILMTHREAD\ILMTHREADSEMAPHOREPOSIXCOMPAT.CPP|C:\USERS\MATTHEW MCCOMB\DOCUMENTS\GITHUB\POVRAY\LIBRARIES\ILMBASE\ILMTHREAD\ILMTHREADSEMAPHOREWIN32.CPP|C:\USERS\MATTHEW MCCOMB\DOCUMENTS\GITHUB\POVRAY\LIBRARIES\ILMBASE\ILMTHREAD\ILMTHREADWIN32.CPP
C:\USERS\MATTHEW MCCOMB\DOCUMENTS\GITHUB\POVRAY\WINDOWS\VS2015\BUILD\OPENEXR ILMBASE ILMTHREAD\WIN32\RELEASE\OPENEXR ILMBASE ILMTHREAD.PDB
C:\USERS\MATTHEW MCCOMB\DOCUMENTS\GITHUB\POVRAY\WINDOWS\VS2015\BUILD\OPENEXR ILMBASE ILMTHREAD\WIN32\RELEASE\ILMTHREAD.SBR
C:\USERS\MATTHEW MCCOMB\DOCUMENTS\GITHUB\POVRAY\WINDOWS\VS2015\BUILD\OPENEXR ILMBASE ILMTHREAD\WIN32\RELEASE\ILMTHREADMUTEX.SBR
C:\USERS\MATTHEW MCCOMB\DOCUMENTS\GITHUB\POVRAY\WINDOWS\VS2015\BUILD\OPENEXR ILMBASE ILMTHREAD\WIN32\RELEASE\ILMTHREADMUTEXPOSIX.SBR
C:\USERS\MATTHEW MCCOMB\DOCUMENTS\GITHUB\POVRAY\WINDOWS\VS2015\BUILD\OPENEXR ILMBASE ILMTHREAD\WIN32\RELEASE\ILMTHREADMUTEXWIN32.SBR
C:\USERS\MATTHEW MCCOMB\DOCUMENTS\GITHUB\POVRAY\WINDOWS\VS2015\BUILD\OPENEXR ILMBASE ILMTHREAD\WIN32\RELEASE\ILMTHREADPOOL.SBR
C:\USERS\MATTHEW MCCOMB\DOCUMENTS\GITHUB\POVRAY\WINDOWS\VS2015\BUILD\OPENEXR ILMBASE ILMTHREAD\WIN32\RELEASE\ILMTHREADPOSIX.SBR
C:\USERS\MATTHEW MCCOMB\DOCUMENTS\GITHUB\POVRAY\WINDOWS\VS2015\BUILD\OPENEXR ILMBASE ILMTHREAD\WIN32\RELEASE\ILMTHREADSEMAPHORE.SBR
C:\USERS\MATTHEW MCCOMB\DOCUMENTS\GITHUB\POVRAY\WINDOWS\VS2015\BUILD\OPENEXR ILMBASE ILMTHREAD\WIN32\RELEASE\ILMTHREADSEMAPHOREPOSIX.SBR
C:\USERS\MATTHEW MCCOMB\DOCUMENTS\GITHUB\POVRAY\WINDOWS\VS2015\BUILD\OPENEXR ILMBASE ILMTHREAD\WIN32\RELEASE\ILMTHREADSEMAPHOREPOSIXCOMPAT.SBR
C:\USERS\MATTHEW MCCOMB\DOCUMENTS\GITHUB\POVRAY\WINDOWS\VS2015\BUILD\OPENEXR ILMBASE ILMTHREAD\WIN32\RELEASE\ILMTHREADSEMAPHOREWIN32.SBR
C:\USERS\MATTHEW MCCOMB\DOCUMENTS\GITHUB\POVRAY\WINDOWS\VS2015\BUILD\OPENEXR ILMBASE ILMTHREAD\WIN32\RELEASE\ILMTHREADWIN32.SBR
C:\USERS\MATTHEW MCCOMB\DOCUMENTS\GITHUB\POVRAY\WINDOWS\VS2015\BUILD\OPENEXR ILMBASE ILMTHREAD\WIN32\RELEASE\ILMTHREADWIN32.OBJ
C:\USERS\MATTHEW MCCOMB\DOCUMENTS\GITHUB\POVRAY\WINDOWS\VS2015\BUILD\OPENEXR ILMBASE ILMTHREAD\WIN32\RELEASE\ILMTHREADSEMAPHOREWIN32.OBJ
C:\USERS\MATTHEW MCCOMB\DOCUMENTS\GITHUB\POVRAY\WINDOWS\VS2015\BUILD\OPENEXR ILMBASE ILMTHREAD\WIN32\RELEASE\ILMTHREADSEMAPHOREPOSIXCOMPAT.OBJ
C:\USERS\MATTHEW MCCOMB\DOCUMENTS\GITHUB\POVRAY\WINDOWS\VS2015\BUILD\OPENEXR ILMBASE ILMTHREAD\WIN32\RELEASE\ILMTHREADSEMAPHOREPOSIX.OBJ
C:\USERS\MATTHEW MCCOMB\DOCUMENTS\GITHUB\POVRAY\WINDOWS\VS2015\BUILD\OPENEXR ILMBASE ILMTHREAD\WIN32\RELEASE\ILMTHREADSEMAPHORE.OBJ
C:\USERS\MATTHEW MCCOMB\DOCUMENTS\GITHUB\POVRAY\WINDOWS\VS2015\BUILD\OPENEXR ILMBASE ILMTHREAD\WIN32\RELEASE\ILMTHREADPOSIX.OBJ
C:\USERS\MATTHEW MCCOMB\DOCUMENTS\GITHUB\POVRAY\WINDOWS\VS2015\BUILD\OPENEXR ILMBASE ILMTHREAD\WIN32\RELEASE\ILMTHREADPOOL.OBJ
C:\USERS\MATTHEW MCCOMB\DOCUMENTS\GITHUB\POVRAY\WINDOWS\VS2015\BUILD\OPENEXR ILMBASE ILMTHREAD\WIN32\RELEASE\ILMTHREADMUTEXWIN32.OBJ
C:\USERS\MATTHEW MCCOMB\DOCUMENTS\GITHUB\POVRAY\WINDOWS\VS2015\BUILD\OPENEXR ILMBASE ILMTHREAD\WIN32\RELEASE\ILMTHREADMUTEXPOSIX.OBJ
C:\USERS\MATTHEW MCCOMB\DOCUMENTS\GITHUB\POVRAY\WINDOWS\VS2015\BUILD\OPENEXR ILMBASE ILMTHREAD\WIN32\RELEASE\ILMTHREADMUTEX.OBJ
C:\USERS\MATTHEW MCCOMB\DOCUMENTS\GITHUB\POVRAY\WINDOWS\VS2015\BUILD\OPENEXR ILMBASE ILMTHREAD\WIN32\RELEASE\ILMTHREAD.OBJ
^D:\POV-RAY\POV-RAY SOURCES\NORMAL\POVRAY\LIBRARIES\ILMBASE\ILMTHREAD\ILMTHREAD.CPP|D:\POV-RAY\POV-RAY SOURCES\NORMAL\POVRAY\LIBRARIES\ILMBASE\ILMTHREAD\ILMTHREADMUTEX.CPP|D:\POV-RAY\POV-RAY SOURCES\NORMAL\POVRAY\LIBRARIES\ILMBASE\ILMTHREAD\ILMTHREADMUTEXPOSIX.CPP|D:\POV-RAY\POV-RAY SOURCES\NORMAL\POVRAY\LIBRARIES\ILMBASE\ILMTHREAD\ILMTHREADMUTEXWIN32.CPP|D:\POV-RAY\POV-RAY SOURCES\NORMAL\POVRAY\LIBRARIES\ILMBASE\ILMTHREAD\ILMTHREADPOOL.CPP|D:\POV-RAY\POV-RAY SOURCES\NORMAL\POVRAY\LIBRARIES\ILMBASE\ILMTHREAD\ILMTHREADPOSIX.CPP|D:\POV-RAY\POV-RAY SOURCES\NORMAL\POVRAY\LIBRARIES\ILMBASE\ILMTHREAD\ILMTHREADSEMAPHORE.CPP|D:\POV-RAY\POV-RAY SOURCES\NORMAL\POVRAY\LIBRARIES\ILMBASE\ILMTHREAD\ILMTHREADSEMAPHOREPOSIX.CPP|D:\POV-RAY\POV-RAY SOURCES\NORMAL\POVRAY\LIBRARIES\ILMBASE\ILMTHREAD\ILMTHREADSEMAPHOREPOSIXCOMPAT.CPP|D:\POV-RAY\POV-RAY SOURCES\NORMAL\POVRAY\LIBRARIES\ILMBASE\ILMTHREAD\ILMTHREADSEMAPHOREWIN32.CPP|D:\POV-RAY\POV-RAY SOURCES\NORMAL\POVRAY\LIBRARIES\ILMBASE\ILMTHREAD\ILMTHREADWIN32.CPP
D:\POV-RAY\POV-RAY SOURCES\NORMAL\POVRAY\WINDOWS\VS2015\BUILD\OPENEXR ILMBASE ILMTHREAD\WIN32\RELEASE\OPENEXR ILMBASE ILMTHREAD.PDB
D:\POV-RAY\POV-RAY SOURCES\NORMAL\POVRAY\WINDOWS\VS2015\BUILD\OPENEXR ILMBASE ILMTHREAD\WIN32\RELEASE\ILMTHREAD.SBR
D:\POV-RAY\POV-RAY SOURCES\NORMAL\POVRAY\WINDOWS\VS2015\BUILD\OPENEXR ILMBASE ILMTHREAD\WIN32\RELEASE\ILMTHREADMUTEX.SBR
D:\POV-RAY\POV-RAY SOURCES\NORMAL\POVRAY\WINDOWS\VS2015\BUILD\OPENEXR ILMBASE ILMTHREAD\WIN32\RELEASE\ILMTHREADMUTEXPOSIX.SBR
D:\POV-RAY\POV-RAY SOURCES\NORMAL\POVRAY\WINDOWS\VS2015\BUILD\OPENEXR ILMBASE ILMTHREAD\WIN32\RELEASE\ILMTHREADMUTEXWIN32.SBR
D:\POV-RAY\POV-RAY SOURCES\NORMAL\POVRAY\WINDOWS\VS2015\BUILD\OPENEXR ILMBASE ILMTHREAD\WIN32\RELEASE\ILMTHREADPOOL.SBR
D:\POV-RAY\POV-RAY SOURCES\NORMAL\POVRAY\WINDOWS\VS2015\BUILD\OPENEXR ILMBASE ILMTHREAD\WIN32\RELEASE\ILMTHREADPOSIX.SBR
D:\POV-RAY\POV-RAY SOURCES\NORMAL\POVRAY\WINDOWS\VS2015\BUILD\OPENEXR ILMBASE ILMTHREAD\WIN32\RELEASE\ILMTHREADSEMAPHORE.SBR
D:\POV-RAY\POV-RAY SOURCES\NORMAL\POVRAY\WINDOWS\VS2015\BUILD\OPENEXR ILMBASE ILMTHREAD\WIN32\RELEASE\ILMTHREADSEMAPHOREPOSIX.SBR
D:\POV-RAY\POV-RAY SOURCES\NORMAL\POVRAY\WINDOWS\VS2015\BUILD\OPENEXR ILMBASE ILMTHREAD\WIN32\RELEASE\ILMTHREADSEMAPHOREPOSIXCOMPAT.SBR
D:\POV-RAY\POV-RAY SOURCES\NORMAL\POVRAY\WINDOWS\VS2015\BUILD\OPENEXR ILMBASE ILMTHREAD\WIN32\RELEASE\ILMTHREADSEMAPHOREWIN32.SBR
D:\POV-RAY\POV-RAY SOURCES\NORMAL\POVRAY\WINDOWS\VS2015\BUILD\OPENEXR ILMBASE ILMTHREAD\WIN32\RELEASE\ILMTHREADWIN32.SBR
D:\POV-RAY\POV-RAY SOURCES\NORMAL\POVRAY\WINDOWS\VS2015\BUILD\OPENEXR ILMBASE ILMTHREAD\WIN32\RELEASE\ILMTHREADWIN32.OBJ
D:\POV-RAY\POV-RAY SOURCES\NORMAL\POVRAY\WINDOWS\VS2015\BUILD\OPENEXR ILMBASE ILMTHREAD\WIN32\RELEASE\ILMTHREADSEMAPHOREWIN32.OBJ
D:\POV-RAY\POV-RAY SOURCES\NORMAL\POVRAY\WINDOWS\VS2015\BUILD\OPENEXR ILMBASE ILMTHREAD\WIN32\RELEASE\ILMTHREADSEMAPHOREPOSIXCOMPAT.OBJ
D:\POV-RAY\POV-RAY SOURCES\NORMAL\POVRAY\WINDOWS\VS2015\BUILD\OPENEXR ILMBASE ILMTHREAD\WIN32\RELEASE\ILMTHREADSEMAPHOREPOSIX.OBJ
D:\POV-RAY\POV-RAY SOURCES\NORMAL\POVRAY\WINDOWS\VS2015\BUILD\OPENEXR ILMBASE ILMTHREAD\WIN32\RELEASE\ILMTHREADSEMAPHORE.OBJ
D:\POV-RAY\POV-RAY SOURCES\NORMAL\POVRAY\WINDOWS\VS2015\BUILD\OPENEXR ILMBASE ILMTHREAD\WIN32\RELEASE\ILMTHREADPOSIX.OBJ
D:\POV-RAY\POV-RAY SOURCES\NORMAL\POVRAY\WINDOWS\VS2015\BUILD\OPENEXR ILMBASE ILMTHREAD\WIN32\RELEASE\ILMTHREADPOOL.OBJ
D:\POV-RAY\POV-RAY SOURCES\NORMAL\POVRAY\WINDOWS\VS2015\BUILD\OPENEXR ILMBASE ILMTHREAD\WIN32\RELEASE\ILMTHREADMUTEXWIN32.OBJ
D:\POV-RAY\POV-RAY SOURCES\NORMAL\POVRAY\WINDOWS\VS2015\BUILD\OPENEXR ILMBASE ILMTHREAD\WIN32\RELEASE\ILMTHREADMUTEXPOSIX.OBJ
D:\POV-RAY\POV-RAY SOURCES\NORMAL\POVRAY\WINDOWS\VS2015\BUILD\OPENEXR ILMBASE ILMTHREAD\WIN32\RELEASE\ILMTHREADMUTEX.OBJ
D:\POV-RAY\POV-RAY SOURCES\NORMAL\POVRAY\WINDOWS\VS2015\BUILD\OPENEXR ILMBASE ILMTHREAD\WIN32\RELEASE\ILMTHREAD.OBJ
^D:\POV-RAY\POV-RAY SOURCES\NORMAL\POVRAY\LIBRARIES\ILMBASE\ILMTHREAD\ILMTHREAD.CPP
D:\POV-RAY\POV-RAY SOURCES\NORMAL\POVRAY\WINDOWS\VS2015\BUILD\OPENEXR ILMBASE ILMTHREAD\WIN32\RELEASE\OPENEXR ILMBASE ILMTHREAD.PDB
^D:\POV-RAY\POV-RAY SOURCES\NORMAL\POVRAY\LIBRARIES\ILMBASE\ILMTHREAD\ILMTHREADMUTEX.CPP
D:\POV-RAY\POV-RAY SOURCES\NORMAL\POVRAY\WINDOWS\VS2015\BUILD\OPENEXR ILMBASE ILMTHREAD\WIN32\RELEASE\OPENEXR ILMBASE ILMTHREAD.PDB
^D:\POV-RAY\POV-RAY SOURCES\NORMAL\POVRAY\LIBRARIES\ILMBASE\ILMTHREAD\ILMTHREADMUTEXPOSIX.CPP
D:\POV-RAY\POV-RAY SOURCES\NORMAL\POVRAY\WINDOWS\VS2015\BUILD\OPENEXR ILMBASE ILMTHREAD\WIN32\RELEASE\OPENEXR ILMBASE ILMTHREAD.PDB
^D:\POV-RAY\POV-RAY SOURCES\NORMAL\POVRAY\LIBRARIES\ILMBASE\ILMTHREAD\ILMTHREADMUTEXWIN32.CPP
D:\POV-RAY\POV-RAY SOURCES\NORMAL\POVRAY\WINDOWS\VS2015\BUILD\OPENEXR ILMBASE ILMTHREAD\WIN32\RELEASE\OPENEXR ILMBASE ILMTHREAD.PDB
^D:\POV-RAY\POV-RAY SOURCES\NORMAL\POVRAY\LIBRARIES\ILMBASE\ILMTHREAD\ILMTHREADPOOL.CPP
D:\POV-RAY\POV-RAY SOURCES\NORMAL\POVRAY\WINDOWS\VS2015\BUILD\OPENEXR ILMBASE ILMTHREAD\WIN32\RELEASE\OPENEXR ILMBASE ILMTHREAD.PDB
^D:\POV-RAY\POV-RAY SOURCES\NORMAL\POVRAY\LIBRARIES\ILMBASE\ILMTHREAD\ILMTHREADPOSIX.CPP
D:\POV-RAY\POV-RAY SOURCES\NORMAL\POVRAY\WINDOWS\VS2015\BUILD\OPENEXR ILMBASE ILMTHREAD\WIN32\RELEASE\OPENEXR ILMBASE ILMTHREAD.PDB
^D:\POV-RAY\POV-RAY SOURCES\NORMAL\POVRAY\LIBRARIES\ILMBASE\ILMTHREAD\ILMTHREADSEMAPHORE.CPP
D:\POV-RAY\POV-RAY SOURCES\NORMAL\POVRAY\WINDOWS\VS2015\BUILD\OPENEXR ILMBASE ILMTHREAD\WIN32\RELEASE\OPENEXR ILMBASE ILMTHREAD.PDB
^D:\POV-RAY\POV-RAY SOURCES\NORMAL\POVRAY\LIBRARIES\ILMBASE\ILMTHREAD\ILMTHREADSEMAPHOREPOSIX.CPP
D:\POV-RAY\POV-RAY SOURCES\NORMAL\POVRAY\WINDOWS\VS2015\BUILD\OPENEXR ILMBASE ILMTHREAD\WIN32\RELEASE\OPENEXR ILMBASE ILMTHREAD.PDB
^D:\POV-RAY\POV-RAY SOURCES\NORMAL\POVRAY\LIBRARIES\ILMBASE\ILMTHREAD\ILMTHREADSEMAPHOREPOSIXCOMPAT.CPP
D:\POV-RAY\POV-RAY SOURCES\NORMAL\POVRAY\WINDOWS\VS2015\BUILD\OPENEXR ILMBASE ILMTHREAD\WIN32\RELEASE\OPENEXR ILMBASE ILMTHREAD.PDB
^D:\POV-RAY\POV-RAY SOURCES\NORMAL\POVRAY\LIBRARIES\ILMBASE\ILMTHREAD\ILMTHREADSEMAPHOREWIN32.CPP
D:\POV-RAY\POV-RAY SOURCES\NORMAL\POVRAY\WINDOWS\VS2015\BUILD\OPENEXR ILMBASE ILMTHREAD\WIN32\RELEASE\OPENEXR ILMBASE ILMTHREAD.PDB
^D:\POV-RAY\POV-RAY SOURCES\NORMAL\POVRAY\LIBRARIES\ILMBASE\ILMTHREAD\ILMTHREADWIN32.CPP
D:\POV-RAY\POV-RAY SOURCES\NORMAL\POVRAY\WINDOWS\VS2015\BUILD\OPENEXR ILMBASE ILMTHREAD\WIN32\RELEASE\OPENEXR ILMBASE ILMTHREAD.PDB
