^C:\USERS\MATTHEW MCCOMB\DOCUMENTS\GITHUB\POVRAY\WINDOWS\VS2015\BUILD\VFEWIN\WIN32\RELEASE\VFE.OBJ|C:\USERS\MATTHEW MCCOMB\DOCUMENTS\GITHUB\POVRAY\WINDOWS\VS2015\BUILD\VFEWIN\WIN32\RELEASE\VFECONTROL.OBJ|C:\USERS\MATTHEW MCCOMB\DOCUMENTS\GITHUB\POVRAY\WINDOWS\VS2015\BUILD\VFEWIN\WIN32\RELEASE\VFEDISPLAY.OBJ|C:\USERS\MATTHEW MCCOMB\DOCUMENTS\GITHUB\POVRAY\WINDOWS\VS2015\BUILD\VFEWIN\WIN32\RELEASE\VFEPLATFORM.OBJ|C:\USERS\MATTHEW MCCOMB\DOCUMENTS\GITHUB\POVRAY\WINDOWS\VS2015\BUILD\VFEWIN\WIN32\RELEASE\VFEPOVMS.OBJ|C:\USERS\MATTHEW MCCOMB\DOCUMENTS\GITHUB\POVRAY\WINDOWS\VS2015\BUILD\VFEWIN\WIN32\RELEASE\VFEPRECOMP.OBJ|C:\USERS\MATTHEW MCCOMB\DOCUMENTS\GITHUB\POVRAY\WINDOWS\VS2015\BUILD\VFEWIN\WIN32\RELEASE\VFESESSION.OBJ
C:\USERS\MATTHEW MCCOMB\DOCUMENTS\GITHUB\POVRAY\WINDOWS\VS2015\BIN32\LIB\VFE32.LIB
^D:\POV-RAY\POV-RAY SOURCES\NORMAL MINUS\POVRAY\WINDOWS\VS2015\BUILD\VFEWIN\WIN32\RELEASE\VFE.OBJ|D:\POV-RAY\POV-RAY SOURCES\NORMAL MINUS\POVRAY\WINDOWS\VS2015\BUILD\VFEWIN\WIN32\RELEASE\VFECONTROL.OBJ|D:\POV-RAY\POV-RAY SOURCES\NORMAL MINUS\POVRAY\WINDOWS\VS2015\BUILD\VFEWIN\WIN32\RELEASE\VFEDISPLAY.OBJ|D:\POV-RAY\POV-RAY SOURCES\NORMAL MINUS\POVRAY\WINDOWS\VS2015\BUILD\VFEWIN\WIN32\RELEASE\VFEPLATFORM.OBJ|D:\POV-RAY\POV-RAY SOURCES\NORMAL MINUS\POVRAY\WINDOWS\VS2015\BUILD\VFEWIN\WIN32\RELEASE\VFEPOVMS.OBJ|D:\POV-RAY\POV-RAY SOURCES\NORMAL MINUS\POVRAY\WINDOWS\VS2015\BUILD\VFEWIN\WIN32\RELEASE\VFEPRECOMP.OBJ|D:\POV-RAY\POV-RAY SOURCES\NORMAL MINUS\POVRAY\WINDOWS\VS2015\BUILD\VFEWIN\WIN32\RELEASE\VFESESSION.OBJ
D:\POV-RAY\POV-RAY SOURCES\NORMAL MINUS\POVRAY\WINDOWS\VS2015\BIN32\LIB\VFE32.LIB
