^C:\USERS\MATTHEW MCCOMB\DOCUMENTS\GITHUB\POVRAY\SOURCE\VM\PRECOMP.CPP
/c /I..\..\INTERNAL\WINDOWS /I..\..\PLATFORM\X86 /I..\..\PLATFORM\WINDOWS /I..\..\WINDOWS\POVCONFIG /I..\..\LIBRARIES\BOOST /I..\..\VFE\WIN\ /I..\..\VFE\ /I..\..\SOURCE /Zi /nologo /W3 /WX- /Ox /Ob2 /Oi /Ot /Oy- /GL /D BOOST_ALL_NO_LIB /D NDEBUG /D WIN32 /D WIN32_LEAN_AND_MEAN /D _WINDOWS /D COMMONCTRL_VERSION=0x500 /D CLASSLIB_DEFS_H /D WINVER=0x0500 /D _WIN32_WINNT=0x0500 /D NOMINMAX /D ISOLATION_AWARE_ENABLED /D _CRT_SECURE_NO_DEPRECATE /D _SECURE_SCL=0 /GF /Gm- /EHsc /MT /GS- /fp:precise /fp:except- /Zc:wchar_t /Zc:forScope /Zc:inline /GR /Yc"precomp.h" /Fp"BUILD\POVVM\WIN32\RELEASE\PRECOMP.PCH" /Fo"BUILD\POVVM\WIN32\RELEASE\\" /Fd"BUILD\POVVM\WIN32\RELEASE\POVVM.PDB" /FR"build\povvm\Win32\Release\\" /Gd /TP /wd4800 /wd4355 /FIPRECOMP.H /analyze- C:\USERS\MATTHEW MCCOMB\DOCUMENTS\GITHUB\POVRAY\SOURCE\VM\PRECOMP.CPP
^C:\USERS\MATTHEW MCCOMB\DOCUMENTS\GITHUB\POVRAY\SOURCE\VM\FNINTERN.CPP
/c /I..\..\INTERNAL\WINDOWS /I..\..\PLATFORM\X86 /I..\..\PLATFORM\WINDOWS /I..\..\WINDOWS\POVCONFIG /I..\..\LIBRARIES\BOOST /I..\..\VFE\WIN\ /I..\..\VFE\ /I..\..\SOURCE /Zi /nologo /W3 /WX- /Ox /Ob2 /Oi /Ot /Oy- /GL /D BOOST_ALL_NO_LIB /D NDEBUG /D WIN32 /D WIN32_LEAN_AND_MEAN /D _WINDOWS /D COMMONCTRL_VERSION=0x500 /D CLASSLIB_DEFS_H /D WINVER=0x0500 /D _WIN32_WINNT=0x0500 /D NOMINMAX /D ISOLATION_AWARE_ENABLED /D _CRT_SECURE_NO_DEPRECATE /D _SECURE_SCL=0 /GF /Gm- /EHsc /MT /GS- /fp:precise /fp:except- /Zc:wchar_t /Zc:forScope /Zc:inline /GR /Yu"precomp.h" /Fp"BUILD\POVVM\WIN32\RELEASE\PRECOMP.PCH" /Fo"BUILD\POVVM\WIN32\RELEASE\\" /Fd"BUILD\POVVM\WIN32\RELEASE\POVVM.PDB" /FR"build\povvm\Win32\Release\\" /Gd /TP /wd4800 /wd4355 /FIPRECOMP.H /analyze- C:\USERS\MATTHEW MCCOMB\DOCUMENTS\GITHUB\POVRAY\SOURCE\VM\FNINTERN.CPP
^C:\USERS\MATTHEW MCCOMB\DOCUMENTS\GITHUB\POVRAY\SOURCE\VM\FNPOVFPU.CPP
/c /I..\..\INTERNAL\WINDOWS /I..\..\PLATFORM\X86 /I..\..\PLATFORM\WINDOWS /I..\..\WINDOWS\POVCONFIG /I..\..\LIBRARIES\BOOST /I..\..\VFE\WIN\ /I..\..\VFE\ /I..\..\SOURCE /Zi /nologo /W3 /WX- /Ox /Ob2 /Oi /Ot /Oy- /GL /D BOOST_ALL_NO_LIB /D NDEBUG /D WIN32 /D WIN32_LEAN_AND_MEAN /D _WINDOWS /D COMMONCTRL_VERSION=0x500 /D CLASSLIB_DEFS_H /D WINVER=0x0500 /D _WIN32_WINNT=0x0500 /D NOMINMAX /D ISOLATION_AWARE_ENABLED /D _CRT_SECURE_NO_DEPRECATE /D _SECURE_SCL=0 /GF /Gm- /EHsc /MT /GS- /fp:precise /fp:except- /Zc:wchar_t /Zc:forScope /Zc:inline /GR /Yu"precomp.h" /Fp"BUILD\POVVM\WIN32\RELEASE\PRECOMP.PCH" /Fo"BUILD\POVVM\WIN32\RELEASE\\" /Fd"BUILD\POVVM\WIN32\RELEASE\POVVM.PDB" /FR"build\povvm\Win32\Release\\" /Gd /TP /wd4800 /wd4355 /FIPRECOMP.H /analyze- C:\USERS\MATTHEW MCCOMB\DOCUMENTS\GITHUB\POVRAY\SOURCE\VM\FNPOVFPU.CPP
^D:\POV-RAY\POV-RAY SOURCES\NORMAL MINUS\POVRAY\SOURCE\VM\PRECOMP.CPP
/c /I..\..\INTERNAL\WINDOWS /I..\..\PLATFORM\X86 /I..\..\PLATFORM\WINDOWS /I..\..\WINDOWS\POVCONFIG /I..\..\LIBRARIES\BOOST /I..\..\VFE\WIN\ /I..\..\VFE\ /I..\..\SOURCE /Zi /nologo /W3 /WX- /Ox /Ob2 /Oi /Ot /Oy- /GL /D BOOST_ALL_NO_LIB /D NDEBUG /D WIN32 /D WIN32_LEAN_AND_MEAN /D _WINDOWS /D COMMONCTRL_VERSION=0x500 /D CLASSLIB_DEFS_H /D WINVER=0x0500 /D _WIN32_WINNT=0x0500 /D NOMINMAX /D ISOLATION_AWARE_ENABLED /D _CRT_SECURE_NO_DEPRECATE /D _SECURE_SCL=0 /GF /Gm- /EHsc /MT /GS- /fp:precise /fp:except- /Zc:wchar_t /Zc:forScope /Zc:inline /GR /Yc"precomp.h" /Fp"BUILD\POVVM\WIN32\RELEASE\PRECOMP.PCH" /Fo"BUILD\POVVM\WIN32\RELEASE\\" /Fd"BUILD\POVVM\WIN32\RELEASE\POVVM.PDB" /FR"build\povvm\Win32\Release\\" /Gd /TP /wd4800 /wd4355 /FIPRECOMP.H /analyze- D:\POV-RAY\POV-RAY SOURCES\NORMAL MINUS\POVRAY\SOURCE\VM\PRECOMP.CPP
^D:\POV-RAY\POV-RAY SOURCES\NORMAL MINUS\POVRAY\SOURCE\VM\FNINTERN.CPP
/c /I..\..\INTERNAL\WINDOWS /I..\..\PLATFORM\X86 /I..\..\PLATFORM\WINDOWS /I..\..\WINDOWS\POVCONFIG /I..\..\LIBRARIES\BOOST /I..\..\VFE\WIN\ /I..\..\VFE\ /I..\..\SOURCE /Zi /nologo /W3 /WX- /Ox /Ob2 /Oi /Ot /Oy- /GL /D BOOST_ALL_NO_LIB /D NDEBUG /D WIN32 /D WIN32_LEAN_AND_MEAN /D _WINDOWS /D COMMONCTRL_VERSION=0x500 /D CLASSLIB_DEFS_H /D WINVER=0x0500 /D _WIN32_WINNT=0x0500 /D NOMINMAX /D ISOLATION_AWARE_ENABLED /D _CRT_SECURE_NO_DEPRECATE /D _SECURE_SCL=0 /GF /Gm- /EHsc /MT /GS- /fp:precise /fp:except- /Zc:wchar_t /Zc:forScope /Zc:inline /GR /Yu"precomp.h" /Fp"BUILD\POVVM\WIN32\RELEASE\PRECOMP.PCH" /Fo"BUILD\POVVM\WIN32\RELEASE\\" /Fd"BUILD\POVVM\WIN32\RELEASE\POVVM.PDB" /FR"build\povvm\Win32\Release\\" /Gd /TP /wd4800 /wd4355 /FIPRECOMP.H /analyze- D:\POV-RAY\POV-RAY SOURCES\NORMAL MINUS\POVRAY\SOURCE\VM\FNINTERN.CPP
^D:\POV-RAY\POV-RAY SOURCES\NORMAL MINUS\POVRAY\SOURCE\VM\FNPOVFPU.CPP
/c /I..\..\INTERNAL\WINDOWS /I..\..\PLATFORM\X86 /I..\..\PLATFORM\WINDOWS /I..\..\WINDOWS\POVCONFIG /I..\..\LIBRARIES\BOOST /I..\..\VFE\WIN\ /I..\..\VFE\ /I..\..\SOURCE /Zi /nologo /W3 /WX- /Ox /Ob2 /Oi /Ot /Oy- /GL /D BOOST_ALL_NO_LIB /D NDEBUG /D WIN32 /D WIN32_LEAN_AND_MEAN /D _WINDOWS /D COMMONCTRL_VERSION=0x500 /D CLASSLIB_DEFS_H /D WINVER=0x0500 /D _WIN32_WINNT=0x0500 /D NOMINMAX /D ISOLATION_AWARE_ENABLED /D _CRT_SECURE_NO_DEPRECATE /D _SECURE_SCL=0 /GF /Gm- /EHsc /MT /GS- /fp:precise /fp:except- /Zc:wchar_t /Zc:forScope /Zc:inline /GR /Yu"precomp.h" /Fp"BUILD\POVVM\WIN32\RELEASE\PRECOMP.PCH" /Fo"BUILD\POVVM\WIN32\RELEASE\\" /Fd"BUILD\POVVM\WIN32\RELEASE\POVVM.PDB" /FR"build\povvm\Win32\Release\\" /Gd /TP /wd4800 /wd4355 /FIPRECOMP.H /analyze- D:\POV-RAY\POV-RAY SOURCES\NORMAL MINUS\POVRAY\SOURCE\VM\FNPOVFPU.CPP
