^D:\POV-RAY\POV-RAY SOURCES\FLOAT\POVRAYFLOAT\WINDOWS\VS2015\BUILD\POVPLATFORM\WIN32\RELEASE\AVX2FMA3NOISE.SBR|D:\POV-RAY\POV-RAY SOURCES\FLOAT\POVRAYFLOAT\WINDOWS\VS2015\BUILD\POVPLATFORM\WIN32\RELEASE\AVXFMA4NOISE.SBR|D:\POV-RAY\POV-RAY SOURCES\FLOAT\POVRAYFLOAT\WINDOWS\VS2015\BUILD\POVPLATFORM\WIN32\RELEASE\AVXNOISE.SBR|D:\POV-RAY\POV-RAY SOURCES\FLOAT\POVRAYFLOAT\WINDOWS\VS2015\BUILD\POVPLATFORM\WIN32\RELEASE\AVXPORTABLENOISE.SBR|D:\POV-RAY\POV-RAY SOURCES\FLOAT\POVRAYFLOAT\WINDOWS\VS2015\BUILD\POVPLATFORM\WIN32\RELEASE\CPUID.SBR|D:\POV-RAY\POV-RAY SOURCES\FLOAT\POVRAYFLOAT\WINDOWS\VS2015\BUILD\POVPLATFORM\WIN32\RELEASE\OPTIMIZEDNOISE.SBR|D:\POV-RAY\POV-RAY SOURCES\FLOAT\POVRAYFLOAT\WINDOWS\VS2015\BUILD\POVPLATFORM\WIN32\RELEASE\OSVERSIONINFO.SBR|D:\POV-RAY\POV-RAY SOURCES\FLOAT\POVRAYFLOAT\WINDOWS\VS2015\BUILD\POVPLATFORM\WIN32\RELEASE\SYSPOVPATH.SBR|D:\POV-RAY\POV-RAY SOURCES\FLOAT\POVRAYFLOAT\WINDOWS\VS2015\BUILD\POVPLATFORM\WIN32\RELEASE\SYSPOVTASK.SBR|D:\POV-RAY\POV-RAY SOURCES\FLOAT\POVRAYFLOAT\WINDOWS\VS2015\BUILD\POVPLATFORM\WIN32\RELEASE\SYSPOVTIMER.SBR
C:\WINDOWS\SYSTEM32\TZRES.DLL
D:\POV-RAY\POV-RAY SOURCES\FLOAT\POVRAYFLOAT\WINDOWS\VS2015\BIN32\LIB\POVPLATFORM32.BSC
D:\POV-RAY\POV-RAY SOURCES\FLOAT\POVRAYFLOAT\WINDOWS\VS2015\BUILD\POVPLATFORM\WIN32\RELEASE\OSVERSIONINFO.SBR
D:\POV-RAY\POV-RAY SOURCES\FLOAT\POVRAYFLOAT\WINDOWS\VS2015\BUILD\POVPLATFORM\WIN32\RELEASE\SYSPOVPATH.SBR
D:\POV-RAY\POV-RAY SOURCES\FLOAT\POVRAYFLOAT\WINDOWS\VS2015\BUILD\POVPLATFORM\WIN32\RELEASE\SYSPOVTASK.SBR
D:\POV-RAY\POV-RAY SOURCES\FLOAT\POVRAYFLOAT\WINDOWS\VS2015\BUILD\POVPLATFORM\WIN32\RELEASE\SYSPOVTIMER.SBR
D:\POV-RAY\POV-RAY SOURCES\FLOAT\POVRAYFLOAT\WINDOWS\VS2015\BUILD\POVPLATFORM\WIN32\RELEASE\AVX2FMA3NOISE.SBR
D:\POV-RAY\POV-RAY SOURCES\FLOAT\POVRAYFLOAT\WINDOWS\VS2015\BUILD\POVPLATFORM\WIN32\RELEASE\AVXFMA4NOISE.SBR
D:\POV-RAY\POV-RAY SOURCES\FLOAT\POVRAYFLOAT\WINDOWS\VS2015\BUILD\POVPLATFORM\WIN32\RELEASE\AVXNOISE.SBR
D:\POV-RAY\POV-RAY SOURCES\FLOAT\POVRAYFLOAT\WINDOWS\VS2015\BUILD\POVPLATFORM\WIN32\RELEASE\AVXPORTABLENOISE.SBR
D:\POV-RAY\POV-RAY SOURCES\FLOAT\POVRAYFLOAT\WINDOWS\VS2015\BUILD\POVPLATFORM\WIN32\RELEASE\CPUID.SBR
D:\POV-RAY\POV-RAY SOURCES\FLOAT\POVRAYFLOAT\WINDOWS\VS2015\BUILD\POVPLATFORM\WIN32\RELEASE\OPTIMIZEDNOISE.SBR
