c:\users\matthew mccomb\documents\github\povray\windows\vs2015\bin32\lib\iex32d.bsc
c:\users\matthew mccomb\documents\github\povray\windows\vs2015\build\openexr ilmbase iex\win32\debug\openexr ilmbase iex.pdb
c:\users\matthew mccomb\documents\github\povray\windows\vs2015\build\openexr ilmbase iex\win32\debug\openexr ilmbase iex.idb
c:\users\matthew mccomb\documents\github\povray\windows\vs2015\build\openexr ilmbase iex\win32\debug\iexthrowerrnoexc.sbr
c:\users\matthew mccomb\documents\github\povray\windows\vs2015\build\openexr ilmbase iex\win32\debug\iexbaseexc.sbr
c:\users\matthew mccomb\documents\github\povray\windows\vs2015\build\openexr ilmbase iex\win32\debug\iexbaseexc.obj
c:\users\matthew mccomb\documents\github\povray\windows\vs2015\build\openexr ilmbase iex\win32\debug\iexthrowerrnoexc.obj
c:\users\matthew mccomb\documents\github\povray\windows\vs2015\bin32\lib\iex32d.lib
c:\users\matthew mccomb\documents\github\povray\windows\vs2015\build\openexr ilmbase iex\win32\debug\openexr .c46b9a53.tlog\bscmake.command.1.tlog
c:\users\matthew mccomb\documents\github\povray\windows\vs2015\build\openexr ilmbase iex\win32\debug\openexr .c46b9a53.tlog\bscmake.read.1.tlog
c:\users\matthew mccomb\documents\github\povray\windows\vs2015\build\openexr ilmbase iex\win32\debug\openexr .c46b9a53.tlog\bscmake.write.1.tlog
c:\users\matthew mccomb\documents\github\povray\windows\vs2015\build\openexr ilmbase iex\win32\debug\openexr .c46b9a53.tlog\cl.command.1.tlog
c:\users\matthew mccomb\documents\github\povray\windows\vs2015\build\openexr ilmbase iex\win32\debug\openexr .c46b9a53.tlog\cl.read.1.tlog
c:\users\matthew mccomb\documents\github\povray\windows\vs2015\build\openexr ilmbase iex\win32\debug\openexr .c46b9a53.tlog\cl.write.1.tlog
c:\users\matthew mccomb\documents\github\povray\windows\vs2015\build\openexr ilmbase iex\win32\debug\openexr .c46b9a53.tlog\lib-link.read.1.tlog
c:\users\matthew mccomb\documents\github\povray\windows\vs2015\build\openexr ilmbase iex\win32\debug\openexr .c46b9a53.tlog\lib-link.write.1.tlog
c:\users\matthew mccomb\documents\github\povray\windows\vs2015\build\openexr ilmbase iex\win32\debug\openexr .c46b9a53.tlog\lib.command.1.tlog
