^C:\USERS\MATTHEW MCCOMB\DOCUMENTS\GITHUB\POVRAY\WINDOWS\VS10\BUILD\POVFRONTEND\WIN32\DEBUG\ANIMATIONPROCESSING.OBJ|C:\USERS\MATTHEW MCCOMB\DOCUMENTS\GITHUB\POVRAY\WINDOWS\VS10\BUILD\POVFRONTEND\WIN32\DEBUG\CONSOLE.OBJ|C:\USERS\MATTHEW MCCOMB\DOCUMENTS\GITHUB\POVRAY\WINDOWS\VS10\BUILD\POVFRONTEND\WIN32\DEBUG\DEFAULTPLATFORMBASE.OBJ|C:\USERS\MATTHEW MCCOMB\DOCUMENTS\GITHUB\POVRAY\WINDOWS\VS10\BUILD\POVFRONTEND\WIN32\DEBUG\DISPLAY.OBJ|C:\USERS\MATTHEW MCCOMB\DOCUMENTS\GITHUB\POVRAY\WINDOWS\VS10\BUILD\POVFRONTEND\WIN32\DEBUG\FILEMESSAGEHANDLER.OBJ|C:\USERS\MATTHEW MCCOMB\DOCUMENTS\GITHUB\POVRAY\WINDOWS\VS10\BUILD\POVFRONTEND\WIN32\DEBUG\IMAGEMESSAGEHANDLER.OBJ|C:\USERS\MATTHEW MCCOMB\DOCUMENTS\GITHUB\POVRAY\WINDOWS\VS10\BUILD\POVFRONTEND\WIN32\DEBUG\IMAGEPROCESSING.OBJ|C:\USERS\MATTHEW MCCOMB\DOCUMENTS\GITHUB\POVRAY\WINDOWS\VS10\BUILD\POVFRONTEND\WIN32\DEBUG\PARSERMESSAGEHANDLER.OBJ|C:\USERS\MATTHEW MCCOMB\DOCUMENTS\GITHUB\POVRAY\WINDOWS\VS10\BUILD\POVFRONTEND\WIN32\DEBUG\PRECOMP.OBJ|C:\USERS\MATTHEW MCCOMB\DOCUMENTS\GITHUB\POVRAY\WINDOWS\VS10\BUILD\POVFRONTEND\WIN32\DEBUG\PROCESSRENDEROPTIONS.OBJ|C:\USERS\MATTHEW MCCOMB\DOCUMENTS\GITHUB\POVRAY\WINDOWS\VS10\BUILD\POVFRONTEND\WIN32\DEBUG\RENDERFRONTEND.OBJ|C:\USERS\MATTHEW MCCOMB\DOCUMENTS\GITHUB\POVRAY\WINDOWS\VS10\BUILD\POVFRONTEND\WIN32\DEBUG\RENDERMESSAGEHANDLER.OBJ|C:\USERS\MATTHEW MCCOMB\DOCUMENTS\GITHUB\POVRAY\WINDOWS\VS10\BUILD\POVFRONTEND\WIN32\DEBUG\SHELLOUTPROCESSING.OBJ
C:\USERS\MATTHEW MCCOMB\DOCUMENTS\GITHUB\POVRAY\WINDOWS\VS10\BUILD\POVFRONTEND\WIN32\DEBUG\ANIMATIONPROCESSING.OBJ
C:\WINDOWS\SYSTEM32\TZRES.DLL
C:\USERS\MATTHEW MCCOMB\DOCUMENTS\GITHUB\POVRAY\WINDOWS\VS10\BUILD\POVFRONTEND\WIN32\DEBUG\CONSOLE.OBJ
C:\USERS\MATTHEW MCCOMB\DOCUMENTS\GITHUB\POVRAY\WINDOWS\VS10\BUILD\POVFRONTEND\WIN32\DEBUG\DEFAULTPLATFORMBASE.OBJ
C:\USERS\MATTHEW MCCOMB\DOCUMENTS\GITHUB\POVRAY\WINDOWS\VS10\BUILD\POVFRONTEND\WIN32\DEBUG\DISPLAY.OBJ
C:\USERS\MATTHEW MCCOMB\DOCUMENTS\GITHUB\POVRAY\WINDOWS\VS10\BUILD\POVFRONTEND\WIN32\DEBUG\FILEMESSAGEHANDLER.OBJ
C:\USERS\MATTHEW MCCOMB\DOCUMENTS\GITHUB\POVRAY\WINDOWS\VS10\BUILD\POVFRONTEND\WIN32\DEBUG\IMAGEMESSAGEHANDLER.OBJ
C:\USERS\MATTHEW MCCOMB\DOCUMENTS\GITHUB\POVRAY\WINDOWS\VS10\BUILD\POVFRONTEND\WIN32\DEBUG\IMAGEPROCESSING.OBJ
C:\USERS\MATTHEW MCCOMB\DOCUMENTS\GITHUB\POVRAY\WINDOWS\VS10\BUILD\POVFRONTEND\WIN32\DEBUG\PARSERMESSAGEHANDLER.OBJ
C:\USERS\MATTHEW MCCOMB\DOCUMENTS\GITHUB\POVRAY\WINDOWS\VS10\BUILD\POVFRONTEND\WIN32\DEBUG\PROCESSRENDEROPTIONS.OBJ
C:\USERS\MATTHEW MCCOMB\DOCUMENTS\GITHUB\POVRAY\WINDOWS\VS10\BUILD\POVFRONTEND\WIN32\DEBUG\RENDERFRONTEND.OBJ
C:\USERS\MATTHEW MCCOMB\DOCUMENTS\GITHUB\POVRAY\WINDOWS\VS10\BUILD\POVFRONTEND\WIN32\DEBUG\RENDERMESSAGEHANDLER.OBJ
C:\USERS\MATTHEW MCCOMB\DOCUMENTS\GITHUB\POVRAY\WINDOWS\VS10\BUILD\POVFRONTEND\WIN32\DEBUG\SHELLOUTPROCESSING.OBJ
C:\USERS\MATTHEW MCCOMB\DOCUMENTS\GITHUB\POVRAY\WINDOWS\VS10\BUILD\POVFRONTEND\WIN32\DEBUG\PRECOMP.OBJ
C:\WINDOWS\GLOBALIZATION\SORTING\SORTDEFAULT.NLS
