^C:\USERS\MATTHEW MCCOMB\DOCUMENTS\GITHUB\POVRAY\LIBRARIES\ILMBASE\IEX\IEXBASEEXC.CPP
/c /I..\..\LIBRARIES\ILMBASE\IEX /I..\..\LIBRARIES\ILMBASE\CONFIG.WINDOWS /Zi /nologo /W2 /WX- /Ox /Ob2 /Oi /Ot /Oy- /GL /D WIN32 /D WIN32_LEAN_AND_MEAN /D NDEBUG /D _WINDOWS /D IEX_EXPORTS /D _MBCS /Gm- /EHsc /MT /GS /fp:precise /Zc:wchar_t /Zc:forScope /Zc:inline /GR /Fo"BUILD\OPENEXR ILMBASE IEX\WIN32\RELEASE\\" /Fd"BUILD\OPENEXR ILMBASE IEX\WIN32\RELEASE\OPENEXR ILMBASE IEX.PDB" /FR"build\OpenEXR IlmBase Iex\Win32\Release\\" /Gd /TP /analyze- C:\USERS\MATTHEW MCCOMB\DOCUMENTS\GITHUB\POVRAY\LIBRARIES\ILMBASE\IEX\IEXBASEEXC.CPP
^C:\USERS\MATTHEW MCCOMB\DOCUMENTS\GITHUB\POVRAY\LIBRARIES\ILMBASE\IEX\IEXTHROWERRNOEXC.CPP
/c /I..\..\LIBRARIES\ILMBASE\IEX /I..\..\LIBRARIES\ILMBASE\CONFIG.WINDOWS /Zi /nologo /W2 /WX- /Ox /Ob2 /Oi /Ot /Oy- /GL /D WIN32 /D WIN32_LEAN_AND_MEAN /D NDEBUG /D _WINDOWS /D IEX_EXPORTS /D _MBCS /Gm- /EHsc /MT /GS /fp:precise /Zc:wchar_t /Zc:forScope /Zc:inline /GR /Fo"BUILD\OPENEXR ILMBASE IEX\WIN32\RELEASE\\" /Fd"BUILD\OPENEXR ILMBASE IEX\WIN32\RELEASE\OPENEXR ILMBASE IEX.PDB" /FR"build\OpenEXR IlmBase Iex\Win32\Release\\" /Gd /TP /analyze- C:\USERS\MATTHEW MCCOMB\DOCUMENTS\GITHUB\POVRAY\LIBRARIES\ILMBASE\IEX\IEXTHROWERRNOEXC.CPP
^D:\POV-RAY\POV-RAY SOURCES\NORMAL PLUS\POVRAY\LIBRARIES\ILMBASE\IEX\IEXBASEEXC.CPP
/c /I..\..\LIBRARIES\ILMBASE\IEX /I..\..\LIBRARIES\ILMBASE\CONFIG.WINDOWS /Zi /nologo /W2 /WX- /Ox /Ob2 /Oi /Ot /Oy- /GL /D WIN32 /D WIN32_LEAN_AND_MEAN /D NDEBUG /D _WINDOWS /D IEX_EXPORTS /D _MBCS /Gm- /EHsc /MT /GS /fp:precise /Zc:wchar_t /Zc:forScope /Zc:inline /GR /Fo"BUILD\OPENEXR ILMBASE IEX\WIN32\RELEASE\\" /Fd"BUILD\OPENEXR ILMBASE IEX\WIN32\RELEASE\OPENEXR ILMBASE IEX.PDB" /FR"build\OpenEXR IlmBase Iex\Win32\Release\\" /Gd /TP /analyze- D:\POV-RAY\POV-RAY SOURCES\NORMAL PLUS\POVRAY\LIBRARIES\ILMBASE\IEX\IEXBASEEXC.CPP
^D:\POV-RAY\POV-RAY SOURCES\NORMAL PLUS\POVRAY\LIBRARIES\ILMBASE\IEX\IEXTHROWERRNOEXC.CPP
/c /I..\..\LIBRARIES\ILMBASE\IEX /I..\..\LIBRARIES\ILMBASE\CONFIG.WINDOWS /Zi /nologo /W2 /WX- /Ox /Ob2 /Oi /Ot /Oy- /GL /D WIN32 /D WIN32_LEAN_AND_MEAN /D NDEBUG /D _WINDOWS /D IEX_EXPORTS /D _MBCS /Gm- /EHsc /MT /GS /fp:precise /Zc:wchar_t /Zc:forScope /Zc:inline /GR /Fo"BUILD\OPENEXR ILMBASE IEX\WIN32\RELEASE\\" /Fd"BUILD\OPENEXR ILMBASE IEX\WIN32\RELEASE\OPENEXR ILMBASE IEX.PDB" /FR"build\OpenEXR IlmBase Iex\Win32\Release\\" /Gd /TP /analyze- D:\POV-RAY\POV-RAY SOURCES\NORMAL PLUS\POVRAY\LIBRARIES\ILMBASE\IEX\IEXTHROWERRNOEXC.CPP
