^C:\USERS\MATTHEW MCCOMB\DOCUMENTS\GITHUB\POVRAY\WINDOWS\VS2015\BUILD\OPENEXR ILMBASE HALF\WIN32\RELEASE\HALF.OBJ
C:\USERS\MATTHEW MCCOMB\DOCUMENTS\GITHUB\POVRAY\WINDOWS\VS2015\BIN32\LIB\HALF32.LIB
^D:\POV-RAY\POV-RAY SOURCES\NORMAL\POVRAY\WINDOWS\VS2015\BUILD\OPENEXR ILMBASE HALF\WIN32\RELEASE\HALF.OBJ
D:\POV-RAY\POV-RAY SOURCES\NORMAL\POVRAY\WINDOWS\VS2015\BIN32\LIB\HALF32.LIB
