^C:\USERS\MATTHEW MCCOMB\DOCUMENTS\GITHUB\POVRAY\WINDOWS\VS2015\BUILD\POVBACKEND\WIN32\RELEASE\BACKENDSCENEDATA.OBJ|C:\USERS\MATTHEW MCCOMB\DOCUMENTS\GITHUB\POVRAY\WINDOWS\VS2015\BUILD\POVBACKEND\WIN32\RELEASE\BENCHMARK.OBJ|C:\USERS\MATTHEW MCCOMB\DOCUMENTS\GITHUB\POVRAY\WINDOWS\VS2015\BUILD\POVBACKEND\WIN32\RELEASE\BENCHMARK_INI.OBJ|C:\USERS\MATTHEW MCCOMB\DOCUMENTS\GITHUB\POVRAY\WINDOWS\VS2015\BUILD\POVBACKEND\WIN32\RELEASE\BENCHMARK_POV.OBJ|C:\USERS\MATTHEW MCCOMB\DOCUMENTS\GITHUB\POVRAY\WINDOWS\VS2015\BUILD\POVBACKEND\WIN32\RELEASE\BOUNDINGTASK.OBJ|C:\USERS\MATTHEW MCCOMB\DOCUMENTS\GITHUB\POVRAY\WINDOWS\VS2015\BUILD\POVBACKEND\WIN32\RELEASE\MESSAGEFACTORY.OBJ|C:\USERS\MATTHEW MCCOMB\DOCUMENTS\GITHUB\POVRAY\WINDOWS\VS2015\BUILD\POVBACKEND\WIN32\RELEASE\PHOTONESTIMATIONTASK.OBJ|C:\USERS\MATTHEW MCCOMB\DOCUMENTS\GITHUB\POVRAY\WINDOWS\VS2015\BUILD\POVBACKEND\WIN32\RELEASE\PHOTONSHOOTINGSTRATEGY.OBJ|C:\USERS\MATTHEW MCCOMB\DOCUMENTS\GITHUB\POVRAY\WINDOWS\VS2015\BUILD\POVBACKEND\WIN32\RELEASE\PHOTONSHOOTINGTASK.OBJ|C:\USERS\MATTHEW MCCOMB\DOCUMENTS\GITHUB\POVRAY\WINDOWS\VS2015\BUILD\POVBACKEND\WIN32\RELEASE\PHOTONSORTINGTASK.OBJ|C:\USERS\MATTHEW MCCOMB\DOCUMENTS\GITHUB\POVRAY\WINDOWS\VS2015\BUILD\POVBACKEND\WIN32\RELEASE\PHOTONSTRATEGYTASK.OBJ|C:\USERS\MATTHEW MCCOMB\DOCUMENTS\GITHUB\POVRAY\WINDOWS\VS2015\BUILD\POVBACKEND\WIN32\RELEASE\POVRAY.OBJ|C:\USERS\MATTHEW MCCOMB\DOCUMENTS\GITHUB\POVRAY\WINDOWS\VS2015\BUILD\POVBACKEND\WIN32\RELEASE\PRECOMP.OBJ|C:\USERS\MATTHEW MCCOMB\DOCUMENTS\GITHUB\POVRAY\WINDOWS\VS2015\BUILD\POVBACKEND\WIN32\RELEASE\RADIOSITYTASK.OBJ|C:\USERS\MATTHEW MCCOMB\DOCUMENTS\GITHUB\POVRAY\WINDOWS\VS2015\BUILD\POVBACKEND\WIN32\RELEASE\RENDERBACKEND.OBJ|C:\USERS\MATTHEW MCCOMB\DOCUMENTS\GITHUB\POVRAY\WINDOWS\VS2015\BUILD\POVBACKEND\WIN32\RELEASE\RENDERTASK.OBJ|C:\USERS\MATTHEW MCCOMB\DOCUMENTS\GITHUB\POVRAY\WINDOWS\VS2015\BUILD\POVBACKEND\WIN32\RELEASE\SCENE.OBJ|C:\USERS\MATTHEW MCCOMB\DOCUMENTS\GITHUB\POVRAY\WINDOWS\VS2015\BUILD\POVBACKEND\WIN32\RELEASE\TASK.OBJ|C:\USERS\MATTHEW MCCOMB\DOCUMENTS\GITHUB\POVRAY\WINDOWS\VS2015\BUILD\POVBACKEND\WIN32\RELEASE\TASKQUEUE.OBJ|C:\USERS\MATTHEW MCCOMB\DOCUMENTS\GITHUB\POVRAY\WINDOWS\VS2015\BUILD\POVBACKEND\WIN32\RELEASE\TRACETASK.OBJ|C:\USERS\MATTHEW MCCOMB\DOCUMENTS\GITHUB\POVRAY\WINDOWS\VS2015\BUILD\POVBACKEND\WIN32\RELEASE\VIEW.OBJ|C:\USERS\MATTHEW MCCOMB\DOCUMENTS\GITHUB\POVRAY\WINDOWS\VS2015\BUILD\POVBACKEND\WIN32\RELEASE\VIEWTHREADDATA.OBJ
C:\USERS\MATTHEW MCCOMB\DOCUMENTS\GITHUB\POVRAY\WINDOWS\VS2015\BIN32\LIB\POVBACKEND32.LIB
^D:\POV-RAY\POV-RAY SOURCES\PLUSMINUS\POVRAY\WINDOWS\VS2015\BUILD\POVBACKEND\WIN32\RELEASE\BACKENDSCENEDATA.OBJ|D:\POV-RAY\POV-RAY SOURCES\PLUSMINUS\POVRAY\WINDOWS\VS2015\BUILD\POVBACKEND\WIN32\RELEASE\BENCHMARK.OBJ|D:\POV-RAY\POV-RAY SOURCES\PLUSMINUS\POVRAY\WINDOWS\VS2015\BUILD\POVBACKEND\WIN32\RELEASE\BENCHMARK_INI.OBJ|D:\POV-RAY\POV-RAY SOURCES\PLUSMINUS\POVRAY\WINDOWS\VS2015\BUILD\POVBACKEND\WIN32\RELEASE\BENCHMARK_POV.OBJ|D:\POV-RAY\POV-RAY SOURCES\PLUSMINUS\POVRAY\WINDOWS\VS2015\BUILD\POVBACKEND\WIN32\RELEASE\BOUNDINGTASK.OBJ|D:\POV-RAY\POV-RAY SOURCES\PLUSMINUS\POVRAY\WINDOWS\VS2015\BUILD\POVBACKEND\WIN32\RELEASE\MESSAGEFACTORY.OBJ|D:\POV-RAY\POV-RAY SOURCES\PLUSMINUS\POVRAY\WINDOWS\VS2015\BUILD\POVBACKEND\WIN32\RELEASE\PHOTONESTIMATIONTASK.OBJ|D:\POV-RAY\POV-RAY SOURCES\PLUSMINUS\POVRAY\WINDOWS\VS2015\BUILD\POVBACKEND\WIN32\RELEASE\PHOTONSHOOTINGSTRATEGY.OBJ|D:\POV-RAY\POV-RAY SOURCES\PLUSMINUS\POVRAY\WINDOWS\VS2015\BUILD\POVBACKEND\WIN32\RELEASE\PHOTONSHOOTINGTASK.OBJ|D:\POV-RAY\POV-RAY SOURCES\PLUSMINUS\POVRAY\WINDOWS\VS2015\BUILD\POVBACKEND\WIN32\RELEASE\PHOTONSORTINGTASK.OBJ|D:\POV-RAY\POV-RAY SOURCES\PLUSMINUS\POVRAY\WINDOWS\VS2015\BUILD\POVBACKEND\WIN32\RELEASE\PHOTONSTRATEGYTASK.OBJ|D:\POV-RAY\POV-RAY SOURCES\PLUSMINUS\POVRAY\WINDOWS\VS2015\BUILD\POVBACKEND\WIN32\RELEASE\POVRAY.OBJ|D:\POV-RAY\POV-RAY SOURCES\PLUSMINUS\POVRAY\WINDOWS\VS2015\BUILD\POVBACKEND\WIN32\RELEASE\PRECOMP.OBJ|D:\POV-RAY\POV-RAY SOURCES\PLUSMINUS\POVRAY\WINDOWS\VS2015\BUILD\POVBACKEND\WIN32\RELEASE\RADIOSITYTASK.OBJ|D:\POV-RAY\POV-RAY SOURCES\PLUSMINUS\POVRAY\WINDOWS\VS2015\BUILD\POVBACKEND\WIN32\RELEASE\RENDERBACKEND.OBJ|D:\POV-RAY\POV-RAY SOURCES\PLUSMINUS\POVRAY\WINDOWS\VS2015\BUILD\POVBACKEND\WIN32\RELEASE\RENDERTASK.OBJ|D:\POV-RAY\POV-RAY SOURCES\PLUSMINUS\POVRAY\WINDOWS\VS2015\BUILD\POVBACKEND\WIN32\RELEASE\SCENE.OBJ|D:\POV-RAY\POV-RAY SOURCES\PLUSMINUS\POVRAY\WINDOWS\VS2015\BUILD\POVBACKEND\WIN32\RELEASE\TASK.OBJ|D:\POV-RAY\POV-RAY SOURCES\PLUSMINUS\POVRAY\WINDOWS\VS2015\BUILD\POVBACKEND\WIN32\RELEASE\TASKQUEUE.OBJ|D:\POV-RAY\POV-RAY SOURCES\PLUSMINUS\POVRAY\WINDOWS\VS2015\BUILD\POVBACKEND\WIN32\RELEASE\TRACETASK.OBJ|D:\POV-RAY\POV-RAY SOURCES\PLUSMINUS\POVRAY\WINDOWS\VS2015\BUILD\POVBACKEND\WIN32\RELEASE\VIEW.OBJ|D:\POV-RAY\POV-RAY SOURCES\PLUSMINUS\POVRAY\WINDOWS\VS2015\BUILD\POVBACKEND\WIN32\RELEASE\VIEWTHREADDATA.OBJ
D:\POV-RAY\POV-RAY SOURCES\PLUSMINUS\POVRAY\WINDOWS\VS2015\BIN32\LIB\POVBACKEND32.LIB
